stroke1  57  18 B12
stroke1  57  19 I12
stroke1  56  19 I12
stroke1  56  20 I12
stroke1  57  20 I12
stroke1  58  21 I12
stroke1  59  21 I12
stroke1  61  20 I12
stroke1  62  20 I12
stroke1  63  19 I12
stroke1  64  19 I12
stroke1  65  18 I12
stroke1  65  17 I12
stroke1  65  16 I12
stroke1  66  15 I12
stroke1  65  14 I12
stroke1  65  13 I12
stroke1  64  12 I12
stroke1  63  12 I12
stroke1  63  12 I12
stroke1  62  12 I12
stroke1  61  11 I12
stroke1  60  12 I12
stroke1  59  12 I12
stroke1  58  13 I12
stroke1  56  15 I12
stroke1  56  16 I12
stroke1  55  18 I12
stroke1  54  20 I12
stroke1  53  22 I12
stroke1  53  24 I12
stroke1  53  27 I12
stroke1  52  30 I12
stroke1  53  33 I12
stroke1  53  37 I12
stroke1  54  40 I12
stroke1  55  43 I12
stroke1  56  46 I12
stroke1  57  49 I12
stroke1  58  51 I12
stroke1  59  53 I12
stroke1  59  55 I12
stroke1  60  56 I12
stroke1  60  57 I12
stroke1  60  58 I12
stroke1  61  59 I12
stroke1  60  60 I12
stroke1  59  61 I12
stroke1  58  61 I12
stroke1  57  62 I12
stroke1  56  62 I12
stroke1  55  62 I12
stroke1  53  61 I12
stroke1  51  61 I12
stroke1  50  61 I12
stroke1  49  61 I12
stroke1  48  61 I12
stroke1  47  61 I12
stroke1  46  62 I12
stroke1  46  63 I12
stroke1  46  64 I12
stroke1  47  65 I12
stroke1  48  66 I12
stroke1  49  67 I12
stroke1  50  68 I12
stroke1  52  69 I12
stroke1  53  70 I12
stroke1  55  71 I12
stroke1  58  72 I12
stroke1  60  72 I12
stroke1  62  72 I12
stroke1  65  73 I12
stroke1  67  73 I12
stroke1  69  72 I12
stroke1  71  72 I12
stroke1  74  71 I12
stroke1  76  70 I12
stroke1  78  69 I12
stroke1  80  68 I12
stroke1  82  66 I12
stroke1  84  64 I12
stroke1  85  62 I12
stroke1  87  59 I12
stroke1  88  56 I12
stroke1  89  54 I12
stroke1  90  51 I12
stroke1  90  48 I12
stroke1  91  45 I12
stroke1  92  43 I12
stroke1  92  40 I12
stroke1  93  37 I12
stroke1  93  34 I12
stroke1  93  31 I12
stroke1  93  29 I12
stroke1  94  26 I12
stroke1  94  23 I12
stroke1  94  21 I12
stroke1  94  19 I12
stroke1  94  17 I12
stroke1  93  15 I12
stroke1  93  13 I12
stroke1  93  12 I12
stroke1  92  10 I12
stroke1  92  9 I12
stroke1  91  9 I12
stroke1  90  8 I12
stroke1  89  8 I12
stroke1  88  8 I12
stroke1  86  8 I12
stroke1  85  8 I12
stroke1  84  9 I12
stroke1  82  10 I12
stroke1  81  11 I12
stroke1  81  12 I12
stroke1  80  13 I12
stroke1  80  14 I12
stroke1  80  16 I12
stroke1  80  17 I12
stroke1  81  18 I12
stroke1  82  20 I12
stroke1  83  21 I12
stroke1  84  22 I12
stroke1  85  22 I12
stroke1  87  23 I12
stroke1  89  23 I12
stroke1  91  23 I12
stroke1  93  22 I12
stroke1  95  22 I12
stroke1  97  21 I12
stroke1  99  20 I12
stroke1  101  19 I12
stroke1  103  17 I12
stroke1  105  16 I12
stroke1  106  15 I12
stroke1  107  13 I12
stroke1  108  12 I12
stroke1  109  11 I12
stroke1  110  10 I12
stroke1  111  9 I12
stroke1  112  8 I12
stroke1  113  7 I12
stroke1  114  7 I12
stroke1  114  6 I12
stroke1  115  7 I12
stroke1  116  8 I12
stroke1  116  9 I12
stroke1  116  11 I12
stroke1  116  12 I12
stroke1  116  14 I12
stroke1  116  17 I12
stroke1  115  19 I12
stroke1  115  23 I12
stroke1  115  26 I12
stroke1  115  29 I12
stroke1  114  33 I12
stroke1  114  36 I12
stroke1  114  40 I12
stroke1  113  43 I12
stroke1  113  46 I12
stroke1  113  48 I12
stroke1  112  51 I12
stroke1  112  53 I12
stroke1  112  54 I12
stroke1  112  56 I12
stroke1  112  57 I12
stroke1  112  58 I12
stroke1  112  59 I12
stroke1  111  59 I12
stroke1  111  58 I12
stroke1  110  58 I12
stroke2  135  45 B47
stroke2  134  45 I47
stroke2  135  46 I47
stroke2  135  47 I47
stroke2  136  49 I47
stroke2  137  50 I47
stroke2  138  52 I47
stroke2  140  53 I47
stroke2  141  54 I47
stroke2  142  56 I47
stroke2  143  56 I47
stroke2  144  57 I47
stroke2  146  58 I47
stroke2  147  58 I47
stroke2  148  58 I47
stroke2  149  58 I47
stroke2  150  58 I47
stroke2  151  58 I47
stroke2  152  58 I47
stroke2  152  57 I47
stroke2  153  56 I47
stroke2  154  55 I47
stroke2  154  53 I47
stroke2  155  52 I47
stroke2  155  50 I47
stroke2  155  49 I47
stroke2  156  47 I47
stroke2  156  45 I47
stroke2  156  42 I47
stroke2  156  40 I47
stroke2  156  38 I47
stroke2  155  35 I47
stroke2  155  33 I47
stroke2  155  30 I47
stroke2  155  28 I47
stroke2  155  25 I47
stroke2  155  23 I47
stroke2  155  20 I47
stroke2  155  18 I47
stroke2  155  16 I47
stroke2  155  14 I47
stroke2  155  12 I47
stroke2  155  10 I47
stroke2  155  8 I47
stroke2  155  7 I47
stroke2  154  6 I47
stroke2  154  5 I47
stroke2  154  4 I47
stroke2  154  3 I47
stroke2  154  2 I47
stroke2  154  1 I47
stroke2  155  1 I47
stroke2  154  0 I47
stroke2  154  1 I47
stroke3  196  53 B27
stroke3  195  53 I27
stroke3  194  53 I27
stroke3  193  53 I27
stroke3  191  53 I27
stroke3  190  53 I27
stroke3  189  53 I27
stroke3  187  53 I27
stroke3  186  53 I27
stroke3  185  54 I27
stroke3  184  55 I27
stroke3  184  56 I27
stroke3  183  57 I27
stroke3  183  58 I27
stroke3  182  60 I27
stroke3  183  61 I27
stroke3  183  63 I27
stroke3  183  64 I27
stroke3  184  65 I27
stroke3  185  66 I27
stroke3  186  68 I27
stroke3  187  68 I27
stroke3  188  69 I27
stroke3  189  69 I27
stroke3  190  69 I27
stroke3  191  69 I27
stroke3  192  69 I27
stroke3  194  68 I27
stroke3  195  67 I27
stroke3  196  66 I27
stroke3  197  64 I27
stroke3  197  62 I27
stroke3  198  59 I27
stroke3  199  56 I27
stroke3  199  53 I27
stroke3  199  50 I27
stroke3  199  46 I27
stroke3  199  43 I27
stroke3  199  39 I27
stroke3  199  36 I27
stroke3  199  32 I27
stroke3  199  29 I27
stroke3  199  25 I27
stroke3  200  22 I27
stroke3  200  19 I27
stroke3  200  17 I27
stroke3  200  14 I27
stroke3  200  12 I27
stroke3  200  10 I27
stroke3  201  9 I27
stroke3  201  8 I27
stroke3  201  7 I27
stroke3  202  6 I27
stroke3  203  6 I27
stroke3  204  6 I27
stroke3  205  7 I27
stroke3  206  7 I27
stroke3  207  7 I27
stroke3  209  8 I27
stroke3  211  8 I27
stroke3  212  8 I27
stroke3  214  8 I27
stroke3  216  9 I27
stroke3  218  9 I27
stroke3  220  8 I27
stroke3  221  8 I27
stroke3  223  8 I27
stroke3  224  8 I27
stroke3  225  8 I27
stroke3  226  8 I27
stroke3  227  8 I27
stroke3  228  8 I27
stroke3  228  9 I27
stroke3  228  10 I27
stroke3  229  12 I27
stroke3  229  14 I27
stroke3  229  16 I27
stroke3  229  20 I27
stroke3  230  23 I27
stroke3  230  28 I27
stroke3  229  33 I27
stroke3  229  38 I27
stroke3  229  43 I27
stroke3  228  49 I27
stroke3  228  55 I27
stroke3  227  61 I27
stroke3  227  67 I27
stroke3  226  73 I27
stroke3  226  78 I27
stroke3  225  83 I27
stroke3  225  86 I27
stroke3  225  89 I27
stroke3  224  91 I27
stroke3  224  93 I27
stroke3  224  94 I27
stroke3  224  95 I27
stroke3  224  96 I27
stroke3  223  96 I27
stroke3  223  95 I27
stroke3  223  94 I27
stroke3  222  93 I27
stroke4  262  62 B25
stroke4  261  62 I25
stroke4  260  62 I25
stroke4  258  62 I25
stroke4  257  62 I25
stroke4  256  62 I25
stroke4  255  63 I25
stroke4  253  63 I25
stroke4  252  63 I25
stroke4  251  63 I25
stroke4  251  64 I25
stroke4  250  65 I25
stroke4  249  66 I25
stroke4  249  67 I25
stroke4  249  68 I25
stroke4  249  69 I25
stroke4  250  70 I25
stroke4  251  71 I25
stroke4  252  72 I25
stroke4  254  72 I25
stroke4  255  72 I25
stroke4  257  72 I25
stroke4  259  71 I25
stroke4  261  71 I25
stroke4  263  70 I25
stroke4  264  69 I25
stroke4  265  68 I25
stroke4  266  66 I25
stroke4  267  63 I25
stroke4  268  60 I25
stroke4  268  57 I25
stroke4  268  54 I25
stroke4  268  51 I25
stroke4  268  48 I25
stroke4  268  44 I25
stroke4  267  41 I25
stroke4  267  38 I25
stroke4  267  35 I25
stroke4  267  32 I25
stroke4  267  29 I25
stroke4  267  27 I25
stroke4  267  25 I25
stroke4  267  23 I25
stroke4  267  22 I25
stroke4  267  21 I25
stroke4  268  21 I25
stroke4  268  22 I25
stroke4  268  23 I25
stroke4  269  25 I25
stroke4  269  27 I25
stroke4  270  29 I25
stroke4  271  31 I25
stroke4  272  32 I25
stroke4  273  34 I25
stroke4  275  36 I25
stroke4  276  37 I25
stroke4  277  38 I25
stroke4  279  39 I25
stroke4  280  40 I25
stroke4  282  41 I25
stroke4  283  41 I25
stroke4  285  41 I25
stroke4  286  41 I25
stroke4  288  40 I25
stroke4  289  40 I25
stroke4  290  39 I25
stroke4  291  38 I25
stroke4  292  36 I25
stroke4  293  35 I25
stroke4  293  33 I25
stroke4  293  32 I25
stroke4  293  30 I25
stroke4  293  28 I25
stroke4  293  26 I25
stroke4  292  25 I25
stroke4  292  24 I25
stroke4  291  23 I25
stroke4  291  22 I25
stroke4  291  21 I25
stroke4  290  21 I25
stroke4  289  22 I25
stroke4  289  23 I25
stroke4  288  24 I25
stroke4  288  26 I25
stroke4  287  28 I25
stroke4  287  30 I25
stroke4  287  33 I25
stroke4  287  36 I25
stroke4  287  40 I25
stroke4  287  44 I25
stroke4  286  48 I25
stroke4  286  52 I25
stroke4  286  56 I25
stroke4  286  60 I25
stroke4  286  63 I25
stroke4  285  66 I25
stroke4  285  68 I25
stroke4  285  70 I25
stroke4  284  72 I25
stroke4  284  73 I25
stroke4  284  74 I25
stroke4  284  75 I25
stroke4  284  74 I25
stroke4  284  73 I25
stroke4  285  72 I25
stroke5  324  39 B1
stroke5  323  40 I1
stroke5  323  39 I1
stroke5  323  37 I1
stroke5  323  36 I1
stroke5  323  34 I1
stroke5  324  33 I1
stroke5  324  31 I1
stroke5  324  29 I1
stroke5  324  27 I1
stroke5  324  26 I1
stroke5  324  25 I1
stroke5  324  24 I1
stroke5  324  23 I1
stroke5  324  22 I1
stroke5  324  23 I1
stroke5  324  24 I1
stroke5  324  25 I1
stroke5  324  27 I1
stroke5  324  29 I1
stroke5  324  32 I1
stroke5  324  35 I1
stroke5  324  39 I1
stroke5  324  42 I1
stroke5  324  46 I1
stroke5  324  49 I1
stroke5  324  52 I1
stroke5  323  54 I1
stroke5  323  56 I1
stroke5  322  58 I1
stroke5  322  59 I1
stroke5  321  60 I1
stroke5  320  60 I1
stroke5  319  60 I1
stroke5  318  61 I1
stroke5  317  60 I1
stroke5  316  60 I1
stroke5  315  60 I1
stroke5  314  60 I1
stroke5  313  60 I1
stroke5  314  61 I1
stroke5  315  62 I1
stroke5  316  63 I1
stroke5  318  64 I1
stroke5  319  66 I1
stroke5  321  67 I1
stroke5  324  68 I1
stroke5  326  68 I1
stroke5  328  69 I1
stroke5  331  69 I1
stroke5  333  69 I1
stroke5  335  69 I1
stroke5  337  69 I1
stroke5  339  68 I1
stroke5  341  68 I1
stroke5  343  67 I1
stroke5  344  66 I1
stroke5  346  64 I1
stroke5  347  63 I1
stroke5  347  61 I1
stroke5  348  59 I1
stroke5  349  56 I1
stroke5  349  54 I1
stroke5  349  51 I1
stroke5  349  48 I1
stroke5  350  45 I1
stroke5  350  42 I1
stroke5  350  39 I1
stroke5  350  36 I1
stroke5  350  34 I1
stroke5  350  31 I1
stroke5  350  29 I1
stroke5  350  27 I1
stroke5  350  25 I1
stroke5  350  23 I1
stroke5  350  21 I1
stroke5  350  20 I1
stroke5  350  19 I1
stroke5  350  18 I1
stroke5  350  17 I1
stroke5  349  18 I1
stroke5  349  19 I1
stroke5  348  20 I1
stroke6  345  89 B48
stroke6  345  90 I48
stroke6  344  90 I48
stroke6  344  91 I48
stroke6  344  92 I48
stroke6  343  92 I48
stroke6  343  93 I48
stroke6  343  94 I48
stroke6  342  94 I48
stroke6  341  95 I48
stroke6  340  96 I48
stroke6  339  98 I48
stroke6  338  99 I48
stroke6  335  100 I48
stroke6  333  101 I48
stroke6  330  102 I48
stroke6  327  103 I48
stroke6  323  103 I48
stroke6  320  103 I48
stroke6  316  102 I48
stroke6  313  101 I48
stroke6  310  101 I48
stroke6  308  100 I48
stroke6  306  100 I48
stroke6  305  100 I48
stroke6  304  100 I48
stroke6  304  101 I48
stroke6  304  102 I48
stroke6  305  103 I48
stroke6  306  105 I48
stroke6  308  107 I48
stroke6  310  109 I48
stroke6  312  111 I48
stroke6  315  113 I48
stroke6  317  115 I48
stroke6  320  116 I48
stroke6  323  117 I48
stroke6  326  118 I48
stroke6  329  118 I48
stroke6  332  117 I48
stroke6  334  116 I48
stroke6  337  115 I48
stroke6  339  113 I48
stroke6  340  111 I48
stroke6  342  110 I48
stroke6  343  108 I48
stroke6  344  107 I48
stroke6  345  105 I48
stroke6  346  104 I48
stroke6  346  103 I48
stroke6  346  101 I48
stroke6  347  100 I48
stroke6  347  99 I48
stroke6  347  98 I48
stroke7  400  54 B8
stroke7  399  53 I8
stroke7  398  52 I8
stroke7  396  51 I8
stroke7  394  50 I8
stroke7  392  49 I8
stroke7  390  48 I8
stroke7  388  47 I8
stroke7  386  47 I8
stroke7  384  47 I8
stroke7  382  47 I8
stroke7  381  47 I8
stroke7  380  48 I8
stroke7  379  48 I8
stroke7  379  50 I8
stroke7  379  51 I8
stroke7  379  52 I8
stroke7  379  53 I8
stroke7  380  54 I8
stroke7  381  55 I8
stroke7  383  55 I8
stroke7  384  56 I8
stroke7  386  55 I8
stroke7  388  55 I8
stroke7  391  54 I8
stroke7  393  53 I8
stroke7  395  51 I8
stroke7  397  49 I8
stroke7  399  47 I8
stroke7  400  45 I8
stroke7  402  43 I8
stroke7  402  40 I8
stroke7  403  37 I8
stroke7  404  34 I8
stroke7  404  31 I8
stroke7  404  27 I8
stroke7  404  24 I8
stroke7  403  21 I8
stroke7  403  18 I8
stroke7  404  16 I8
stroke7  404  15 I8
stroke7  404  13 I8
stroke7  405  12 I8
stroke7  406  13 I8
stroke7  406  14 I8
stroke7  407  15 I8
stroke7  408  17 I8
stroke7  408  19 I8
stroke7  409  22 I8
stroke7  410  25 I8
stroke7  411  29 I8
stroke7  412  33 I8
stroke7  412  36 I8
stroke7  413  40 I8
stroke7  414  44 I8
stroke7  414  48 I8
stroke7  414  51 I8
stroke7  414  54 I8
stroke7  414  56 I8
stroke7  413  58 I8
stroke7  412  60 I8
stroke7  411  62 I8
stroke7  409  64 I8
stroke7  408  66 I8
stroke7  406  67 I8
stroke7  404  68 I8
stroke7  401  69 I8
stroke7  398  70 I8
stroke7  395  70 I8
stroke7  392  69 I8
stroke7  388  68 I8
stroke7  384  67 I8
stroke7  380  65 I8
stroke7  377  64 I8
stroke7  375  62 I8
stroke7  373  61 I8
stroke7  372  60 I8
