stroke1  36  14 B40
stroke1  35  14 I40
stroke1  34  13 I40
stroke1  33  13 I40
stroke1  32  13 I40
stroke1  32  14 I40
stroke1  31  14 I40
stroke1  31  15 I40
stroke1  32  16 I40
stroke1  33  16 I40
stroke1  34  17 I40
stroke1  35  17 I40
stroke1  37  17 I40
stroke1  39  17 I40
stroke1  41  16 I40
stroke1  42  15 I40
stroke1  44  14 I40
stroke1  45  13 I40
stroke1  46  12 I40
stroke1  46  12 I40
stroke1  47  10 I40
stroke1  47  9 I40
stroke1  47  7 I40
stroke1  47  6 I40
stroke1  46  4 I40
stroke1  45  3 I40
stroke1  44  3 I40
stroke1  43  2 I40
stroke1  42  2 I40
stroke1  41  2 I40
stroke1  39  3 I40
stroke1  38  4 I40
stroke1  36  5 I40
stroke1  35  7 I40
stroke1  34  9 I40
stroke1  33  12 I40
stroke1  32  15 I40
stroke1  32  18 I40
stroke1  32  21 I40
stroke1  33  24 I40
stroke1  33  27 I40
stroke1  35  30 I40
stroke1  36  32 I40
stroke1  38  34 I40
stroke1  40  36 I40
stroke1  41  37 I40
stroke1  44  37 I40
stroke1  46  37 I40
stroke1  48  37 I40
stroke1  50  35 I40
stroke1  53  34 I40
stroke1  55  32 I40
stroke1  57  29 I40
stroke1  58  27 I40
stroke1  60  25 I40
stroke1  61  22 I40
stroke1  63  19 I40
stroke1  64  16 I40
stroke1  65  14 I40
stroke1  66  11 I40
stroke1  66  9 I40
stroke1  67  7 I40
stroke1  68  6 I40
stroke1  68  5 I40
stroke1  69  4 I40
stroke1  69  5 I40
stroke1  69  6 I40
stroke1  69  8 I40
stroke1  68  10 I40
stroke1  68  13 I40
stroke1  68  16 I40
stroke1  67  19 I40
stroke1  66  23 I40
stroke1  66  27 I40
stroke1  65  30 I40
stroke1  64  34 I40
stroke1  63  38 I40
stroke1  62  41 I40
stroke1  61  44 I40
stroke1  59  47 I40
stroke1  58  50 I40
stroke1  57  52 I40
stroke1  56  54 I40
stroke1  54  56 I40
stroke1  52  57 I40
stroke1  51  58 I40
stroke1  49  59 I40
stroke1  46  59 I40
stroke1  44  59 I40
stroke1  41  58 I40
stroke1  38  57 I40
stroke1  36  56 I40
stroke1  33  54 I40
stroke1  32  53 I40
stroke1  31  52 I40
stroke1  32  52 I40
stroke1  52  56 I40
stroke1  52  57 I40
stroke1  53  59 I40
stroke1  54  60 I40
stroke1  56  63 I40
stroke1  59  65 I40
stroke1  61  68 I40
stroke1  64  71 I40
stroke1  67  74 I40
stroke1  70  78 I40
stroke1  73  81 I40
stroke1  76  83 I40
stroke1  78  86 I40
stroke1  80  87 I40
stroke1  81  89 I40
stroke1  82  90 I40
stroke1  83  91 I40
stroke1  84  91 I40
stroke1  84  92 I40
stroke1  84  93 I40
stroke1  83  93 I40
stroke1  82  93 I40
stroke1  80  93 I40
stroke2  57  92 B51
stroke2  56  92 I51
stroke2  54  92 I51
stroke2  52  93 I51
stroke2  49  93 I51
stroke2  47  93 I51
stroke2  44  93 I51
stroke2  41  93 I51
stroke2  39  93 I51
stroke2  36  92 I51
stroke2  33  92 I51
stroke2  30  91 I51
stroke2  28  90 I51
stroke2  26  89 I51
stroke2  24  89 I51
stroke2  22  88 I51
stroke2  21  88 I51
stroke2  20  88 I51
stroke2  19  87 I51
stroke2  19  88 I51
stroke2  18  88 I51
stroke2  18  89 I51
stroke2  18  91 I51
stroke2  18  92 I51
stroke2  18  94 I51
stroke2  19  96 I51
stroke2  20  98 I51
stroke2  21  100 I51
stroke2  23  103 I51
stroke2  25  105 I51
stroke2  27  106 I51
stroke2  30  107 I51
stroke2  32  108 I51
stroke2  35  108 I51
stroke2  38  107 I51
stroke2  41  107 I51
stroke2  43  106 I51
stroke2  45  104 I51
stroke2  47  103 I51
stroke2  49  102 I51
stroke2  50  101 I51
stroke2  51  100 I51
stroke2  51  99 I51
stroke2  52  98 I51
stroke2  52  97 I51
stroke2  52  96 I51
stroke2  53  96 I51
stroke2  62  117 I51
stroke2  62  119 I51
stroke2  62  120 I51
stroke2  62  121 I51
stroke2  61  122 I51
stroke2  60  122 I51
stroke2  60  121 I51
stroke2  60  120 I51
stroke2  60  118 I51
stroke2  60  116 I51
stroke2  60  113 I51
stroke2  60  110 I51
stroke2  60  108 I51
stroke2  60  105 I51
stroke2  59  103 I51
stroke2  59  101 I51
stroke2  59  99 I51
stroke2  59  98 I51
stroke2  58  97 I51
stroke2  58  96 I51
stroke2  54  114 I51
stroke2  54  116 I51
stroke2  53  117 I51
stroke2  53  118 I51
stroke2  52  118 I51
stroke2  51  117 I51
stroke2  51  116 I51
stroke2  50  114 I51
stroke2  49  112 I51
stroke2  49  110 I51
stroke2  48  108 I51
stroke2  48  105 I51
stroke2  48  103 I51
stroke2  49  100 I51
stroke2  49  98 I51
stroke3  91  48 B26
stroke3  91  49 I26
stroke3  91  48 I26
stroke3  90  47 I26
stroke3  89  46 I26
stroke3  88  45 I26
stroke3  86  45 I26
stroke3  85  44 I26
stroke3  83  43 I26
stroke3  82  43 I26
stroke3  81  43 I26
stroke3  80  43 I26
stroke3  79  43 I26
stroke3  78  44 I26
stroke3  78  45 I26
stroke3  77  47 I26
stroke3  77  49 I26
stroke3  77  51 I26
stroke3  77  53 I26
stroke3  77  54 I26
stroke3  78  56 I26
stroke3  79  58 I26
stroke3  79  59 I26
stroke3  81  60 I26
stroke3  82  60 I26
stroke3  83  61 I26
stroke3  84  61 I26
stroke3  86  61 I26
stroke3  87  61 I26
stroke3  89  60 I26
stroke3  90  60 I26
stroke3  91  59 I26
stroke3  93  58 I26
stroke3  94  57 I26
stroke3  95  56 I26
stroke3  96  54 I26
stroke3  97  51 I26
stroke3  98  48 I26
stroke3  99  45 I26
stroke3  99  41 I26
stroke3  99  37 I26
stroke3  100  33 I26
stroke3  100  29 I26
stroke3  100  25 I26
stroke3  100  20 I26
stroke3  100  16 I26
stroke3  100  13 I26
stroke3  100  9 I26
stroke3  100  7 I26
stroke3  100  5 I26
stroke3  101  3 I26
stroke3  101  2 I26
stroke3  101  1 I26
stroke3  102  1 I26
stroke3  103  1 I26
stroke3  104  1 I26
stroke3  105  2 I26
stroke3  106  2 I26
stroke3  108  3 I26
stroke3  110  3 I26
stroke3  112  3 I26
stroke3  114  3 I26
stroke3  116  3 I26
stroke3  118  3 I26
stroke3  120  2 I26
stroke3  122  2 I26
stroke3  123  1 I26
stroke3  125  1 I26
stroke3  126  1 I26
stroke3  127  0 I26
stroke3  128  1 I26
stroke3  129  1 I26
stroke3  129  2 I26
stroke3  129  4 I26
stroke3  130  6 I26
stroke3  130  8 I26
stroke3  130  11 I26
stroke3  130  15 I26
stroke3  129  19 I26
stroke3  129  23 I26
stroke3  128  27 I26
stroke3  128  32 I26
stroke3  127  37 I26
stroke3  127  41 I26
stroke3  126  45 I26
stroke3  125  48 I26
stroke3  125  51 I26
stroke3  124  53 I26
stroke3  124  55 I26
stroke3  123  56 I26
stroke3  123  57 I26
stroke3  123  58 I26
stroke3  122  58 I26
stroke3  122  57 I26
stroke3  122  56 I26
stroke3  122  55 I26
stroke4  158  9 B40
stroke4  159  9 I40
stroke4  160  10 I40
stroke4  161  10 I40
stroke4  162  11 I40
stroke4  164  11 I40
stroke4  166  12 I40
stroke4  168  12 I40
stroke4  170  12 I40
stroke4  172  11 I40
stroke4  174  11 I40
stroke4  175  10 I40
stroke4  176  9 I40
stroke4  177  8 I40
stroke4  177  7 I40
stroke4  177  6 I40
stroke4  176  4 I40
stroke4  175  3 I40
stroke4  173  3 I40
stroke4  172  2 I40
stroke4  170  2 I40
stroke4  168  2 I40
stroke4  167  3 I40
stroke4  165  4 I40
stroke4  164  6 I40
stroke4  162  8 I40
stroke4  162  11 I40
stroke4  161  14 I40
stroke4  162  16 I40
stroke4  162  19 I40
stroke4  163  22 I40
stroke4  164  24 I40
stroke4  166  27 I40
stroke4  168  29 I40
stroke4  170  30 I40
stroke4  173  31 I40
stroke4  176  32 I40
stroke4  178  32 I40
stroke4  181  31 I40
stroke4  183  30 I40
stroke4  185  29 I40
stroke4  187  27 I40
stroke4  189  25 I40
stroke4  191  22 I40
stroke4  192  20 I40
stroke4  193  17 I40
stroke4  194  15 I40
stroke4  195  13 I40
stroke4  196  11 I40
stroke4  197  9 I40
stroke4  197  8 I40
stroke4  198  7 I40
stroke4  198  6 I40
stroke4  198  5 I40
stroke4  199  5 I40
stroke4  198  5 I40
stroke4  198  6 I40
stroke4  198  7 I40
stroke4  198  8 I40
stroke4  198  9 I40
stroke4  198  10 I40
stroke4  198  12 I40
stroke4  197  13 I40
stroke4  197  15 I40
stroke4  197  16 I40
stroke4  197  18 I40
stroke4  197  20 I40
stroke4  197  22 I40
stroke4  197  24 I40
stroke4  196  26 I40
stroke4  196  28 I40
stroke4  196  31 I40
stroke4  196  34 I40
stroke4  195  37 I40
stroke4  195  41 I40
stroke4  195  44 I40
stroke4  194  47 I40
stroke4  194  50 I40
stroke4  193  52 I40
stroke4  193  55 I40
stroke4  192  57 I40
stroke4  192  59 I40
stroke4  191  60 I40
stroke4  190  62 I40
stroke4  189  63 I40
stroke4  188  64 I40
stroke4  186  65 I40
stroke4  185  66 I40
stroke4  183  66 I40
stroke4  181  66 I40
stroke4  178  65 I40
stroke4  175  64 I40
stroke4  172  62 I40
stroke4  168  59 I40
stroke4  166  57 I40
stroke4  164  56 I40
stroke4  162  55 I40
stroke4  161  54 I40
stroke4  162  54 I40
stroke4  163  55 I40
stroke4  165  56 I40
stroke4  187  63 I40
stroke4  186  63 I40
stroke4  187  64 I40
stroke4  187  66 I40
stroke4  189  68 I40
stroke4  191  70 I40
stroke4  194  73 I40
stroke4  196  76 I40
stroke4  200  79 I40
stroke4  203  82 I40
stroke4  206  85 I40
stroke4  209  87 I40
stroke4  212  89 I40
stroke4  214  90 I40
stroke4  215  91 I40
stroke4  216  91 I40
stroke4  218  92 I40
stroke4  218  91 I40
stroke4  219  91 I40
stroke5  226  47 B37
stroke5  225  47 I37
stroke5  224  46 I37
stroke5  223  46 I37
stroke5  222  46 I37
stroke5  221  46 I37
stroke5  221  47 I37
stroke5  221  48 I37
stroke5  221  50 I37
stroke5  222  51 I37
stroke5  223  53 I37
stroke5  225  54 I37
stroke5  227  56 I37
stroke5  228  57 I37
stroke5  230  59 I37
stroke5  232  60 I37
stroke5  234  60 I37
stroke5  236  61 I37
stroke5  238  61 I37
stroke5  240  61 I37
stroke5  241  61 I37
stroke5  243  61 I37
stroke5  244  61 I37
stroke5  246  60 I37
stroke5  247  60 I37
stroke5  248  58 I37
stroke5  249  57 I37
stroke5  250  55 I37
stroke5  251  53 I37
stroke5  252  50 I37
stroke5  253  47 I37
stroke5  254  44 I37
stroke5  254  40 I37
stroke5  255  37 I37
stroke5  255  34 I37
stroke5  255  30 I37
stroke5  256  27 I37
stroke5  256  24 I37
stroke5  256  21 I37
stroke5  255  19 I37
stroke5  255  17 I37
stroke5  255  15 I37
stroke5  255  14 I37
stroke5  254  13 I37
stroke5  253  13 I37
stroke5  252  13 I37
stroke5  250  13 I37
stroke5  249  14 I37
stroke5  247  15 I37
stroke5  246  16 I37
stroke5  245  17 I37
stroke5  244  18 I37
stroke5  244  20 I37
stroke5  244  21 I37
stroke5  245  22 I37
stroke5  246  23 I37
stroke5  247  23 I37
stroke5  248  24 I37
stroke5  250  24 I37
stroke5  251  25 I37
stroke5  253  25 I37
stroke5  255  25 I37
stroke5  257  25 I37
stroke5  259  26 I37
stroke5  261  26 I37
stroke6  279  44 B25
stroke6  280  44 I25
stroke6  280  45 I25
stroke6  279  44 I25
stroke6  278  44 I25
stroke6  277  44 I25
stroke6  276  44 I25
stroke6  276  45 I25
stroke6  275  45 I25
stroke6  275  46 I25
stroke6  274  48 I25
stroke6  274  49 I25
stroke6  274  50 I25
stroke6  274  52 I25
stroke6  274  53 I25
stroke6  275  55 I25
stroke6  275  56 I25
stroke6  276  56 I25
stroke6  277  57 I25
stroke6  278  58 I25
stroke6  279  58 I25
stroke6  280  58 I25
stroke6  281  58 I25
stroke6  282  58 I25
stroke6  283  57 I25
stroke6  284  57 I25
stroke6  285  56 I25
stroke6  286  56 I25
stroke6  287  55 I25
stroke6  287  54 I25
stroke6  288  52 I25
stroke6  288  50 I25
stroke6  288  48 I25
stroke6  288  45 I25
stroke6  288  42 I25
stroke6  288  39 I25
stroke6  288  37 I25
stroke6  288  34 I25
stroke6  289  31 I25
stroke6  289  28 I25
stroke6  289  24 I25
stroke6  289  21 I25
stroke6  289  18 I25
stroke6  289  15 I25
stroke6  289  13 I25
stroke6  289  11 I25
stroke6  289  9 I25
stroke6  290  8 I25
stroke6  290  7 I25
stroke6  290  8 I25
stroke6  290  9 I25
stroke6  290  10 I25
stroke6  291  11 I25
stroke6  291  13 I25
stroke6  292  15 I25
stroke6  293  16 I25
stroke6  294  18 I25
stroke6  295  20 I25
stroke6  297  21 I25
stroke6  298  22 I25
stroke6  300  24 I25
stroke6  302  24 I25
stroke6  303  25 I25
stroke6  305  25 I25
stroke6  307  25 I25
stroke6  308  25 I25
stroke6  310  25 I25
stroke6  311  25 I25
stroke6  312  24 I25
stroke6  313  23 I25
stroke6  314  22 I25
stroke6  315  21 I25
stroke6  315  20 I25
stroke6  315  19 I25
stroke6  316  17 I25
stroke6  315  16 I25
stroke6  315  15 I25
stroke6  315  14 I25
stroke6  315  13 I25
stroke6  314  12 I25
stroke6  314  11 I25
stroke6  314  10 I25
stroke6  313  10 I25
stroke6  312  9 I25
stroke6  311  9 I25
stroke6  311  10 I25
stroke6  310  10 I25
stroke6  310  11 I25
stroke6  309  12 I25
stroke6  309  14 I25
stroke6  309  15 I25
stroke6  308  17 I25
stroke6  308  20 I25
stroke6  308  23 I25
stroke6  308  26 I25
stroke6  307  29 I25
stroke6  307  32 I25
stroke6  307  35 I25
stroke6  307  39 I25
stroke6  307  42 I25
stroke6  306  45 I25
stroke6  306  47 I25
stroke6  306  50 I25
stroke6  306  52 I25
stroke6  306  54 I25
stroke6  306  56 I25
stroke6  306  57 I25
stroke6  306  59 I25
stroke6  306  60 I25
stroke6  306  61 I25
stroke6  306  62 I25
stroke6  306  63 I25
stroke6  306  64 I25
stroke6  306  65 I25
stroke6  306  66 I25
stroke6  306  65 I25
stroke6  305  64 I25
stroke7  349  14 B40
stroke7  348  15 I40
stroke7  349  15 I40
stroke7  349  16 I40
stroke7  350  16 I40
stroke7  351  16 I40
stroke7  353  16 I40
stroke7  354  16 I40
stroke7  356  15 I40
stroke7  357  14 I40
stroke7  359  13 I40
stroke7  360  12 I40
stroke7  361  11 I40
stroke7  361  10 I40
stroke7  362  9 I40
stroke7  362  8 I40
stroke7  362  7 I40
stroke7  361  6 I40
stroke7  361  5 I40
stroke7  360  5 I40
stroke7  359  4 I40
stroke7  358  4 I40
stroke7  357  3 I40
stroke7  356  3 I40
stroke7  355  3 I40
stroke7  354  4 I40
stroke7  353  4 I40
stroke7  352  5 I40
stroke7  351  6 I40
stroke7  350  8 I40
stroke7  349  10 I40
stroke7  349  12 I40
stroke7  348  15 I40
stroke7  347  18 I40
stroke7  347  21 I40
stroke7  347  24 I40
stroke7  347  27 I40
stroke7  348  29 I40
stroke7  349  32 I40
stroke7  350  34 I40
stroke7  351  36 I40
stroke7  353  38 I40
stroke7  354  39 I40
stroke7  356  40 I40
stroke7  358  40 I40
stroke7  361  41 I40
stroke7  363  40 I40
stroke7  365  39 I40
stroke7  368  38 I40
stroke7  370  37 I40
stroke7  372  35 I40
stroke7  375  33 I40
stroke7  377  31 I40
stroke7  378  29 I40
stroke7  380  27 I40
stroke7  381  24 I40
stroke7  382  21 I40
stroke7  383  19 I40
stroke7  384  16 I40
stroke7  384  14 I40
stroke7  385  11 I40
stroke7  385  10 I40
stroke7  385  8 I40
stroke7  386  7 I40
stroke7  386  6 I40
stroke7  386  7 I40
stroke7  386  8 I40
stroke7  386  10 I40
stroke7  385  12 I40
stroke7  385  14 I40
stroke7  385  17 I40
stroke7  385  20 I40
stroke7  385  22 I40
stroke7  385  25 I40
stroke7  385  28 I40
stroke7  384  31 I40
stroke7  384  34 I40
stroke7  384  37 I40
stroke7  383  39 I40
stroke7  383  42 I40
stroke7  382  45 I40
stroke7  381  47 I40
stroke7  380  49 I40
stroke7  379  51 I40
stroke7  378  53 I40
stroke7  376  55 I40
stroke7  375  56 I40
stroke7  373  57 I40
stroke7  372  59 I40
stroke7  370  59 I40
stroke7  368  60 I40
stroke7  365  60 I40
stroke7  363  60 I40
stroke7  361  60 I40
stroke7  358  60 I40
stroke7  356  59 I40
stroke7  354  58 I40
stroke7  351  57 I40
stroke7  349  55 I40
stroke7  348  55 I40
stroke7  347  54 I40
stroke7  347  53 I40
stroke7  348  53 I40
stroke7  349  53 I40
stroke7  379  55 I40
stroke7  379  54 I40
stroke7  379  55 I40
stroke7  380  56 I40
stroke7  381  57 I40
stroke7  383  59 I40
stroke7  386  61 I40
stroke7  389  64 I40
stroke7  392  66 I40
stroke7  395  69 I40
stroke7  399  72 I40
stroke7  402  75 I40
stroke7  405  77 I40
stroke7  408  79 I40
stroke7  410  81 I40
stroke7  412  83 I40
stroke7  414  84 I40
stroke7  415  85 I40
stroke7  416  85 I40
stroke7  417  85 I40
stroke7  417  84 I40
stroke8  419  32 B43
stroke8  418  32 I43
stroke8  417  32 I43
stroke8  416  32 I43
stroke8  415  32 I43
stroke8  415  31 I43
stroke8  416  31 I43
stroke8  417  31 I43
stroke8  419  31 I43
stroke8  421  31 I43
stroke8  423  31 I43
stroke8  425  32 I43
stroke8  428  33 I43
stroke8  430  33 I43
stroke8  431  34 I43
stroke8  432  35 I43
stroke8  433  36 I43
stroke8  434  37 I43
stroke8  434  38 I43
stroke8  433  39 I43
stroke8  433  40 I43
stroke8  432  41 I43
stroke8  431  42 I43
stroke8  429  42 I43
stroke8  428  43 I43
stroke8  426  43 I43
stroke8  425  43 I43
stroke8  424  42 I43
stroke8  422  41 I43
stroke8  421  40 I43
stroke8  420  38 I43
stroke8  420  36 I43
stroke8  419  34 I43
stroke8  419  31 I43
stroke8  418  28 I43
stroke8  418  25 I43
stroke8  418  22 I43
stroke8  418  19 I43
stroke8  418  15 I43
stroke8  418  13 I43
stroke8  418  10 I43
stroke8  418  8 I43
stroke8  419  6 I43
stroke8  419  5 I43
stroke8  419  4 I43
stroke8  420  3 I43
stroke8  421  3 I43
stroke8  422  3 I43
stroke8  423  4 I43
stroke8  425  4 I43
stroke8  426  5 I43
stroke8  428  6 I43
stroke8  430  6 I43
stroke8  431  7 I43
stroke8  433  7 I43
stroke8  435  7 I43
stroke8  437  7 I43
stroke8  439  7 I43
stroke8  441  7 I43
stroke8  442  6 I43
stroke8  443  6 I43
stroke8  445  5 I43
stroke8  446  5 I43
stroke8  447  5 I43
stroke8  448  5 I43
stroke8  448  6 I43
stroke8  449  7 I43
stroke8  449  8 I43
stroke8  450  11 I43
stroke8  450  13 I43
stroke8  450  16 I43
stroke8  450  20 I43
stroke8  451  24 I43
stroke8  451  28 I43
stroke8  451  31 I43
stroke8  451  35 I43
stroke8  450  38 I43
stroke8  450  41 I43
stroke8  449  44 I43
stroke8  448  46 I43
stroke8  447  48 I43
stroke8  446  50 I43
stroke8  445  52 I43
stroke8  444  53 I43
stroke8  442  54 I43
stroke8  440  55 I43
stroke8  439  55 I43
stroke8  437  55 I43
stroke8  435  54 I43
stroke8  433  53 I43
stroke8  432  52 I43
stroke8  431  51 I43
stroke8  430  49 I43
stroke8  431  48 I43
stroke8  432  47 I43
stroke9  482  45 B26
stroke9  482  46 I26
stroke9  482  47 I26
stroke9  483  47 I26
stroke9  482  47 I26
stroke9  482  46 I26
stroke9  481  45 I26
stroke9  480  45 I26
stroke9  479  44 I26
stroke9  478  43 I26
stroke9  477  43 I26
stroke9  476  43 I26
stroke9  476  44 I26
stroke9  475  45 I26
stroke9  474  46 I26
stroke9  474  48 I26
stroke9  474  50 I26
stroke9  474  52 I26
stroke9  474  53 I26
stroke9  475  55 I26
stroke9  476  56 I26
stroke9  477  57 I26
stroke9  478  58 I26
stroke9  479  58 I26
stroke9  480  58 I26
stroke9  481  58 I26
stroke9  483  57 I26
stroke9  484  55 I26
stroke9  485  53 I26
stroke9  486  51 I26
stroke9  487  48 I26
stroke9  488  44 I26
stroke9  489  41 I26
stroke9  490  37 I26
stroke9  490  34 I26
stroke9  490  30 I26
stroke9  490  26 I26
stroke9  490  23 I26
stroke9  489  20 I26
stroke9  489  17 I26
stroke9  489  14 I26
stroke9  489  12 I26
stroke9  490  11 I26
stroke9  490  9 I26
stroke9  491  9 I26
stroke9  492  9 I26
stroke9  494  9 I26
stroke9  495  10 I26
stroke9  497  10 I26
stroke9  499  11 I26
stroke9  501  11 I26
stroke9  504  11 I26
stroke9  506  11 I26
stroke9  508  11 I26
stroke9  510  10 I26
stroke9  512  9 I26
stroke9  514  9 I26
stroke9  515  8 I26
stroke9  517  8 I26
stroke9  518  7 I26
stroke9  519  7 I26
stroke9  520  7 I26
stroke9  521  7 I26
stroke9  522  8 I26
stroke9  522  9 I26
stroke9  522  10 I26
stroke9  522  12 I26
stroke9  522  14 I26
stroke9  522  16 I26
stroke9  522  19 I26
stroke9  521  22 I26
stroke9  521  26 I26
stroke9  521  30 I26
stroke9  520  35 I26
stroke9  520  39 I26
stroke9  519  43 I26
stroke9  519  46 I26
stroke9  519  49 I26
stroke9  519  52 I26
stroke9  518  54 I26
stroke9  518  55 I26
stroke9  518  56 I26
stroke9  518  57 I26
stroke9  518  58 I26
stroke9  518  57 I26
stroke9  519  56 I26
stroke10  558  15 B40
stroke10  557  15 I40
stroke10  558  16 I40
stroke10  559  17 I40
stroke10  560  17 I40
stroke10  561  17 I40
stroke10  563  18 I40
stroke10  565  18 I40
stroke10  566  17 I40
stroke10  568  17 I40
stroke10  570  17 I40
stroke10  572  16 I40
stroke10  573  15 I40
stroke10  574  14 I40
stroke10  574  13 I40
stroke10  575  12 I40
stroke10  574  11 I40
stroke10  574  10 I40
stroke10  573  10 I40
stroke10  572  9 I40
stroke10  571  9 I40
stroke10  569  9 I40
stroke10  567  9 I40
stroke10  565  10 I40
stroke10  564  11 I40
stroke10  562  12 I40
stroke10  561  14 I40
stroke10  559  16 I40
stroke10  559  18 I40
stroke10  558  21 I40
stroke10  559  23 I40
stroke10  559  26 I40
stroke10  560  28 I40
stroke10  561  31 I40
stroke10  563  33 I40
stroke10  565  35 I40
stroke10  567  36 I40
stroke10  569  37 I40
stroke10  571  38 I40
stroke10  574  37 I40
stroke10  576  37 I40
stroke10  578  35 I40
stroke10  580  34 I40
stroke10  582  32 I40
stroke10  583  30 I40
stroke10  585  28 I40
stroke10  586  26 I40
stroke10  587  24 I40
stroke10  588  22 I40
stroke10  589  20 I40
stroke10  590  18 I40
stroke10  590  16 I40
stroke10  591  15 I40
stroke10  591  14 I40
stroke10  591  13 I40
stroke10  591  12 I40
stroke10  592  13 I40
stroke10  592  14 I40
stroke10  592  16 I40
stroke10  592  17 I40
stroke10  591  20 I40
stroke10  591  22 I40
stroke10  591  25 I40
stroke10  591  28 I40
stroke10  590  32 I40
stroke10  590  36 I40
stroke10  589  39 I40
stroke10  588  43 I40
stroke10  587  47 I40
stroke10  586  50 I40
stroke10  584  53 I40
stroke10  582  55 I40
stroke10  580  57 I40
stroke10  578  59 I40
stroke10  576  60 I40
stroke10  573  60 I40
stroke10  571  60 I40
stroke10  568  60 I40
stroke10  565  59 I40
stroke10  562  58 I40
stroke10  559  56 I40
stroke10  556  55 I40
stroke10  554  54 I40
stroke10  553  53 I40
stroke10  552  52 I40
stroke10  553  52 I40
stroke10  554  52 I40
stroke10  555  52 I40
stroke10  578  56 I40
stroke10  577  56 I40
stroke10  577  55 I40
stroke10  576  55 I40
stroke10  576  56 I40
stroke10  577  56 I40
stroke10  578  58 I40
stroke10  580  59 I40
stroke10  582  62 I40
stroke10  585  64 I40
stroke10  589  67 I40
stroke10  593  70 I40
stroke10  597  72 I40
stroke10  601  75 I40
stroke10  604  77 I40
stroke10  607  78 I40
stroke10  609  79 I40
stroke10  610  80 I40
stroke10  611  80 I40
stroke10  612  80 I40
stroke11  611  49 B37
stroke11  610  48 I37
stroke11  609  48 I37
stroke11  608  48 I37
stroke11  607  49 I37
stroke11  608  50 I37
stroke11  608  51 I37
stroke11  609  53 I37
stroke11  611  55 I37
stroke11  612  56 I37
stroke11  614  58 I37
stroke11  616  59 I37
stroke11  618  60 I37
stroke11  620  61 I37
stroke11  622  62 I37
stroke11  624  62 I37
stroke11  626  62 I37
stroke11  628  62 I37
stroke11  630  62 I37
stroke11  631  62 I37
stroke11  633  62 I37
stroke11  634  61 I37
stroke11  635  61 I37
stroke11  636  61 I37
stroke11  637  60 I37
stroke11  638  60 I37
stroke11  639  59 I37
stroke11  640  59 I37
stroke11  641  58 I37
stroke11  642  56 I37
stroke11  643  55 I37
stroke11  643  53 I37
stroke11  644  50 I37
stroke11  644  47 I37
stroke11  645  45 I37
stroke11  645  42 I37
stroke11  645  39 I37
stroke11  646  36 I37
stroke11  645  33 I37
stroke11  645  30 I37
stroke11  645  27 I37
stroke11  644  24 I37
stroke11  644  21 I37
stroke11  643  19 I37
stroke11  642  17 I37
stroke11  640  15 I37
stroke11  639  14 I37
stroke11  638  13 I37
stroke11  636  12 I37
stroke11  635  12 I37
stroke11  633  12 I37
stroke11  632  13 I37
stroke11  630  14 I37
stroke11  629  15 I37
stroke11  628  16 I37
stroke11  627  17 I37
stroke11  627  18 I37
stroke11  627  19 I37
stroke11  628  19 I37
stroke11  629  20 I37
stroke11  631  21 I37
stroke11  633  22 I37
stroke11  635  22 I37
stroke11  637  23 I37
stroke11  639  23 I37
stroke11  641  23 I37
stroke11  642  23 I37
stroke12  682  50 B25
stroke12  683  50 I25
stroke12  683  51 I25
stroke12  682  50 I25
stroke12  681  50 I25
stroke12  679  50 I25
stroke12  678  50 I25
stroke12  676  50 I25
stroke12  675  50 I25
stroke12  673  50 I25
stroke12  672  51 I25
stroke12  670  52 I25
stroke12  669  53 I25
stroke12  669  54 I25
stroke12  668  56 I25
stroke12  668  57 I25
stroke12  668  58 I25
stroke12  669  60 I25
stroke12  670  61 I25
stroke12  671  62 I25
stroke12  672  63 I25
stroke12  673  63 I25
stroke12  675  64 I25
stroke12  677  64 I25
stroke12  679  64 I25
stroke12  681  64 I25
stroke12  682  63 I25
stroke12  684  63 I25
stroke12  685  62 I25
stroke12  687  61 I25
stroke12  688  60 I25
stroke12  688  58 I25
stroke12  689  56 I25
stroke12  690  53 I25
stroke12  690  50 I25
stroke12  690  46 I25
stroke12  690  43 I25
stroke12  690  39 I25
stroke12  690  36 I25
stroke12  690  32 I25
stroke12  689  29 I25
stroke12  689  25 I25
stroke12  689  22 I25
stroke12  688  18 I25
stroke12  687  15 I25
stroke12  687  12 I25
stroke12  686  10 I25
stroke12  686  8 I25
stroke12  685  7 I25
stroke12  685  6 I25
stroke12  685  5 I25
stroke12  685  6 I25
stroke12  686  7 I25
stroke12  686  8 I25
stroke12  687  10 I25
stroke12  687  12 I25
stroke12  688  14 I25
stroke12  690  16 I25
stroke12  691  18 I25
stroke12  693  20 I25
stroke12  694  22 I25
stroke12  696  23 I25
stroke12  698  25 I25
stroke12  700  26 I25
stroke12  703  27 I25
stroke12  704  27 I25
stroke12  706  27 I25
stroke12  708  27 I25
stroke12  710  27 I25
stroke12  712  26 I25
stroke12  714  25 I25
stroke12  716  24 I25
stroke12  717  23 I25
stroke12  719  21 I25
stroke12  720  20 I25
stroke12  720  18 I25
stroke12  721  17 I25
stroke12  721  15 I25
stroke12  721  14 I25
stroke12  720  12 I25
stroke12  719  11 I25
stroke12  719  10 I25
stroke12  718  9 I25
stroke12  717  8 I25
stroke12  716  8 I25
stroke12  715  7 I25
stroke12  714  7 I25
stroke12  713  7 I25
stroke12  712  8 I25
stroke12  711  8 I25
stroke12  710  9 I25
stroke12  710  10 I25
stroke12  709  11 I25
stroke12  709  13 I25
stroke12  708  15 I25
stroke12  708  17 I25
stroke12  708  20 I25
stroke12  708  23 I25
stroke12  708  27 I25
stroke12  708  30 I25
stroke12  709  34 I25
stroke12  709  37 I25
stroke12  709  40 I25
stroke12  709  43 I25
stroke12  709  46 I25
stroke12  709  48 I25
stroke12  709  50 I25
stroke12  709  51 I25
stroke12  709  53 I25
stroke12  709  54 I25
stroke12  709  55 I25
stroke12  708  56 I25
stroke12  709  57 I25
stroke12  709  58 I25
stroke12  709  59 I25
stroke12  709  60 I25
stroke12  709  61 I25
stroke12  709  62 I25
stroke12  709  61 I25
stroke12  709  60 I25
stroke12  708  60 I25
