stroke1  127  14 B59
stroke1  128  15 I59
stroke1  128  16 I59
stroke1  129  16 I59
stroke1  130  16 I59
stroke1  131  16 I59
stroke1  132  17 I59
stroke1  133  16 I59
stroke1  134  16 I59
stroke1  135  16 I59
stroke1  136  16 I59
stroke1  137  15 I59
stroke1  138  14 I59
stroke1  139  13 I59
stroke1  139  12 I59
stroke1  140  12 I59
stroke1  140  11 I59
stroke1  141  10 I59
stroke1  141  9 I59
stroke1  141  9 I59
stroke1  141  8 I59
stroke1  141  7 I59
stroke1  140  6 I59
stroke1  140  5 I59
stroke1  139  4 I59
stroke1  139  3 I59
stroke1  138  3 I59
stroke1  138  2 I59
stroke1  137  2 I59
stroke1  136  2 I59
stroke1  135  1 I59
stroke1  134  1 I59
stroke1  133  1 I59
stroke1  132  1 I59
stroke1  131  2 I59
stroke1  130  2 I59
stroke1  130  3 I59
stroke1  129  4 I59
stroke1  128  5 I59
stroke1  127  6 I59
stroke1  126  7 I59
stroke1  126  9 I59
stroke1  125  11 I59
stroke1  125  13 I59
stroke1  124  15 I59
stroke1  124  17 I59
stroke1  123  19 I59
stroke1  123  22 I59
stroke1  122  24 I59
stroke1  122  26 I59
stroke1  121  29 I59
stroke1  121  31 I59
stroke1  121  34 I59
stroke1  120  37 I59
stroke1  120  40 I59
stroke1  120  43 I59
stroke1  120  46 I59
stroke1  120  49 I59
stroke1  120  52 I59
stroke1  120  55 I59
stroke1  120  57 I59
stroke1  120  60 I59
stroke1  120  63 I59
stroke1  120  65 I59
stroke1  120  68 I59
stroke1  119  70 I59
stroke1  119  73 I59
stroke1  119  76 I59
stroke1  119  78 I59
stroke1  120  81 I59
stroke1  120  83 I59
stroke1  120  86 I59
stroke1  120  88 I59
stroke1  120  90 I59
stroke1  120  93 I59
stroke1  120  95 I59
stroke1  120  97 I59
stroke1  120  99 I59
stroke1  119  101 I59
stroke1  119  103 I59
stroke1  119  105 I59
stroke1  119  106 I59
stroke1  119  108 I59
stroke1  119  109 I59
stroke1  119  110 I59
stroke1  119  111 I59
stroke1  119  112 I59
stroke1  119  113 I59
stroke1  118  114 I59
stroke1  118  115 I59
stroke1  117  115 I59
stroke1  116  114 I59
stroke1  116  112 I59
stroke1  115  111 I59
stroke1  114  108 I59
stroke1  113  106 I59
stroke1  111  103 I59
stroke1  110  100 I59
stroke1  108  97 I59
stroke1  107  95 I59
stroke1  107  93 I59
stroke1  106  91 I59
stroke1  105  90 I59
stroke1  105  89 I59
stroke1  105  88 I59
stroke1  104  88 I59
stroke1  104  89 I59
stroke1  103  89 I59
stroke1  103  90 I59
stroke1  102  91 I59
stroke1  101  92 I59
stroke1  100  93 I59
stroke1  98  95 I59
stroke1  97  96 I59
stroke1  96  97 I59
stroke1  94  98 I59
stroke1  93  99 I59
stroke1  91  99 I59
stroke1  90  100 I59
stroke1  89  100 I59
stroke1  87  101 I59
stroke1  86  101 I59
stroke1  85  101 I59
stroke1  84  101 I59
stroke1  83  101 I59
stroke1  82  101 I59
stroke1  81  101 I59
stroke1  80  101 I59
stroke1  79  100 I59
stroke1  78  100 I59
stroke1  77  100 I59
stroke1  76  99 I59
stroke2  168  55 B31
stroke2  167  55 I31
stroke2  166  55 I31
stroke2  165  55 I31
stroke2  164  54 I31
stroke2  162  54 I31
stroke2  161  54 I31
stroke2  160  54 I31
stroke2  159  53 I31
stroke2  158  53 I31
stroke2  157  53 I31
stroke2  156  53 I31
stroke2  155  54 I31
stroke2  154  54 I31
stroke2  153  55 I31
stroke2  153  56 I31
stroke2  153  57 I31
stroke2  152  58 I31
stroke2  153  59 I31
stroke2  153  60 I31
stroke2  153  61 I31
stroke2  154  62 I31
stroke2  155  63 I31
stroke2  156  63 I31
stroke2  157  64 I31
stroke2  159  64 I31
stroke2  160  65 I31
stroke2  161  65 I31
stroke2  163  65 I31
stroke2  164  65 I31
stroke2  165  65 I31
stroke2  166  65 I31
stroke2  167  65 I31
stroke2  168  64 I31
stroke2  168  63 I31
stroke2  169  62 I31
stroke2  169  61 I31
stroke2  170  59 I31
stroke2  170  57 I31
stroke2  170  55 I31
stroke2  171  53 I31
stroke2  171  50 I31
stroke2  171  48 I31
stroke2  171  45 I31
stroke2  171  43 I31
stroke2  171  40 I31
stroke2  171  37 I31
stroke2  171  34 I31
stroke2  171  32 I31
stroke2  171  29 I31
stroke2  171  27 I31
stroke2  171  25 I31
stroke2  172  22 I31
stroke2  172  20 I31
stroke2  172  19 I31
stroke2  172  17 I31
stroke2  172  15 I31
stroke2  172  14 I31
stroke2  172  12 I31
stroke2  172  11 I31
stroke2  172  10 I31
stroke2  172  9 I31
stroke2  172  8 I31
stroke2  172  7 I31
stroke2  172  8 I31
stroke2  172  9 I31
stroke2  172  11 I31
stroke2  172  12 I31
stroke2  172  14 I31
stroke2  173  16 I31
stroke2  173  18 I31
stroke2  173  21 I31
stroke2  173  23 I31
stroke2  174  25 I31
stroke2  174  27 I31
stroke2  175  28 I31
stroke2  175  30 I31
stroke2  176  31 I31
stroke2  177  32 I31
stroke2  178  33 I31
stroke2  179  33 I31
stroke2  180  33 I31
stroke2  181  33 I31
stroke2  182  32 I31
stroke2  183  31 I31
stroke2  184  30 I31
stroke2  185  29 I31
stroke2  186  27 I31
stroke2  187  25 I31
stroke2  188  23 I31
stroke2  189  21 I31
stroke2  190  19 I31
stroke2  191  17 I31
stroke2  192  15 I31
stroke2  192  14 I31
stroke2  193  12 I31
stroke2  194  11 I31
stroke2  194  10 I31
stroke2  195  10 I31
stroke2  195  9 I31
stroke2  196  9 I31
stroke2  196  8 I31
stroke2  197  8 I31
stroke2  197  9 I31
stroke2  198  10 I31
stroke2  198  11 I31
stroke2  198  12 I31
stroke2  198  13 I31
stroke2  198  16 I31
stroke2  197  18 I31
stroke2  197  21 I31
stroke2  197  25 I31
stroke2  197  29 I31
stroke2  196  33 I31
stroke2  196  38 I31
stroke2  196  43 I31
stroke2  196  48 I31
stroke2  195  53 I31
stroke2  195  58 I31
stroke2  195  62 I31
stroke2  196  67 I31
stroke2  196  71 I31
stroke2  196  76 I31
stroke2  196  80 I31
stroke2  196  84 I31
stroke2  196  87 I31
stroke2  197  90 I31
stroke2  197  92 I31
stroke2  197  95 I31
stroke2  197  96 I31
stroke2  197  97 I31
stroke2  197  98 I31
stroke2  197  99 I31
stroke2  197  100 I31
stroke2  196  100 I31
stroke2  196  99 I31
stroke2  195  98 I31
stroke2  195  97 I31
stroke3  237  58 B31
stroke3  237  57 I31
stroke3  236  57 I31
stroke3  236  56 I31
stroke3  235  55 I31
stroke3  234  54 I31
stroke3  233  54 I31
stroke3  232  54 I31
stroke3  232  53 I31
stroke3  231  53 I31
stroke3  230  54 I31
stroke3  229  54 I31
stroke3  228  55 I31
stroke3  227  56 I31
stroke3  227  57 I31
stroke3  227  58 I31
stroke3  228  59 I31
stroke3  228  60 I31
stroke3  229  61 I31
stroke3  230  62 I31
stroke3  231  62 I31
stroke3  232  63 I31
stroke3  233  63 I31
stroke3  234  64 I31
stroke3  235  64 I31
stroke3  236  64 I31
stroke3  237  64 I31
stroke3  238  64 I31
stroke3  239  64 I31
stroke3  240  63 I31
stroke3  241  63 I31
stroke3  241  62 I31
stroke3  242  61 I31
stroke3  242  60 I31
stroke3  243  58 I31
stroke3  243  56 I31
stroke3  244  54 I31
stroke3  244  52 I31
stroke3  244  50 I31
stroke3  244  47 I31
stroke3  245  45 I31
stroke3  245  42 I31
stroke3  245  39 I31
stroke3  245  37 I31
stroke3  245  34 I31
stroke3  246  32 I31
stroke3  246  29 I31
stroke3  246  27 I31
stroke3  246  24 I31
stroke3  246  22 I31
stroke3  247  20 I31
stroke3  247  18 I31
stroke3  247  16 I31
stroke3  247  15 I31
stroke3  247  13 I31
stroke3  247  12 I31
stroke3  248  11 I31
stroke3  248  10 I31
stroke3  248  9 I31
stroke3  247  9 I31
stroke3  248  8 I31
stroke3  248  9 I31
stroke3  248  10 I31
stroke3  248  12 I31
stroke3  248  13 I31
stroke3  248  15 I31
stroke3  248  16 I31
stroke3  249  18 I31
stroke3  249  21 I31
stroke3  250  23 I31
stroke3  250  24 I31
stroke3  251  26 I31
stroke3  252  28 I31
stroke3  252  29 I31
stroke3  253  30 I31
stroke3  253  31 I31
stroke3  254  31 I31
stroke3  254  32 I31
stroke3  255  32 I31
stroke3  256  32 I31
stroke3  257  31 I31
stroke3  258  31 I31
stroke3  259  30 I31
stroke3  260  29 I31
stroke3  261  28 I31
stroke3  262  27 I31
stroke3  264  25 I31
stroke3  265  24 I31
stroke3  266  22 I31
stroke3  268  20 I31
stroke3  269  19 I31
stroke3  270  17 I31
stroke3  271  15 I31
stroke3  272  13 I31
stroke3  273  12 I31
stroke3  274  10 I31
stroke3  275  9 I31
stroke3  275  8 I31
stroke3  276  7 I31
stroke3  276  6 I31
stroke3  277  6 I31
stroke3  277  5 I31
stroke3  278  5 I31
stroke3  278  4 I31
stroke3  279  4 I31
stroke3  280  4 I31
stroke3  280  5 I31
stroke3  281  6 I31
stroke3  281  8 I31
stroke3  281  9 I31
stroke3  281  11 I31
stroke3  282  13 I31
stroke3  282  16 I31
stroke3  281  19 I31
stroke3  281  22 I31
stroke3  281  26 I31
stroke3  281  30 I31
stroke3  280  34 I31
stroke3  280  38 I31
stroke3  280  43 I31
stroke3  279  47 I31
stroke3  279  51 I31
stroke3  279  56 I31
stroke3  279  60 I31
stroke3  279  64 I31
stroke3  279  69 I31
stroke3  279  73 I31
stroke3  279  77 I31
stroke3  279  81 I31
stroke3  279  85 I31
stroke3  279  88 I31
stroke3  280  91 I31
stroke3  280  93 I31
stroke3  280  95 I31
stroke3  280  96 I31
stroke3  280  97 I31
stroke3  280  98 I31
stroke3  280  99 I31
stroke3  279  99 I31
stroke3  278  99 I31
stroke3  277  99 I31
stroke3  276  99 I31
stroke4  260  116 B66
stroke4  259  116 I66
stroke4  258  117 I66
stroke4  257  117 I66
stroke4  256  118 I66
stroke4  254  118 I66
stroke4  253  119 I66
stroke4  251  119 I66
stroke4  250  120 I66
stroke4  249  120 I66
stroke4  249  121 I66
stroke4  248  122 I66
stroke4  248  123 I66
stroke4  249  124 I66
stroke4  249  125 I66
stroke4  250  126 I66
stroke4  251  127 I66
stroke4  252  127 I66
stroke4  253  128 I66
stroke4  254  127 I66
stroke4  255  127 I66
stroke4  255  126 I66
stroke4  256  125 I66
stroke4  257  124 I66
stroke4  257  122 I66
stroke4  257  121 I66
stroke4  257  119 I66
stroke4  257  117 I66
stroke4  257  115 I66
stroke4  256  112 I66
stroke4  256  110 I66
stroke4  255  108 I66
stroke4  254  106 I66
stroke4  254  104 I66
stroke4  254  102 I66
stroke4  254  101 I66
stroke4  254  100 I66
stroke4  254  99 I66
stroke4  255  99 I66
stroke4  256  100 I66
stroke4  257  100 I66
stroke4  259  101 I66
stroke4  260  102 I66
stroke4  262  103 I66
stroke4  264  104 I66
stroke4  265  105 I66
stroke4  267  107 I66
stroke4  269  108 I66
stroke4  271  109 I66
stroke4  272  109 I66
stroke4  274  110 I66
stroke4  275  111 I66
stroke4  276  111 I66
stroke4  277  112 I66
stroke4  278  112 I66
stroke4  279  112 I66
stroke4  279  113 I66
stroke4  280  113 I66
stroke4  280  112 I66
stroke4  279  111 I66
stroke5  304  51 B47
stroke5  303  50 I47
stroke5  302  50 I47
stroke5  303  51 I47
stroke5  304  52 I47
stroke5  305  53 I47
stroke5  306  55 I47
stroke5  308  56 I47
stroke5  310  57 I47
stroke5  312  59 I47
stroke5  314  60 I47
stroke5  316  62 I47
stroke5  319  63 I47
stroke5  321  64 I47
stroke5  323  64 I47
stroke5  325  65 I47
stroke5  326  65 I47
stroke5  328  65 I47
stroke5  330  65 I47
stroke5  331  65 I47
stroke5  332  65 I47
stroke5  334  64 I47
stroke5  335  63 I47
stroke5  336  62 I47
stroke5  337  61 I47
stroke5  337  59 I47
stroke5  338  57 I47
stroke5  339  55 I47
stroke5  339  53 I47
stroke5  339  51 I47
stroke5  340  48 I47
stroke5  340  45 I47
stroke5  340  43 I47
stroke5  340  40 I47
stroke5  340  38 I47
stroke5  340  35 I47
stroke5  341  33 I47
stroke5  341  31 I47
stroke5  341  29 I47
stroke5  341  26 I47
stroke5  341  24 I47
stroke5  341  22 I47
stroke5  341  20 I47
stroke5  341  18 I47
stroke5  342  16 I47
stroke5  342  14 I47
stroke5  342  13 I47
stroke5  342  11 I47
stroke5  342  10 I47
stroke5  342  9 I47
stroke5  342  8 I47
stroke5  342  7 I47
stroke5  342  6 I47
stroke5  342  5 I47
stroke5  342  4 I47
stroke5  342  3 I47
stroke5  342  2 I47
stroke5  342  1 I47
stroke5  342  0 I47
stroke5  342  1 I47
stroke5  341  1 I47
stroke5  341  2 I47
stroke5  340  2 I47
