stroke1  46  81 B30
stroke1  47  81 I30
stroke1  47  82 I30
stroke1  46  82 I30
stroke1  46  81 I30
stroke1  45  81 I30
stroke1  44  80 I30
stroke1  43  80 I30
stroke1  42  79 I30
stroke1  41  79 I30
stroke1  39  78 I30
stroke1  38  78 I30
stroke1  37  78 I30
stroke1  36  78 I30
stroke1  34  78 I30
stroke1  33  78 I30
stroke1  32  79 I30
stroke1  31  80 I30
stroke1  31  81 I30
stroke1  31  81 I30
stroke1  30  82 I30
stroke1  29  83 I30
stroke1  29  85 I30
stroke1  28  87 I30
stroke1  28  88 I30
stroke1  29  90 I30
stroke1  29  92 I30
stroke1  30  93 I30
stroke1  30  94 I30
stroke1  31  95 I30
stroke1  32  96 I30
stroke1  33  97 I30
stroke1  34  98 I30
stroke1  35  98 I30
stroke1  36  99 I30
stroke1  37  99 I30
stroke1  38  99 I30
stroke1  39  98 I30
stroke1  40  98 I30
stroke1  40  97 I30
stroke1  41  95 I30
stroke1  42  93 I30
stroke1  43  91 I30
stroke1  44  88 I30
stroke1  44  85 I30
stroke1  45  82 I30
stroke1  46  79 I30
stroke1  46  75 I30
stroke1  47  72 I30
stroke1  47  68 I30
stroke1  48  65 I30
stroke1  48  61 I30
stroke1  48  58 I30
stroke1  49  55 I30
stroke1  49  53 I30
stroke1  49  50 I30
stroke1  50  48 I30
stroke1  50  46 I30
stroke1  50  44 I30
stroke1  51  43 I30
stroke1  51  42 I30
stroke1  51  41 I30
stroke1  51  40 I30
stroke1  51  41 I30
stroke1  51  43 I30
stroke1  51  45 I30
stroke1  51  47 I30
stroke1  51  50 I30
stroke1  51  53 I30
stroke1  52  55 I30
stroke1  52  58 I30
stroke1  52  61 I30
stroke1  53  63 I30
stroke1  53  65 I30
stroke1  54  66 I30
stroke1  54  67 I30
stroke1  55  68 I30
stroke1  56  68 I30
stroke1  57  68 I30
stroke1  58  67 I30
stroke1  59  65 I30
stroke1  60  63 I30
stroke1  62  61 I30
stroke1  63  59 I30
stroke1  65  56 I30
stroke1  66  54 I30
stroke1  68  51 I30
stroke1  69  49 I30
stroke1  71  47 I30
stroke1  72  46 I30
stroke1  73  44 I30
stroke1  74  44 I30
stroke1  75  43 I30
stroke1  76  42 I30
stroke1  76  43 I30
stroke1  77  44 I30
stroke1  77  45 I30
stroke1  77  47 I30
stroke1  77  50 I30
stroke1  77  52 I30
stroke1  77  55 I30
stroke1  77  58 I30
stroke1  76  62 I30
stroke1  76  65 I30
stroke1  75  69 I30
stroke1  75  73 I30
stroke1  74  76 I30
stroke1  73  80 I30
stroke1  73  83 I30
stroke1  72  86 I30
stroke1  72  88 I30
stroke1  72  90 I30
stroke1  71  91 I30
stroke1  71  92 I30
stroke1  71  93 I30
stroke1  71  94 I30
stroke1  71  95 I30
stroke1  71  94 I30
stroke1  71  93 I30
stroke2  108  54 B35
stroke2  108  53 I35
stroke2  109  53 I35
stroke2  110  53 I35
stroke2  110  52 I35
stroke2  111  52 I35
stroke2  112  52 I35
stroke2  112  53 I35
stroke2  112  54 I35
stroke2  111  55 I35
stroke2  110  55 I35
stroke2  109  55 I35
stroke2  108  55 I35
stroke2  106  54 I35
stroke2  104  53 I35
stroke2  103  51 I35
stroke2  102  49 I35
stroke2  101  47 I35
stroke2  100  46 I35
stroke2  100  44 I35
stroke2  100  42 I35
stroke2  101  41 I35
stroke2  102  40 I35
stroke2  103  40 I35
stroke2  105  40 I35
stroke2  106  40 I35
stroke2  107  41 I35
stroke2  109  42 I35
stroke2  110  43 I35
stroke2  111  45 I35
stroke2  112  47 I35
stroke2  113  49 I35
stroke2  114  52 I35
stroke2  114  55 I35
stroke2  114  59 I35
stroke2  113  62 I35
stroke2  113  66 I35
stroke2  112  69 I35
stroke2  111  72 I35
stroke2  110  75 I35
stroke2  109  77 I35
stroke2  107  79 I35
stroke2  106  81 I35
stroke2  104  82 I35
stroke2  103  83 I35
stroke2  101  84 I35
stroke2  99  84 I35
stroke2  98  84 I35
stroke2  96  84 I35
stroke2  95  84 I35
stroke2  94  84 I35
stroke2  93  84 I35
stroke2  92  84 I35
stroke2  92  85 I35
stroke2  92  86 I35
stroke2  92  87 I35
stroke2  93  88 I35
stroke2  93  89 I35
stroke2  94  90 I35
stroke2  94  91 I35
stroke2  96  92 I35
stroke2  97  93 I35
stroke2  98  94 I35
stroke2  100  94 I35
stroke2  101  95 I35
stroke2  103  94 I35
stroke2  105  94 I35
stroke2  107  94 I35
stroke2  108  94 I35
stroke2  110  93 I35
stroke2  111  93 I35
stroke2  112  93 I35
stroke2  113  93 I35
stroke2  114  93 I35
stroke2  115  93 I35
stroke2  116  93 I35
stroke2  117  94 I35
stroke2  117  95 I35
stroke2  118  96 I35
stroke2  119  97 I35
stroke2  119  98 I35
stroke2  119  99 I35
stroke2  120  101 I35
stroke2  120  102 I35
stroke3  149  82 B46
stroke3  148  82 I46
stroke3  147  82 I46
stroke3  147  81 I46
stroke3  146  81 I46
stroke3  147  82 I46
stroke3  147  83 I46
stroke3  148  83 I46
stroke3  149  84 I46
stroke3  150  85 I46
stroke3  150  86 I46
stroke3  151  87 I46
stroke3  151  88 I46
stroke3  150  88 I46
stroke3  150  89 I46
stroke3  149  89 I46
stroke3  148  89 I46
stroke3  147  88 I46
stroke3  146  86 I46
stroke3  145  85 I46
stroke3  144  83 I46
stroke3  144  81 I46
stroke3  144  79 I46
stroke3  145  78 I46
stroke3  145  77 I46
stroke3  147  77 I46
stroke3  149  76 I46
stroke3  151  77 I46
stroke3  154  78 I46
stroke3  157  79 I46
stroke3  160  81 I46
stroke3  163  83 I46
stroke3  165  84 I46
stroke3  167  86 I46
stroke3  169  87 I46
stroke3  170  89 I46
stroke3  171  90 I46
stroke3  171  91 I46
stroke3  170  91 I46
stroke3  169  90 I46
stroke3  168  89 I46
stroke3  166  87 I46
stroke3  156  57 I46
stroke3  157  55 I46
stroke3  157  54 I46
stroke3  157  53 I46
stroke3  157  54 I46
stroke3  158  54 I46
stroke3  158  55 I46
stroke3  158  56 I46
stroke3  159  57 I46
stroke3  158  58 I46
stroke3  158  59 I46
stroke3  157  59 I46
stroke3  156  59 I46
stroke3  155  58 I46
stroke3  153  57 I46
stroke3  153  56 I46
stroke3  152  54 I46
stroke3  152  53 I46
stroke3  151  51 I46
stroke3  152  50 I46
stroke3  153  49 I46
stroke3  154  49 I46
stroke3  155  49 I46
stroke3  158  49 I46
stroke3  160  49 I46
stroke3  163  50 I46
stroke3  166  52 I46
stroke3  169  53 I46
stroke3  172  54 I46
stroke3  174  55 I46
stroke3  176  56 I46
stroke3  178  58 I46
stroke4  215  49 B35
stroke4  214  49 I35
stroke4  213  50 I35
stroke4  212  50 I35
stroke4  211  50 I35
stroke4  209  50 I35
stroke4  207  51 I35
stroke4  206  50 I35
stroke4  204  50 I35
stroke4  203  49 I35
stroke4  201  48 I35
stroke4  200  47 I35
stroke4  200  45 I35
stroke4  200  44 I35
stroke4  200  42 I35
stroke4  200  41 I35
stroke4  201  40 I35
stroke4  202  40 I35
stroke4  203  40 I35
stroke4  204  40 I35
stroke4  206  40 I35
stroke4  207  41 I35
stroke4  208  42 I35
stroke4  210  43 I35
stroke4  211  44 I35
stroke4  211  46 I35
stroke4  212  48 I35
stroke4  212  51 I35
stroke4  213  53 I35
stroke4  212  56 I35
stroke4  212  59 I35
stroke4  211  62 I35
stroke4  211  64 I35
stroke4  210  67 I35
stroke4  209  69 I35
stroke4  208  71 I35
stroke4  207  72 I35
stroke4  206  73 I35
stroke4  205  74 I35
stroke4  204  75 I35
stroke4  203  76 I35
stroke4  201  76 I35
stroke4  200  76 I35
stroke4  199  76 I35
stroke4  197  76 I35
stroke4  196  75 I35
stroke4  194  75 I35
stroke4  193  74 I35
stroke4  192  74 I35
stroke4  191  74 I35
stroke4  190  74 I35
stroke4  190  75 I35
stroke4  190  76 I35
stroke4  190  77 I35
stroke4  190  78 I35
stroke4  190  80 I35
stroke4  190  82 I35
stroke4  191  84 I35
stroke4  192  86 I35
stroke4  193  88 I35
stroke4  194  90 I35
stroke4  195  91 I35
stroke4  197  92 I35
stroke4  198  93 I35
stroke4  199  93 I35
stroke4  201  94 I35
stroke4  202  93 I35
stroke4  204  93 I35
stroke4  206  92 I35
stroke4  207  92 I35
stroke4  209  91 I35
stroke4  210  91 I35
stroke4  211  90 I35
stroke4  212  90 I35
stroke4  214  90 I35
stroke4  215  90 I35
stroke4  216  90 I35
stroke4  217  91 I35
stroke4  218  92 I35
stroke4  219  93 I35
stroke4  220  94 I35
stroke4  221  95 I35
stroke4  222  96 I35
stroke4  223  97 I35
stroke4  223  98 I35
stroke4  223  99 I35
stroke4  224  99 I35
stroke4  224  98 I35
stroke4  225  98 I35
stroke4  225  97 I35
stroke5  235  86 B47
stroke5  234  86 I47
stroke5  233  87 I47
stroke5  233  88 I47
stroke5  234  89 I47
stroke5  234  90 I47
stroke5  235  91 I47
stroke5  236  92 I47
stroke5  237  92 I47
stroke5  238  93 I47
stroke5  239  93 I47
stroke5  240  93 I47
stroke5  241  93 I47
stroke5  242  92 I47
stroke5  244  92 I47
stroke5  245  90 I47
stroke5  246  89 I47
stroke5  247  86 I47
stroke5  248  84 I47
stroke5  249  81 I47
stroke5  249  77 I47
stroke5  250  74 I47
stroke5  250  70 I47
stroke5  250  66 I47
stroke5  250  63 I47
stroke5  251  60 I47
stroke5  251  57 I47
stroke5  251  54 I47
stroke5  251  51 I47
stroke5  252  49 I47
stroke5  252  48 I47
stroke5  252  46 I47
stroke5  252  45 I47
stroke5  253  44 I47
stroke5  253  42 I47
stroke5  253  41 I47
stroke5  254  40 I47
stroke5  254  39 I47
stroke5  254  40 I47
stroke5  255  40 I47
stroke6  285  87 B10
stroke6  284  87 I10
stroke6  283  87 I10
stroke6  282  87 I10
stroke6  280  87 I10
stroke6  279  86 I10
stroke6  277  86 I10
stroke6  275  85 I10
stroke6  273  85 I10
stroke6  272  85 I10
stroke6  271  85 I10
stroke6  270  86 I10
stroke6  269  87 I10
stroke6  268  88 I10
stroke6  268  89 I10
stroke6  268  90 I10
stroke6  269  91 I10
stroke6  270  92 I10
stroke6  271  93 I10
stroke6  273  93 I10
stroke6  274  93 I10
stroke6  276  93 I10
stroke6  278  92 I10
stroke6  279  90 I10
stroke6  281  88 I10
stroke6  282  85 I10
stroke6  283  81 I10
stroke6  284  78 I10
stroke6  284  74 I10
stroke6  284  71 I10
stroke6  285  67 I10
stroke6  285  63 I10
stroke6  285  60 I10
stroke6  285  57 I10
stroke6  286  54 I10
stroke6  286  51 I10
stroke6  287  49 I10
stroke6  288  47 I10
stroke6  289  45 I10
stroke6  290  44 I10
stroke6  291  44 I10
stroke6  292  44 I10
stroke6  293  44 I10
stroke6  294  44 I10
stroke6  295  45 I10
stroke6  295  46 I10
stroke6  296  48 I10
stroke6  296  49 I10
stroke6  297  52 I10
stroke6  297  54 I10
stroke6  297  57 I10
stroke6  296  60 I10
stroke6  296  62 I10
stroke6  295  65 I10
stroke6  294  67 I10
stroke6  293  69 I10
stroke6  292  71 I10
stroke6  291  72 I10
stroke6  290  74 I10
stroke6  289  75 I10
stroke6  288  76 I10
stroke6  287  77 I10
stroke6  287  78 I10
stroke6  286  79 I10
stroke6  286  80 I10
stroke6  286  81 I10
stroke6  286  83 I10
stroke6  287  85 I10
stroke6  289  87 I10
stroke6  290  90 I10
stroke6  293  93 I10
stroke6  295  96 I10
stroke6  298  99 I10
stroke6  301  102 I10
stroke6  304  105 I10
stroke6  306  107 I10
stroke6  309  110 I10
stroke6  310  111 I10
stroke6  312  113 I10
stroke6  313  114 I10
stroke6  314  114 I10
stroke6  314  115 I10
stroke6  315  115 I10
stroke6  315  116 I10
stroke6  316  116 I10
stroke6  317  115 I10
stroke6  318  114 I10
stroke7  338  86 B26
stroke7  338  85 I26
stroke7  337  84 I26
stroke7  336  83 I26
stroke7  334  82 I26
stroke7  333  81 I26
stroke7  331  80 I26
stroke7  329  79 I26
stroke7  327  78 I26
stroke7  325  78 I26
stroke7  324  78 I26
stroke7  323  78 I26
stroke7  322  79 I26
stroke7  321  80 I26
stroke7  320  82 I26
stroke7  320  83 I26
stroke7  319  85 I26
stroke7  320  87 I26
stroke7  320  88 I26
stroke7  320  90 I26
stroke7  321  91 I26
stroke7  322  93 I26
stroke7  323  94 I26
stroke7  324  94 I26
stroke7  326  95 I26
stroke7  327  95 I26
stroke7  329  95 I26
stroke7  330  94 I26
stroke7  332  93 I26
stroke7  334  92 I26
stroke7  335  90 I26
stroke7  337  87 I26
stroke7  338  84 I26
stroke7  339  81 I26
stroke7  340  77 I26
stroke7  341  73 I26
stroke7  341  70 I26
stroke7  342  66 I26
stroke7  342  62 I26
stroke7  342  58 I26
stroke7  342  54 I26
stroke7  342  51 I26
stroke7  342  48 I26
stroke7  341  45 I26
stroke7  341  43 I26
stroke7  341  42 I26
stroke7  341  40 I26
stroke7  341  39 I26
stroke7  341  38 I26
stroke7  342  38 I26
stroke7  343  39 I26
stroke7  344  39 I26
stroke7  345  39 I26
stroke7  346  40 I26
stroke7  348  41 I26
stroke7  350  41 I26
stroke7  352  41 I26
stroke7  354  42 I26
stroke7  356  42 I26
stroke7  358  41 I26
stroke7  360  41 I26
stroke7  361  41 I26
stroke7  363  40 I26
stroke7  364  40 I26
stroke7  366  40 I26
stroke7  367  39 I26
stroke7  368  39 I26
stroke7  369  39 I26
stroke7  369  40 I26
stroke7  369  41 I26
stroke7  369  42 I26
stroke7  369  44 I26
stroke7  369  47 I26
stroke7  369  50 I26
stroke7  369  53 I26
stroke7  369  57 I26
stroke7  369  62 I26
stroke7  369  66 I26
stroke7  369  71 I26
stroke7  370  76 I26
stroke7  370  80 I26
stroke7  369  83 I26
stroke7  369  86 I26
stroke7  369  89 I26
stroke7  369  91 I26
stroke7  369  93 I26
stroke7  368  94 I26
stroke7  368  95 I26
stroke7  367  96 I26
stroke7  366  97 I26
stroke7  366  98 I26
stroke7  365  99 I26
stroke7  364  99 I26
stroke8  360  109 B45
stroke8  360  110 I45
stroke8  359  111 I45
stroke8  359  112 I45
stroke8  359  113 I45
stroke8  359  114 I45
stroke8  359  116 I45
stroke8  360  117 I45
stroke8  361  119 I45
stroke8  361  120 I45
stroke8  361  122 I45
stroke8  361  123 I45
stroke8  361  124 I45
stroke8  360  124 I45
stroke8  359  123 I45
stroke8  358  122 I45
stroke8  357  121 I45
stroke8  356  119 I45
stroke8  355  117 I45
stroke8  355  115 I45
stroke8  355  113 I45
stroke8  356  112 I45
stroke8  357  111 I45
stroke8  359  110 I45
stroke8  362  109 I45
stroke8  364  110 I45
stroke8  368  111 I45
stroke8  372  112 I45
stroke8  375  113 I45
stroke8  379  115 I45
stroke8  382  117 I45
stroke8  385  118 I45
stroke8  387  120 I45
stroke8  389  121 I45
stroke8  391  122 I45
stroke8  393  123 I45
stroke8  394  123 I45
stroke9  398  47 B13
stroke9  398  48 I13
stroke9  399  49 I13
stroke9  400  50 I13
stroke9  401  50 I13
stroke9  402  50 I13
stroke9  403  49 I13
stroke9  405  49 I13
stroke9  406  48 I13
stroke9  407  48 I13
stroke9  408  47 I13
stroke9  409  46 I13
stroke9  409  45 I13
stroke9  409  44 I13
stroke9  409  43 I13
stroke9  408  42 I13
stroke9  407  42 I13
stroke9  406  41 I13
stroke9  405  41 I13
stroke9  404  41 I13
stroke9  403  41 I13
stroke9  402  42 I13
stroke9  401  44 I13
stroke9  400  46 I13
stroke9  399  48 I13
stroke9  398  51 I13
stroke9  398  54 I13
stroke9  398  57 I13
stroke9  399  61 I13
stroke9  399  64 I13
stroke9  400  67 I13
stroke9  400  69 I13
stroke9  401  71 I13
stroke9  401  73 I13
stroke9  401  74 I13
stroke9  401  75 I13
stroke9  400  76 I13
stroke9  400  77 I13
stroke9  399  77 I13
stroke9  398  78 I13
stroke9  397  79 I13
stroke9  397  80 I13
stroke9  396  80 I13
stroke9  397  82 I13
stroke9  397  83 I13
stroke9  397  84 I13
stroke9  398  86 I13
stroke9  400  87 I13
stroke9  402  88 I13
stroke9  404  89 I13
stroke9  406  89 I13
stroke9  409  90 I13
stroke9  413  90 I13
stroke9  416  90 I13
stroke9  419  89 I13
stroke9  422  88 I13
stroke9  425  87 I13
stroke9  427  85 I13
stroke9  429  82 I13
stroke9  430  80 I13
stroke9  432  77 I13
stroke9  433  73 I13
stroke9  433  70 I13
stroke9  433  67 I13
stroke9  434  64 I13
stroke9  434  60 I13
stroke9  434  57 I13
stroke9  434  54 I13
stroke9  433  51 I13
stroke9  433  48 I13
stroke9  433  46 I13
stroke9  434  44 I13
stroke9  434  43 I13
stroke9  435  42 I13
stroke9  436  41 I13
stroke9  437  42 I13
stroke9  439  42 I13
stroke9  440  42 I13
stroke9  442  42 I13
stroke9  443  43 I13
stroke9  445  43 I13
stroke9  446  43 I13
stroke9  448  42 I13
stroke9  449  42 I13
stroke9  451  42 I13
stroke9  452  41 I13
stroke9  453  41 I13
stroke9  454  41 I13
stroke9  455  40 I13
stroke9  456  40 I13
stroke9  456  41 I13
stroke9  457  41 I13
stroke9  457  43 I13
stroke9  457  44 I13
stroke9  458  46 I13
stroke9  457  49 I13
stroke9  458  52 I13
stroke9  457  55 I13
stroke9  457  59 I13
stroke9  457  64 I13
stroke9  457  68 I13
stroke9  457  72 I13
stroke9  456  77 I13
stroke9  456  80 I13
stroke9  456  84 I13
stroke9  456  87 I13
stroke9  455  89 I13
stroke9  455  91 I13
stroke9  455  93 I13
stroke9  454  94 I13
stroke9  454  95 I13
stroke9  454  94 I13
stroke9  453  93 I13
stroke9  453  91 I13
stroke9  453  89 I13
stroke9  452  86 I13
stroke9  452  82 I13
stroke10  437  15 B71
stroke10  436  13 I71
stroke10  435  11 I71
stroke10  434  10 I71
stroke10  434  9 I71
stroke10  433  7 I71
stroke10  434  6 I71
stroke10  435  5 I71
stroke10  436  5 I71
stroke10  437  5 I71
stroke10  439  6 I71
stroke10  440  6 I71
stroke10  442  8 I71
stroke10  443  9 I71
stroke10  444  11 I71
stroke10  445  13 I71
stroke10  445  15 I71
stroke10  445  17 I71
stroke10  444  18 I71
stroke10  444  19 I71
stroke10  443  20 I71
stroke10  441  19 I71
stroke10  440  19 I71
stroke10  438  17 I71
stroke10  436  16 I71
stroke10  435  14 I71
stroke10  434  12 I71
stroke10  433  10 I71
stroke10  433  8 I71
stroke10  433  7 I71
stroke10  434  5 I71
stroke10  435  5 I71
stroke10  436  4 I71
stroke10  438  4 I71
stroke10  441  4 I71
stroke10  443  5 I71
stroke10  446  5 I71
stroke10  448  6 I71
stroke10  450  7 I71
stroke10  453  9 I71
stroke10  454  10 I71
stroke10  456  12 I71
stroke10  457  13 I71
stroke10  458  15 I71
stroke10  459  17 I71
stroke11  512  45 B13
stroke11  512  46 I13
stroke11  513  47 I13
stroke11  514  47 I13
stroke11  515  47 I13
stroke11  516  47 I13
stroke11  518  46 I13
stroke11  520  46 I13
stroke11  521  45 I13
stroke11  523  44 I13
stroke11  524  44 I13
stroke11  524  43 I13
stroke11  524  42 I13
stroke11  523  41 I13
stroke11  522  40 I13
stroke11  521  40 I13
stroke11  519  40 I13
stroke11  517  40 I13
stroke11  516  40 I13
stroke11  514  41 I13
stroke11  512  42 I13
stroke11  511  43 I13
stroke11  510  45 I13
stroke11  509  48 I13
stroke11  509  50 I13
stroke11  509  53 I13
stroke11  509  57 I13
stroke11  510  60 I13
stroke11  511  63 I13
stroke11  512  66 I13
stroke11  513  68 I13
stroke11  514  71 I13
stroke11  514  72 I13
stroke11  514  74 I13
stroke11  514  75 I13
stroke11  514  76 I13
stroke11  513  77 I13
stroke11  512  78 I13
stroke11  510  79 I13
stroke11  509  80 I13
stroke11  507  80 I13
stroke11  505  81 I13
stroke11  504  81 I13
stroke11  503  82 I13
stroke11  502  83 I13
stroke11  501  84 I13
stroke11  501  86 I13
stroke11  501  87 I13
stroke11  502  88 I13
stroke11  503  90 I13
stroke11  505  91 I13
stroke11  507  93 I13
stroke11  510  94 I13
stroke11  513  94 I13
stroke11  516  95 I13
stroke11  520  95 I13
stroke11  523  95 I13
stroke11  527  95 I13
stroke11  530  94 I13
stroke11  533  93 I13
stroke11  536  92 I13
stroke11  538  90 I13
stroke11  540  87 I13
stroke11  541  84 I13
stroke11  542  81 I13
stroke11  543  77 I13
stroke11  543  74 I13
stroke11  544  70 I13
stroke11  544  67 I13
stroke11  544  63 I13
stroke11  544  60 I13
stroke11  544  57 I13
stroke11  544  54 I13
stroke11  544  51 I13
stroke11  544  48 I13
stroke11  544  47 I13
stroke11  545  45 I13
stroke11  545  44 I13
stroke11  546  43 I13
stroke11  546  42 I13
stroke11  547  42 I13
stroke11  548  42 I13
stroke11  549  42 I13
stroke11  550  42 I13
stroke11  551  42 I13
stroke11  553  43 I13
stroke11  555  43 I13
stroke11  556  43 I13
stroke11  558  43 I13
stroke11  560  43 I13
stroke11  562  43 I13
stroke11  563  43 I13
stroke11  564  43 I13
stroke11  565  43 I13
stroke11  567  43 I13
stroke11  568  43 I13
stroke11  569  43 I13
stroke11  570  43 I13
stroke11  570  44 I13
stroke11  570  45 I13
stroke11  570  46 I13
stroke11  570  47 I13
stroke11  570  49 I13
stroke11  570  52 I13
stroke11  570  55 I13
stroke11  570  58 I13
stroke11  569  61 I13
stroke11  569  65 I13
stroke11  569  69 I13
stroke11  569  73 I13
stroke11  569  77 I13
stroke11  569  80 I13
stroke11  568  83 I13
stroke11  568  86 I13
stroke11  568  88 I13
stroke11  568  90 I13
stroke11  567  91 I13
stroke11  567  92 I13
stroke11  567  93 I13
stroke11  566  93 I13
stroke11  566  94 I13
stroke11  565  95 I13
stroke11  564  95 I13
stroke11  563  95 I13
stroke12  555  123 B45
stroke12  554  124 I45
stroke12  553  124 I45
stroke12  552  124 I45
stroke12  552  125 I45
stroke12  553  126 I45
stroke12  555  127 I45
stroke12  557  128 I45
stroke12  559  129 I45
stroke12  561  131 I45
stroke12  563  132 I45
stroke12  564  133 I45
stroke12  565  135 I45
stroke12  566  136 I45
stroke12  566  137 I45
stroke12  565  137 I45
stroke12  564  137 I45
stroke12  562  137 I45
stroke12  560  136 I45
stroke12  558  134 I45
stroke12  557  132 I45
stroke12  555  130 I45
stroke12  554  128 I45
stroke12  554  126 I45
stroke12  555  125 I45
stroke12  556  123 I45
stroke12  557  123 I45
stroke12  560  122 I45
stroke12  563  122 I45
stroke12  566  123 I45
stroke12  570  124 I45
stroke12  573  125 I45
stroke12  577  127 I45
stroke12  580  128 I45
stroke12  582  129 I45
stroke12  585  130 I45
stroke12  586  131 I45
stroke12  587  132 I45
stroke12  588  133 I45
stroke13  554  5 B71
stroke13  554  4 I71
stroke13  554  3 I71
stroke13  555  3 I71
stroke13  555  4 I71
stroke13  556  4 I71
stroke13  557  4 I71
stroke13  558  5 I71
stroke13  559  6 I71
stroke13  560  7 I71
stroke13  560  8 I71
stroke13  561  10 I71
stroke13  560  11 I71
stroke13  560  12 I71
stroke13  559  12 I71
stroke13  558  13 I71
stroke13  557  13 I71
stroke13  556  13 I71
stroke13  555  13 I71
stroke13  554  12 I71
stroke13  553  10 I71
stroke13  551  9 I71
stroke13  551  7 I71
stroke13  550  5 I71
stroke13  551  4 I71
stroke13  551  2 I71
stroke13  553  1 I71
stroke13  554  0 I71
stroke13  557  0 I71
stroke13  560  0 I71
stroke13  564  1 I71
stroke13  567  3 I71
stroke13  571  4 I71
stroke13  575  6 I71
stroke13  578  8 I71
stroke13  581  11 I71
stroke13  583  13 I71
stroke14  643  66 B21
stroke14  642  66 I21
stroke14  641  66 I21
stroke14  641  65 I21
stroke14  640  65 I21
stroke14  639  64 I21
stroke14  638  64 I21
stroke14  637  64 I21
stroke14  636  63 I21
stroke14  635  63 I21
stroke14  633  64 I21
stroke14  632  64 I21
stroke14  631  65 I21
stroke14  630  65 I21
stroke14  629  67 I21
stroke14  628  68 I21
stroke14  628  70 I21
stroke14  628  71 I21
stroke14  629  73 I21
stroke14  630  74 I21
stroke14  631  75 I21
stroke14  632  76 I21
stroke14  633  76 I21
stroke14  635  76 I21
stroke14  636  76 I21
stroke14  638  75 I21
stroke14  639  74 I21
stroke14  641  72 I21
stroke14  643  71 I21
stroke14  644  68 I21
stroke14  645  66 I21
stroke14  646  63 I21
stroke14  646  61 I21
stroke14  646  58 I21
stroke14  646  55 I21
stroke14  646  53 I21
stroke14  645  50 I21
stroke14  644  48 I21
stroke14  643  46 I21
stroke14  641  44 I21
stroke14  640  42 I21
stroke14  638  41 I21
stroke14  636  40 I21
stroke14  635  40 I21
stroke14  633  39 I21
stroke14  631  40 I21
stroke14  630  41 I21
stroke14  628  42 I21
stroke14  626  44 I21
stroke14  624  46 I21
stroke14  623  49 I21
stroke14  622  53 I21
stroke14  621  56 I21
stroke14  621  61 I21
stroke14  621  65 I21
stroke14  622  69 I21
stroke14  622  74 I21
stroke14  624  78 I21
stroke14  625  82 I21
stroke14  627  85 I21
stroke14  629  88 I21
stroke14  631  90 I21
stroke14  633  92 I21
stroke14  635  93 I21
stroke14  636  93 I21
stroke14  638  92 I21
stroke14  639  91 I21
stroke14  641  89 I21
stroke14  642  88 I21
stroke14  643  86 I21
stroke14  644  84 I21
stroke14  645  83 I21
stroke14  646  82 I21
stroke14  647  82 I21
stroke14  648  81 I21
stroke14  649  82 I21
stroke14  650  82 I21
stroke14  651  84 I21
stroke14  652  86 I21
stroke14  653  88 I21
stroke14  654  90 I21
stroke14  655  92 I21
stroke14  656  94 I21
stroke14  657  95 I21
stroke14  658  96 I21
stroke14  659  97 I21
stroke14  660  98 I21
stroke14  661  98 I21
stroke14  662  98 I21
stroke14  663  97 I21
stroke14  664  96 I21
stroke14  665  94 I21
stroke14  666  91 I21
stroke14  666  88 I21
stroke14  666  84 I21
stroke14  667  80 I21
stroke14  666  76 I21
stroke14  666  71 I21
stroke14  666  67 I21
stroke14  666  63 I21
stroke14  666  59 I21
stroke14  666  56 I21
stroke14  666  53 I21
stroke14  666  50 I21
stroke14  666  48 I21
stroke14  666  46 I21
stroke14  666  45 I21
stroke14  666  44 I21
stroke14  665  43 I21
stroke14  665  42 I21
stroke14  664  42 I21
stroke14  664  43 I21
stroke14  663  44 I21
stroke14  663  45 I21
stroke14  662  47 I21
stroke15  667  111 B48
stroke15  667  112 I48
stroke15  668  113 I48
stroke15  668  114 I48
stroke15  668  115 I48
stroke15  668  116 I48
stroke15  668  117 I48
stroke15  667  118 I48
stroke15  667  119 I48
stroke15  667  120 I48
stroke15  666  121 I48
stroke15  665  122 I48
stroke15  663  123 I48
stroke15  661  124 I48
stroke15  659  125 I48
stroke15  655  125 I48
stroke15  652  125 I48
stroke15  648  125 I48
stroke15  643  124 I48
stroke15  639  124 I48
stroke15  636  123 I48
stroke15  633  122 I48
stroke15  631  122 I48
stroke15  629  122 I48
stroke15  628  121 I48
stroke15  627  121 I48
stroke15  626  121 I48
stroke15  626  122 I48
stroke15  626  123 I48
stroke15  626  124 I48
stroke15  626  125 I48
stroke15  626  127 I48
stroke15  627  130 I48
stroke15  628  133 I48
stroke15  629  136 I48
stroke15  632  139 I48
stroke15  634  142 I48
stroke15  637  144 I48
stroke15  640  146 I48
stroke15  644  148 I48
stroke15  647  149 I48
stroke15  650  149 I48
stroke15  654  148 I48
stroke15  657  147 I48
stroke15  659  145 I48
stroke15  662  143 I48
stroke15  664  140 I48
stroke15  665  138 I48
stroke15  667  135 I48
stroke15  668  133 I48
stroke15  669  130 I48
stroke15  669  129 I48
stroke15  670  127 I48
stroke15  670  126 I48
stroke15  671  125 I48
stroke15  671  124 I48
stroke15  671  123 I48
stroke15  672  123 I48
stroke15  672  122 I48
stroke15  671  122 I48
