stroke1  93  13 B58
stroke1  92  13 I58
stroke1  92  14 I58
stroke1  93  15 I58
stroke1  93  16 I58
stroke1  94  16 I58
stroke1  94  17 I58
stroke1  95  18 I58
stroke1  96  18 I58
stroke1  97  18 I58
stroke1  97  19 I58
stroke1  98  19 I58
stroke1  99  19 I58
stroke1  100  19 I58
stroke1  101  18 I58
stroke1  102  18 I58
stroke1  103  18 I58
stroke1  104  17 I58
stroke1  105  17 I58
stroke1  105  17 I58
stroke1  105  16 I58
stroke1  106  15 I58
stroke1  107  14 I58
stroke1  108  13 I58
stroke1  108  12 I58
stroke1  108  11 I58
stroke1  109  10 I58
stroke1  109  9 I58
stroke1  109  8 I58
stroke1  109  7 I58
stroke1  108  6 I58
stroke1  108  5 I58
stroke1  107  4 I58
stroke1  106  3 I58
stroke1  105  3 I58
stroke1  104  2 I58
stroke1  103  2 I58
stroke1  102  2 I58
stroke1  101  2 I58
stroke1  100  2 I58
stroke1  99  2 I58
stroke1  98  2 I58
stroke1  97  2 I58
stroke1  97  3 I58
stroke1  96  3 I58
stroke1  96  4 I58
stroke1  95  5 I58
stroke1  94  6 I58
stroke1  94  7 I58
stroke1  93  9 I58
stroke1  93  10 I58
stroke1  92  12 I58
stroke1  92  14 I58
stroke1  92  15 I58
stroke1  92  17 I58
stroke1  91  19 I58
stroke1  91  21 I58
stroke1  91  24 I58
stroke1  91  26 I58
stroke1  91  28 I58
stroke1  91  30 I58
stroke1  91  32 I58
stroke1  91  35 I58
stroke1  91  37 I58
stroke1  91  39 I58
stroke1  91  42 I58
stroke1  91  44 I58
stroke1  91  46 I58
stroke1  91  49 I58
stroke1  91  51 I58
stroke1  91  53 I58
stroke1  91  55 I58
stroke1  91  58 I58
stroke1  91  60 I58
stroke1  90  62 I58
stroke1  90  65 I58
stroke1  90  67 I58
stroke1  90  69 I58
stroke1  89  72 I58
stroke1  89  74 I58
stroke1  88  76 I58
stroke1  88  78 I58
stroke1  87  80 I58
stroke1  86  82 I58
stroke1  85  84 I58
stroke1  84  86 I58
stroke1  83  87 I58
stroke1  82  89 I58
stroke1  80  90 I58
stroke1  79  91 I58
stroke1  78  92 I58
stroke1  76  93 I58
stroke1  75  94 I58
stroke1  74  94 I58
stroke1  72  94 I58
stroke1  71  95 I58
stroke1  69  95 I58
stroke1  68  94 I58
stroke1  66  94 I58
stroke1  65  93 I58
stroke1  63  92 I58
stroke1  61  92 I58
stroke1  60  91 I58
stroke1  59  90 I58
stroke1  58  90 I58
stroke1  57  89 I58
stroke1  56  89 I58
stroke1  55  89 I58
stroke1  55  90 I58
stroke1  54  90 I58
stroke1  54  91 I58
stroke1  54  92 I58
stroke1  54  93 I58
stroke1  54  95 I58
stroke1  54  97 I58
stroke1  55  99 I58
stroke1  55  101 I58
stroke1  57  103 I58
stroke1  58  105 I58
stroke1  59  107 I58
stroke1  61  109 I58
stroke1  63  110 I58
stroke1  64  111 I58
stroke1  66  112 I58
stroke1  68  112 I58
stroke1  70  112 I58
stroke1  71  112 I58
stroke1  73  112 I58
stroke1  75  112 I58
stroke1  78  111 I58
stroke1  80  110 I58
stroke1  82  110 I58
stroke1  83  109 I58
stroke1  85  109 I58
stroke1  86  109 I58
stroke1  87  109 I58
stroke1  88  109 I58
stroke1  89  109 I58
stroke1  91  109 I58
stroke1  92  110 I58
stroke1  93  111 I58
stroke1  94  112 I58
stroke1  96  114 I58
stroke1  97  116 I58
stroke1  98  117 I58
stroke1  99  119 I58
stroke1  100  120 I58
stroke1  101  121 I58
stroke1  102  122 I58
stroke1  103  123 I58
stroke1  104  123 I58
stroke2  114  47 B6
stroke2  113  47 I6
stroke2  113  48 I6
stroke2  114  48 I6
stroke2  114  49 I6
stroke2  115  49 I6
stroke2  116  50 I6
stroke2  117  50 I6
stroke2  118  50 I6
stroke2  119  50 I6
stroke2  121  49 I6
stroke2  122  48 I6
stroke2  123  47 I6
stroke2  123  46 I6
stroke2  123  45 I6
stroke2  123  44 I6
stroke2  122  43 I6
stroke2  122  42 I6
stroke2  121  41 I6
stroke2  120  40 I6
stroke2  119  39 I6
stroke2  118  39 I6
stroke2  117  38 I6
stroke2  116  38 I6
stroke2  115  38 I6
stroke2  114  39 I6
stroke2  113  39 I6
stroke2  111  40 I6
stroke2  111  42 I6
stroke2  110  43 I6
stroke2  109  45 I6
stroke2  109  47 I6
stroke2  109  48 I6
stroke2  109  50 I6
stroke2  109  52 I6
stroke2  110  54 I6
stroke2  111  55 I6
stroke2  111  57 I6
stroke2  113  58 I6
stroke2  114  59 I6
stroke2  115  59 I6
stroke2  117  60 I6
stroke2  118  59 I6
stroke2  120  59 I6
stroke2  121  58 I6
stroke2  122  58 I6
stroke2  124  57 I6
stroke2  125  56 I6
stroke2  126  55 I6
stroke2  127  55 I6
stroke2  128  55 I6
stroke2  129  56 I6
stroke2  130  57 I6
stroke2  130  58 I6
stroke2  131  59 I6
stroke2  132  60 I6
stroke2  133  61 I6
stroke2  134  62 I6
stroke2  135  62 I6
stroke2  136  62 I6
stroke2  137  62 I6
stroke2  138  62 I6
stroke2  139  61 I6
stroke2  140  61 I6
stroke2  140  60 I6
stroke2  141  59 I6
stroke2  142  58 I6
stroke2  143  57 I6
stroke2  144  56 I6
stroke2  144  54 I6
stroke2  145  52 I6
stroke2  145  50 I6
stroke2  146  48 I6
stroke2  146  46 I6
stroke2  147  43 I6
stroke2  147  41 I6
stroke2  147  38 I6
stroke2  147  36 I6
stroke2  147  34 I6
stroke2  147  31 I6
stroke2  147  29 I6
stroke2  147  27 I6
stroke2  146  25 I6
stroke2  146  23 I6
stroke2  146  21 I6
stroke2  145  19 I6
stroke2  145  18 I6
stroke2  145  16 I6
stroke2  144  15 I6
stroke2  143  14 I6
stroke2  142  13 I6
stroke2  142  12 I6
stroke2  141  11 I6
stroke2  139  11 I6
stroke2  138  10 I6
stroke2  137  10 I6
stroke2  136  9 I6
stroke2  134  9 I6
stroke2  133  8 I6
stroke2  132  8 I6
stroke2  131  8 I6
stroke2  130  8 I6
stroke2  129  8 I6
stroke2  128  9 I6
stroke2  128  10 I6
stroke2  127  11 I6
stroke2  127  12 I6
stroke2  127  14 I6
stroke2  128  15 I6
stroke2  128  16 I6
stroke2  128  17 I6
stroke2  129  18 I6
stroke2  129  19 I6
stroke2  130  19 I6
stroke2  130  20 I6
stroke2  131  21 I6
stroke2  133  21 I6
stroke2  134  22 I6
stroke2  135  22 I6
stroke2  137  22 I6
stroke2  139  22 I6
stroke2  140  21 I6
stroke2  142  21 I6
stroke2  143  20 I6
stroke2  145  19 I6
stroke2  147  18 I6
stroke2  148  17 I6
stroke2  149  15 I6
stroke2  151  14 I6
stroke2  152  13 I6
stroke2  153  11 I6
stroke2  155  10 I6
stroke2  155  9 I6
stroke2  156  8 I6
stroke2  157  7 I6
stroke2  158  7 I6
stroke2  158  6 I6
stroke2  159  6 I6
stroke2  160  6 I6
stroke2  160  7 I6
stroke2  161  7 I6
stroke2  161  8 I6
stroke2  162  8 I6
stroke2  162  9 I6
stroke2  162  10 I6
stroke2  162  12 I6
stroke2  163  13 I6
stroke2  163  14 I6
stroke2  163  16 I6
stroke2  164  18 I6
stroke2  164  20 I6
stroke2  164  22 I6
stroke2  163  25 I6
stroke2  163  27 I6
stroke2  163  30 I6
stroke2  163  33 I6
stroke2  163  35 I6
stroke2  163  38 I6
stroke2  162  40 I6
stroke2  162  42 I6
stroke2  162  44 I6
stroke2  162  46 I6
stroke2  162  48 I6
stroke2  162  50 I6
stroke2  162  51 I6
stroke2  162  52 I6
stroke2  162  54 I6
stroke2  162  55 I6
stroke2  162  56 I6
stroke2  162  57 I6
stroke3  194  48 B39
stroke3  195  47 I39
stroke3  194  47 I39
stroke3  194  46 I39
stroke3  193  45 I39
stroke3  192  45 I39
stroke3  191  44 I39
stroke3  190  44 I39
stroke3  189  44 I39
stroke3  188  45 I39
stroke3  187  45 I39
stroke3  187  46 I39
stroke3  186  47 I39
stroke3  186  48 I39
stroke3  185  49 I39
stroke3  185  51 I39
stroke3  185  52 I39
stroke3  185  53 I39
stroke3  185  54 I39
stroke3  186  55 I39
stroke3  187  56 I39
stroke3  188  56 I39
stroke3  189  57 I39
stroke3  190  57 I39
stroke3  191  57 I39
stroke3  192  57 I39
stroke3  193  57 I39
stroke3  194  57 I39
stroke3  194  56 I39
stroke3  195  55 I39
stroke3  195  54 I39
stroke3  196  53 I39
stroke3  196  52 I39
stroke3  196  51 I39
stroke3  197  49 I39
stroke3  197  48 I39
stroke3  197  46 I39
stroke3  197  44 I39
stroke3  198  42 I39
stroke3  198  40 I39
stroke3  198  38 I39
stroke3  198  36 I39
stroke3  198  34 I39
stroke3  198  32 I39
stroke3  198  30 I39
stroke3  198  29 I39
stroke3  198  27 I39
stroke3  198  25 I39
stroke3  198  23 I39
stroke3  198  22 I39
stroke3  198  20 I39
stroke3  197  18 I39
stroke3  197  16 I39
stroke3  197  15 I39
stroke3  197  13 I39
stroke3  197  12 I39
stroke3  197  11 I39
stroke3  197  10 I39
stroke3  197  9 I39
stroke3  197  8 I39
stroke3  197  7 I39
stroke3  197  6 I39
stroke3  197  5 I39
stroke3  197  4 I39
stroke3  197  3 I39
stroke3  197  2 I39
stroke3  197  1 I39
stroke3  197  0 I39
stroke3  197  1 I39
stroke3  198  1 I39
stroke3  199  1 I39
stroke3  200  1 I39
stroke3  200  2 I39
stroke3  202  2 I39
stroke3  203  2 I39
stroke3  205  2 I39
stroke3  206  3 I39
stroke3  208  3 I39
stroke3  209  3 I39
stroke3  211  3 I39
stroke3  213  3 I39
stroke3  214  3 I39
stroke3  216  3 I39
stroke3  217  3 I39
stroke3  219  3 I39
stroke3  220  2 I39
stroke3  221  2 I39
stroke3  222  2 I39
stroke3  223  2 I39
stroke3  224  2 I39
stroke3  225  2 I39
stroke3  226  2 I39
stroke3  227  2 I39
stroke3  228  2 I39
stroke3  229  2 I39
stroke3  229  3 I39
stroke3  229  4 I39
stroke3  229  5 I39
stroke3  229  6 I39
stroke3  230  7 I39
stroke3  230  8 I39
stroke3  229  10 I39
stroke3  229  11 I39
stroke3  230  13 I39
stroke3  229  14 I39
stroke3  229  16 I39
stroke3  229  18 I39
stroke3  229  20 I39
stroke3  229  21 I39
stroke3  229  23 I39
stroke3  229  25 I39
stroke3  229  27 I39
stroke3  229  29 I39
stroke3  229  31 I39
stroke3  228  32 I39
stroke3  228  34 I39
stroke3  228  36 I39
stroke3  228  38 I39
stroke3  228  40 I39
stroke3  228  41 I39
stroke3  228  43 I39
stroke3  228  44 I39
stroke3  228  46 I39
stroke3  228  47 I39
stroke3  228  48 I39
stroke3  228  49 I39
stroke3  228  50 I39
stroke3  228  51 I39
stroke3  228  50 I39
stroke3  228  49 I39
stroke3  227  49 I39
stroke3  214  31 I39
stroke3  215  31 I39
stroke3  216  31 I39
stroke3  217  31 I39
stroke3  217  32 I39
stroke3  218  32 I39
stroke3  219  32 I39
stroke3  220  33 I39
stroke3  221  34 I39
stroke3  221  35 I39
stroke3  222  36 I39
stroke3  222  37 I39
stroke3  222  38 I39
stroke3  222  39 I39
stroke3  221  39 I39
stroke3  221  40 I39
stroke3  220  41 I39
stroke3  219  41 I39
stroke3  218  41 I39
stroke3  217  41 I39
stroke3  216  40 I39
stroke3  215  40 I39
stroke3  214  38 I39
stroke3  214  37 I39
stroke3  213  35 I39
stroke3  213  34 I39
stroke3  213  32 I39
stroke3  213  30 I39
stroke3  214  29 I39
stroke3  214  27 I39
stroke3  215  26 I39
stroke3  216  26 I39
stroke3  218  25 I39
stroke3  220  25 I39
stroke3  221  24 I39
stroke3  223  25 I39
stroke3  225  25 I39
stroke3  226  25 I39
stroke3  228  26 I39
stroke3  230  26 I39
stroke3  231  27 I39
stroke3  233  27 I39
stroke3  234  28 I39
stroke3  235  29 I39
stroke3  236  30 I39
stroke3  237  31 I39
stroke3  238  32 I39
stroke3  239  32 I39
stroke3  240  33 I39
stroke3  241  34 I39
stroke3  242  35 I39
stroke3  242  36 I39
stroke3  243  36 I39
stroke3  242  36 I39
stroke4  252  10 B19
stroke4  252  11 I19
stroke4  253  11 I19
stroke4  253  12 I19
stroke4  254  12 I19
stroke4  255  12 I19
stroke4  256  13 I19
stroke4  257  13 I19
stroke4  258  12 I19
stroke4  259  12 I19
stroke4  261  12 I19
stroke4  262  11 I19
stroke4  263  11 I19
stroke4  263  10 I19
stroke4  264  9 I19
stroke4  264  8 I19
stroke4  264  7 I19
stroke4  264  6 I19
stroke4  264  5 I19
stroke4  263  5 I19
stroke4  263  4 I19
stroke4  262  3 I19
stroke4  261  3 I19
stroke4  260  2 I19
stroke4  259  2 I19
stroke4  258  3 I19
stroke4  257  3 I19
stroke4  256  3 I19
stroke4  255  4 I19
stroke4  254  5 I19
stroke4  253  6 I19
stroke4  252  8 I19
stroke4  252  10 I19
stroke4  251  12 I19
stroke4  251  14 I19
stroke4  251  16 I19
stroke4  251  19 I19
stroke4  252  22 I19
stroke4  252  25 I19
stroke4  253  28 I19
stroke4  254  31 I19
stroke4  256  35 I19
stroke4  257  38 I19
stroke4  258  40 I19
stroke4  259  43 I19
stroke4  260  45 I19
stroke4  261  46 I19
stroke4  262  48 I19
stroke4  263  49 I19
stroke4  263  50 I19
stroke4  263  51 I19
stroke4  263  52 I19
stroke4  262  53 I19
stroke4  260  53 I19
stroke4  259  53 I19
stroke4  258  53 I19
stroke4  256  53 I19
stroke4  255  53 I19
stroke4  254  53 I19
stroke4  253  54 I19
stroke4  252  54 I19
stroke4  251  54 I19
stroke4  251  55 I19
stroke4  251  56 I19
stroke4  252  57 I19
stroke4  252  59 I19
stroke4  253  60 I19
stroke4  254  61 I19
stroke4  256  62 I19
stroke4  257  63 I19
stroke4  259  64 I19
stroke4  260  65 I19
stroke4  262  65 I19
stroke4  264  65 I19
stroke4  266  65 I19
stroke4  267  65 I19
stroke4  269  65 I19
stroke4  271  64 I19
stroke4  273  64 I19
stroke4  274  63 I19
stroke4  276  62 I19
stroke4  277  61 I19
stroke4  279  60 I19
stroke4  280  59 I19
stroke4  281  58 I19
stroke4  282  56 I19
stroke4  283  54 I19
stroke4  283  52 I19
stroke4  284  50 I19
stroke4  285  47 I19
stroke4  285  45 I19
stroke4  285  42 I19
stroke4  285  40 I19
stroke4  286  37 I19
stroke4  286  35 I19
stroke4  286  33 I19
stroke4  286  31 I19
stroke4  287  29 I19
stroke4  287  27 I19
stroke4  287  25 I19
stroke4  287  23 I19
stroke4  287  21 I19
stroke4  287  19 I19
stroke4  287  18 I19
stroke4  287  16 I19
stroke4  286  14 I19
stroke4  286  13 I19
stroke4  286  11 I19
stroke4  286  10 I19
stroke4  286  9 I19
stroke4  286  8 I19
stroke4  286  7 I19
stroke4  286  6 I19
stroke4  286  5 I19
stroke4  286  4 I19
stroke4  285  4 I19
stroke4  285  3 I19
stroke4  285  2 I19
stroke4  285  3 I19
stroke4  286  4 I19
stroke4  286  5 I19
stroke4  286  6 I19
stroke4  287  7 I19
stroke4  288  8 I19
stroke4  288  9 I19
stroke4  289  10 I19
stroke4  290  11 I19
stroke4  290  13 I19
stroke4  291  14 I19
stroke4  292  15 I19
stroke4  293  16 I19
stroke4  295  17 I19
stroke4  296  19 I19
stroke4  297  20 I19
stroke4  298  21 I19
stroke4  300  22 I19
stroke4  301  22 I19
stroke4  302  23 I19
stroke4  304  24 I19
stroke4  305  24 I19
stroke4  307  25 I19
stroke4  308  25 I19
stroke4  309  25 I19
stroke4  310  26 I19
stroke4  312  26 I19
stroke4  313  26 I19
stroke4  314  26 I19
stroke4  315  26 I19
stroke4  316  26 I19
stroke4  317  25 I19
stroke4  318  25 I19
stroke4  319  25 I19
stroke4  319  24 I19
stroke4  320  24 I19
stroke4  320  23 I19
stroke4  321  23 I19
stroke4  321  22 I19
stroke4  321  21 I19
stroke4  322  20 I19
stroke4  322  19 I19
stroke4  322  18 I19
stroke4  322  16 I19
stroke4  322  15 I19
stroke4  321  14 I19
stroke4  321  12 I19
stroke4  321  11 I19
stroke4  321  10 I19
stroke4  320  9 I19
stroke4  320  7 I19
stroke4  319  6 I19
stroke4  319  5 I19
stroke4  318  4 I19
stroke4  317  3 I19
stroke4  316  3 I19
stroke4  315  3 I19
stroke4  314  3 I19
stroke4  313  3 I19
stroke4  313  4 I19
stroke4  312  4 I19
stroke4  312  5 I19
stroke4  312  6 I19
stroke4  311  7 I19
stroke4  311  8 I19
stroke4  311  10 I19
stroke4  310  12 I19
stroke4  310  14 I19
stroke4  310  16 I19
stroke4  310  18 I19
stroke4  310  20 I19
stroke4  310  22 I19
stroke4  310  24 I19
stroke4  310  26 I19
stroke4  310  28 I19
stroke4  310  30 I19
stroke4  310  32 I19
stroke4  310  34 I19
stroke4  310  36 I19
stroke4  310  38 I19
stroke4  310  40 I19
stroke4  310  42 I19
stroke4  311  44 I19
stroke4  311  46 I19
stroke4  311  48 I19
stroke4  311  49 I19
stroke4  312  51 I19
stroke4  312  53 I19
stroke4  312  54 I19
stroke4  313  56 I19
stroke4  313  57 I19
stroke4  314  59 I19
stroke4  315  60 I19
stroke4  315  61 I19
stroke4  316  63 I19
stroke5  316  64 B47
stroke5  317  64 I47
stroke5  318  65 I47
stroke5  319  66 I47
stroke5  320  67 I47
stroke5  321  67 I47
stroke5  322  68 I47
stroke5  323  68 I47
stroke5  324  69 I47
stroke5  325  69 I47
stroke5  326  69 I47
stroke5  327  69 I47
stroke5  328  69 I47
stroke5  329  69 I47
stroke5  330  69 I47
stroke5  331  68 I47
stroke5  332  68 I47
stroke5  334  68 I47
stroke5  335  67 I47
stroke5  336  67 I47
stroke5  338  66 I47
stroke5  339  65 I47
stroke5  340  65 I47
stroke5  342  64 I47
stroke5  343  63 I47
stroke5  344  62 I47
stroke5  345  61 I47
stroke5  345  60 I47
stroke5  346  58 I47
stroke5  347  57 I47
stroke5  347  55 I47
stroke5  347  54 I47
stroke5  348  52 I47
stroke5  348  50 I47
stroke5  348  48 I47
stroke5  348  46 I47
stroke5  348  45 I47
stroke5  348  43 I47
stroke5  347  41 I47
stroke5  347  39 I47
stroke5  347  37 I47
stroke5  347  35 I47
stroke5  347  34 I47
stroke5  346  32 I47
stroke5  346  30 I47
stroke5  346  29 I47
stroke5  346  27 I47
stroke5  345  25 I47
stroke5  345  24 I47
stroke5  345  22 I47
stroke5  345  20 I47
stroke5  344  19 I47
stroke5  344  17 I47
stroke5  344  16 I47
stroke5  344  14 I47
stroke5  344  13 I47
stroke5  344  12 I47
stroke5  344  10 I47
stroke5  344  9 I47
stroke5  343  8 I47
stroke5  343  7 I47
stroke5  343  6 I47
stroke5  343  5 I47
stroke5  343  4 I47
stroke5  343  3 I47
stroke5  343  2 I47
stroke5  343  1 I47
stroke5  343  0 I47
stroke5  342  0 I47
