stroke1  137  49 B29
stroke1  136  49 I29
stroke1  136  50 I29
stroke1  136  49 I29
stroke1  137  49 I29
stroke1  138  49 I29
stroke1  139  49 I29
stroke1  140  50 I29
stroke1  142  50 I29
stroke1  143  51 I29
stroke1  144  52 I29
stroke1  146  53 I29
stroke1  147  54 I29
stroke1  148  55 I29
stroke1  149  56 I29
stroke1  150  58 I29
stroke1  150  59 I29
stroke1  151  60 I29
stroke1  151  61 I29
stroke1  151  61 I29
stroke1  151  63 I29
stroke1  150  64 I29
stroke1  150  65 I29
stroke1  150  66 I29
stroke1  149  67 I29
stroke1  149  68 I29
stroke1  148  68 I29
stroke1  148  69 I29
stroke1  147  70 I29
stroke1  146  70 I29
stroke1  145  70 I29
stroke1  144  70 I29
stroke1  143  70 I29
stroke1  142  70 I29
stroke1  141  70 I29
stroke1  141  69 I29
stroke1  140  69 I29
stroke1  139  68 I29
stroke1  138  67 I29
stroke1  138  66 I29
stroke1  137  65 I29
stroke1  137  63 I29
stroke1  136  62 I29
stroke1  136  61 I29
stroke1  135  59 I29
stroke1  135  57 I29
stroke1  135  55 I29
stroke1  135  53 I29
stroke1  134  51 I29
stroke1  134  48 I29
stroke1  134  46 I29
stroke1  134  43 I29
stroke1  134  41 I29
stroke1  134  38 I29
stroke1  134  36 I29
stroke1  134  33 I29
stroke1  134  31 I29
stroke1  134  29 I29
stroke1  134  27 I29
stroke1  135  25 I29
stroke1  135  23 I29
stroke1  135  21 I29
stroke1  135  19 I29
stroke1  135  17 I29
stroke1  135  15 I29
stroke1  135  14 I29
stroke1  135  12 I29
stroke1  135  11 I29
stroke1  136  10 I29
stroke1  135  10 I29
stroke1  136  9 I29
stroke1  136  10 I29
stroke1  137  11 I29
stroke1  137  12 I29
stroke1  138  13 I29
stroke1  138  14 I29
stroke1  139  16 I29
stroke1  140  18 I29
stroke1  141  19 I29
stroke1  142  21 I29
stroke1  143  22 I29
stroke1  144  23 I29
stroke1  145  24 I29
stroke1  146  25 I29
stroke1  147  25 I29
stroke1  148  25 I29
stroke1  149  25 I29
stroke1  150  25 I29
stroke1  151  24 I29
stroke1  152  24 I29
stroke1  154  23 I29
stroke1  155  22 I29
stroke1  157  20 I29
stroke1  158  19 I29
stroke1  159  17 I29
stroke1  161  15 I29
stroke1  162  14 I29
stroke1  164  12 I29
stroke1  165  11 I29
stroke1  166  10 I29
stroke1  167  9 I29
stroke1  168  8 I29
stroke1  169  8 I29
stroke1  170  7 I29
stroke1  171  7 I29
stroke1  172  7 I29
stroke1  173  7 I29
stroke1  174  7 I29
stroke1  175  7 I29
stroke1  175  8 I29
stroke1  176  8 I29
stroke1  177  9 I29
stroke1  177  10 I29
stroke1  177  11 I29
stroke1  178  12 I29
stroke1  178  14 I29
stroke1  178  16 I29
stroke1  179  18 I29
stroke1  179  21 I29
stroke1  179  23 I29
stroke1  179  26 I29
stroke1  179  29 I29
stroke1  179  32 I29
stroke1  178  36 I29
stroke1  178  39 I29
stroke1  178  42 I29
stroke1  178  45 I29
stroke1  178  48 I29
stroke1  178  52 I29
stroke1  178  55 I29
stroke1  177  58 I29
stroke1  177  61 I29
stroke1  177  63 I29
stroke1  177  66 I29
stroke1  177  69 I29
stroke1  177  71 I29
stroke1  177  74 I29
stroke1  177  76 I29
stroke1  177  79 I29
stroke1  177  81 I29
stroke1  177  84 I29
stroke1  177  86 I29
stroke1  177  88 I29
stroke1  177  90 I29
stroke1  177  92 I29
stroke1  177  94 I29
stroke1  177  96 I29
stroke1  177  98 I29
stroke1  177  99 I29
stroke1  177  101 I29
stroke1  177  103 I29
stroke1  177  104 I29
stroke1  177  105 I29
stroke1  177  106 I29
stroke1  177  107 I29
stroke1  177  108 I29
stroke1  176  107 I29
stroke1  175  106 I29
stroke2  155  118 B65
stroke2  155  119 I65
stroke2  154  120 I65
stroke2  154  121 I65
stroke2  153  121 I65
stroke2  153  120 I65
stroke2  153  118 I65
stroke2  153  117 I65
stroke2  153  115 I65
stroke2  153  113 I65
stroke2  152  111 I65
stroke2  152  109 I65
stroke2  152  107 I65
stroke2  152  105 I65
stroke2  151  104 I65
stroke2  151  102 I65
stroke2  151  101 I65
stroke2  151  100 I65
stroke3  193  56 B47
stroke3  192  57 I47
stroke3  193  58 I47
stroke3  193  59 I47
stroke3  194  60 I47
stroke3  196  61 I47
stroke3  197  62 I47
stroke3  199  64 I47
stroke3  201  64 I47
stroke3  203  65 I47
stroke3  205  66 I47
stroke3  207  66 I47
stroke3  209  65 I47
stroke3  211  65 I47
stroke3  213  64 I47
stroke3  214  63 I47
stroke3  216  61 I47
stroke3  217  59 I47
stroke3  218  57 I47
stroke3  219  54 I47
stroke3  219  51 I47
stroke3  220  47 I47
stroke3  220  44 I47
stroke3  220  40 I47
stroke3  220  37 I47
stroke3  220  34 I47
stroke3  220  30 I47
stroke3  221  27 I47
stroke3  221  24 I47
stroke3  221  21 I47
stroke3  221  19 I47
stroke3  221  16 I47
stroke3  221  14 I47
stroke3  221  13 I47
stroke3  221  11 I47
stroke3  221  10 I47
stroke3  221  9 I47
stroke3  221  8 I47
stroke3  222  9 I47
stroke4  252  47 B29
stroke4  251  47 I29
stroke4  251  46 I29
stroke4  252  46 I29
stroke4  253  46 I29
stroke4  254  47 I29
stroke4  256  48 I29
stroke4  257  48 I29
stroke4  259  49 I29
stroke4  260  50 I29
stroke4  262  51 I29
stroke4  263  53 I29
stroke4  264  54 I29
stroke4  265  55 I29
stroke4  265  56 I29
stroke4  265  58 I29
stroke4  265  59 I29
stroke4  265  60 I29
stroke4  264  61 I29
stroke4  263  63 I29
stroke4  262  64 I29
stroke4  261  64 I29
stroke4  260  65 I29
stroke4  259  65 I29
stroke4  258  65 I29
stroke4  257  65 I29
stroke4  256  65 I29
stroke4  255  64 I29
stroke4  255  63 I29
stroke4  254  61 I29
stroke4  253  59 I29
stroke4  252  57 I29
stroke4  252  54 I29
stroke4  251  51 I29
stroke4  250  48 I29
stroke4  250  45 I29
stroke4  250  42 I29
stroke4  250  39 I29
stroke4  250  36 I29
stroke4  250  33 I29
stroke4  250  30 I29
stroke4  249  27 I29
stroke4  250  24 I29
stroke4  250  22 I29
stroke4  250  19 I29
stroke4  250  17 I29
stroke4  250  16 I29
stroke4  251  15 I29
stroke4  251  14 I29
stroke4  251  13 I29
stroke4  252  13 I29
stroke4  253  13 I29
stroke4  253  14 I29
stroke4  254  14 I29
stroke4  255  16 I29
stroke4  256  17 I29
stroke4  257  18 I29
stroke4  257  20 I29
stroke4  258  21 I29
stroke4  259  23 I29
stroke4  260  24 I29
stroke4  261  25 I29
stroke4  262  25 I29
stroke4  262  26 I29
stroke4  263  26 I29
stroke4  264  26 I29
stroke4  265  25 I29
stroke4  266  25 I29
stroke4  267  24 I29
stroke4  268  23 I29
stroke4  269  21 I29
stroke4  270  20 I29
stroke4  271  18 I29
stroke4  272  17 I29
stroke4  273  16 I29
stroke4  274  15 I29
stroke4  275  14 I29
stroke4  276  13 I29
stroke4  277  12 I29
stroke4  278  12 I29
stroke4  279  12 I29
stroke4  280  12 I29
stroke4  281  12 I29
stroke4  281  13 I29
stroke4  282  14 I29
stroke4  283  15 I29
stroke4  284  17 I29
stroke4  284  19 I29
stroke4  285  21 I29
stroke4  285  23 I29
stroke4  286  26 I29
stroke4  287  29 I29
stroke4  287  32 I29
stroke4  287  36 I29
stroke4  287  40 I29
stroke4  288  44 I29
stroke4  288  48 I29
stroke4  288  53 I29
stroke4  288  57 I29
stroke4  288  62 I29
stroke4  288  66 I29
stroke4  288  70 I29
stroke4  288  74 I29
stroke4  288  77 I29
stroke4  288  80 I29
stroke4  288  83 I29
stroke4  288  85 I29
stroke4  289  87 I29
stroke4  289  89 I29
stroke4  289  91 I29
stroke4  289  92 I29
stroke4  289  93 I29
stroke4  289  94 I29
stroke4  289  95 I29
stroke4  289  96 I29
stroke4  289  97 I29
stroke4  288  97 I29
stroke4  287  97 I29
stroke5  268  100 B51
stroke5  267  100 I51
stroke5  266  100 I51
stroke5  265  100 I51
stroke5  264  101 I51
stroke5  263  101 I51
stroke5  262  102 I51
stroke5  260  102 I51
stroke5  259  103 I51
stroke5  258  103 I51
stroke5  256  104 I51
stroke5  253  104 I51
stroke5  251  104 I51
stroke5  248  104 I51
stroke5  246  104 I51
stroke5  243  103 I51
stroke5  241  103 I51
stroke5  239  102 I51
stroke5  237  101 I51
stroke5  236  101 I51
stroke5  235  101 I51
stroke5  234  100 I51
stroke5  234  101 I51
stroke5  234  102 I51
stroke5  235  103 I51
stroke5  235  104 I51
stroke5  236  106 I51
stroke5  237  108 I51
stroke5  238  110 I51
stroke5  240  112 I51
stroke5  242  114 I51
stroke5  243  115 I51
stroke5  245  116 I51
stroke5  247  117 I51
stroke5  249  118 I51
stroke5  251  118 I51
stroke5  253  118 I51
stroke5  256  117 I51
stroke5  258  116 I51
stroke5  260  115 I51
stroke5  261  113 I51
stroke5  263  112 I51
stroke5  264  110 I51
stroke5  265  108 I51
stroke5  266  107 I51
stroke5  267  105 I51
stroke5  267  104 I51
stroke5  268  103 I51
stroke5  268  101 I51
stroke5  268  100 I51
stroke5  269  99 I51
stroke5  277  119 I51
stroke5  277  120 I51
stroke5  278  121 I51
stroke5  278  122 I51
stroke5  278  123 I51
stroke5  278  122 I51
stroke5  278  121 I51
stroke5  278  119 I51
stroke5  278  117 I51
stroke5  278  115 I51
stroke5  277  112 I51
stroke5  277  110 I51
stroke5  277  108 I51
stroke5  277  106 I51
stroke5  277  104 I51
stroke5  276  102 I51
stroke5  276  101 I51
stroke5  276  100 I51
stroke5  275  99 I51
stroke5  274  100 I51
stroke5  271  115 I51
stroke5  271  116 I51
stroke5  270  118 I51
stroke5  270  119 I51
stroke5  270  120 I51
stroke5  269  121 I51
stroke5  268  121 I51
stroke5  268  122 I51
stroke5  268  121 I51
stroke5  268  120 I51
stroke5  268  118 I51
stroke5  267  117 I51
stroke5  267  115 I51
stroke5  267  113 I51
stroke5  267  111 I51
stroke5  267  108 I51
stroke5  267  106 I51
stroke5  267  104 I51
stroke5  267  103 I51
stroke5  266  101 I51
stroke5  266  100 I51
stroke5  265  98 I51
stroke6  310  49 B25
stroke6  310  48 I25
stroke6  309  48 I25
stroke6  308  48 I25
stroke6  307  48 I25
stroke6  306  47 I25
stroke6  305  47 I25
stroke6  304  47 I25
stroke6  303  47 I25
stroke6  302  48 I25
stroke6  301  49 I25
stroke6  301  50 I25
stroke6  300  51 I25
stroke6  300  53 I25
stroke6  300  54 I25
stroke6  301  56 I25
stroke6  301  57 I25
stroke6  302  59 I25
stroke6  302  60 I25
stroke6  303  61 I25
stroke6  304  62 I25
stroke6  305  63 I25
stroke6  306  63 I25
stroke6  307  63 I25
stroke6  309  63 I25
stroke6  310  63 I25
stroke6  311  62 I25
stroke6  312  61 I25
stroke6  313  60 I25
stroke6  314  58 I25
stroke6  315  56 I25
stroke6  316  53 I25
stroke6  317  50 I25
stroke6  317  47 I25
stroke6  317  44 I25
stroke6  317  40 I25
stroke6  317  37 I25
stroke6  316  33 I25
stroke6  316  30 I25
stroke6  316  26 I25
stroke6  316  23 I25
stroke6  316  20 I25
stroke6  316  17 I25
stroke6  316  14 I25
stroke6  317  12 I25
stroke6  317  10 I25
stroke6  317  7 I25
stroke6  317  5 I25
stroke6  317  4 I25
stroke6  317  2 I25
stroke6  317  1 I25
stroke6  318  1 I25
stroke6  318  0 I25
stroke6  318  1 I25
stroke6  319  2 I25
stroke6  320  3 I25
stroke6  320  5 I25
stroke6  321  6 I25
stroke6  322  8 I25
stroke6  324  10 I25
stroke6  325  12 I25
stroke6  327  14 I25
stroke6  329  16 I25
stroke6  331  18 I25
stroke6  334  20 I25
stroke6  336  21 I25
stroke6  339  23 I25
stroke6  341  24 I25
stroke6  343  24 I25
stroke6  346  25 I25
stroke6  348  25 I25
stroke6  349  25 I25
stroke6  351  25 I25
stroke6  353  24 I25
stroke6  354  23 I25
stroke6  355  22 I25
stroke6  356  21 I25
stroke6  357  20 I25
stroke6  358  19 I25
stroke6  359  17 I25
stroke6  359  16 I25
stroke6  359  15 I25
stroke6  360  13 I25
stroke6  359  12 I25
stroke6  359  11 I25
stroke6  359  9 I25
stroke6  358  8 I25
stroke6  357  7 I25
stroke6  356  7 I25
stroke6  355  7 I25
stroke6  354  7 I25
stroke6  353  8 I25
stroke6  353  9 I25
stroke6  352  11 I25
stroke6  351  12 I25
stroke6  351  14 I25
stroke6  350  17 I25
stroke6  350  19 I25
stroke6  350  22 I25
stroke6  350  26 I25
stroke6  349  29 I25
stroke6  349  33 I25
stroke6  349  36 I25
stroke6  349  40 I25
stroke6  349  44 I25
stroke6  349  47 I25
stroke6  349  50 I25
stroke6  349  52 I25
stroke6  349  54 I25
stroke6  349  56 I25
stroke6  349  58 I25
stroke6  349  59 I25
stroke6  349  60 I25
stroke6  349  61 I25
stroke6  348  62 I25
stroke6  348  63 I25
stroke6  348  64 I25
stroke6  347  63 I25
