stroke1  66  52 B33
stroke1  66  53 I33
stroke1  65  52 I33
stroke1  64  51 I33
stroke1  63  50 I33
stroke1  63  49 I33
stroke1  62  49 I33
stroke1  61  48 I33
stroke1  60  48 I33
stroke1  58  48 I33
stroke1  57  47 I33
stroke1  56  48 I33
stroke1  55  49 I33
stroke1  54  49 I33
stroke1  53  51 I33
stroke1  52  52 I33
stroke1  52  54 I33
stroke1  51  56 I33
stroke1  51  57 I33
stroke1  51  59 I33
stroke1  51  61 I33
stroke1  52  62 I33
stroke1  52  64 I33
stroke1  53  65 I33
stroke1  54  66 I33
stroke1  55  66 I33
stroke1  55  67 I33
stroke1  56  67 I33
stroke1  58  67 I33
stroke1  59  67 I33
stroke1  60  67 I33
stroke1  61  66 I33
stroke1  62  65 I33
stroke1  63  64 I33
stroke1  64  63 I33
stroke1  65  62 I33
stroke1  66  60 I33
stroke1  67  58 I33
stroke1  67  56 I33
stroke1  68  52 I33
stroke1  69  49 I33
stroke1  70  46 I33
stroke1  70  43 I33
stroke1  70  39 I33
stroke1  71  36 I33
stroke1  71  33 I33
stroke1  71  30 I33
stroke1  71  28 I33
stroke1  71  25 I33
stroke1  71  23 I33
stroke1  70  20 I33
stroke1  70  18 I33
stroke1  69  16 I33
stroke1  68  15 I33
stroke1  68  14 I33
stroke1  67  13 I33
stroke1  66  12 I33
stroke1  65  12 I33
stroke1  63  12 I33
stroke1  62  12 I33
stroke1  61  12 I33
stroke1  59  13 I33
stroke1  58  14 I33
stroke1  57  15 I33
stroke1  56  16 I33
stroke1  56  18 I33
stroke1  56  19 I33
stroke1  56  21 I33
stroke1  56  22 I33
stroke1  57  24 I33
stroke1  58  25 I33
stroke1  60  26 I33
stroke1  62  26 I33
stroke1  64  26 I33
stroke1  66  26 I33
stroke1  69  25 I33
stroke1  71  24 I33
stroke1  74  23 I33
stroke1  76  22 I33
stroke1  79  21 I33
stroke1  81  19 I33
stroke1  83  18 I33
stroke1  85  17 I33
stroke1  87  15 I33
stroke1  89  15 I33
stroke1  90  14 I33
stroke1  91  13 I33
stroke1  92  13 I33
stroke1  92  14 I33
stroke1  93  15 I33
stroke1  93  16 I33
stroke1  92  18 I33
stroke1  92  20 I33
stroke1  92  22 I33
stroke1  92  25 I33
stroke1  92  27 I33
stroke1  91  30 I33
stroke1  91  33 I33
stroke1  91  37 I33
stroke1  91  41 I33
stroke1  91  45 I33
stroke1  90  49 I33
stroke1  90  53 I33
stroke1  90  57 I33
stroke1  90  60 I33
stroke1  90  63 I33
stroke1  90  65 I33
stroke1  90  67 I33
stroke1  90  68 I33
stroke1  90  69 I33
stroke1  89  70 I33
stroke1  89  71 I33
stroke1  88  71 I33
stroke1  87  71 I33
stroke2  83  92 B45
stroke2  82  93 I45
stroke2  81  93 I45
stroke2  80  93 I45
stroke2  80  94 I45
stroke2  82  94 I45
stroke2  83  95 I45
stroke2  84  96 I45
stroke2  86  97 I45
stroke2  88  98 I45
stroke2  90  99 I45
stroke2  91  101 I45
stroke2  92  102 I45
stroke2  93  103 I45
stroke2  94  105 I45
stroke2  94  106 I45
stroke2  93  107 I45
stroke2  93  108 I45
stroke2  92  109 I45
stroke2  91  109 I45
stroke2  89  110 I45
stroke2  88  109 I45
stroke2  87  107 I45
stroke2  85  105 I45
stroke2  84  103 I45
stroke2  83  101 I45
stroke2  83  99 I45
stroke2  83  97 I45
stroke2  84  96 I45
stroke2  85  95 I45
stroke2  87  94 I45
stroke2  89  94 I45
stroke2  92  94 I45
stroke2  94  94 I45
stroke2  97  95 I45
stroke2  100  96 I45
stroke2  103  97 I45
stroke2  105  98 I45
stroke2  107  98 I45
stroke2  109  99 I45
stroke2  110  99 I45
stroke2  111  100 I45
stroke2  112  99 I45
stroke3  138  59 B10
stroke3  137  59 I10
stroke3  137  58 I10
stroke3  136  58 I10
stroke3  135  57 I10
stroke3  134  57 I10
stroke3  133  56 I10
stroke3  131  56 I10
stroke3  129  55 I10
stroke3  128  54 I10
stroke3  126  53 I10
stroke3  124  53 I10
stroke3  122  52 I10
stroke3  121  52 I10
stroke3  120  52 I10
stroke3  119  52 I10
stroke3  118  53 I10
stroke3  118  54 I10
stroke3  117  55 I10
stroke3  117  56 I10
stroke3  118  58 I10
stroke3  118  59 I10
stroke3  119  61 I10
stroke3  120  62 I10
stroke3  121  64 I10
stroke3  123  65 I10
stroke3  124  66 I10
stroke3  126  66 I10
stroke3  128  66 I10
stroke3  130  66 I10
stroke3  132  65 I10
stroke3  134  63 I10
stroke3  136  62 I10
stroke3  137  59 I10
stroke3  138  56 I10
stroke3  140  53 I10
stroke3  140  49 I10
stroke3  141  45 I10
stroke3  142  40 I10
stroke3  142  36 I10
stroke3  143  32 I10
stroke3  143  27 I10
stroke3  143  24 I10
stroke3  144  20 I10
stroke3  145  17 I10
stroke3  146  15 I10
stroke3  147  13 I10
stroke3  148  11 I10
stroke3  150  9 I10
stroke3  152  8 I10
stroke3  153  8 I10
stroke3  155  8 I10
stroke3  157  8 I10
stroke3  159  8 I10
stroke3  160  10 I10
stroke3  161  11 I10
stroke3  162  13 I10
stroke3  163  16 I10
stroke3  163  18 I10
stroke3  163  21 I10
stroke3  163  25 I10
stroke3  162  28 I10
stroke3  161  31 I10
stroke3  160  34 I10
stroke3  158  37 I10
stroke3  157  39 I10
stroke3  155  41 I10
stroke3  153  43 I10
stroke3  152  45 I10
stroke3  150  46 I10
stroke3  148  47 I10
stroke3  147  48 I10
stroke3  146  49 I10
stroke3  146  50 I10
stroke3  145  51 I10
stroke3  146  53 I10
stroke3  147  55 I10
stroke3  148  57 I10
stroke3  150  60 I10
stroke3  152  62 I10
stroke3  155  65 I10
stroke3  158  68 I10
stroke3  161  71 I10
stroke3  164  73 I10
stroke3  167  75 I10
stroke3  170  77 I10
stroke3  172  78 I10
stroke3  173  80 I10
stroke3  175  81 I10
stroke3  176  81 I10
stroke3  176  82 I10
stroke3  177  82 I10
stroke3  178  82 I10
stroke3  178  81 I10
stroke4  202  11 B12
stroke4  202  12 I12
stroke4  202  13 I12
stroke4  203  13 I12
stroke4  204  14 I12
stroke4  205  14 I12
stroke4  206  15 I12
stroke4  208  15 I12
stroke4  210  14 I12
stroke4  211  14 I12
stroke4  212  13 I12
stroke4  213  12 I12
stroke4  214  11 I12
stroke4  214  10 I12
stroke4  214  8 I12
stroke4  213  7 I12
stroke4  212  6 I12
stroke4  211  6 I12
stroke4  210  5 I12
stroke4  209  5 I12
stroke4  207  5 I12
stroke4  205  6 I12
stroke4  204  7 I12
stroke4  202  8 I12
stroke4  201  10 I12
stroke4  200  12 I12
stroke4  199  15 I12
stroke4  199  18 I12
stroke4  199  21 I12
stroke4  199  24 I12
stroke4  200  27 I12
stroke4  200  30 I12
stroke4  201  33 I12
stroke4  201  35 I12
stroke4  202  37 I12
stroke4  202  38 I12
stroke4  202  39 I12
stroke4  202  40 I12
stroke4  202  41 I12
stroke4  201  41 I12
stroke4  200  42 I12
stroke4  199  42 I12
stroke4  198  42 I12
stroke4  197  42 I12
stroke4  196  42 I12
stroke4  195  43 I12
stroke4  194  44 I12
stroke4  194  45 I12
stroke4  194  46 I12
stroke4  194  48 I12
stroke4  195  50 I12
stroke4  196  51 I12
stroke4  197  53 I12
stroke4  198  55 I12
stroke4  200  56 I12
stroke4  201  57 I12
stroke4  203  59 I12
stroke4  204  60 I12
stroke4  206  61 I12
stroke4  208  61 I12
stroke4  210  62 I12
stroke4  212  62 I12
stroke4  215  62 I12
stroke4  217  62 I12
stroke4  218  62 I12
stroke4  220  61 I12
stroke4  222  60 I12
stroke4  224  59 I12
stroke4  225  57 I12
stroke4  227  56 I12
stroke4  228  54 I12
stroke4  229  51 I12
stroke4  230  49 I12
stroke4  232  46 I12
stroke4  233  44 I12
stroke4  234  41 I12
stroke4  235  38 I12
stroke4  236  36 I12
stroke4  237  33 I12
stroke4  237  30 I12
stroke4  238  27 I12
stroke4  239  24 I12
stroke4  239  21 I12
stroke4  239  18 I12
stroke4  240  15 I12
stroke4  239  12 I12
stroke4  239  10 I12
stroke4  239  8 I12
stroke4  239  6 I12
stroke4  238  4 I12
stroke4  238  3 I12
stroke4  237  2 I12
stroke4  236  1 I12
stroke4  235  0 I12
stroke4  234  0 I12
stroke4  232  0 I12
stroke4  231  0 I12
stroke4  229  0 I12
stroke4  228  0 I12
stroke4  227  1 I12
stroke4  226  2 I12
stroke4  226  3 I12
stroke4  225  4 I12
stroke4  225  5 I12
stroke4  226  7 I12
stroke4  226  8 I12
stroke4  227  9 I12
stroke4  229  10 I12
stroke4  230  11 I12
stroke4  232  12 I12
stroke4  233  12 I12
stroke4  235  13 I12
stroke4  237  12 I12
stroke4  239  12 I12
stroke4  241  11 I12
stroke4  243  11 I12
stroke4  244  10 I12
stroke4  246  8 I12
stroke4  247  7 I12
stroke4  248  6 I12
stroke4  249  5 I12
stroke4  250  4 I12
stroke4  251  3 I12
stroke4  252  3 I12
stroke4  252  2 I12
stroke4  253  2 I12
stroke4  254  3 I12
stroke4  254  4 I12
stroke4  254  5 I12
stroke4  255  7 I12
stroke4  255  9 I12
stroke4  255  11 I12
stroke4  255  13 I12
stroke4  255  16 I12
stroke4  255  19 I12
stroke4  254  22 I12
stroke4  254  25 I12
stroke4  254  28 I12
stroke4  254  31 I12
stroke4  254  34 I12
stroke4  254  36 I12
stroke4  254  39 I12
stroke4  253  42 I12
stroke4  253  45 I12
stroke4  253  47 I12
stroke4  253  50 I12
stroke4  253  52 I12
stroke4  253  54 I12
stroke4  253  55 I12
stroke4  253  56 I12
stroke4  253  57 I12
stroke4  253  58 I12
stroke4  253  59 I12
stroke4  252  59 I12
stroke4  252  58 I12
stroke4  251  59 I12
stroke5  254  74 B48
stroke5  254  75 I48
stroke5  253  76 I48
stroke5  252  77 I48
stroke5  252  78 I48
stroke5  251  79 I48
stroke5  250  80 I48
stroke5  249  81 I48
stroke5  248  82 I48
stroke5  247  82 I48
stroke5  245  83 I48
stroke5  243  83 I48
stroke5  240  83 I48
stroke5  238  83 I48
stroke5  235  82 I48
stroke5  232  81 I48
stroke5  230  81 I48
stroke5  228  80 I48
stroke5  227  80 I48
stroke5  226  80 I48
stroke5  225  79 I48
stroke5  224  79 I48
stroke5  223  79 I48
stroke5  223  80 I48
stroke5  222  81 I48
stroke5  222  82 I48
stroke5  222  84 I48
stroke5  222  86 I48
stroke5  223  88 I48
stroke5  223  90 I48
stroke5  224  93 I48
stroke5  226  95 I48
stroke5  227  97 I48
stroke5  229  98 I48
stroke5  230  99 I48
stroke5  232  100 I48
stroke5  234  101 I48
stroke5  236  101 I48
stroke5  238  100 I48
stroke5  240  99 I48
stroke5  242  98 I48
stroke5  243  96 I48
stroke5  244  94 I48
stroke5  246  91 I48
stroke5  247  89 I48
stroke5  247  86 I48
stroke5  248  84 I48
stroke5  249  82 I48
stroke5  249  80 I48
stroke5  250  79 I48
stroke5  250  77 I48
stroke5  250  76 I48
stroke5  251  75 I48
stroke5  251  74 I48
stroke5  251  73 I48
stroke5  250  73 I48
stroke6  280  49 B33
stroke6  281  49 I33
stroke6  280  48 I33
stroke6  279  48 I33
stroke6  278  47 I33
stroke6  277  47 I33
stroke6  276  47 I33
stroke6  275  48 I33
stroke6  273  48 I33
stroke6  273  49 I33
stroke6  272  50 I33
stroke6  271  52 I33
stroke6  271  53 I33
stroke6  271  55 I33
stroke6  271  57 I33
stroke6  271  59 I33
stroke6  271  61 I33
stroke6  272  62 I33
stroke6  273  64 I33
stroke6  274  65 I33
stroke6  275  67 I33
stroke6  276  68 I33
stroke6  278  68 I33
stroke6  279  69 I33
stroke6  280  69 I33
stroke6  281  69 I33
stroke6  283  68 I33
stroke6  284  67 I33
stroke6  285  66 I33
stroke6  286  64 I33
stroke6  287  62 I33
stroke6  288  59 I33
stroke6  289  56 I33
stroke6  290  52 I33
stroke6  290  48 I33
stroke6  290  44 I33
stroke6  290  40 I33
stroke6  290  36 I33
stroke6  290  32 I33
stroke6  290  29 I33
stroke6  290  25 I33
stroke6  289  22 I33
stroke6  289  19 I33
stroke6  288  17 I33
stroke6  287  15 I33
stroke6  287  13 I33
stroke6  285  12 I33
stroke6  284  11 I33
stroke6  283  10 I33
stroke6  281  10 I33
stroke6  279  10 I33
stroke6  278  10 I33
stroke6  276  11 I33
stroke6  275  12 I33
stroke6  273  13 I33
stroke6  273  15 I33
stroke6  272  16 I33
stroke6  272  18 I33
stroke6  272  20 I33
stroke6  273  21 I33
stroke6  274  22 I33
stroke6  276  23 I33
stroke6  278  24 I33
stroke6  280  24 I33
stroke6  283  23 I33
stroke6  286  23 I33
stroke6  290  22 I33
stroke6  293  21 I33
stroke6  296  20 I33
stroke6  299  18 I33
stroke6  302  17 I33
stroke6  304  16 I33
stroke6  306  14 I33
stroke6  308  13 I33
stroke6  309  13 I33
stroke6  310  12 I33
stroke6  311  11 I33
stroke6  312  11 I33
stroke6  313  11 I33
stroke6  313  12 I33
stroke6  313  14 I33
stroke6  313  15 I33
stroke6  313  17 I33
stroke6  313  20 I33
stroke6  313  23 I33
stroke6  313  26 I33
stroke6  313  29 I33
stroke6  313  33 I33
stroke6  313  37 I33
stroke6  313  40 I33
stroke6  313  44 I33
stroke6  313  47 I33
stroke6  313  50 I33
stroke6  313  53 I33
stroke6  313  55 I33
stroke6  313  56 I33
stroke6  313  58 I33
stroke6  313  59 I33
stroke6  313  60 I33
stroke6  314  60 I33
stroke6  314  59 I33
stroke7  358  48 B25
stroke7  357  48 I25
stroke7  356  48 I25
stroke7  355  48 I25
stroke7  354  48 I25
stroke7  353  47 I25
stroke7  351  47 I25
stroke7  350  48 I25
stroke7  348  48 I25
stroke7  347  48 I25
stroke7  346  49 I25
stroke7  345  49 I25
stroke7  344  50 I25
stroke7  343  52 I25
stroke7  343  53 I25
stroke7  343  54 I25
stroke7  343  56 I25
stroke7  343  57 I25
stroke7  344  58 I25
stroke7  345  59 I25
stroke7  346  60 I25
stroke7  347  61 I25
stroke7  348  62 I25
stroke7  350  62 I25
stroke7  351  62 I25
stroke7  353  62 I25
stroke7  354  62 I25
stroke7  355  61 I25
stroke7  356  60 I25
stroke7  357  59 I25
stroke7  358  57 I25
stroke7  358  55 I25
stroke7  358  52 I25
stroke7  359  49 I25
stroke7  359  46 I25
stroke7  359  43 I25
stroke7  359  39 I25
stroke7  359  36 I25
stroke7  359  32 I25
stroke7  359  29 I25
stroke7  359  25 I25
stroke7  359  22 I25
stroke7  359  19 I25
stroke7  359  17 I25
stroke7  359  15 I25
stroke7  359  13 I25
stroke7  359  12 I25
stroke7  359  11 I25
stroke7  359  10 I25
stroke7  359  11 I25
stroke7  359  12 I25
stroke7  359  13 I25
stroke7  360  14 I25
stroke7  360  16 I25
stroke7  361  18 I25
stroke7  362  20 I25
stroke7  363  22 I25
stroke7  364  24 I25
stroke7  366  25 I25
stroke7  367  27 I25
stroke7  369  28 I25
stroke7  371  29 I25
stroke7  373  29 I25
stroke7  376  30 I25
stroke7  378  30 I25
stroke7  380  30 I25
stroke7  382  29 I25
stroke7  384  28 I25
stroke7  385  27 I25
stroke7  386  26 I25
stroke7  387  25 I25
stroke7  387  24 I25
stroke7  388  23 I25
stroke7  388  21 I25
stroke7  387  20 I25
stroke7  387  19 I25
stroke7  387  18 I25
stroke7  386  17 I25
stroke7  386  16 I25
stroke7  385  16 I25
stroke7  385  15 I25
stroke7  384  15 I25
stroke7  384  14 I25
stroke7  383  15 I25
stroke7  382  16 I25
stroke7  382  17 I25
stroke7  382  19 I25
stroke7  381  21 I25
stroke7  381  23 I25
stroke7  381  25 I25
stroke7  381  28 I25
stroke7  381  31 I25
stroke7  380  34 I25
stroke7  381  38 I25
stroke7  381  41 I25
stroke7  381  44 I25
stroke7  381  47 I25
stroke7  381  50 I25
stroke7  381  52 I25
stroke7  381  54 I25
stroke7  381  55 I25
stroke7  381  56 I25
stroke7  381  57 I25
stroke7  381  58 I25
stroke7  381  59 I25
stroke7  380  60 I25
stroke7  380  61 I25
stroke7  379  62 I25
stroke8  382  69 B48
stroke8  382  70 I48
stroke8  382  71 I48
stroke8  381  73 I48
stroke8  381  74 I48
stroke8  380  75 I48
stroke8  379  76 I48
stroke8  378  78 I48
stroke8  377  79 I48
stroke8  375  80 I48
stroke8  373  81 I48
stroke8  370  83 I48
stroke8  368  84 I48
stroke8  365  84 I48
stroke8  362  84 I48
stroke8  359  84 I48
stroke8  356  84 I48
stroke8  353  83 I48
stroke8  351  82 I48
stroke8  349  82 I48
stroke8  347  81 I48
stroke8  346  81 I48
stroke8  345  81 I48
stroke8  344  82 I48
stroke8  344  83 I48
stroke8  345  84 I48
stroke8  345  85 I48
stroke8  346  87 I48
stroke8  346  89 I48
stroke8  347  91 I48
stroke8  349  93 I48
stroke8  350  95 I48
stroke8  352  96 I48
stroke8  354  97 I48
stroke8  356  98 I48
stroke8  358  98 I48
stroke8  361  98 I48
stroke8  363  98 I48
stroke8  365  97 I48
stroke8  368  95 I48
stroke8  370  94 I48
stroke8  372  92 I48
stroke8  373  91 I48
stroke8  375  89 I48
stroke8  376  88 I48
stroke8  377  86 I48
stroke8  378  85 I48
stroke8  379  83 I48
stroke8  380  82 I48
stroke8  381  81 I48
stroke8  381  80 I48
stroke9  419  20 B1
stroke9  420  20 I1
stroke9  420  19 I1
stroke9  420  18 I1
stroke9  421  17 I1
stroke9  421  16 I1
stroke9  421  15 I1
stroke9  420  14 I1
stroke9  420  12 I1
stroke9  420  11 I1
stroke9  420  10 I1
stroke9  419  10 I1
stroke9  419  9 I1
stroke9  419  8 I1
stroke9  419  9 I1
stroke9  419  10 I1
stroke9  419  12 I1
stroke9  419  14 I1
stroke9  419  17 I1
stroke9  419  20 I1
stroke9  419  23 I1
stroke9  419  26 I1
stroke9  419  30 I1
stroke9  419  33 I1
stroke9  419  36 I1
stroke9  419  38 I1
stroke9  418  40 I1
stroke9  418  42 I1
stroke9  417  43 I1
stroke9  416  45 I1
stroke9  415  45 I1
stroke9  414  46 I1
stroke9  413  46 I1
stroke9  412  46 I1
stroke9  411  46 I1
stroke9  410  46 I1
stroke9  409  46 I1
stroke9  408  46 I1
stroke9  407  46 I1
stroke9  408  47 I1
stroke9  408  48 I1
stroke9  409  49 I1
stroke9  410  50 I1
stroke9  412  52 I1
stroke9  413  54 I1
stroke9  415  55 I1
stroke9  417  57 I1
stroke9  419  58 I1
stroke9  422  60 I1
stroke9  424  61 I1
stroke9  427  62 I1
stroke9  429  63 I1
stroke9  432  63 I1
stroke9  434  64 I1
stroke9  436  64 I1
stroke9  438  64 I1
stroke9  440  64 I1
stroke9  442  64 I1
stroke9  443  63 I1
stroke9  444  63 I1
stroke9  446  62 I1
stroke9  447  61 I1
stroke9  448  61 I1
stroke9  449  59 I1
stroke9  450  58 I1
stroke9  450  57 I1
stroke9  451  55 I1
stroke9  451  53 I1
stroke9  452  52 I1
stroke9  452  50 I1
stroke9  453  48 I1
stroke9  453  46 I1
stroke9  453  43 I1
stroke9  453  41 I1
stroke9  453  39 I1
stroke9  453  37 I1
stroke9  454  35 I1
stroke9  454  32 I1
stroke9  454  30 I1
stroke9  454  29 I1
stroke9  454  26 I1
stroke9  454  24 I1
stroke9  454  22 I1
stroke9  455  20 I1
stroke9  455  18 I1
stroke9  455  16 I1
stroke9  455  14 I1
stroke9  455  13 I1
stroke9  455  12 I1
stroke9  455  11 I1
stroke9  454  11 I1
stroke9  454  12 I1
stroke9  454  13 I1
stroke10  464  41 B47
stroke10  463  41 I47
stroke10  462  42 I47
stroke10  462  43 I47
stroke10  462  44 I47
stroke10  463  46 I47
stroke10  464  47 I47
stroke10  465  49 I47
stroke10  467  51 I47
stroke10  468  53 I47
stroke10  470  55 I47
stroke10  472  57 I47
stroke10  473  58 I47
stroke10  475  59 I47
stroke10  476  61 I47
stroke10  478  62 I47
stroke10  479  62 I47
stroke10  480  63 I47
stroke10  481  63 I47
stroke10  482  64 I47
stroke10  483  64 I47
stroke10  484  64 I47
stroke10  485  63 I47
stroke10  486  63 I47
stroke10  487  62 I47
stroke10  488  62 I47
stroke10  489  61 I47
stroke10  489  60 I47
stroke10  490  59 I47
stroke10  490  57 I47
stroke10  491  56 I47
stroke10  491  53 I47
stroke10  491  51 I47
stroke10  491  49 I47
stroke10  491  47 I47
stroke10  491  44 I47
stroke10  490  42 I47
stroke10  490  39 I47
stroke10  490  37 I47
stroke10  490  34 I47
stroke10  490  31 I47
stroke10  490  28 I47
stroke10  490  25 I47
stroke10  490  22 I47
stroke10  490  20 I47
stroke10  490  18 I47
stroke10  490  16 I47
stroke10  490  14 I47
stroke10  490  13 I47
stroke10  490  12 I47
stroke10  490  11 I47
stroke10  490  10 I47
stroke10  490  11 I47
stroke10  489  12 I47
stroke11  512  45 B34
stroke11  511  45 I34
stroke11  510  45 I34
stroke11  509  45 I34
stroke11  510  45 I34
stroke11  511  46 I34
stroke11  513  46 I34
stroke11  514  46 I34
stroke11  516  47 I34
stroke11  517  47 I34
stroke11  519  48 I34
stroke11  521  49 I34
stroke11  523  50 I34
stroke11  524  51 I34
stroke11  526  52 I34
stroke11  527  53 I34
stroke11  528  54 I34
stroke11  528  55 I34
stroke11  529  56 I34
stroke11  529  57 I34
stroke11  529  58 I34
stroke11  528  59 I34
stroke11  527  60 I34
stroke11  526  60 I34
stroke11  525  60 I34
stroke11  524  60 I34
stroke11  523  61 I34
stroke11  521  60 I34
stroke11  520  60 I34
stroke11  519  60 I34
stroke11  517  59 I34
stroke11  516  58 I34
stroke11  515  57 I34
stroke11  513  55 I34
stroke11  512  54 I34
stroke11  511  52 I34
stroke11  510  50 I34
stroke11  509  48 I34
stroke11  508  46 I34
stroke11  508  44 I34
stroke11  507  43 I34
stroke11  508  41 I34
stroke11  508  39 I34
stroke11  509  37 I34
stroke11  510  36 I34
stroke11  511  34 I34
stroke11  512  33 I34
stroke11  514  32 I34
stroke11  515  31 I34
stroke11  516  30 I34
stroke11  518  29 I34
stroke11  519  28 I34
stroke11  520  28 I34
stroke11  522  27 I34
stroke11  523  27 I34
stroke11  524  26 I34
stroke11  525  26 I34
stroke11  526  26 I34
stroke11  526  25 I34
stroke11  525  25 I34
stroke11  524  24 I34
stroke11  523  23 I34
stroke11  521  22 I34
stroke11  520  20 I34
stroke11  519  19 I34
stroke11  518  17 I34
stroke11  517  15 I34
stroke11  517  14 I34
stroke11  517  12 I34
stroke11  517  10 I34
stroke11  517  9 I34
stroke11  518  8 I34
stroke11  519  7 I34
stroke11  520  6 I34
stroke11  521  6 I34
stroke11  522  5 I34
stroke11  524  5 I34
stroke11  525  5 I34
stroke11  526  5 I34
stroke11  528  5 I34
stroke11  529  5 I34
stroke11  530  5 I34
stroke11  531  5 I34
stroke11  532  5 I34
stroke11  533  6 I34
stroke11  534  6 I34
stroke11  534  7 I34
stroke11  535  7 I34
stroke11  535  8 I34
stroke11  536  9 I34
stroke11  536  11 I34
stroke11  537  12 I34
stroke11  537  14 I34
stroke11  537  16 I34
stroke11  538  18 I34
stroke11  538  21 I34
stroke11  538  23 I34
stroke11  538  26 I34
stroke11  538  28 I34
stroke11  538  31 I34
stroke11  538  33 I34
stroke11  537  36 I34
stroke11  537  38 I34
stroke11  537  41 I34
stroke11  536  43 I34
stroke11  536  46 I34
stroke11  536  48 I34
stroke11  536  50 I34
stroke11  535  52 I34
stroke11  535  53 I34
stroke11  535  55 I34
stroke11  535  56 I34
stroke11  535  57 I34
stroke11  535  58 I34
stroke11  535  59 I34
stroke11  535  60 I34
stroke11  535  61 I34
stroke11  535  62 I34
stroke11  535  63 I34
stroke11  535  62 I34
stroke11  534  62 I34
stroke11  534  61 I34
