stroke1  41  8 B36
stroke1  41  9 I36
stroke1  40  9 I36
stroke1  40  10 I36
stroke1  39  11 I36
stroke1  39  12 I36
stroke1  40  14 I36
stroke1  41  15 I36
stroke1  41  16 I36
stroke1  42  16 I36
stroke1  44  17 I36
stroke1  45  17 I36
stroke1  47  16 I36
stroke1  48  16 I36
stroke1  50  15 I36
stroke1  51  14 I36
stroke1  52  13 I36
stroke1  53  11 I36
stroke1  54  10 I36
stroke1  54  10 I36
stroke1  54  8 I36
stroke1  54  7 I36
stroke1  54  6 I36
stroke1  53  5 I36
stroke1  52  4 I36
stroke1  51  3 I36
stroke1  50  3 I36
stroke1  49  3 I36
stroke1  48  3 I36
stroke1  46  3 I36
stroke1  45  4 I36
stroke1  43  6 I36
stroke1  42  8 I36
stroke1  41  10 I36
stroke1  40  13 I36
stroke1  39  16 I36
stroke1  38  19 I36
stroke1  38  22 I36
stroke1  38  25 I36
stroke1  39  27 I36
stroke1  40  30 I36
stroke1  42  32 I36
stroke1  43  34 I36
stroke1  45  35 I36
stroke1  48  35 I36
stroke1  50  35 I36
stroke1  53  35 I36
stroke1  55  34 I36
stroke1  58  32 I36
stroke1  60  30 I36
stroke1  62  28 I36
stroke1  64  25 I36
stroke1  66  23 I36
stroke1  67  21 I36
stroke1  68  18 I36
stroke1  69  16 I36
stroke1  70  14 I36
stroke1  71  12 I36
stroke1  71  10 I36
stroke1  72  9 I36
stroke1  72  8 I36
stroke1  73  7 I36
stroke1  73  8 I36
stroke1  72  9 I36
stroke1  72  11 I36
stroke1  72  13 I36
stroke1  71  15 I36
stroke1  71  18 I36
stroke1  70  21 I36
stroke1  69  24 I36
stroke1  69  28 I36
stroke1  68  32 I36
stroke1  67  35 I36
stroke1  67  39 I36
stroke1  66  43 I36
stroke1  65  46 I36
stroke1  64  49 I36
stroke1  63  52 I36
stroke1  62  54 I36
stroke1  61  56 I36
stroke1  59  58 I36
stroke1  58  59 I36
stroke1  56  60 I36
stroke1  54  61 I36
stroke1  52  61 I36
stroke1  50  60 I36
stroke1  48  60 I36
stroke1  46  59 I36
stroke1  43  57 I36
stroke1  41  56 I36
stroke1  39  55 I36
stroke1  38  54 I36
stroke1  38  53 I36
stroke1  38  52 I36
stroke1  39  52 I36
stroke1  41  52 I36
stroke2  87  48 B47
stroke2  86  48 I47
stroke2  86  49 I47
stroke2  86  50 I47
stroke2  87  51 I47
stroke2  87  53 I47
stroke2  88  54 I47
stroke2  89  55 I47
stroke2  90  56 I47
stroke2  91  57 I47
stroke2  92  58 I47
stroke2  93  59 I47
stroke2  94  60 I47
stroke2  96  60 I47
stroke2  97  61 I47
stroke2  98  61 I47
stroke2  99  61 I47
stroke2  100  60 I47
stroke2  101  59 I47
stroke2  102  58 I47
stroke2  103  57 I47
stroke2  104  55 I47
stroke2  104  53 I47
stroke2  105  51 I47
stroke2  105  48 I47
stroke2  106  45 I47
stroke2  107  42 I47
stroke2  107  39 I47
stroke2  107  36 I47
stroke2  108  33 I47
stroke2  108  31 I47
stroke2  108  28 I47
stroke2  108  26 I47
stroke2  108  23 I47
stroke2  109  21 I47
stroke2  109  19 I47
stroke2  109  17 I47
stroke2  109  15 I47
stroke2  109  12 I47
stroke2  109  10 I47
stroke2  110  9 I47
stroke2  110  8 I47
stroke2  110  7 I47
stroke2  110  6 I47
stroke2  110  5 I47
stroke2  110  6 I47
stroke3  138  46 B34
stroke3  138  47 I34
stroke3  137  47 I34
stroke3  136  47 I34
stroke3  135  47 I34
stroke3  134  47 I34
stroke3  135  47 I34
stroke3  136  47 I34
stroke3  137  47 I34
stroke3  138  48 I34
stroke3  140  48 I34
stroke3  142  49 I34
stroke3  144  50 I34
stroke3  146  51 I34
stroke3  148  52 I34
stroke3  149  53 I34
stroke3  150  54 I34
stroke3  151  55 I34
stroke3  151  56 I34
stroke3  151  57 I34
stroke3  150  58 I34
stroke3  149  59 I34
stroke3  148  60 I34
stroke3  147  61 I34
stroke3  145  61 I34
stroke3  144  62 I34
stroke3  142  61 I34
stroke3  140  61 I34
stroke3  138  60 I34
stroke3  137  59 I34
stroke3  135  57 I34
stroke3  134  55 I34
stroke3  133  53 I34
stroke3  132  50 I34
stroke3  132  47 I34
stroke3  132  44 I34
stroke3  133  41 I34
stroke3  133  38 I34
stroke3  135  35 I34
stroke3  136  32 I34
stroke3  138  30 I34
stroke3  141  29 I34
stroke3  143  27 I34
stroke3  146  26 I34
stroke3  149  26 I34
stroke3  151  25 I34
stroke3  153  25 I34
stroke3  155  25 I34
stroke3  156  25 I34
stroke3  157  25 I34
stroke3  158  25 I34
stroke3  158  26 I34
stroke3  157  26 I34
stroke3  156  25 I34
stroke3  155  25 I34
stroke3  154  24 I34
stroke3  153  23 I34
stroke3  152  21 I34
stroke3  151  20 I34
stroke3  150  18 I34
stroke3  150  16 I34
stroke3  150  14 I34
stroke3  150  12 I34
stroke3  150  10 I34
stroke3  151  9 I34
stroke3  152  8 I34
stroke3  153  7 I34
stroke3  155  6 I34
stroke3  157  6 I34
stroke3  158  5 I34
stroke3  160  5 I34
stroke3  162  5 I34
stroke3  164  6 I34
stroke3  165  6 I34
stroke3  167  7 I34
stroke3  168  8 I34
stroke3  169  9 I34
stroke3  170  11 I34
stroke3  170  13 I34
stroke3  171  15 I34
stroke3  171  18 I34
stroke3  171  21 I34
stroke3  171  24 I34
stroke3  170  28 I34
stroke3  170  32 I34
stroke3  169  36 I34
stroke3  168  39 I34
stroke3  168  43 I34
stroke3  167  46 I34
stroke3  167  49 I34
stroke3  167  51 I34
stroke3  167  53 I34
stroke3  166  55 I34
stroke3  166  57 I34
stroke3  166  58 I34
stroke3  166  59 I34
stroke3  166  60 I34
stroke3  166  59 I34
stroke4  202  14 B36
stroke4  203  14 I36
stroke4  202  14 I36
stroke4  203  15 I36
stroke4  204  15 I36
stroke4  205  15 I36
stroke4  207  15 I36
stroke4  209  15 I36
stroke4  211  15 I36
stroke4  212  14 I36
stroke4  214  14 I36
stroke4  215  13 I36
stroke4  216  12 I36
stroke4  216  11 I36
stroke4  216  10 I36
stroke4  216  9 I36
stroke4  215  8 I36
stroke4  214  7 I36
stroke4  213  7 I36
stroke4  212  6 I36
stroke4  210  7 I36
stroke4  209  7 I36
stroke4  207  8 I36
stroke4  206  9 I36
stroke4  205  11 I36
stroke4  204  13 I36
stroke4  203  15 I36
stroke4  203  17 I36
stroke4  203  20 I36
stroke4  204  22 I36
stroke4  204  25 I36
stroke4  205  27 I36
stroke4  207  29 I36
stroke4  208  31 I36
stroke4  210  33 I36
stroke4  212  34 I36
stroke4  214  34 I36
stroke4  217  34 I36
stroke4  219  33 I36
stroke4  221  31 I36
stroke4  224  29 I36
stroke4  226  27 I36
stroke4  228  25 I36
stroke4  230  23 I36
stroke4  231  21 I36
stroke4  232  18 I36
stroke4  233  16 I36
stroke4  234  14 I36
stroke4  235  12 I36
stroke4  235  11 I36
stroke4  235  10 I36
stroke4  235  9 I36
stroke4  236  8 I36
stroke4  235  8 I36
stroke4  235  9 I36
stroke4  235  10 I36
stroke4  235  12 I36
stroke4  234  14 I36
stroke4  234  16 I36
stroke4  233  19 I36
stroke4  233  23 I36
stroke4  232  26 I36
stroke4  231  30 I36
stroke4  231  33 I36
stroke4  230  37 I36
stroke4  230  41 I36
stroke4  230  44 I36
stroke4  229  48 I36
stroke4  228  51 I36
stroke4  228  53 I36
stroke4  227  56 I36
stroke4  226  58 I36
stroke4  224  59 I36
stroke4  222  60 I36
stroke4  220  61 I36
stroke4  218  61 I36
stroke4  215  60 I36
stroke4  212  59 I36
stroke4  210  58 I36
stroke4  207  57 I36
stroke4  206  56 I36
stroke4  205  55 I36
stroke4  204  54 I36
stroke4  204  53 I36
stroke4  204  54 I36
stroke5  218  78 B45
stroke5  217  78 I45
stroke5  217  79 I45
stroke5  216  79 I45
stroke5  217  80 I45
stroke5  217  81 I45
stroke5  218  82 I45
stroke5  220  83 I45
stroke5  221  85 I45
stroke5  223  87 I45
stroke5  224  89 I45
stroke5  225  91 I45
stroke5  226  92 I45
stroke5  226  93 I45
stroke5  226  94 I45
stroke5  225  95 I45
stroke5  224  95 I45
stroke5  223  95 I45
stroke5  221  94 I45
stroke5  220  92 I45
stroke5  219  90 I45
stroke5  217  87 I45
stroke5  217  85 I45
stroke5  217  83 I45
stroke5  217  81 I45
stroke5  218  79 I45
stroke5  219  78 I45
stroke5  221  78 I45
stroke5  223  78 I45
stroke5  226  78 I45
stroke5  229  79 I45
stroke5  233  81 I45
stroke5  236  82 I45
stroke5  239  84 I45
stroke5  242  85 I45
stroke5  244  87 I45
stroke5  246  88 I45
stroke5  248  89 I45
stroke5  249  89 I45
stroke5  250  90 I45
stroke6  275  9 B1
stroke6  274  8 I1
stroke6  274  7 I1
stroke6  274  6 I1
stroke6  274  5 I1
stroke6  274  4 I1
stroke6  273  3 I1
stroke6  273  4 I1
stroke6  273  5 I1
stroke6  273  7 I1
stroke6  273  9 I1
stroke6  273  12 I1
stroke6  273  15 I1
stroke6  273  19 I1
stroke6  273  22 I1
stroke6  273  25 I1
stroke6  273  27 I1
stroke6  273  30 I1
stroke6  272  32 I1
stroke6  272  33 I1
stroke6  271  34 I1
stroke6  271  35 I1
stroke6  270  35 I1
stroke6  269  36 I1
stroke6  269  37 I1
stroke6  268  37 I1
stroke6  268  38 I1
stroke6  268  39 I1
stroke6  269  41 I1
stroke6  269  42 I1
stroke6  270  44 I1
stroke6  271  46 I1
stroke6  272  48 I1
stroke6  274  49 I1
stroke6  276  51 I1
stroke6  278  53 I1
stroke6  280  54 I1
stroke6  283  55 I1
stroke6  286  55 I1
stroke6  288  56 I1
stroke6  291  55 I1
stroke6  293  55 I1
stroke6  295  53 I1
stroke6  297  52 I1
stroke6  299  50 I1
stroke6  300  47 I1
stroke6  301  44 I1
stroke6  303  40 I1
stroke6  304  37 I1
stroke6  304  33 I1
stroke6  305  30 I1
stroke6  305  26 I1
stroke6  306  23 I1
stroke6  306  19 I1
stroke6  307  16 I1
stroke6  307  13 I1
stroke6  307  11 I1
stroke6  308  9 I1
stroke6  308  8 I1
stroke6  308  6 I1
stroke6  309  5 I1
stroke6  308  6 I1
stroke6  308  7 I1
stroke7  342  32 B39
stroke7  340  32 I39
stroke7  338  32 I39
stroke7  336  32 I39
stroke7  334  32 I39
stroke7  333  32 I39
stroke7  331  33 I39
stroke7  330  34 I39
stroke7  329  35 I39
stroke7  328  37 I39
stroke7  328  38 I39
stroke7  327  41 I39
stroke7  328  43 I39
stroke7  328  45 I39
stroke7  328  47 I39
stroke7  329  48 I39
stroke7  330  50 I39
stroke7  331  50 I39
stroke7  332  50 I39
stroke7  334  50 I39
stroke7  335  49 I39
stroke7  337  47 I39
stroke7  338  45 I39
stroke7  339  42 I39
stroke7  341  39 I39
stroke7  342  35 I39
stroke7  342  32 I39
stroke7  343  28 I39
stroke7  343  25 I39
stroke7  343  21 I39
stroke7  343  18 I39
stroke7  343  15 I39
stroke7  343  12 I39
stroke7  344  10 I39
stroke7  344  8 I39
stroke7  344  7 I39
stroke7  345  6 I39
stroke7  346  6 I39
stroke7  348  6 I39
stroke7  349  7 I39
stroke7  351  7 I39
stroke7  353  7 I39
stroke7  355  7 I39
stroke7  357  7 I39
stroke7  359  7 I39
stroke7  361  7 I39
stroke7  363  7 I39
stroke7  365  6 I39
stroke7  367  6 I39
stroke7  368  6 I39
stroke7  369  5 I39
stroke7  370  5 I39
stroke7  371  5 I39
stroke7  372  5 I39
stroke7  373  5 I39
stroke7  373  6 I39
stroke7  373  7 I39
stroke7  373  9 I39
stroke7  373  11 I39
stroke7  372  13 I39
stroke7  372  16 I39
stroke7  372  20 I39
stroke7  372  23 I39
stroke7  371  27 I39
stroke7  371  31 I39
stroke7  371  34 I39
stroke7  371  38 I39
stroke7  371  40 I39
stroke7  370  43 I39
stroke7  370  45 I39
stroke7  370  47 I39
stroke7  370  48 I39
stroke7  370  49 I39
stroke7  370  50 I39
stroke7  369  50 I39
stroke7  368  50 I39
stroke7  368  49 I39
stroke7  367  48 I39
stroke7  362  34 I39
stroke7  363  33 I39
stroke7  364  34 I39
stroke7  364  35 I39
stroke7  365  36 I39
stroke7  366  37 I39
stroke7  366  38 I39
stroke7  367  39 I39
stroke7  366  40 I39
stroke7  365  40 I39
stroke7  364  40 I39
stroke7  363  39 I39
stroke7  362  38 I39
stroke7  361  37 I39
stroke7  360  35 I39
stroke7  359  33 I39
stroke7  359  32 I39
stroke7  359  30 I39
stroke7  360  29 I39
stroke7  362  29 I39
stroke7  364  29 I39
stroke7  366  29 I39
stroke7  369  30 I39
stroke7  372  31 I39
stroke7  374  32 I39
stroke7  377  33 I39
stroke7  379  34 I39
stroke7  381  35 I39
stroke7  382  35 I39
stroke7  383  36 I39
stroke8  407  13 B19
stroke8  406  13 I19
stroke8  406  12 I19
stroke8  405  12 I19
stroke8  406  13 I19
stroke8  407  14 I19
stroke8  409  14 I19
stroke8  410  14 I19
stroke8  412  14 I19
stroke8  414  13 I19
stroke8  415  13 I19
stroke8  417  12 I19
stroke8  418  11 I19
stroke8  418  10 I19
stroke8  419  10 I19
stroke8  418  9 I19
stroke8  417  8 I19
stroke8  417  7 I19
stroke8  416  7 I19
stroke8  415  6 I19
stroke8  413  6 I19
stroke8  412  6 I19
stroke8  411  7 I19
stroke8  410  7 I19
stroke8  409  8 I19
stroke8  408  10 I19
stroke8  407  11 I19
stroke8  406  13 I19
stroke8  406  16 I19
stroke8  406  18 I19
stroke8  406  21 I19
stroke8  407  24 I19
stroke8  408  28 I19
stroke8  409  31 I19
stroke8  409  34 I19
stroke8  410  36 I19
stroke8  411  38 I19
stroke8  411  40 I19
stroke8  411  42 I19
stroke8  410  43 I19
stroke8  409  44 I19
stroke8  408  44 I19
stroke8  407  45 I19
stroke8  406  45 I19
stroke8  405  46 I19
stroke8  404  46 I19
stroke8  403  47 I19
stroke8  402  47 I19
stroke8  402  48 I19
stroke8  402  49 I19
stroke8  403  50 I19
stroke8  403  52 I19
stroke8  405  53 I19
stroke8  406  54 I19
stroke8  409  55 I19
stroke8  411  55 I19
stroke8  415  56 I19
stroke8  418  55 I19
stroke8  422  55 I19
stroke8  425  54 I19
stroke8  428  53 I19
stroke8  430  51 I19
stroke8  432  48 I19
stroke8  434  45 I19
stroke8  435  41 I19
stroke8  436  38 I19
stroke8  437  34 I19
stroke8  438  30 I19
stroke8  438  27 I19
stroke8  438  23 I19
stroke8  438  20 I19
stroke8  439  17 I19
stroke8  439  14 I19
stroke8  439  11 I19
stroke8  439  9 I19
stroke8  439  7 I19
stroke8  439  6 I19
stroke8  439  5 I19
stroke8  439  4 I19
stroke8  439  5 I19
stroke8  440  5 I19
stroke8  440  6 I19
stroke8  441  8 I19
stroke8  442  10 I19
stroke8  444  12 I19
stroke8  445  14 I19
stroke8  447  16 I19
stroke8  449  18 I19
stroke8  451  19 I19
stroke8  453  20 I19
stroke8  455  21 I19
stroke8  457  22 I19
stroke8  458  22 I19
stroke8  460  22 I19
stroke8  461  21 I19
stroke8  463  21 I19
stroke8  464  19 I19
stroke8  465  18 I19
stroke8  465  16 I19
stroke8  466  14 I19
stroke8  466  12 I19
stroke8  466  10 I19
stroke8  466  9 I19
stroke8  466  7 I19
stroke8  465  6 I19
stroke8  464  5 I19
stroke8  463  4 I19
stroke8  462  4 I19
stroke8  461  4 I19
stroke8  460  3 I19
stroke8  459  4 I19
stroke8  458  4 I19
stroke8  457  5 I19
stroke8  457  7 I19
stroke8  456  9 I19
stroke8  455  12 I19
stroke8  455  15 I19
stroke8  455  18 I19
stroke8  454  22 I19
stroke8  454  26 I19
stroke8  454  30 I19
stroke8  454  34 I19
stroke8  454  37 I19
stroke8  454  39 I19
stroke8  454  41 I19
stroke8  453  43 I19
stroke8  453  44 I19
stroke8  453  45 I19
stroke8  452  46 I19
stroke8  452  47 I19
stroke9  448  76 B64
stroke9  448  78 I64
stroke9  447  79 I64
stroke9  447  80 I64
stroke9  448  82 I64
stroke9  448  83 I64
stroke9  449  84 I64
stroke9  449  85 I64
stroke9  451  86 I64
stroke9  452  87 I64
stroke9  454  87 I64
stroke9  455  87 I64
stroke9  457  87 I64
stroke9  458  86 I64
stroke9  459  86 I64
stroke9  460  85 I64
stroke9  460  84 I64
stroke9  460  83 I64
stroke9  460  82 I64
stroke9  459  82 I64
stroke9  458  81 I64
stroke9  457  80 I64
stroke9  456  80 I64
stroke9  455  80 I64
stroke9  454  80 I64
stroke9  452  81 I64
stroke9  451  82 I64
stroke9  450  83 I64
stroke9  449  85 I64
stroke9  448  87 I64
stroke9  448  90 I64
stroke9  448  93 I64
stroke9  448  96 I64
stroke9  449  100 I64
stroke9  450  103 I64
stroke9  451  106 I64
stroke9  453  109 I64
stroke9  454  111 I64
stroke9  455  112 I64
stroke9  456  113 I64
stroke9  457  114 I64
stroke9  458  114 I64
stroke9  460  114 I64
stroke10  503  28 B43
stroke10  502  28 I43
stroke10  502  27 I43
stroke10  501  27 I43
stroke10  502  27 I43
stroke10  502  26 I43
stroke10  503  26 I43
stroke10  504  26 I43
stroke10  505  26 I43
stroke10  507  26 I43
stroke10  510  26 I43
stroke10  512  27 I43
stroke10  515  28 I43
stroke10  517  29 I43
stroke10  519  30 I43
stroke10  520  31 I43
stroke10  522  32 I43
stroke10  522  34 I43
stroke10  523  35 I43
stroke10  523  36 I43
stroke10  522  37 I43
stroke10  521  38 I43
stroke10  520  40 I43
stroke10  519  40 I43
stroke10  517  41 I43
stroke10  516  41 I43
stroke10  514  41 I43
stroke10  513  40 I43
stroke10  511  38 I43
stroke10  510  36 I43
stroke10  509  33 I43
stroke10  508  30 I43
stroke10  507  26 I43
stroke10  506  23 I43
stroke10  506  19 I43
stroke10  506  16 I43
stroke10  507  13 I43
stroke10  507  10 I43
stroke10  508  8 I43
stroke10  509  7 I43
stroke10  511  6 I43
stroke10  513  5 I43
stroke10  514  5 I43
stroke10  516  5 I43
stroke10  518  5 I43
stroke10  520  6 I43
stroke10  521  6 I43
stroke10  523  6 I43
stroke10  524  6 I43
stroke10  526  6 I43
stroke10  527  6 I43
stroke10  529  6 I43
stroke10  530  6 I43
stroke10  531  6 I43
stroke10  532  6 I43
stroke10  533  6 I43
stroke10  534  6 I43
stroke10  535  7 I43
stroke10  535  8 I43
stroke10  536  10 I43
stroke10  536  11 I43
stroke10  536  14 I43
stroke10  537  16 I43
stroke10  537  19 I43
stroke10  537  22 I43
stroke10  537  26 I43
stroke10  537  29 I43
stroke10  537  33 I43
stroke10  536  37 I43
stroke10  536  41 I43
stroke10  535  45 I43
stroke10  534  48 I43
stroke10  533  51 I43
stroke10  532  54 I43
stroke10  530  56 I43
stroke10  529  58 I43
stroke10  527  59 I43
stroke10  525  59 I43
stroke10  522  60 I43
stroke10  519  60 I43
stroke10  516  59 I43
stroke10  513  58 I43
stroke10  511  58 I43
stroke10  508  57 I43
stroke10  507  56 I43
stroke10  506  55 I43
stroke10  505  55 I43
stroke10  506  55 I43
stroke10  506  56 I43
stroke10  507  56 I43
stroke11  524  79 B45
stroke11  523  80 I45
stroke11  522  80 I45
stroke11  523  81 I45
stroke11  524  82 I45
stroke11  525  83 I45
stroke11  526  85 I45
stroke11  527  86 I45
stroke11  529  88 I45
stroke11  529  89 I45
stroke11  530  90 I45
stroke11  529  91 I45
stroke11  529  92 I45
stroke11  528  93 I45
stroke11  527  93 I45
stroke11  525  93 I45
stroke11  524  92 I45
stroke11  522  91 I45
stroke11  521  89 I45
stroke11  520  87 I45
stroke11  520  85 I45
stroke11  520  83 I45
stroke11  520  81 I45
stroke11  521  80 I45
stroke11  523  78 I45
stroke11  525  78 I45
stroke11  528  77 I45
stroke11  531  78 I45
stroke11  534  78 I45
stroke11  538  79 I45
stroke11  541  80 I45
stroke11  544  82 I45
stroke11  546  83 I45
stroke11  548  84 I45
stroke11  550  84 I45
stroke11  551  85 I45
stroke11  552  85 I45
stroke12  573  19 B1
stroke12  573  20 I1
stroke12  573  19 I1
stroke12  573  18 I1
stroke12  573  17 I1
stroke12  574  15 I1
stroke12  574  13 I1
stroke12  574  11 I1
stroke12  574  10 I1
stroke12  574  8 I1
stroke12  575  6 I1
stroke12  574  5 I1
stroke12  574  4 I1
stroke12  574  3 I1
stroke12  574  2 I1
stroke12  574  1 I1
stroke12  574  2 I1
stroke12  574  3 I1
stroke12  574  5 I1
stroke12  574  7 I1
stroke12  574  10 I1
stroke12  574  13 I1
stroke12  574  16 I1
stroke12  574  20 I1
stroke12  574  23 I1
stroke12  574  26 I1
stroke12  574  29 I1
stroke12  574  31 I1
stroke12  573  34 I1
stroke12  573  35 I1
stroke12  573  37 I1
stroke12  572  38 I1
stroke12  572  39 I1
stroke12  571  39 I1
stroke12  570  40 I1
stroke12  569  41 I1
stroke12  568  41 I1
stroke12  567  41 I1
stroke12  567  42 I1
stroke12  568  42 I1
stroke12  568  44 I1
stroke12  569  45 I1
stroke12  570  47 I1
stroke12  571  48 I1
stroke12  573  50 I1
stroke12  575  51 I1
stroke12  577  52 I1
stroke12  580  53 I1
stroke12  583  54 I1
stroke12  586  55 I1
stroke12  589  56 I1
stroke12  592  56 I1
stroke12  594  56 I1
stroke12  596  55 I1
stroke12  598  54 I1
stroke12  600  53 I1
stroke12  602  52 I1
stroke12  603  50 I1
stroke12  604  47 I1
stroke12  605  44 I1
stroke12  605  42 I1
stroke12  606  38 I1
stroke12  606  35 I1
stroke12  607  32 I1
stroke12  607  29 I1
stroke12  607  26 I1
stroke12  607  23 I1
stroke12  607  20 I1
stroke12  607  17 I1
stroke12  607  15 I1
stroke12  608  13 I1
stroke12  608  11 I1
stroke12  608  9 I1
stroke12  608  8 I1
stroke12  608  7 I1
stroke12  608  6 I1
stroke12  608  7 I1
stroke12  609  7 I1
stroke12  609  9 I1
stroke12  609  10 I1
stroke13  650  45 B39
stroke13  649  45 I39
stroke13  648  44 I39
stroke13  647  43 I39
stroke13  645  42 I39
stroke13  643  41 I39
stroke13  641  40 I39
stroke13  638  39 I39
stroke13  636  39 I39
stroke13  635  38 I39
stroke13  633  38 I39
stroke13  632  39 I39
stroke13  632  40 I39
stroke13  631  41 I39
stroke13  631  43 I39
stroke13  631  45 I39
stroke13  631  47 I39
stroke13  632  49 I39
stroke13  632  51 I39
stroke13  633  52 I39
stroke13  634  53 I39
stroke13  635  54 I39
stroke13  636  55 I39
stroke13  637  55 I39
stroke13  638  55 I39
stroke13  639  55 I39
stroke13  640  54 I39
stroke13  642  53 I39
stroke13  643  51 I39
stroke13  644  49 I39
stroke13  645  45 I39
stroke13  646  42 I39
stroke13  646  38 I39
stroke13  646  34 I39
stroke13  647  30 I39
stroke13  647  26 I39
stroke13  647  23 I39
stroke13  647  19 I39
stroke13  647  16 I39
stroke13  647  13 I39
stroke13  646  10 I39
stroke13  646  8 I39
stroke13  646  5 I39
stroke13  646  4 I39
stroke13  645  2 I39
stroke13  645  1 I39
stroke13  645  0 I39
stroke13  646  1 I39
stroke13  646  2 I39
stroke13  647  3 I39
stroke13  648  4 I39
stroke13  649  5 I39
stroke13  650  5 I39
stroke13  652  6 I39
stroke13  654  7 I39
stroke13  656  7 I39
stroke13  658  7 I39
stroke13  660  7 I39
stroke13  662  7 I39
stroke13  664  6 I39
stroke13  666  5 I39
stroke13  667  5 I39
stroke13  669  4 I39
stroke13  670  4 I39
stroke13  671  3 I39
stroke13  672  3 I39
stroke13  673  3 I39
stroke13  674  3 I39
stroke13  675  4 I39
stroke13  675  5 I39
stroke13  675  6 I39
stroke13  675  8 I39
stroke13  675  10 I39
stroke13  675  12 I39
stroke13  675  15 I39
stroke13  675  18 I39
stroke13  675  21 I39
stroke13  674  24 I39
stroke13  674  28 I39
stroke13  674  32 I39
stroke13  674  36 I39
stroke13  674  39 I39
stroke13  674  42 I39
stroke13  674  45 I39
stroke13  674  47 I39
stroke13  674  49 I39
stroke13  674  50 I39
stroke13  674  51 I39
stroke13  673  52 I39
stroke13  673  53 I39
stroke13  673  52 I39
stroke13  672  52 I39
stroke13  672  51 I39
stroke13  671  50 I39
stroke13  670  48 I39
stroke13  663  34 I39
stroke13  663  33 I39
stroke13  663  32 I39
stroke13  663  31 I39
stroke13  664  31 I39
stroke13  665  31 I39
stroke13  666  32 I39
stroke13  668  33 I39
stroke13  669  34 I39
stroke13  670  35 I39
stroke13  670  36 I39
stroke13  671  37 I39
stroke13  671  38 I39
stroke13  670  38 I39
stroke13  669  39 I39
stroke13  668  39 I39
stroke13  667  38 I39
stroke13  665  37 I39
stroke13  664  36 I39
stroke13  663  35 I39
stroke13  662  33 I39
stroke13  662  31 I39
stroke13  662  30 I39
stroke13  662  28 I39
stroke13  663  27 I39
stroke13  665  26 I39
stroke13  666  26 I39
stroke13  669  26 I39
stroke13  671  26 I39
stroke13  674  27 I39
stroke13  677  27 I39
stroke13  679  28 I39
stroke13  681  29 I39
stroke13  682  29 I39
stroke13  684  30 I39
stroke13  685  30 I39
stroke13  687  31 I39
stroke13  688  31 I39
stroke13  689  31 I39
stroke14  726  16 B35
stroke14  727  16 I35
stroke14  727  15 I35
stroke14  728  15 I35
stroke14  728  16 I35
stroke14  727  16 I35
stroke14  727  17 I35
stroke14  726  17 I35
stroke14  725  18 I35
stroke14  724  18 I35
stroke14  722  18 I35
stroke14  720  17 I35
stroke14  718  16 I35
stroke14  717  15 I35
stroke14  715  14 I35
stroke14  714  12 I35
stroke14  714  11 I35
stroke14  713  9 I35
stroke14  714  8 I35
stroke14  714  7 I35
stroke14  715  6 I35
stroke14  717  5 I35
stroke14  719  5 I35
stroke14  720  5 I35
stroke14  722  6 I35
stroke14  724  7 I35
stroke14  726  8 I35
stroke14  727  10 I35
stroke14  729  12 I35
stroke14  730  14 I35
stroke14  731  17 I35
stroke14  731  19 I35
stroke14  732  22 I35
stroke14  731  25 I35
stroke14  731  27 I35
stroke14  730  30 I35
stroke14  729  33 I35
stroke14  728  35 I35
stroke14  727  37 I35
stroke14  725  39 I35
stroke14  723  40 I35
stroke14  721  41 I35
stroke14  719  41 I35
stroke14  716  41 I35
stroke14  714  40 I35
stroke14  711  39 I35
stroke14  709  38 I35
stroke14  707  37 I35
stroke14  705  37 I35
stroke14  704  36 I35
stroke14  703  36 I35
stroke14  702  35 I35
stroke14  701  35 I35
stroke14  701  36 I35
stroke14  701  37 I35
stroke14  701  39 I35
stroke14  702  41 I35
stroke14  703  44 I35
stroke14  704  46 I35
stroke14  705  49 I35
stroke14  706  51 I35
stroke14  708  54 I35
stroke14  711  56 I35
stroke14  713  57 I35
stroke14  716  58 I35
stroke14  718  59 I35
stroke14  721  59 I35
stroke14  723  59 I35
stroke14  725  58 I35
stroke14  728  58 I35
stroke14  729  57 I35
stroke14  731  56 I35
stroke14  732  56 I35
stroke14  734  55 I35
stroke14  735  55 I35
stroke14  736  54 I35
stroke14  737  54 I35
stroke14  738  55 I35
stroke14  739  55 I35
stroke14  739  56 I35
stroke14  740  57 I35
stroke14  740  58 I35
stroke14  741  58 I35
stroke14  741  59 I35
stroke14  741  60 I35
stroke14  742  60 I35
stroke14  741  60 I35
