stroke1  74  87 B54
stroke1  74  88 I54
stroke1  74  89 I54
stroke1  74  90 I54
stroke1  74  91 I54
stroke1  74  92 I54
stroke1  74  93 I54
stroke1  75  94 I54
stroke1  75  95 I54
stroke1  75  94 I54
stroke1  75  92 I54
stroke1  75  89 I54
stroke1  75  86 I54
stroke1  75  82 I54
stroke1  75  78 I54
stroke1  75  74 I54
stroke1  75  69 I54
stroke1  75  65 I54
stroke1  74  61 I54
stroke1  74  61 I54
stroke1  74  58 I54
stroke1  74  54 I54
stroke1  73  51 I54
stroke1  73  49 I54
stroke1  73  46 I54
stroke1  73  44 I54
stroke1  73  42 I54
stroke1  73  41 I54
stroke1  73  40 I54
stroke1  73  39 I54
stroke1  73  38 I54
stroke1  73  37 I54
stroke1  74  37 I54
stroke1  74  36 I54
stroke1  74  35 I54
stroke1  75  35 I54
stroke1  76  35 I54
stroke1  77  35 I54
stroke1  78  35 I54
stroke1  79  36 I54
stroke1  80  36 I54
stroke1  81  37 I54
stroke1  82  39 I54
stroke1  83  40 I54
stroke1  84  42 I54
stroke1  85  43 I54
stroke1  86  45 I54
stroke1  86  46 I54
stroke1  87  48 I54
stroke1  86  49 I54
stroke1  86  50 I54
stroke1  85  51 I54
stroke1  83  52 I54
stroke1  82  52 I54
stroke1  80  52 I54
stroke1  79  52 I54
stroke1  78  51 I54
stroke1  77  51 I54
stroke1  76  50 I54
stroke1  75  49 I54
stroke2  118  57 B38
stroke2  119  56 I38
stroke2  120  57 I38
stroke2  121  57 I38
stroke2  122  57 I38
stroke2  123  57 I38
stroke2  124  58 I38
stroke2  126  59 I38
stroke2  127  60 I38
stroke2  128  62 I38
stroke2  129  63 I38
stroke2  130  65 I38
stroke2  130  67 I38
stroke2  130  68 I38
stroke2  130  70 I38
stroke2  130  71 I38
stroke2  129  72 I38
stroke2  128  73 I38
stroke2  127  73 I38
stroke2  126  73 I38
stroke2  125  72 I38
stroke2  123  71 I38
stroke2  122  69 I38
stroke2  120  67 I38
stroke2  119  65 I38
stroke2  117  62 I38
stroke2  116  60 I38
stroke2  115  57 I38
stroke2  114  54 I38
stroke2  114  52 I38
stroke2  113  49 I38
stroke2  113  47 I38
stroke2  112  44 I38
stroke2  112  42 I38
stroke2  112  41 I38
stroke2  112  39 I38
stroke2  112  38 I38
stroke2  112  37 I38
stroke2  112  36 I38
stroke2  112  35 I38
stroke2  112  34 I38
stroke2  112  35 I38
stroke2  112  36 I38
stroke2  112  37 I38
stroke2  112  39 I38
stroke2  112  41 I38
stroke2  111  43 I38
stroke2  111  46 I38
stroke2  111  49 I38
stroke2  111  52 I38
stroke2  111  55 I38
stroke2  111  58 I38
stroke2  111  62 I38
stroke2  111  65 I38
stroke2  111  69 I38
stroke2  112  72 I38
stroke2  112  75 I38
stroke2  112  78 I38
stroke2  113  80 I38
stroke2  114  83 I38
stroke2  115  85 I38
stroke2  115  87 I38
stroke2  116  88 I38
stroke2  117  89 I38
stroke2  118  90 I38
stroke2  119  91 I38
stroke2  120  92 I38
stroke2  121  92 I38
stroke2  123  92 I38
stroke2  124  92 I38
stroke2  126  92 I38
stroke2  128  92 I38
stroke2  129  91 I38
stroke2  131  91 I38
stroke2  133  91 I38
stroke2  134  90 I38
stroke2  135  90 I38
stroke2  136  89 I38
stroke2  137  88 I38
stroke2  138  87 I38
stroke2  139  86 I38
stroke2  140  85 I38
stroke2  140  83 I38
stroke2  141  81 I38
stroke2  141  79 I38
stroke2  141  75 I38
stroke2  141  72 I38
stroke2  141  68 I38
stroke2  141  64 I38
stroke2  140  59 I38
stroke2  140  55 I38
stroke2  140  52 I38
stroke2  139  48 I38
stroke2  139  46 I38
stroke2  139  44 I38
stroke2  139  42 I38
stroke2  139  41 I38
stroke2  138  43 I38
stroke2  138  44 I38
stroke2  137  46 I38
stroke2  136  86 I38
stroke2  136  87 I38
stroke2  135  87 I38
stroke2  136  87 I38
stroke2  136  88 I38
stroke2  137  89 I38
stroke2  137  91 I38
stroke2  138  93 I38
stroke2  139  95 I38
stroke2  140  97 I38
stroke2  141  100 I38
stroke2  142  103 I38
stroke2  143  105 I38
stroke2  144  107 I38
stroke2  144  109 I38
stroke2  145  110 I38
stroke2  145  111 I38
stroke2  145  110 I38
stroke2  144  109 I38
stroke3  171  46 B35
stroke3  170  47 I35
stroke3  170  48 I35
stroke3  170  49 I35
stroke3  169  50 I35
stroke3  168  51 I35
stroke3  168  52 I35
stroke3  167  53 I35
stroke3  166  53 I35
stroke3  165  52 I35
stroke3  165  51 I35
stroke3  164  50 I35
stroke3  164  49 I35
stroke3  163  47 I35
stroke3  163  46 I35
stroke3  163  44 I35
stroke3  162  43 I35
stroke3  163  42 I35
stroke3  163  41 I35
stroke3  163  40 I35
stroke3  164  39 I35
stroke3  164  38 I35
stroke3  165  38 I35
stroke3  166  38 I35
stroke3  167  39 I35
stroke3  168  40 I35
stroke3  168  41 I35
stroke3  169  42 I35
stroke3  170  44 I35
stroke3  170  45 I35
stroke3  171  48 I35
stroke3  171  50 I35
stroke3  171  53 I35
stroke3  172  56 I35
stroke3  172  58 I35
stroke3  172  61 I35
stroke3  172  63 I35
stroke3  172  65 I35
stroke3  171  67 I35
stroke3  171  69 I35
stroke3  171  71 I35
stroke3  170  73 I35
stroke3  169  75 I35
stroke3  169  76 I35
stroke3  168  77 I35
stroke3  167  78 I35
stroke3  166  79 I35
stroke3  165  79 I35
stroke3  164  79 I35
stroke3  163  78 I35
stroke3  162  77 I35
stroke3  161  77 I35
stroke3  160  76 I35
stroke3  159  75 I35
stroke3  158  75 I35
stroke3  157  74 I35
stroke3  157  75 I35
stroke3  157  76 I35
stroke3  157  77 I35
stroke3  158  79 I35
stroke3  158  80 I35
stroke3  159  82 I35
stroke3  160  84 I35
stroke3  160  85 I35
stroke3  161  87 I35
stroke3  162  88 I35
stroke3  162  89 I35
stroke3  163  90 I35
stroke3  164  90 I35
stroke3  165  89 I35
stroke3  166  88 I35
stroke3  167  88 I35
stroke3  168  87 I35
stroke3  169  86 I35
stroke3  170  86 I35
stroke3  172  85 I35
stroke3  173  85 I35
stroke3  174  85 I35
stroke3  175  86 I35
stroke3  176  86 I35
stroke3  177  87 I35
stroke3  178  88 I35
stroke3  179  89 I35
stroke3  180  90 I35
stroke3  181  91 I35
stroke3  182  92 I35
stroke4  200  73 B39
stroke4  200  72 I39
stroke4  201  71 I39
stroke4  200  70 I39
stroke4  200  69 I39
stroke4  199  69 I39
stroke4  199  70 I39
stroke4  198  70 I39
stroke4  197  71 I39
stroke4  196  71 I39
stroke4  195  72 I39
stroke4  194  74 I39
stroke4  194  75 I39
stroke4  193  77 I39
stroke4  193  78 I39
stroke4  193  80 I39
stroke4  193  82 I39
stroke4  193  84 I39
stroke4  194  85 I39
stroke4  195  87 I39
stroke4  196  88 I39
stroke4  197  88 I39
stroke4  198  89 I39
stroke4  199  89 I39
stroke4  200  89 I39
stroke4  201  89 I39
stroke4  202  88 I39
stroke4  203  87 I39
stroke4  204  86 I39
stroke4  205  84 I39
stroke4  205  82 I39
stroke4  206  79 I39
stroke4  206  76 I39
stroke4  207  73 I39
stroke4  207  69 I39
stroke4  207  66 I39
stroke4  206  62 I39
stroke4  206  58 I39
stroke4  206  55 I39
stroke4  206  52 I39
stroke4  206  50 I39
stroke4  206  47 I39
stroke4  206  45 I39
stroke4  206  44 I39
stroke4  206  42 I39
stroke4  206  41 I39
stroke4  206  40 I39
stroke4  207  40 I39
stroke4  207  39 I39
stroke4  207  40 I39
stroke4  208  40 I39
stroke4  209  40 I39
stroke4  210  41 I39
stroke4  211  41 I39
stroke4  213  42 I39
stroke4  214  42 I39
stroke4  216  42 I39
stroke4  217  42 I39
stroke4  219  41 I39
stroke4  220  41 I39
stroke4  221  41 I39
stroke4  223  40 I39
stroke4  224  40 I39
stroke4  225  39 I39
stroke4  226  39 I39
stroke4  227  40 I39
stroke4  227  41 I39
stroke4  228  42 I39
stroke4  228  43 I39
stroke4  228  45 I39
stroke4  228  47 I39
stroke4  228  49 I39
stroke4  228  52 I39
stroke4  228  55 I39
stroke4  228  58 I39
stroke4  227  62 I39
stroke4  227  65 I39
stroke4  227  69 I39
stroke4  227  72 I39
stroke4  227  75 I39
stroke4  226  79 I39
stroke4  226  82 I39
stroke4  227  84 I39
stroke4  227  87 I39
stroke4  227  89 I39
stroke4  227  91 I39
stroke4  227  92 I39
stroke4  228  93 I39
stroke4  227  94 I39
stroke4  227  93 I39
stroke4  226  91 I39
stroke4  224  68 I39
stroke4  225  68 I39
stroke4  225  69 I39
stroke4  224  70 I39
stroke4  224  71 I39
stroke4  224  72 I39
stroke4  224  73 I39
stroke4  223  74 I39
stroke4  222  73 I39
stroke4  221  72 I39
stroke4  220  71 I39
stroke4  220  70 I39
stroke4  219  68 I39
stroke4  219  67 I39
stroke4  220  66 I39
stroke4  220  65 I39
stroke4  221  64 I39
stroke4  223  64 I39
stroke4  224  64 I39
stroke4  226  64 I39
stroke4  228  65 I39
stroke4  229  66 I39
stroke4  231  68 I39
stroke4  233  69 I39
stroke4  234  70 I39
stroke4  235  71 I39
stroke4  235  72 I39
stroke4  236  73 I39
stroke4  235  73 I39
stroke5  267  60 B16
stroke5  268  60 I16
stroke5  267  60 I16
stroke5  266  59 I16
stroke5  266  60 I16
stroke5  265  60 I16
stroke5  264  60 I16
stroke5  263  60 I16
stroke5  262  61 I16
stroke5  261  61 I16
stroke5  260  62 I16
stroke5  259  63 I16
stroke5  258  64 I16
stroke5  258  65 I16
stroke5  257  66 I16
stroke5  257  68 I16
stroke5  257  69 I16
stroke5  258  70 I16
stroke5  258  71 I16
stroke5  259  71 I16
stroke5  260  71 I16
stroke5  261  71 I16
stroke5  262  70 I16
stroke5  264  68 I16
stroke5  265  66 I16
stroke5  266  63 I16
stroke5  268  60 I16
stroke5  269  58 I16
stroke5  270  55 I16
stroke5  271  52 I16
stroke5  272  49 I16
stroke5  272  46 I16
stroke5  273  44 I16
stroke5  274  42 I16
stroke5  274  40 I16
stroke5  275  39 I16
stroke5  275  38 I16
stroke5  275  37 I16
stroke5  275  38 I16
stroke5  275  40 I16
stroke5  275  41 I16
stroke5  275  44 I16
stroke5  275  46 I16
stroke5  275  49 I16
stroke5  275  52 I16
stroke5  275  55 I16
stroke5  275  59 I16
stroke5  275  62 I16
stroke5  275  65 I16
stroke5  275  67 I16
stroke5  275  70 I16
stroke5  274  72 I16
stroke5  274  74 I16
stroke5  273  75 I16
stroke5  273  77 I16
stroke5  272  78 I16
stroke5  272  79 I16
stroke5  271  80 I16
stroke5  270  80 I16
stroke5  269  81 I16
stroke5  268  82 I16
stroke5  267  82 I16
stroke5  265  83 I16
stroke5  263  83 I16
stroke5  261  83 I16
stroke5  259  83 I16
stroke5  257  83 I16
stroke5  254  82 I16
stroke5  252  81 I16
stroke5  250  80 I16
stroke5  248  79 I16
stroke5  246  78 I16
stroke5  245  78 I16
stroke5  244  78 I16
stroke5  244  79 I16
stroke5  245  80 I16
stroke5  246  82 I16
stroke5  247  84 I16
stroke5  249  86 I16
stroke5  250  87 I16
stroke5  252  89 I16
stroke5  254  91 I16
stroke5  255  92 I16
stroke5  257  93 I16
stroke5  258  94 I16
stroke5  259  94 I16
stroke5  261  93 I16
stroke5  262  93 I16
stroke5  263  92 I16
stroke5  264  90 I16
stroke5  265  89 I16
stroke5  267  88 I16
stroke5  268  87 I16
stroke5  269  86 I16
stroke5  271  85 I16
stroke5  272  85 I16
stroke5  273  84 I16
stroke5  275  85 I16
stroke5  276  85 I16
stroke5  277  86 I16
stroke5  279  87 I16
stroke5  280  87 I16
stroke5  280  88 I16
stroke5  281  89 I16
stroke5  282  89 I16
stroke5  283  89 I16
stroke5  283  88 I16
stroke5  282  87 I16
stroke6  265  18 B72
stroke6  265  17 I72
stroke6  264  16 I72
stroke6  264  15 I72
stroke6  263  13 I72
stroke6  263  12 I72
stroke6  262  11 I72
stroke6  261  10 I72
stroke6  260  10 I72
stroke6  259  10 I72
stroke6  258  10 I72
stroke6  257  11 I72
stroke6  257  12 I72
stroke6  256  12 I72
stroke6  255  13 I72
stroke6  255  14 I72
stroke6  255  15 I72
stroke6  255  17 I72
stroke6  255  18 I72
stroke6  255  19 I72
stroke6  256  19 I72
stroke6  256  20 I72
stroke6  257  20 I72
stroke6  258  19 I72
stroke6  259  18 I72
stroke6  259  16 I72
stroke6  260  15 I72
stroke6  260  13 I72
stroke6  261  12 I72
stroke6  261  10 I72
stroke6  261  9 I72
stroke6  262  7 I72
stroke6  262  6 I72
stroke6  262  4 I72
stroke6  261  3 I72
stroke6  261  2 I72
stroke6  260  2 I72
stroke6  259  3 I72
stroke6  258  3 I72
stroke6  257  4 I72
stroke6  256  4 I72
stroke6  255  5 I72
stroke6  254  6 I72
stroke6  253  5 I72
stroke6  252  5 I72
stroke6  252  4 I72
stroke6  251  4 I72
stroke6  250  4 I72
stroke6  249  5 I72
stroke6  248  5 I72
stroke6  247  6 I72
stroke6  246  6 I72
stroke6  245  6 I72
stroke6  244  6 I72
stroke6  243  6 I72
stroke6  242  5 I72
stroke6  241  4 I72
stroke6  240  4 I72
stroke6  240  3 I72
stroke6  239  2 I72
stroke6  240  1 I72
stroke6  241  0 I72
stroke6  242  0 I72
stroke6  243  1 I72
stroke6  245  1 I72
stroke6  246  2 I72
stroke6  249  3 I72
stroke6  251  5 I72
stroke6  253  6 I72
stroke6  256  8 I72
stroke6  258  10 I72
stroke6  261  12 I72
stroke6  263  14 I72
stroke7  308  43 B1
stroke7  308  42 I1
stroke7  308  41 I1
stroke7  308  40 I1
stroke7  308  39 I1
stroke7  307  39 I1
stroke7  307  40 I1
stroke7  308  41 I1
stroke7  308  43 I1
stroke7  308  44 I1
stroke7  308  46 I1
stroke7  309  48 I1
stroke7  309  51 I1
stroke7  309  53 I1
stroke7  310  56 I1
stroke7  310  59 I1
stroke7  311  62 I1
stroke7  311  65 I1
stroke7  311  68 I1
stroke7  310  71 I1
stroke7  310  73 I1
stroke7  310  74 I1
stroke7  310  76 I1
stroke7  309  76 I1
stroke7  309  77 I1
stroke7  308  76 I1
stroke7  307  75 I1
stroke7  306  73 I1
stroke7  305  71 I1
stroke7  304  70 I1
stroke7  303  68 I1
stroke7  302  67 I1
stroke7  302  66 I1
stroke7  301  66 I1
stroke7  301  67 I1
stroke7  302  68 I1
stroke7  302  69 I1
stroke7  303  71 I1
stroke7  304  73 I1
stroke7  305  76 I1
stroke7  306  78 I1
stroke7  307  81 I1
stroke7  308  83 I1
stroke7  309  85 I1
stroke7  311  87 I1
stroke7  312  88 I1
stroke7  313  90 I1
stroke7  314  91 I1
stroke7  315  91 I1
stroke7  316  92 I1
stroke7  317  93 I1
stroke7  318  93 I1
stroke7  319  93 I1
stroke7  321  93 I1
stroke7  322  93 I1
stroke7  323  93 I1
stroke7  324  92 I1
stroke7  326  91 I1
stroke7  327  90 I1
stroke7  328  89 I1
stroke7  329  87 I1
stroke7  330  85 I1
stroke7  331  83 I1
stroke7  332  81 I1
stroke7  333  78 I1
stroke7  333  75 I1
stroke7  333  72 I1
stroke7  334  68 I1
stroke7  334  65 I1
stroke7  334  61 I1
stroke7  333  57 I1
stroke7  333  53 I1
stroke7  333  50 I1
stroke7  333  47 I1
stroke7  332  44 I1
stroke7  332  42 I1
stroke7  332  41 I1
stroke7  331  40 I1
stroke7  331  39 I1
stroke7  331  40 I1
stroke7  331  41 I1
stroke7  331  42 I1
stroke7  331  44 I1
stroke7  331  45 I1
stroke8  337  111 B48
stroke8  337  112 I48
stroke8  336  112 I48
stroke8  335  113 I48
stroke8  334  113 I48
stroke8  333  114 I48
stroke8  332  114 I48
stroke8  330  114 I48
stroke8  328  115 I48
stroke8  326  115 I48
stroke8  324  115 I48
stroke8  322  116 I48
stroke8  320  116 I48
stroke8  318  116 I48
stroke8  316  116 I48
stroke8  314  117 I48
stroke8  312  117 I48
stroke8  311  118 I48
stroke8  310  119 I48
stroke8  309  120 I48
stroke8  309  121 I48
stroke8  309  122 I48
stroke8  309  124 I48
stroke8  310  125 I48
stroke8  311  127 I48
stroke8  312  128 I48
stroke8  314  129 I48
stroke8  315  130 I48
stroke8  317  130 I48
stroke8  319  129 I48
stroke8  321  128 I48
stroke8  323  127 I48
stroke8  325  125 I48
stroke8  327  123 I48
stroke8  328  122 I48
stroke8  330  120 I48
stroke8  331  118 I48
stroke8  332  117 I48
stroke8  333  115 I48
stroke8  334  114 I48
stroke8  334  112 I48
stroke9  375  61 B8
stroke9  375  60 I8
stroke9  375  59 I8
stroke9  374  59 I8
stroke9  373  59 I8
stroke9  372  59 I8
stroke9  371  60 I8
stroke9  369  60 I8
stroke9  368  61 I8
stroke9  367  62 I8
stroke9  366  63 I8
stroke9  365  64 I8
stroke9  364  65 I8
stroke9  363  67 I8
stroke9  363  68 I8
stroke9  363  69 I8
stroke9  363  70 I8
stroke9  364  71 I8
stroke9  365  71 I8
stroke9  366  71 I8
stroke9  368  70 I8
stroke9  369  69 I8
stroke9  371  67 I8
stroke9  372  66 I8
stroke9  374  63 I8
stroke9  376  61 I8
stroke9  377  59 I8
stroke9  378  56 I8
stroke9  379  53 I8
stroke9  380  51 I8
stroke9  380  49 I8
stroke9  381  46 I8
stroke9  382  44 I8
stroke9  382  42 I8
stroke9  382  41 I8
stroke9  382  40 I8
stroke9  382  39 I8
stroke9  382  40 I8
stroke9  382  41 I8
stroke9  382  42 I8
stroke9  382  44 I8
stroke9  382  46 I8
stroke9  382  48 I8
stroke9  382  51 I8
stroke9  382  55 I8
stroke9  382  59 I8
stroke9  382  63 I8
stroke9  383  67 I8
stroke9  383  70 I8
stroke9  383  74 I8
stroke9  384  77 I8
stroke9  384  79 I8
stroke9  384  81 I8
stroke9  384  83 I8
stroke9  384  84 I8
stroke9  384  85 I8
stroke9  383  86 I8
stroke9  383  87 I8
stroke9  383  88 I8
stroke9  383  89 I8
stroke9  382  89 I8
stroke9  382  90 I8
stroke9  381  90 I8
stroke9  381  91 I8
stroke9  380  92 I8
stroke9  378  92 I8
stroke9  377  93 I8
stroke9  375  94 I8
stroke9  372  94 I8
stroke9  370  95 I8
stroke9  367  95 I8
stroke9  364  96 I8
stroke9  361  95 I8
stroke9  358  95 I8
stroke9  356  94 I8
stroke9  354  92 I8
stroke9  352  90 I8
stroke9  351  88 I8
stroke9  350  86 I8
stroke9  350  84 I8
