stroke1  54  13 B40
stroke1  55  13 I40
stroke1  55  14 I40
stroke1  55  15 I40
stroke1  56  15 I40
stroke1  57  16 I40
stroke1  58  16 I40
stroke1  59  16 I40
stroke1  60  16 I40
stroke1  61  16 I40
stroke1  62  15 I40
stroke1  63  14 I40
stroke1  63  13 I40
stroke1  64  12 I40
stroke1  64  11 I40
stroke1  64  10 I40
stroke1  65  9 I40
stroke1  64  8 I40
stroke1  64  7 I40
stroke1  64  7 I40
stroke1  64  6 I40
stroke1  63  5 I40
stroke1  62  5 I40
stroke1  61  5 I40
stroke1  60  6 I40
stroke1  59  6 I40
stroke1  58  7 I40
stroke1  58  8 I40
stroke1  57  9 I40
stroke1  56  10 I40
stroke1  56  12 I40
stroke1  56  14 I40
stroke1  55  16 I40
stroke1  55  18 I40
stroke1  55  21 I40
stroke1  55  23 I40
stroke1  56  26 I40
stroke1  56  29 I40
stroke1  56  31 I40
stroke1  56  34 I40
stroke1  57  36 I40
stroke1  57  38 I40
stroke1  57  40 I40
stroke1  58  41 I40
stroke1  58  42 I40
stroke1  58  43 I40
stroke1  59  43 I40
stroke1  60  43 I40
stroke1  61  42 I40
stroke1  63  41 I40
stroke1  64  40 I40
stroke1  66  38 I40
stroke1  67  36 I40
stroke1  69  34 I40
stroke1  70  32 I40
stroke1  71  29 I40
stroke1  72  27 I40
stroke1  73  24 I40
stroke1  74  22 I40
stroke1  75  20 I40
stroke1  76  18 I40
stroke1  76  16 I40
stroke1  77  15 I40
stroke1  77  14 I40
stroke1  78  13 I40
stroke1  78  12 I40
stroke1  78  13 I40
stroke1  78  14 I40
stroke1  78  15 I40
stroke1  78  17 I40
stroke1  78  19 I40
stroke1  78  21 I40
stroke1  78  23 I40
stroke1  77  25 I40
stroke1  77  28 I40
stroke1  77  30 I40
stroke1  77  33 I40
stroke1  76  36 I40
stroke1  76  39 I40
stroke1  75  42 I40
stroke1  75  45 I40
stroke1  74  47 I40
stroke1  74  50 I40
stroke1  73  53 I40
stroke1  73  55 I40
stroke1  73  57 I40
stroke1  72  58 I40
stroke1  72  59 I40
stroke1  72  60 I40
stroke1  72  61 I40
stroke1  71  61 I40
stroke1  71  62 I40
stroke1  71  63 I40
stroke1  70  63 I40
stroke1  70  64 I40
stroke1  69  64 I40
stroke1  69  65 I40
stroke1  68  65 I40
stroke1  67  66 I40
stroke1  66  66 I40
stroke1  64  67 I40
stroke1  63  67 I40
stroke1  62  68 I40
stroke1  60  68 I40
stroke1  58  67 I40
stroke1  56  67 I40
stroke1  54  65 I40
stroke1  52  64 I40
stroke1  50  62 I40
stroke1  48  60 I40
stroke1  46  58 I40
stroke1  45  57 I40
stroke1  44  55 I40
stroke1  43  54 I40
stroke1  43  53 I40
stroke1  66  65 I40
stroke1  66  66 I40
stroke1  66  67 I40
stroke1  67  67 I40
stroke1  67  68 I40
stroke1  68  69 I40
stroke1  68  71 I40
stroke1  69  73 I40
stroke1  70  75 I40
stroke1  71  77 I40
stroke1  72  79 I40
stroke1  74  81 I40
stroke1  75  84 I40
stroke1  76  86 I40
stroke1  78  88 I40
stroke1  79  90 I40
stroke1  80  92 I40
stroke1  81  94 I40
stroke1  82  96 I40
stroke1  82  97 I40
stroke1  83  97 I40
stroke1  82  98 I40
stroke1  82  97 I40
stroke1  81  97 I40
stroke2  70  97 B56
stroke2  70  98 I56
stroke2  70  99 I56
stroke2  70  100 I56
stroke2  70  101 I56
stroke2  69  101 I56
stroke2  69  102 I56
stroke2  68  102 I56
stroke2  68  103 I56
stroke2  67  103 I56
stroke2  66  103 I56
stroke2  66  102 I56
stroke2  65  102 I56
stroke2  64  100 I56
stroke2  63  99 I56
stroke2  62  97 I56
stroke2  62  96 I56
stroke2  62  94 I56
stroke2  62  92 I56
stroke2  63  91 I56
stroke2  64  90 I56
stroke2  65  89 I56
stroke2  66  89 I56
stroke2  68  88 I56
stroke2  69  89 I56
stroke2  70  89 I56
stroke2  71  90 I56
stroke2  72  91 I56
stroke2  73  91 I56
stroke2  73  92 I56
stroke2  73  93 I56
stroke2  73  94 I56
stroke3  105  51 B47
stroke3  105  52 I47
stroke3  105  53 I47
stroke3  105  54 I47
stroke3  105  55 I47
stroke3  105  56 I47
stroke3  105  58 I47
stroke3  106  59 I47
stroke3  107  61 I47
stroke3  108  63 I47
stroke3  108  64 I47
stroke3  109  66 I47
stroke3  111  67 I47
stroke3  112  68 I47
stroke3  113  69 I47
stroke3  114  70 I47
stroke3  115  70 I47
stroke3  116  70 I47
stroke3  117  70 I47
stroke3  118  70 I47
stroke3  119  69 I47
stroke3  120  69 I47
stroke3  122  68 I47
stroke3  123  68 I47
stroke3  123  66 I47
stroke3  125  65 I47
stroke3  125  64 I47
stroke3  126  62 I47
stroke3  127  59 I47
stroke3  128  57 I47
stroke3  128  54 I47
stroke3  129  51 I47
stroke3  129  47 I47
stroke3  129  43 I47
stroke3  129  40 I47
stroke3  130  36 I47
stroke3  130  32 I47
stroke3  130  29 I47
stroke3  130  25 I47
stroke3  130  23 I47
stroke3  130  20 I47
stroke3  130  18 I47
stroke3  131  16 I47
stroke3  131  15 I47
stroke3  131  14 I47
stroke3  131  12 I47
stroke3  131  11 I47
stroke3  131  10 I47
stroke3  132  10 I47
stroke3  132  9 I47
stroke3  132  10 I47
stroke4  171  54 B41
stroke4  172  53 I41
stroke4  173  52 I41
stroke4  173  51 I41
stroke4  172  51 I41
stroke4  172  50 I41
stroke4  171  49 I41
stroke4  170  49 I41
stroke4  169  49 I41
stroke4  168  49 I41
stroke4  166  49 I41
stroke4  165  49 I41
stroke4  164  50 I41
stroke4  163  51 I41
stroke4  162  52 I41
stroke4  162  53 I41
stroke4  161  55 I41
stroke4  162  56 I41
stroke4  162  58 I41
stroke4  162  59 I41
stroke4  163  61 I41
stroke4  164  62 I41
stroke4  165  63 I41
stroke4  166  63 I41
stroke4  167  63 I41
stroke4  168  63 I41
stroke4  170  63 I41
stroke4  171  62 I41
stroke4  171  61 I41
stroke4  172  59 I41
stroke4  173  57 I41
stroke4  173  55 I41
stroke4  174  52 I41
stroke4  174  49 I41
stroke4  174  46 I41
stroke4  175  43 I41
stroke4  175  40 I41
stroke4  175  36 I41
stroke4  175  33 I41
stroke4  175  30 I41
stroke4  174  27 I41
stroke4  174  24 I41
stroke4  174  22 I41
stroke4  174  20 I41
stroke4  174  18 I41
stroke4  174  16 I41
stroke4  174  14 I41
stroke4  174  13 I41
stroke4  174  12 I41
stroke4  174  11 I41
stroke4  175  10 I41
stroke4  174  9 I41
stroke4  174  8 I41
stroke4  174  9 I41
stroke4  175  9 I41
stroke4  175  10 I41
stroke4  175  12 I41
stroke4  176  13 I41
stroke4  176  15 I41
stroke4  178  17 I41
stroke4  179  20 I41
stroke4  180  23 I41
stroke4  182  26 I41
stroke4  183  29 I41
stroke4  185  32 I41
stroke4  186  35 I41
stroke4  188  38 I41
stroke4  189  40 I41
stroke4  190  43 I41
stroke4  191  45 I41
stroke4  192  47 I41
stroke4  193  48 I41
stroke4  194  50 I41
stroke4  195  51 I41
stroke4  196  53 I41
stroke4  196  54 I41
stroke4  197  56 I41
stroke4  197  57 I41
stroke4  198  58 I41
stroke4  198  59 I41
stroke4  198  60 I41
stroke4  198  61 I41
stroke4  198  62 I41
stroke4  198  63 I41
stroke4  197  64 I41
stroke4  196  64 I41
stroke4  195  63 I41
stroke4  194  63 I41
stroke4  193  62 I41
stroke4  192  61 I41
stroke4  191  60 I41
stroke4  190  58 I41
stroke4  189  57 I41
stroke4  189  56 I41
stroke4  189  55 I41
stroke4  189  54 I41
stroke4  189  53 I41
stroke4  190  52 I41
stroke4  191  51 I41
stroke4  192  51 I41
stroke4  193  50 I41
stroke4  194  49 I41
stroke4  195  48 I41
stroke4  196  46 I41
stroke4  196  45 I41
stroke4  197  44 I41
stroke4  197  42 I41
stroke4  198  40 I41
stroke4  198  38 I41
stroke4  198  36 I41
stroke4  198  34 I41
stroke4  198  32 I41
stroke4  198  30 I41
stroke4  199  27 I41
stroke4  199  25 I41
stroke4  199  23 I41
stroke4  199  20 I41
stroke4  199  18 I41
stroke4  199  16 I41
stroke4  199  14 I41
stroke4  199  12 I41
stroke4  199  10 I41
stroke4  199  9 I41
stroke4  199  7 I41
stroke4  199  6 I41
stroke4  199  5 I41
stroke4  199  4 I41
stroke4  198  5 I41
stroke5  234  12 B35
stroke5  234  13 I35
stroke5  235  13 I35
stroke5  234  14 I35
stroke5  234  15 I35
stroke5  234  16 I35
stroke5  233  17 I35
stroke5  233  18 I35
stroke5  232  19 I35
stroke5  231  19 I35
stroke5  231  20 I35
stroke5  230  20 I35
stroke5  229  20 I35
stroke5  228  20 I35
stroke5  227  20 I35
stroke5  227  19 I35
stroke5  226  18 I35
stroke5  226  17 I35
stroke5  225  16 I35
stroke5  225  14 I35
stroke5  225  13 I35
stroke5  225  12 I35
stroke5  226  11 I35
stroke5  227  11 I35
stroke5  227  10 I35
stroke5  228  10 I35
stroke5  229  9 I35
stroke5  230  9 I35
stroke5  231  10 I35
stroke5  232  10 I35
stroke5  233  11 I35
stroke5  234  12 I35
stroke5  234  13 I35
stroke5  235  14 I35
stroke5  235  15 I35
stroke5  235  17 I35
stroke5  236  18 I35
stroke5  236  20 I35
stroke5  236  22 I35
stroke5  236  24 I35
stroke5  236  26 I35
stroke5  236  28 I35
stroke5  236  30 I35
stroke5  236  32 I35
stroke5  236  34 I35
stroke5  236  36 I35
stroke5  236  38 I35
stroke5  236  40 I35
stroke5  236  42 I35
stroke5  236  44 I35
stroke5  235  46 I35
stroke5  235  47 I35
stroke5  234  49 I35
stroke5  234  50 I35
stroke5  233  51 I35
stroke5  233  52 I35
stroke5  232  53 I35
stroke5  231  53 I35
stroke5  230  54 I35
stroke5  228  54 I35
stroke5  227  54 I35
stroke5  226  53 I35
stroke5  225  53 I35
stroke5  224  52 I35
stroke5  222  51 I35
stroke5  221  51 I35
stroke5  220  50 I35
stroke5  220  49 I35
stroke5  219  49 I35
stroke5  218  49 I35
stroke5  218  50 I35
stroke5  219  51 I35
stroke5  219  52 I35
stroke5  220  53 I35
stroke5  221  55 I35
stroke5  221  56 I35
stroke5  222  57 I35
stroke5  223  59 I35
stroke5  224  60 I35
stroke5  225  61 I35
stroke5  226  62 I35
stroke5  227  62 I35
stroke5  227  63 I35
stroke5  228  63 I35
stroke5  229  63 I35
stroke5  230  63 I35
stroke5  231  63 I35
stroke5  232  62 I35
stroke5  233  62 I35
stroke5  234  61 I35
stroke5  236  61 I35
stroke5  237  60 I35
stroke5  238  60 I35
stroke5  239  60 I35
stroke5  240  60 I35
stroke5  241  61 I35
stroke5  242  61 I35
stroke5  243  62 I35
stroke5  244  62 I35
stroke5  245  63 I35
stroke5  246  64 I35
stroke5  246  65 I35
stroke5  247  65 I35
stroke5  247  66 I35
stroke5  247  67 I35
stroke5  247  68 I35
stroke5  247  69 I35
stroke5  246  70 I35
stroke6  259  84 B45
stroke6  259  85 I45
stroke6  260  86 I45
stroke6  260  87 I45
stroke6  260  88 I45
stroke6  260  89 I45
stroke6  259  90 I45
stroke6  259  91 I45
stroke6  259  92 I45
stroke6  258  93 I45
stroke6  257  93 I45
stroke6  256  92 I45
stroke6  255  92 I45
stroke6  255  91 I45
stroke6  254  89 I45
stroke6  254  88 I45
stroke6  253  87 I45
stroke6  253  86 I45
stroke6  253  85 I45
stroke6  254  84 I45
stroke6  254  83 I45
stroke6  255  82 I45
stroke6  256  82 I45
stroke6  257  82 I45
stroke6  259  82 I45
stroke6  260  83 I45
stroke6  262  84 I45
stroke6  264  85 I45
stroke6  265  87 I45
stroke6  267  88 I45
stroke6  268  90 I45
stroke6  269  91 I45
stroke6  270  92 I45
stroke6  271  94 I45
stroke6  272  95 I45
stroke6  272  96 I45
stroke6  271  95 I45
stroke7  275  49 B26
stroke7  275  48 I26
stroke7  274  48 I26
stroke7  274  47 I26
stroke7  273  47 I26
stroke7  272  46 I26
stroke7  271  46 I26
stroke7  270  46 I26
stroke7  269  46 I26
stroke7  268  47 I26
stroke7  267  47 I26
stroke7  266  48 I26
stroke7  265  49 I26
stroke7  265  50 I26
stroke7  264  51 I26
stroke7  264  52 I26
stroke7  264  54 I26
stroke7  264  55 I26
stroke7  265  57 I26
stroke7  266  58 I26
stroke7  267  59 I26
stroke7  268  60 I26
stroke7  269  61 I26
stroke7  270  62 I26
stroke7  271  63 I26
stroke7  272  63 I26
stroke7  273  63 I26
stroke7  274  62 I26
stroke7  275  62 I26
stroke7  275  61 I26
stroke7  276  59 I26
stroke7  276  58 I26
stroke7  277  56 I26
stroke7  277  54 I26
stroke7  277  51 I26
stroke7  277  49 I26
stroke7  277  46 I26
stroke7  277  42 I26
stroke7  277  39 I26
stroke7  276  36 I26
stroke7  276  33 I26
stroke7  276  30 I26
stroke7  276  26 I26
stroke7  276  23 I26
stroke7  275  20 I26
stroke7  275  18 I26
stroke7  275  15 I26
stroke7  275  12 I26
stroke7  274  10 I26
stroke7  274  8 I26
stroke7  274  6 I26
stroke7  274  4 I26
stroke7  274  3 I26
stroke7  274  2 I26
stroke7  274  1 I26
stroke7  275  0 I26
stroke7  276  0 I26
stroke7  277  0 I26
stroke7  278  0 I26
stroke7  279  0 I26
stroke7  280  1 I26
stroke7  282  1 I26
stroke7  284  2 I26
stroke7  286  2 I26
stroke7  287  3 I26
stroke7  289  3 I26
stroke7  291  3 I26
stroke7  293  3 I26
stroke7  295  3 I26
stroke7  296  3 I26
stroke7  297  3 I26
stroke7  298  3 I26
stroke7  299  3 I26
stroke7  300  3 I26
stroke7  301  3 I26
stroke7  302  4 I26
stroke7  303  5 I26
stroke7  303  6 I26
stroke7  304  8 I26
stroke7  304  10 I26
stroke7  305  12 I26
stroke7  305  14 I26
stroke7  306  16 I26
stroke7  306  18 I26
stroke7  306  21 I26
stroke7  306  24 I26
stroke7  306  27 I26
stroke7  306  30 I26
stroke7  306  33 I26
stroke7  306  36 I26
stroke7  306  39 I26
stroke7  306  42 I26
stroke7  306  45 I26
stroke7  306  47 I26
stroke7  306  49 I26
stroke7  306  51 I26
stroke7  306  53 I26
stroke7  306  55 I26
stroke7  306  56 I26
stroke7  306  58 I26
stroke7  306  59 I26
stroke7  306  60 I26
stroke7  306  61 I26
stroke7  306  62 I26
stroke7  306  63 I26
stroke7  306  64 I26
stroke7  307  64 I26
stroke7  306  64 I26
stroke7  305  64 I26
stroke7  304  63 I26
