stroke1  36  47 B37
stroke1  36  46 I37
stroke1  36  45 I37
stroke1  36  44 I37
stroke1  35  44 I37
stroke1  35  45 I37
stroke1  36  45 I37
stroke1  36  46 I37
stroke1  36  47 I37
stroke1  36  48 I37
stroke1  37  49 I37
stroke1  37  51 I37
stroke1  37  52 I37
stroke1  38  54 I37
stroke1  39  56 I37
stroke1  40  57 I37
stroke1  41  58 I37
stroke1  41  59 I37
stroke1  42  60 I37
stroke1  42  60 I37
stroke1  43  61 I37
stroke1  44  61 I37
stroke1  45  62 I37
stroke1  47  62 I37
stroke1  48  62 I37
stroke1  49  62 I37
stroke1  50  62 I37
stroke1  51  62 I37
stroke1  52  61 I37
stroke1  53  59 I37
stroke1  54  58 I37
stroke1  55  56 I37
stroke1  56  53 I37
stroke1  57  51 I37
stroke1  57  48 I37
stroke1  58  45 I37
stroke1  58  41 I37
stroke1  58  38 I37
stroke1  58  34 I37
stroke1  58  31 I37
stroke1  58  27 I37
stroke1  58  24 I37
stroke1  58  21 I37
stroke1  58  19 I37
stroke1  58  16 I37
stroke1  58  14 I37
stroke1  58  12 I37
stroke1  58  11 I37
stroke1  59  9 I37
stroke1  59  8 I37
stroke1  59  7 I37
stroke1  59  6 I37
stroke1  59  5 I37
stroke1  59  4 I37
stroke1  59  3 I37
stroke1  58  2 I37
stroke1  57  2 I37
stroke1  56  2 I37
stroke1  55  2 I37
stroke1  54  2 I37
stroke1  53  2 I37
stroke1  51  2 I37
stroke1  50  3 I37
stroke1  49  3 I37
stroke1  48  4 I37
stroke1  48  5 I37
stroke1  47  6 I37
stroke1  48  7 I37
stroke1  49  8 I37
stroke1  50  9 I37
stroke1  51  10 I37
stroke1  52  10 I37
stroke1  54  11 I37
stroke1  55  12 I37
stroke2  60  87 B48
stroke2  61  87 I48
stroke2  61  88 I48
stroke2  60  87 I48
stroke2  59  87 I48
stroke2  58  86 I48
stroke2  57  86 I48
stroke2  55  86 I48
stroke2  54  86 I48
stroke2  52  86 I48
stroke2  51  86 I48
stroke2  49  86 I48
stroke2  47  86 I48
stroke2  46  86 I48
stroke2  44  86 I48
stroke2  43  87 I48
stroke2  42  88 I48
stroke2  41  88 I48
stroke2  41  89 I48
stroke2  41  91 I48
stroke2  41  92 I48
stroke2  42  94 I48
stroke2  43  95 I48
stroke2  45  96 I48
stroke2  46  96 I48
stroke2  48  96 I48
stroke2  50  96 I48
stroke2  52  95 I48
stroke2  54  93 I48
stroke2  55  92 I48
stroke2  57  90 I48
stroke2  58  88 I48
stroke2  60  87 I48
stroke2  61  85 I48
stroke2  61  84 I48
stroke2  61  82 I48
stroke3  96  51 B30
stroke3  96  50 I30
stroke3  96  49 I30
stroke3  96  48 I30
stroke3  96  47 I30
stroke3  95  46 I30
stroke3  94  46 I30
stroke3  93  46 I30
stroke3  92  47 I30
stroke3  91  47 I30
stroke3  90  48 I30
stroke3  89  49 I30
stroke3  89  50 I30
stroke3  89  51 I30
stroke3  89  52 I30
stroke3  89  54 I30
stroke3  89  55 I30
stroke3  90  56 I30
stroke3  90  57 I30
stroke3  91  57 I30
stroke3  91  58 I30
stroke3  92  58 I30
stroke3  93  58 I30
stroke3  94  58 I30
stroke3  95  58 I30
stroke3  96  58 I30
stroke3  97  57 I30
stroke3  98  56 I30
stroke3  98  55 I30
stroke3  99  53 I30
stroke3  100  52 I30
stroke3  100  49 I30
stroke3  100  47 I30
stroke3  101  44 I30
stroke3  101  41 I30
stroke3  101  38 I30
stroke3  101  35 I30
stroke3  102  32 I30
stroke3  102  29 I30
stroke3  102  26 I30
stroke3  101  23 I30
stroke3  101  20 I30
stroke3  101  17 I30
stroke3  101  15 I30
stroke3  101  13 I30
stroke3  101  11 I30
stroke3  101  9 I30
stroke3  101  8 I30
stroke3  102  7 I30
stroke3  101  7 I30
stroke3  101  6 I30
stroke3  101  7 I30
stroke3  101  8 I30
stroke3  102  10 I30
stroke3  102  12 I30
stroke3  102  14 I30
stroke3  103  16 I30
stroke3  103  19 I30
stroke3  104  21 I30
stroke3  105  23 I30
stroke3  105  25 I30
stroke3  106  27 I30
stroke3  107  28 I30
stroke3  107  29 I30
stroke3  108  30 I30
stroke3  108  31 I30
stroke3  109  32 I30
stroke3  110  32 I30
stroke3  111  32 I30
stroke3  112  32 I30
stroke3  113  31 I30
stroke3  114  31 I30
stroke3  115  29 I30
stroke3  116  28 I30
stroke3  117  26 I30
stroke3  118  25 I30
stroke3  119  23 I30
stroke3  120  22 I30
stroke3  121  20 I30
stroke3  122  19 I30
stroke3  122  17 I30
stroke3  123  16 I30
stroke3  124  14 I30
stroke3  124  13 I30
stroke3  125  12 I30
stroke3  125  11 I30
stroke3  126  10 I30
stroke3  126  9 I30
stroke3  127  8 I30
stroke3  127  9 I30
stroke3  127  10 I30
stroke3  127  11 I30
stroke3  127  13 I30
stroke3  127  15 I30
stroke3  127  17 I30
stroke3  127  20 I30
stroke3  127  22 I30
stroke3  127  26 I30
stroke3  127  29 I30
stroke3  127  32 I30
stroke3  127  36 I30
stroke3  127  39 I30
stroke3  127  42 I30
stroke3  126  44 I30
stroke3  126  47 I30
stroke3  126  49 I30
stroke3  126  51 I30
stroke3  126  53 I30
stroke3  127  55 I30
stroke3  127  57 I30
stroke3  127  59 I30
stroke3  127  60 I30
stroke3  128  61 I30
stroke3  128  62 I30
stroke3  129  62 I30
stroke3  129  63 I30
stroke3  129  62 I30
stroke3  129  61 I30
stroke4  149  49 B47
stroke4  149  50 I47
stroke4  150  50 I47
stroke4  150  51 I47
stroke4  150  52 I47
stroke4  151  53 I47
stroke4  151  54 I47
stroke4  151  55 I47
stroke4  152  56 I47
stroke4  152  57 I47
stroke4  153  58 I47
stroke4  153  59 I47
stroke4  154  60 I47
stroke4  155  60 I47
stroke4  155  61 I47
stroke4  156  62 I47
stroke4  157  62 I47
stroke4  158  62 I47
stroke4  159  62 I47
stroke4  160  62 I47
stroke4  161  61 I47
stroke4  162  61 I47
stroke4  163  60 I47
stroke4  163  59 I47
stroke4  164  59 I47
stroke4  165  57 I47
stroke4  166  56 I47
stroke4  166  54 I47
stroke4  167  52 I47
stroke4  167  50 I47
stroke4  167  48 I47
stroke4  168  46 I47
stroke4  168  43 I47
stroke4  168  41 I47
stroke4  167  38 I47
stroke4  167  35 I47
stroke4  167  32 I47
stroke4  167  29 I47
stroke4  167  26 I47
stroke4  167  23 I47
stroke4  167  21 I47
stroke4  166  18 I47
stroke4  167  16 I47
stroke4  167  14 I47
stroke4  167  11 I47
stroke4  167  9 I47
stroke4  167  8 I47
stroke4  167  6 I47
stroke4  167  5 I47
stroke4  167  4 I47
stroke4  167  3 I47
stroke4  167  4 I47
stroke4  167  5 I47
stroke4  168  7 I47
stroke4  167  8 I47
stroke5  186  10 B1
stroke5  186  9 I1
stroke5  186  8 I1
stroke5  186  7 I1
stroke5  186  6 I1
stroke5  186  7 I1
stroke5  186  8 I1
stroke5  186  9 I1
stroke5  186  11 I1
stroke5  186  13 I1
stroke5  186  14 I1
stroke5  186  17 I1
stroke5  186  19 I1
stroke5  186  21 I1
stroke5  186  23 I1
stroke5  186  26 I1
stroke5  186  29 I1
stroke5  186  31 I1
stroke5  186  34 I1
stroke5  186  37 I1
stroke5  186  39 I1
stroke5  186  40 I1
stroke5  186  42 I1
stroke5  186  43 I1
stroke5  186  44 I1
stroke5  185  44 I1
stroke5  184  43 I1
stroke5  184  42 I1
stroke5  183  41 I1
stroke5  183  40 I1
stroke5  182  39 I1
stroke5  182  38 I1
stroke5  182  37 I1
stroke5  181  37 I1
stroke5  181  38 I1
stroke5  181  39 I1
stroke5  182  40 I1
stroke5  182  42 I1
stroke5  183  43 I1
stroke5  183  45 I1
stroke5  184  47 I1
stroke5  184  48 I1
stroke5  185  50 I1
stroke5  186  52 I1
stroke5  187  53 I1
stroke5  188  55 I1
stroke5  189  57 I1
stroke5  190  58 I1
stroke5  191  59 I1
stroke5  192  61 I1
stroke5  193  62 I1
stroke5  194  62 I1
stroke5  195  63 I1
stroke5  196  63 I1
stroke5  197  64 I1
stroke5  198  64 I1
stroke5  199  64 I1
stroke5  200  63 I1
stroke5  201  63 I1
stroke5  202  63 I1
stroke5  204  63 I1
stroke5  205  62 I1
stroke5  206  61 I1
stroke5  208  61 I1
stroke5  209  60 I1
stroke5  210  59 I1
stroke5  211  58 I1
stroke5  212  56 I1
stroke5  213  55 I1
stroke5  214  53 I1
stroke5  214  51 I1
stroke5  215  48 I1
stroke5  215  45 I1
stroke5  216  43 I1
stroke5  216  39 I1
stroke5  216  36 I1
stroke5  216  33 I1
stroke5  216  29 I1
stroke5  216  26 I1
stroke5  216  22 I1
stroke5  215  19 I1
stroke5  215  15 I1
stroke5  215  12 I1
stroke5  215  9 I1
stroke5  214  7 I1
stroke5  214  5 I1
stroke5  214  3 I1
stroke5  214  2 I1
stroke5  214  1 I1
stroke5  215  1 I1
stroke5  215  0 I1
stroke5  215  1 I1
stroke5  216  2 I1
stroke5  215  3 I1
stroke6  246  50 B39
stroke6  247  50 I39
stroke6  247  49 I39
stroke6  248  48 I39
stroke6  248  47 I39
stroke6  247  47 I39
stroke6  247  46 I39
stroke6  247  45 I39
stroke6  247  44 I39
stroke6  246  44 I39
stroke6  246  43 I39
stroke6  245  43 I39
stroke6  244  43 I39
stroke6  243  43 I39
stroke6  242  43 I39
stroke6  241  44 I39
stroke6  240  44 I39
stroke6  240  45 I39
stroke6  239  46 I39
stroke6  238  47 I39
stroke6  238  48 I39
stroke6  238  49 I39
stroke6  237  50 I39
stroke6  238  51 I39
stroke6  238  53 I39
stroke6  238  54 I39
stroke6  238  55 I39
stroke6  239  56 I39
stroke6  239  57 I39
stroke6  240  58 I39
stroke6  241  59 I39
stroke6  241  60 I39
stroke6  242  60 I39
stroke6  243  60 I39
stroke6  243  61 I39
stroke6  244  61 I39
stroke6  245  61 I39
stroke6  246  60 I39
stroke6  247  60 I39
stroke6  248  59 I39
stroke6  249  57 I39
stroke6  250  56 I39
stroke6  250  54 I39
stroke6  251  51 I39
stroke6  251  49 I39
stroke6  251  46 I39
stroke6  251  43 I39
stroke6  251  40 I39
stroke6  251  36 I39
stroke6  251  33 I39
stroke6  251  30 I39
stroke6  250  27 I39
stroke6  250  25 I39
stroke6  250  22 I39
stroke6  249  19 I39
stroke6  249  17 I39
stroke6  249  15 I39
stroke6  248  13 I39
stroke6  248  12 I39
stroke6  248  10 I39
stroke6  248  9 I39
stroke6  248  8 I39
stroke6  248  7 I39
stroke6  248  6 I39
stroke6  248  7 I39
stroke6  249  7 I39
stroke6  250  8 I39
stroke6  251  9 I39
stroke6  253  10 I39
stroke6  254  10 I39
stroke6  255  10 I39
stroke6  257  11 I39
stroke6  258  11 I39
stroke6  260  10 I39
stroke6  261  10 I39
stroke6  262  10 I39
stroke6  264  10 I39
stroke6  265  10 I39
stroke6  266  10 I39
stroke6  267  9 I39
stroke6  268  9 I39
stroke6  269  9 I39
stroke6  270  9 I39
stroke6  271  9 I39
stroke6  271  8 I39
stroke6  272  8 I39
stroke6  272  9 I39
stroke6  273  10 I39
stroke6  273  11 I39
stroke6  273  12 I39
stroke6  273  13 I39
stroke6  273  15 I39
stroke6  274  17 I39
stroke6  274  20 I39
stroke6  274  22 I39
stroke6  274  25 I39
stroke6  274  27 I39
stroke6  274  30 I39
stroke6  274  33 I39
stroke6  274  36 I39
stroke6  274  39 I39
stroke6  274  41 I39
stroke6  274  44 I39
stroke6  274  47 I39
stroke6  274  49 I39
stroke6  274  51 I39
stroke6  274  53 I39
stroke6  274  55 I39
stroke6  273  56 I39
stroke6  273  57 I39
stroke6  273  58 I39
stroke6  273  59 I39
stroke6  273  60 I39
stroke6  272  59 I39
stroke6  271  57 I39
stroke6  269  28 I39
stroke6  270  28 I39
stroke6  270  29 I39
stroke6  270  30 I39
stroke6  270  31 I39
stroke6  270  32 I39
stroke6  270  33 I39
stroke6  270  34 I39
stroke6  269  35 I39
stroke6  268  35 I39
stroke6  268  34 I39
stroke6  267  33 I39
stroke6  267  32 I39
stroke6  267  31 I39
stroke6  267  30 I39
stroke6  268  29 I39
stroke6  269  29 I39
stroke6  271  29 I39
stroke6  272  29 I39
stroke6  273  30 I39
stroke6  274  31 I39
stroke6  276  32 I39
stroke6  277  33 I39
stroke6  278  34 I39
stroke6  279  35 I39
stroke6  279  36 I39
stroke6  280  37 I39
stroke6  280  38 I39
stroke6  281  39 I39
stroke6  280  39 I39
stroke6  280  40 I39
stroke6  279  41 I39
stroke7  284  80 B64
stroke7  284  82 I64
stroke7  284  83 I64
stroke7  284  84 I64
stroke7  284  85 I64
stroke7  284  86 I64
stroke7  285  87 I64
stroke7  285  88 I64
stroke7  286  88 I64
stroke7  287  89 I64
stroke7  288  89 I64
stroke7  289  88 I64
stroke7  290  87 I64
stroke7  291  86 I64
stroke7  291  85 I64
stroke7  291  84 I64
stroke7  291  82 I64
stroke7  291  81 I64
stroke7  291  80 I64
stroke7  290  79 I64
stroke7  290  78 I64
stroke7  289  77 I64
stroke7  288  76 I64
stroke7  287  76 I64
stroke7  286  76 I64
stroke7  285  76 I64
stroke7  285  77 I64
stroke7  284  78 I64
stroke7  284  79 I64
stroke7  284  80 I64
stroke7  285  82 I64
stroke7  285  83 I64
stroke7  286  85 I64
stroke7  286  86 I64
stroke7  287  88 I64
stroke7  288  89 I64
stroke7  289  91 I64
stroke7  290  92 I64
stroke7  291  94 I64
stroke7  292  95 I64
stroke7  293  97 I64
stroke7  294  98 I64
stroke7  295  99 I64
stroke7  295  100 I64
stroke7  295  101 I64
stroke8  310  46 B37
stroke8  310  45 I37
stroke8  309  45 I37
stroke8  309  46 I37
stroke8  309  47 I37
stroke8  309  48 I37
stroke8  309  49 I37
stroke8  310  51 I37
stroke8  311  52 I37
stroke8  311  54 I37
stroke8  312  55 I37
stroke8  313  57 I37
stroke8  314  58 I37
stroke8  315  59 I37
stroke8  316  60 I37
stroke8  316  61 I37
stroke8  317  62 I37
stroke8  318  62 I37
stroke8  319  62 I37
stroke8  320  62 I37
stroke8  321  61 I37
stroke8  322  60 I37
stroke8  323  59 I37
stroke8  325  57 I37
stroke8  326  55 I37
stroke8  327  53 I37
stroke8  327  51 I37
stroke8  328  48 I37
stroke8  328  44 I37
stroke8  329  41 I37
stroke8  329  38 I37
stroke8  329  34 I37
stroke8  328  31 I37
stroke8  328  27 I37
stroke8  328  24 I37
stroke8  328  21 I37
stroke8  327  19 I37
stroke8  327  17 I37
stroke8  327  15 I37
stroke8  327  13 I37
stroke8  327  12 I37
stroke8  327  11 I37
stroke8  327  10 I37
stroke8  327  9 I37
stroke8  327  8 I37
stroke8  327  7 I37
stroke8  326  7 I37
stroke8  325  7 I37
stroke8  325  6 I37
stroke8  324  6 I37
stroke8  323  6 I37
stroke8  322  6 I37
stroke8  321  6 I37
stroke8  320  7 I37
stroke8  319  7 I37
stroke8  318  8 I37
stroke8  317  9 I37
stroke8  316  10 I37
stroke8  316  11 I37
stroke8  316  13 I37
stroke8  316  14 I37
stroke8  316  15 I37
stroke8  317  16 I37
stroke8  318  17 I37
stroke8  319  18 I37
stroke8  320  18 I37
stroke8  321  18 I37
stroke8  322  18 I37
stroke8  323  18 I37
stroke8  324  18 I37
stroke8  324  19 I37
stroke8  325  19 I37
stroke9  337  80 B48
stroke9  338  80 I48
stroke9  338  81 I48
stroke9  337  81 I48
stroke9  336  81 I48
stroke9  335  81 I48
stroke9  334  81 I48
stroke9  332  81 I48
stroke9  331  81 I48
stroke9  329  81 I48
stroke9  328  81 I48
stroke9  326  81 I48
stroke9  325  82 I48
stroke9  323  82 I48
stroke9  322  82 I48
stroke9  321  83 I48
stroke9  320  84 I48
stroke9  320  85 I48
stroke9  320  86 I48
stroke9  320  87 I48
stroke9  320  88 I48
stroke9  321  89 I48
stroke9  322  90 I48
stroke9  323  90 I48
stroke9  324  90 I48
stroke9  325  90 I48
stroke9  327  89 I48
stroke9  328  88 I48
stroke9  330  87 I48
stroke9  331  86 I48
stroke9  333  84 I48
stroke9  334  82 I48
stroke10  369  27 B8
stroke10  369  26 I8
stroke10  368  26 I8
stroke10  368  27 I8
stroke10  367  27 I8
stroke10  366  27 I8
stroke10  365  27 I8
stroke10  365  28 I8
stroke10  364  29 I8
stroke10  363  29 I8
stroke10  362  30 I8
stroke10  361  32 I8
stroke10  360  33 I8
stroke10  360  35 I8
stroke10  360  36 I8
stroke10  360  38 I8
stroke10  360  39 I8
stroke10  360  40 I8
stroke10  361  41 I8
stroke10  361  42 I8
stroke10  362  42 I8
stroke10  363  42 I8
stroke10  364  42 I8
stroke10  365  41 I8
stroke10  366  40 I8
stroke10  367  38 I8
stroke10  368  36 I8
stroke10  370  33 I8
stroke10  371  31 I8
stroke10  373  28 I8
stroke10  374  25 I8
stroke10  375  22 I8
stroke10  376  20 I8
stroke10  377  17 I8
stroke10  378  15 I8
stroke10  379  13 I8
stroke10  379  12 I8
stroke10  379  10 I8
stroke10  380  9 I8
stroke10  381  8 I8
stroke10  381  9 I8
stroke10  381  11 I8
stroke10  381  12 I8
stroke10  381  14 I8
stroke10  381  17 I8
stroke10  382  20 I8
stroke10  382  23 I8
stroke10  382  27 I8
stroke10  383  30 I8
stroke10  383  34 I8
stroke10  383  37 I8
stroke10  383  40 I8
stroke10  384  42 I8
stroke10  384  45 I8
stroke10  384  47 I8
stroke10  384  48 I8
stroke10  383  50 I8
stroke10  383  51 I8
stroke10  383  52 I8
stroke10  383  53 I8
stroke10  383  54 I8
stroke10  383  55 I8
stroke10  382  55 I8
stroke10  382  56 I8
stroke10  381  56 I8
stroke10  381  57 I8
stroke10  380  57 I8
stroke10  379  58 I8
stroke10  378  58 I8
stroke10  377  59 I8
stroke10  375  59 I8
stroke10  373  59 I8
stroke10  371  60 I8
stroke10  369  59 I8
stroke10  366  59 I8
stroke10  364  59 I8
stroke10  362  58 I8
stroke10  360  57 I8
stroke10  358  56 I8
stroke10  356  55 I8
stroke10  355  54 I8
stroke10  355  53 I8
stroke10  354  51 I8
stroke11  402  44 B47
stroke11  401  44 I47
stroke11  401  45 I47
stroke11  401  46 I47
stroke11  402  47 I47
stroke11  402  48 I47
stroke11  402  49 I47
stroke11  403  50 I47
stroke11  403  52 I47
stroke11  404  53 I47
stroke11  405  53 I47
stroke11  406  54 I47
stroke11  406  55 I47
stroke11  407  55 I47
stroke11  408  56 I47
stroke11  409  56 I47
stroke11  410  55 I47
stroke11  411  55 I47
stroke11  413  54 I47
stroke11  414  53 I47
stroke11  415  52 I47
stroke11  416  50 I47
stroke11  417  49 I47
stroke11  418  47 I47
stroke11  419  45 I47
stroke11  420  43 I47
stroke11  421  40 I47
stroke11  421  38 I47
stroke11  421  35 I47
stroke11  421  33 I47
stroke11  421  30 I47
stroke11  421  27 I47
stroke11  421  24 I47
stroke11  420  22 I47
stroke11  420  19 I47
stroke11  419  16 I47
stroke11  419  14 I47
stroke11  419  11 I47
stroke11  419  9 I47
stroke11  419  8 I47
stroke11  419  6 I47
stroke11  419  5 I47
stroke11  420  5 I47
stroke11  420  6 I47
stroke11  421  7 I47
stroke12  443  12 B35
stroke12  444  12 I35
stroke12  444  11 I35
stroke12  445  11 I35
stroke12  446  12 I35
stroke12  447  13 I35
stroke12  447  14 I35
stroke12  447  15 I35
stroke12  446  16 I35
stroke12  446  18 I35
stroke12  446  19 I35
stroke12  445  19 I35
stroke12  445  20 I35
stroke12  444  20 I35
stroke12  443  20 I35
stroke12  442  20 I35
stroke12  441  20 I35
stroke12  440  19 I35
stroke12  439  18 I35
stroke12  438  17 I35
stroke12  438  15 I35
stroke12  437  13 I35
stroke12  437  12 I35
stroke12  437  10 I35
stroke12  437  9 I35
stroke12  437  7 I35
stroke12  437  6 I35
stroke12  438  6 I35
stroke12  438  5 I35
stroke12  439  5 I35
stroke12  440  5 I35
stroke12  441  6 I35
stroke12  442  6 I35
stroke12  442  7 I35
stroke12  443  8 I35
stroke12  444  10 I35
stroke12  444  11 I35
stroke12  445  13 I35
stroke12  446  14 I35
stroke12  446  16 I35
stroke12  447  18 I35
stroke12  447  20 I35
stroke12  447  22 I35
stroke12  447  24 I35
stroke12  448  26 I35
stroke12  448  28 I35
stroke12  448  30 I35
stroke12  447  33 I35
stroke12  447  35 I35
stroke12  447  37 I35
stroke12  447  39 I35
stroke12  447  41 I35
stroke12  447  43 I35
stroke12  446  45 I35
stroke12  446  46 I35
stroke12  446  47 I35
stroke12  445  48 I35
stroke12  444  49 I35
stroke12  443  49 I35
stroke12  442  50 I35
stroke12  441  49 I35
stroke12  440  49 I35
stroke12  439  48 I35
stroke12  438  47 I35
stroke12  437  46 I35
stroke12  436  45 I35
stroke12  435  44 I35
stroke12  435  43 I35
stroke12  434  43 I35
stroke12  435  44 I35
stroke12  435  45 I35
stroke12  436  46 I35
stroke12  436  47 I35
stroke12  437  48 I35
stroke12  437  50 I35
stroke12  438  52 I35
stroke12  439  54 I35
stroke12  439  56 I35
stroke12  440  58 I35
stroke12  441  59 I35
stroke12  442  60 I35
stroke12  442  61 I35
stroke12  442  62 I35
stroke12  443  62 I35
stroke12  443  63 I35
stroke12  444  62 I35
stroke12  445  61 I35
stroke12  446  60 I35
stroke12  447  59 I35
stroke12  448  58 I35
stroke12  449  57 I35
stroke12  450  57 I35
stroke12  452  56 I35
stroke12  453  56 I35
stroke12  454  56 I35
stroke12  456  57 I35
stroke12  457  58 I35
stroke12  458  59 I35
stroke12  460  60 I35
stroke12  461  61 I35
stroke12  462  62 I35
stroke12  463  63 I35
stroke12  464  63 I35
stroke12  463  63 I35
stroke13  476  15 B19
stroke13  475  15 I19
stroke13  476  15 I19
stroke13  476  16 I19
stroke13  476  17 I19
stroke13  477  17 I19
stroke13  477  18 I19
stroke13  478  18 I19
stroke13  479  19 I19
stroke13  480  19 I19
stroke13  481  20 I19
stroke13  482  20 I19
stroke13  483  20 I19
stroke13  484  20 I19
stroke13  485  20 I19
stroke13  486  19 I19
stroke13  487  18 I19
stroke13  487  17 I19
stroke13  487  16 I19
stroke13  487  15 I19
stroke13  487  14 I19
stroke13  487  13 I19
stroke13  486  12 I19
stroke13  485  10 I19
stroke13  484  9 I19
stroke13  483  8 I19
stroke13  482  7 I19
stroke13  481  7 I19
stroke13  480  7 I19
stroke13  480  6 I19
stroke13  480  7 I19
stroke13  479  7 I19
stroke13  479  8 I19
stroke13  478  10 I19
stroke13  478  11 I19
stroke13  478  12 I19
stroke13  478  14 I19
stroke13  479  16 I19
stroke13  479  18 I19
stroke13  479  21 I19
stroke13  479  23 I19
stroke13  480  26 I19
stroke13  480  28 I19
stroke13  481  31 I19
stroke13  481  34 I19
stroke13  482  37 I19
stroke13  482  40 I19
stroke13  482  42 I19
stroke13  482  44 I19
stroke13  482  46 I19
stroke13  482  48 I19
stroke13  482  49 I19
stroke13  481  50 I19
stroke13  481  51 I19
stroke13  480  51 I19
stroke13  479  50 I19
stroke13  478  49 I19
stroke13  477  48 I19
stroke13  476  47 I19
stroke13  475  46 I19
stroke13  474  45 I19
stroke13  473  44 I19
stroke13  473  43 I19
stroke13  472  42 I19
stroke13  472  43 I19
stroke13  473  44 I19
stroke13  473  45 I19
stroke13  474  46 I19
stroke13  475  48 I19
stroke13  476  49 I19
stroke13  476  51 I19
stroke13  477  52 I19
stroke13  478  54 I19
stroke13  480  55 I19
stroke13  481  56 I19
stroke13  482  57 I19
stroke13  483  58 I19
stroke13  484  59 I19
stroke13  485  59 I19
stroke13  487  60 I19
stroke13  488  60 I19
stroke13  489  60 I19
stroke13  491  60 I19
stroke13  492  59 I19
stroke13  494  58 I19
stroke13  495  57 I19
stroke13  497  55 I19
stroke13  498  53 I19
stroke13  500  51 I19
stroke13  501  49 I19
stroke13  502  46 I19
stroke13  502  43 I19
stroke13  503  40 I19
stroke13  504  37 I19
stroke13  505  34 I19
stroke13  505  31 I19
stroke13  505  28 I19
stroke13  505  25 I19
stroke13  505  22 I19
stroke13  505  20 I19
stroke13  505  18 I19
stroke13  505  16 I19
stroke13  505  14 I19
stroke13  505  13 I19
stroke13  505  11 I19
stroke13  505  10 I19
stroke13  505  9 I19
stroke13  506  9 I19
stroke13  507  10 I19
stroke13  508  11 I19
stroke13  509  12 I19
stroke13  511  14 I19
stroke13  512  15 I19
stroke13  514  17 I19
stroke13  515  19 I19
stroke13  517  20 I19
stroke13  518  21 I19
stroke13  520  22 I19
stroke13  521  23 I19
stroke13  522  23 I19
stroke13  523  24 I19
stroke13  524  24 I19
stroke13  525  24 I19
stroke13  526  23 I19
stroke13  527  23 I19
stroke13  527  22 I19
stroke13  528  21 I19
stroke13  528  20 I19
stroke13  529  19 I19
stroke13  529  18 I19
stroke13  529  17 I19
stroke13  530  16 I19
stroke13  530  15 I19
stroke13  529  14 I19
stroke13  529  13 I19
stroke13  529  12 I19
stroke13  529  11 I19
stroke13  528  10 I19
stroke13  528  9 I19
stroke13  527  8 I19
stroke13  526  7 I19
stroke13  526  6 I19
stroke13  525  6 I19
stroke13  524  5 I19
stroke13  523  5 I19
stroke13  522  5 I19
stroke13  522  6 I19
stroke13  522  7 I19
stroke13  521  8 I19
stroke13  522  10 I19
stroke13  522  12 I19
stroke13  522  14 I19
stroke13  522  17 I19
stroke13  522  20 I19
stroke13  523  23 I19
stroke13  523  26 I19
stroke13  523  29 I19
stroke13  523  32 I19
stroke13  523  35 I19
stroke13  523  39 I19
stroke13  523  42 I19
stroke13  524  45 I19
stroke13  524  48 I19
stroke13  524  50 I19
stroke13  525  53 I19
stroke13  525  55 I19
stroke13  525  56 I19
stroke13  525  58 I19
stroke13  526  58 I19
stroke13  526  59 I19
stroke13  526  60 I19
stroke13  525  60 I19
stroke13  524  59 I19
stroke13  523  59 I19
stroke14  522  89 B64
stroke14  522  90 I64
stroke14  522  91 I64
stroke14  523  91 I64
stroke14  523  92 I64
stroke14  524  92 I64
stroke14  524  93 I64
stroke14  525  93 I64
stroke14  525  92 I64
stroke14  526  92 I64
stroke14  527  92 I64
stroke14  528  91 I64
stroke14  528  90 I64
stroke14  528  89 I64
stroke14  528  88 I64
stroke14  528  87 I64
stroke14  527  87 I64
stroke14  527  86 I64
stroke14  526  86 I64
stroke14  526  85 I64
stroke14  525  85 I64
stroke14  524  86 I64
stroke14  523  87 I64
stroke14  523  88 I64
stroke14  523  89 I64
stroke14  523  90 I64
stroke14  524  92 I64
stroke14  524  93 I64
stroke14  525  95 I64
stroke14  526  97 I64
stroke14  527  99 I64
stroke14  528  100 I64
stroke14  530  102 I64
stroke14  531  104 I64
stroke14  532  105 I64
stroke14  532  106 I64
stroke14  533  107 I64
stroke14  534  108 I64
stroke14  535  109 I64
stroke14  535  110 I64
stroke14  535  111 I64
stroke14  535  112 I64
stroke14  534  113 I64
