stroke1  39  53 B30
stroke1  40  53 I30
stroke1  40  52 I30
stroke1  41  51 I30
stroke1  41  50 I30
stroke1  41  49 I30
stroke1  41  48 I30
stroke1  40  47 I30
stroke1  40  46 I30
stroke1  40  45 I30
stroke1  39  44 I30
stroke1  38  44 I30
stroke1  37  43 I30
stroke1  36  43 I30
stroke1  35  42 I30
stroke1  34  42 I30
stroke1  33  43 I30
stroke1  32  43 I30
stroke1  32  44 I30
stroke1  32  44 I30
stroke1  31  45 I30
stroke1  31  46 I30
stroke1  30  47 I30
stroke1  30  49 I30
stroke1  30  50 I30
stroke1  30  52 I30
stroke1  30  54 I30
stroke1  31  55 I30
stroke1  32  57 I30
stroke1  32  58 I30
stroke1  33  59 I30
stroke1  34  60 I30
stroke1  35  61 I30
stroke1  36  62 I30
stroke1  37  62 I30
stroke1  38  62 I30
stroke1  39  62 I30
stroke1  39  61 I30
stroke1  40  60 I30
stroke1  40  59 I30
stroke1  41  57 I30
stroke1  41  55 I30
stroke1  41  52 I30
stroke1  41  49 I30
stroke1  41  45 I30
stroke1  41  41 I30
stroke1  41  37 I30
stroke1  41  34 I30
stroke1  41  30 I30
stroke1  41  27 I30
stroke1  41  23 I30
stroke1  41  21 I30
stroke1  42  18 I30
stroke1  42  16 I30
stroke1  42  15 I30
stroke1  43  13 I30
stroke1  43  12 I30
stroke1  44  14 I30
stroke1  44  15 I30
stroke1  44  17 I30
stroke1  45  20 I30
stroke1  45  22 I30
stroke1  46  25 I30
stroke1  47  27 I30
stroke1  48  29 I30
stroke1  49  31 I30
stroke1  50  32 I30
stroke1  51  33 I30
stroke1  51  34 I30
stroke1  52  34 I30
stroke1  53  33 I30
stroke1  54  33 I30
stroke1  55  32 I30
stroke1  56  30 I30
stroke1  57  29 I30
stroke1  58  27 I30
stroke1  59  25 I30
stroke1  60  23 I30
stroke1  61  20 I30
stroke1  62  18 I30
stroke1  63  16 I30
stroke1  63  14 I30
stroke1  64  12 I30
stroke1  64  11 I30
stroke1  65  9 I30
stroke1  65  8 I30
stroke1  66  7 I30
stroke1  66  8 I30
stroke1  66  9 I30
stroke1  66  10 I30
stroke1  67  13 I30
stroke1  67  15 I30
stroke1  67  18 I30
stroke1  68  21 I30
stroke1  68  25 I30
stroke1  68  28 I30
stroke1  68  31 I30
stroke1  68  35 I30
stroke1  68  38 I30
stroke1  68  42 I30
stroke1  68  46 I30
stroke1  68  49 I30
stroke1  68  52 I30
stroke1  68  55 I30
stroke1  68  57 I30
stroke1  68  59 I30
stroke1  68  60 I30
stroke1  69  61 I30
stroke1  68  61 I30
stroke1  68  60 I30
stroke1  68  58 I30
stroke1  68  57 I30
stroke2  98  13 B35
stroke2  99  13 I35
stroke2  99  14 I35
stroke2  99  15 I35
stroke2  98  15 I35
stroke2  98  16 I35
stroke2  98  17 I35
stroke2  98  18 I35
stroke2  97  18 I35
stroke2  97  19 I35
stroke2  96  19 I35
stroke2  95  20 I35
stroke2  94  20 I35
stroke2  93  20 I35
stroke2  92  19 I35
stroke2  91  18 I35
stroke2  90  17 I35
stroke2  90  15 I35
stroke2  89  14 I35
stroke2  89  12 I35
stroke2  89  11 I35
stroke2  90  10 I35
stroke2  90  9 I35
stroke2  91  8 I35
stroke2  91  7 I35
stroke2  92  7 I35
stroke2  93  7 I35
stroke2  94  7 I35
stroke2  95  7 I35
stroke2  96  8 I35
stroke2  97  9 I35
stroke2  98  10 I35
stroke2  98  12 I35
stroke2  99  14 I35
stroke2  100  15 I35
stroke2  100  18 I35
stroke2  100  20 I35
stroke2  101  23 I35
stroke2  101  26 I35
stroke2  101  29 I35
stroke2  101  32 I35
stroke2  101  35 I35
stroke2  100  38 I35
stroke2  100  40 I35
stroke2  100  43 I35
stroke2  100  45 I35
stroke2  99  46 I35
stroke2  99  48 I35
stroke2  98  49 I35
stroke2  98  50 I35
stroke2  97  51 I35
stroke2  96  51 I35
stroke2  95  52 I35
stroke2  94  51 I35
stroke2  93  51 I35
stroke2  91  50 I35
stroke2  90  49 I35
stroke2  89  48 I35
stroke2  88  47 I35
stroke2  87  46 I35
stroke2  86  45 I35
stroke2  87  46 I35
stroke2  87  47 I35
stroke2  87  49 I35
stroke2  88  51 I35
stroke2  88  53 I35
stroke2  89  55 I35
stroke2  90  57 I35
stroke2  91  58 I35
stroke2  92  60 I35
stroke2  92  61 I35
stroke2  93  62 I35
stroke2  94  62 I35
stroke2  95  62 I35
stroke2  96  61 I35
stroke2  97  60 I35
stroke2  98  59 I35
stroke2  99  58 I35
stroke2  100  57 I35
stroke2  101  56 I35
stroke2  102  56 I35
stroke2  103  55 I35
stroke2  104  55 I35
stroke2  105  55 I35
stroke2  106  56 I35
stroke2  107  57 I35
stroke2  108  58 I35
stroke2  109  59 I35
stroke2  110  60 I35
stroke2  111  61 I35
stroke2  112  62 I35
stroke2  112  63 I35
stroke2  113  64 I35
stroke2  112  64 I35
stroke3  132  50 B46
stroke3  133  50 I46
stroke3  134  51 I46
stroke3  134  52 I46
stroke3  134  53 I46
stroke3  135  54 I46
stroke3  135  55 I46
stroke3  135  56 I46
stroke3  134  57 I46
stroke3  133  58 I46
stroke3  133  59 I46
stroke3  132  59 I46
stroke3  131  58 I46
stroke3  130  58 I46
stroke3  129  57 I46
stroke3  128  55 I46
stroke3  127  54 I46
stroke3  127  52 I46
stroke3  127  51 I46
stroke3  127  50 I46
stroke3  128  49 I46
stroke3  129  49 I46
stroke3  131  49 I46
stroke3  133  49 I46
stroke3  135  50 I46
stroke3  137  51 I46
stroke3  139  52 I46
stroke3  141  53 I46
stroke3  142  54 I46
stroke3  143  55 I46
stroke3  144  56 I46
stroke3  144  57 I46
stroke3  144  56 I46
stroke3  143  55 I46
stroke3  142  53 I46
stroke3  134  13 I46
stroke3  134  14 I46
stroke3  134  15 I46
stroke3  134  16 I46
stroke3  135  17 I46
stroke3  135  19 I46
stroke3  134  20 I46
stroke3  134  21 I46
stroke3  133  21 I46
stroke3  132  21 I46
stroke3  131  21 I46
stroke3  129  20 I46
stroke3  128  18 I46
stroke3  127  17 I46
stroke3  127  15 I46
stroke3  126  14 I46
stroke3  126  12 I46
stroke3  127  11 I46
stroke3  127  10 I46
stroke3  128  10 I46
stroke3  129  10 I46
stroke3  131  10 I46
stroke3  132  11 I46
stroke3  134  12 I46
stroke3  136  13 I46
stroke3  138  15 I46
stroke3  140  16 I46
stroke3  142  18 I46
stroke3  144  20 I46
stroke3  145  21 I46
stroke3  146  22 I46
stroke3  147  23 I46
stroke4  175  17 B35
stroke4  176  17 I35
stroke4  176  16 I35
stroke4  177  16 I35
stroke4  177  17 I35
stroke4  177  18 I35
stroke4  177  19 I35
stroke4  177  20 I35
stroke4  176  21 I35
stroke4  175  21 I35
stroke4  175  22 I35
stroke4  174  22 I35
stroke4  173  22 I35
stroke4  172  22 I35
stroke4  171  21 I35
stroke4  170  20 I35
stroke4  169  19 I35
stroke4  168  18 I35
stroke4  167  16 I35
stroke4  167  15 I35
stroke4  167  13 I35
stroke4  167  12 I35
stroke4  167  10 I35
stroke4  168  9 I35
stroke4  169  8 I35
stroke4  170  8 I35
stroke4  171  7 I35
stroke4  172  7 I35
stroke4  173  8 I35
stroke4  174  8 I35
stroke4  175  9 I35
stroke4  176  11 I35
stroke4  177  12 I35
stroke4  177  14 I35
stroke4  178  16 I35
stroke4  179  19 I35
stroke4  180  21 I35
stroke4  180  24 I35
stroke4  180  27 I35
stroke4  181  30 I35
stroke4  181  32 I35
stroke4  181  35 I35
stroke4  181  38 I35
stroke4  181  40 I35
stroke4  181  42 I35
stroke4  180  44 I35
stroke4  180  46 I35
stroke4  180  48 I35
stroke4  179  49 I35
stroke4  179  50 I35
stroke4  178  51 I35
stroke4  177  52 I35
stroke4  176  52 I35
stroke4  175  52 I35
stroke4  173  51 I35
stroke4  172  50 I35
stroke4  170  48 I35
stroke4  169  47 I35
stroke4  167  45 I35
stroke4  166  44 I35
stroke4  165  43 I35
stroke4  164  42 I35
stroke4  164  43 I35
stroke4  165  44 I35
stroke4  165  46 I35
stroke4  167  48 I35
stroke4  168  51 I35
stroke4  169  53 I35
stroke4  170  55 I35
stroke4  171  57 I35
stroke4  172  58 I35
stroke4  173  59 I35
stroke4  174  60 I35
stroke4  174  61 I35
stroke4  175  61 I35
stroke4  176  60 I35
stroke4  177  60 I35
stroke4  177  58 I35
stroke4  178  58 I35
stroke4  179  57 I35
stroke4  180  56 I35
stroke4  181  55 I35
stroke4  182  55 I35
stroke4  183  54 I35
stroke4  184  54 I35
stroke4  185  54 I35
stroke4  186  55 I35
stroke4  187  56 I35
stroke4  188  57 I35
stroke4  189  58 I35
stroke4  190  59 I35
stroke4  191  60 I35
stroke4  192  61 I35
stroke4  193  62 I35
stroke4  193  61 I35
stroke5  207  47 B47
stroke5  207  48 I47
stroke5  207  49 I47
stroke5  207  50 I47
stroke5  208  51 I47
stroke5  208  53 I47
stroke5  209  54 I47
stroke5  210  55 I47
stroke5  211  56 I47
stroke5  212  57 I47
stroke5  213  58 I47
stroke5  214  59 I47
stroke5  215  59 I47
stroke5  216  60 I47
stroke5  217  60 I47
stroke5  218  60 I47
stroke5  219  60 I47
stroke5  220  60 I47
stroke5  221  59 I47
stroke5  222  58 I47
stroke5  223  57 I47
stroke5  224  56 I47
stroke5  224  53 I47
stroke5  225  50 I47
stroke5  225  47 I47
stroke5  225  42 I47
stroke5  225  37 I47
stroke5  224  32 I47
stroke5  223  27 I47
stroke5  222  22 I47
stroke5  222  17 I47
stroke5  221  13 I47
stroke5  220  10 I47
stroke5  220  7 I47
stroke5  220  4 I47
stroke5  220  3 I47
stroke5  220  1 I47
stroke5  220  0 I47
stroke5  221  0 I47
stroke5  221  1 I47
stroke5  221  2 I47
stroke5  221  3 I47
stroke6  238  44 B10
stroke6  239  45 I10
stroke6  240  46 I10
stroke6  241  48 I10
stroke6  242  48 I10
stroke6  244  49 I10
stroke6  245  50 I10
stroke6  246  50 I10
stroke6  247  50 I10
stroke6  248  50 I10
stroke6  249  49 I10
stroke6  250  49 I10
stroke6  251  48 I10
stroke6  252  47 I10
stroke6  252  46 I10
stroke6  253  45 I10
stroke6  253  43 I10
stroke6  253  42 I10
stroke6  253  40 I10
stroke6  253  39 I10
stroke6  252  38 I10
stroke6  252  37 I10
stroke6  251  37 I10
stroke6  251  36 I10
stroke6  250  36 I10
stroke6  250  37 I10
stroke6  249  37 I10
stroke6  249  38 I10
stroke6  248  39 I10
stroke6  248  40 I10
stroke6  248  41 I10
stroke6  248  43 I10
stroke6  248  45 I10
stroke6  248  47 I10
stroke6  248  49 I10
stroke6  249  51 I10
stroke6  250  53 I10
stroke6  250  55 I10
stroke6  251  56 I10
stroke6  252  58 I10
stroke6  253  59 I10
stroke6  254  61 I10
stroke6  254  62 I10
stroke6  255  63 I10
stroke6  256  63 I10
stroke6  256  64 I10
stroke6  257  64 I10
stroke6  258  65 I10
stroke6  259  64 I10
stroke6  260  64 I10
stroke6  261  64 I10
stroke6  262  63 I10
stroke6  264  63 I10
stroke6  265  62 I10
stroke6  266  61 I10
stroke6  268  60 I10
stroke6  269  60 I10
stroke6  270  59 I10
stroke6  271  58 I10
stroke6  272  57 I10
stroke6  272  56 I10
stroke6  273  55 I10
stroke6  273  53 I10
stroke6  272  51 I10
stroke6  272  49 I10
stroke6  271  45 I10
stroke6  270  42 I10
stroke6  269  38 I10
stroke6  267  35 I10
stroke6  265  31 I10
stroke6  264  27 I10
stroke6  262  23 I10
stroke6  261  20 I10
stroke6  260  17 I10
stroke6  260  14 I10
stroke6  259  11 I10
stroke6  259  9 I10
stroke6  258  7 I10
stroke6  258  5 I10
stroke6  258  4 I10
stroke6  258  3 I10
stroke6  259  2 I10
stroke6  259  1 I10
stroke6  259  0 I10
stroke6  260  0 I10
stroke6  261  1 I10
stroke6  262  1 I10
stroke6  263  1 I10
stroke6  264  2 I10
stroke6  265  3 I10
stroke6  267  3 I10
stroke6  268  3 I10
stroke6  269  4 I10
stroke6  270  4 I10
stroke6  271  4 I10
stroke6  272  4 I10
stroke6  273  4 I10
stroke6  274  5 I10
stroke6  275  5 I10
stroke6  275  6 I10
stroke6  276  7 I10
stroke6  277  9 I10
stroke6  278  11 I10
stroke6  279  13 I10
stroke6  279  16 I10
stroke6  280  18 I10
stroke6  281  21 I10
stroke6  282  24 I10
stroke6  282  27 I10
stroke6  283  30 I10
stroke6  283  33 I10
stroke6  283  37 I10
stroke6  283  40 I10
stroke6  283  43 I10
stroke6  282  46 I10
stroke6  282  49 I10
stroke6  282  51 I10
stroke6  281  53 I10
stroke6  280  54 I10
stroke6  279  55 I10
stroke6  278  55 I10
stroke6  277  55 I10
stroke6  276  55 I10
stroke6  275  55 I10
stroke6  276  56 I10
stroke6  277  57 I10
stroke6  278  59 I10
stroke6  279  60 I10
stroke6  280  63 I10
stroke6  281  65 I10
stroke6  283  68 I10
stroke6  284  71 I10
stroke6  286  75 I10
stroke6  288  78 I10
stroke6  290  81 I10
stroke6  291  83 I10
stroke6  292  85 I10
stroke6  293  86 I10
stroke6  293  87 I10
stroke6  293  88 I10
stroke6  292  87 I10
stroke6  291  87 I10
stroke7  306  9 B1
stroke7  306  8 I1
stroke7  305  7 I1
stroke7  305  6 I1
stroke7  304  6 I1
stroke7  304  7 I1
stroke7  305  8 I1
stroke7  305  9 I1
stroke7  305  11 I1
stroke7  305  12 I1
stroke7  306  15 I1
stroke7  306  17 I1
stroke7  307  20 I1
stroke7  308  23 I1
stroke7  309  26 I1
stroke7  310  29 I1
stroke7  310  32 I1
stroke7  311  35 I1
stroke7  311  37 I1
stroke7  311  39 I1
stroke7  311  40 I1
stroke7  311  41 I1
stroke7  310  41 I1
stroke7  309  41 I1
stroke7  308  40 I1
stroke7  307  39 I1
stroke7  306  38 I1
stroke7  305  36 I1
stroke7  304  34 I1
stroke7  303  33 I1
stroke7  302  32 I1
stroke7  301  31 I1
stroke7  301  32 I1
stroke7  301  33 I1
stroke7  302  35 I1
stroke7  303  37 I1
stroke7  304  39 I1
stroke7  304  41 I1
stroke7  305  43 I1
stroke7  306  45 I1
stroke7  307  47 I1
stroke7  308  49 I1
stroke7  309  51 I1
stroke7  310  52 I1
stroke7  311  54 I1
stroke7  312  55 I1
stroke7  312  56 I1
stroke7  313  57 I1
stroke7  314  58 I1
stroke7  315  58 I1
stroke7  317  58 I1
stroke7  318  59 I1
stroke7  319  59 I1
stroke7  321  59 I1
stroke7  322  58 I1
stroke7  323  58 I1
stroke7  325  58 I1
stroke7  326  57 I1
stroke7  327  56 I1
stroke7  329  56 I1
stroke7  330  55 I1
stroke7  330  54 I1
stroke7  331  52 I1
stroke7  332  50 I1
stroke7  333  48 I1
stroke7  333  45 I1
stroke7  333  42 I1
stroke7  333  38 I1
stroke7  333  34 I1
stroke7  333  30 I1
stroke7  332  26 I1
stroke7  331  22 I1
stroke7  331  18 I1
stroke7  330  15 I1
stroke7  330  12 I1
stroke7  330  10 I1
stroke7  330  9 I1
stroke7  330  7 I1
stroke7  330  6 I1
stroke7  331  7 I1
stroke7  331  8 I1
stroke8  361  15 B35
stroke8  362  15 I35
stroke8  363  15 I35
stroke8  364  15 I35
stroke8  365  16 I35
stroke8  366  17 I35
stroke8  366  18 I35
stroke8  365  19 I35
stroke8  365  20 I35
stroke8  364  21 I35
stroke8  363  21 I35
stroke8  362  22 I35
stroke8  362  21 I35
stroke8  361  20 I35
stroke8  360  19 I35
stroke8  359  18 I35
stroke8  358  16 I35
stroke8  357  14 I35
stroke8  357  12 I35
stroke8  356  10 I35
stroke8  356  9 I35
stroke8  356  7 I35
stroke8  356  6 I35
stroke8  356  5 I35
stroke8  357  4 I35
stroke8  357  3 I35
stroke8  358  3 I35
stroke8  359  3 I35
stroke8  360  4 I35
stroke8  361  5 I35
stroke8  361  7 I35
stroke8  362  9 I35
stroke8  364  10 I35
stroke8  364  13 I35
stroke8  365  15 I35
stroke8  366  18 I35
stroke8  367  20 I35
stroke8  367  23 I35
stroke8  368  25 I35
stroke8  368  28 I35
stroke8  368  31 I35
stroke8  368  33 I35
stroke8  368  36 I35
stroke8  368  38 I35
stroke8  367  40 I35
stroke8  367  43 I35
stroke8  366  45 I35
stroke8  366  47 I35
stroke8  365  49 I35
stroke8  364  50 I35
stroke8  363  51 I35
stroke8  363  52 I35
stroke8  362  52 I35
stroke8  361  52 I35
stroke8  359  51 I35
stroke8  358  50 I35
stroke8  356  49 I35
stroke8  355  47 I35
stroke8  353  45 I35
stroke8  352  44 I35
stroke8  351  43 I35
stroke8  351  42 I35
stroke8  350  41 I35
stroke8  350  42 I35
stroke8  351  43 I35
stroke8  351  44 I35
stroke8  352  46 I35
stroke8  353  48 I35
stroke8  354  51 I35
stroke8  355  53 I35
stroke8  356  55 I35
stroke8  357  57 I35
stroke8  358  59 I35
stroke8  358  60 I35
stroke8  359  61 I35
stroke8  360  62 I35
stroke8  360  63 I35
stroke8  361  62 I35
stroke8  361  61 I35
stroke8  362  60 I35
stroke8  363  59 I35
stroke8  363  57 I35
stroke8  364  56 I35
stroke8  365  55 I35
stroke8  366  54 I35
stroke8  367  53 I35
stroke8  368  52 I35
stroke8  369  52 I35
stroke8  370  53 I35
stroke8  372  54 I35
stroke8  373  55 I35
stroke8  375  57 I35
stroke8  377  59 I35
stroke8  379  60 I35
stroke8  380  62 I35
stroke8  382  63 I35
stroke8  383  64 I35
stroke8  384  64 I35
stroke8  383  63 I35
stroke9  396  15 B19
stroke9  397  16 I19
stroke9  398  17 I19
stroke9  399  18 I19
stroke9  400  18 I19
stroke9  401  19 I19
stroke9  402  19 I19
stroke9  403  19 I19
stroke9  404  19 I19
stroke9  405  18 I19
stroke9  405  17 I19
stroke9  405  16 I19
stroke9  405  15 I19
stroke9  404  13 I19
stroke9  403  12 I19
stroke9  402  10 I19
stroke9  401  9 I19
stroke9  400  8 I19
stroke9  399  7 I19
stroke9  398  6 I19
stroke9  397  6 I19
stroke9  397  7 I19
stroke9  396  7 I19
stroke9  396  9 I19
stroke9  396  10 I19
stroke9  397  12 I19
stroke9  397  14 I19
stroke9  397  16 I19
stroke9  397  19 I19
stroke9  398  21 I19
stroke9  399  24 I19
stroke9  399  27 I19
stroke9  400  29 I19
stroke9  401  32 I19
stroke9  401  34 I19
stroke9  402  37 I19
stroke9  402  39 I19
stroke9  402  40 I19
stroke9  402  41 I19
stroke9  402  42 I19
stroke9  401  43 I19
stroke9  400  43 I19
stroke9  399  42 I19
stroke9  398  41 I19
stroke9  397  40 I19
stroke9  396  38 I19
stroke9  395  37 I19
stroke9  394  36 I19
stroke9  393  36 I19
stroke9  394  36 I19
stroke9  394  37 I19
stroke9  395  39 I19
stroke9  395  41 I19
stroke9  396  43 I19
stroke9  397  45 I19
stroke9  398  47 I19
stroke9  399  50 I19
stroke9  401  52 I19
stroke9  402  54 I19
stroke9  403  56 I19
stroke9  404  58 I19
stroke9  405  59 I19
stroke9  406  60 I19
stroke9  407  60 I19
stroke9  408  61 I19
stroke9  409  61 I19
stroke9  409  60 I19
stroke9  411  59 I19
stroke9  412  58 I19
stroke9  413  56 I19
stroke9  414  54 I19
stroke9  415  51 I19
stroke9  416  49 I19
stroke9  417  46 I19
stroke9  418  43 I19
stroke9  419  39 I19
stroke9  419  36 I19
stroke9  419  32 I19
stroke9  418  29 I19
stroke9  418  25 I19
stroke9  417  22 I19
stroke9  416  19 I19
stroke9  416  16 I19
stroke9  416  14 I19
stroke9  415  13 I19
stroke9  415  12 I19
stroke9  415  11 I19
stroke9  416  10 I19
stroke9  417  11 I19
stroke9  418  13 I19
stroke9  419  14 I19
stroke9  421  16 I19
stroke9  422  18 I19
stroke9  424  20 I19
stroke9  426  22 I19
stroke9  428  23 I19
stroke9  430  24 I19
stroke9  431  25 I19
stroke9  433  26 I19
stroke9  434  26 I19
stroke9  435  27 I19
stroke9  436  26 I19
stroke9  437  26 I19
stroke9  438  25 I19
stroke9  439  25 I19
stroke9  439  24 I19
stroke9  440  23 I19
stroke9  440  22 I19
stroke9  440  21 I19
stroke9  441  20 I19
stroke9  441  19 I19
stroke9  440  18 I19
stroke9  440  17 I19
stroke9  440  16 I19
stroke9  440  14 I19
stroke9  439  13 I19
stroke9  438  12 I19
stroke9  438  10 I19
stroke9  437  9 I19
stroke9  436  9 I19
stroke9  436  8 I19
stroke9  435  8 I19
stroke9  435  9 I19
stroke9  435  10 I19
stroke9  435  11 I19
stroke9  435  13 I19
stroke9  435  15 I19
stroke9  435  17 I19
stroke9  436  20 I19
stroke9  436  23 I19
stroke9  436  26 I19
stroke9  436  29 I19
stroke9  437  32 I19
stroke9  437  36 I19
stroke9  437  39 I19
stroke9  437  42 I19
stroke9  438  45 I19
stroke9  438  47 I19
stroke9  438  49 I19
stroke9  437  51 I19
stroke9  437  52 I19
stroke9  437  53 I19
stroke9  436  54 I19
stroke9  435  54 I19
stroke9  434  55 I19
stroke9  433  55 I19
stroke10  445  76 B49
stroke10  444  77 I49
stroke10  443  78 I49
stroke10  442  79 I49
stroke10  441  79 I49
stroke10  440  80 I49
stroke10  438  81 I49
stroke10  437  81 I49
stroke10  435  82 I49
stroke10  433  83 I49
stroke10  432  83 I49
stroke10  431  84 I49
stroke10  429  85 I49
stroke10  429  86 I49
stroke10  428  87 I49
stroke10  428  89 I49
stroke10  428  90 I49
stroke10  428  91 I49
stroke10  429  92 I49
stroke10  430  93 I49
stroke10  431  93 I49
stroke10  433  94 I49
stroke10  434  93 I49
stroke10  436  92 I49
stroke10  438  90 I49
stroke10  439  88 I49
stroke10  440  86 I49
stroke10  441  83 I49
stroke10  442  81 I49
stroke10  443  80 I49
stroke10  444  79 I49
stroke10  444  78 I49
stroke10  445  77 I49
stroke10  445  78 I49
stroke10  446  79 I49
stroke10  446  81 I49
stroke10  446  83 I49
stroke10  446  86 I49
stroke10  446  88 I49
stroke10  446  91 I49
stroke10  446  94 I49
stroke10  446  96 I49
stroke10  446  97 I49
stroke10  446  98 I49
stroke10  446  99 I49
stroke10  445  98 I49
stroke10  445  96 I49
stroke11  467  48 B34
stroke11  467  47 I34
stroke11  468  47 I34
stroke11  469  48 I34
stroke11  470  48 I34
stroke11  471  49 I34
stroke11  472  49 I34
stroke11  473  50 I34
stroke11  474  52 I34
stroke11  475  53 I34
stroke11  476  54 I34
stroke11  477  56 I34
stroke11  478  57 I34
stroke11  479  58 I34
stroke11  479  59 I34
stroke11  479  60 I34
stroke11  479  61 I34
stroke11  479  60 I34
stroke11  478  60 I34
stroke11  477  59 I34
stroke11  476  58 I34
stroke11  474  56 I34
stroke11  472  54 I34
stroke11  471  51 I34
stroke11  470  49 I34
stroke11  468  46 I34
stroke11  467  43 I34
stroke11  467  40 I34
stroke11  466  38 I34
stroke11  466  36 I34
stroke11  467  34 I34
stroke11  468  33 I34
stroke11  469  32 I34
stroke11  471  31 I34
stroke11  473  31 I34
stroke11  475  31 I34
stroke11  477  32 I34
stroke11  479  32 I34
stroke11  481  33 I34
stroke11  482  33 I34
stroke11  483  33 I34
stroke11  484  33 I34
stroke11  484  32 I34
stroke11  483  30 I34
stroke11  482  29 I34
stroke11  480  27 I34
stroke11  479  25 I34
stroke11  477  23 I34
stroke11  475  20 I34
stroke11  474  18 I34
stroke11  473  16 I34
stroke11  473  15 I34
stroke11  472  13 I34
stroke11  473  12 I34
stroke11  473  11 I34
stroke11  474  11 I34
stroke11  475  10 I34
stroke11  476  10 I34
stroke11  478  10 I34
stroke11  479  10 I34
stroke11  481  10 I34
stroke11  483  10 I34
stroke11  484  10 I34
stroke11  486  10 I34
stroke11  487  10 I34
stroke11  488  10 I34
stroke11  489  10 I34
stroke11  490  10 I34
stroke11  491  11 I34
stroke11  492  12 I34
stroke11  492  13 I34
stroke11  493  14 I34
stroke11  493  15 I34
stroke11  494  17 I34
stroke11  494  19 I34
stroke11  495  22 I34
stroke11  496  25 I34
stroke11  496  29 I34
stroke11  497  33 I34
stroke11  498  38 I34
stroke11  499  42 I34
stroke11  500  46 I34
stroke11  501  49 I34
stroke11  502  52 I34
stroke11  503  55 I34
stroke11  503  57 I34
stroke11  503  59 I34
stroke11  503  61 I34
stroke11  503  62 I34
stroke11  502  62 I34
stroke11  502  63 I34
stroke11  501  63 I34
stroke11  500  63 I34
stroke11  499  62 I34
stroke12  525  9 B1
stroke12  525  8 I1
stroke12  525  9 I1
stroke12  526  10 I1
stroke12  526  11 I1
stroke12  526  13 I1
stroke12  527  15 I1
stroke12  527  17 I1
stroke12  527  20 I1
stroke12  528  23 I1
stroke12  528  25 I1
stroke12  528  28 I1
stroke12  528  31 I1
stroke12  528  34 I1
stroke12  528  37 I1
stroke12  528  39 I1
stroke12  528  41 I1
stroke12  528  42 I1
stroke12  527  43 I1
stroke12  526  43 I1
stroke12  525  42 I1
stroke12  524  40 I1
stroke12  522  39 I1
stroke12  522  38 I1
stroke12  521  36 I1
stroke12  520  35 I1
stroke12  519  34 I1
stroke12  519  35 I1
stroke12  520  37 I1
stroke12  520  39 I1
stroke12  521  40 I1
stroke12  521  42 I1
stroke12  522  44 I1
stroke12  523  47 I1
stroke12  524  49 I1
stroke12  525  51 I1
stroke12  527  53 I1
stroke12  528  55 I1
stroke12  529  57 I1
stroke12  531  59 I1
stroke12  532  60 I1
stroke12  533  61 I1
stroke12  535  62 I1
stroke12  536  62 I1
stroke12  537  63 I1
stroke12  538  63 I1
stroke12  540  62 I1
stroke12  541  62 I1
stroke12  543  61 I1
stroke12  545  59 I1
stroke12  546  58 I1
stroke12  548  56 I1
stroke12  549  54 I1
stroke12  550  51 I1
stroke12  551  48 I1
stroke12  552  45 I1
stroke12  552  41 I1
stroke12  552  38 I1
stroke12  552  34 I1
stroke12  552  30 I1
stroke12  552  26 I1
stroke12  551  22 I1
stroke12  551  19 I1
stroke12  551  16 I1
stroke12  551  14 I1
stroke12  550  13 I1
stroke12  550  11 I1
stroke12  550  10 I1
stroke12  551  11 I1
stroke12  551  12 I1
stroke12  551  13 I1
stroke12  551  15 I1
stroke12  552  17 I1
stroke13  550  82 B48
stroke13  549  83 I48
stroke13  549  84 I48
stroke13  548  84 I48
stroke13  548  85 I48
stroke13  547  86 I48
stroke13  546  86 I48
stroke13  546  87 I48
stroke13  545  87 I48
stroke13  544  88 I48
stroke13  542  88 I48
stroke13  541  89 I48
stroke13  539  89 I48
stroke13  538  89 I48
stroke13  536  89 I48
stroke13  534  90 I48
stroke13  533  90 I48
stroke13  531  90 I48
stroke13  530  90 I48
stroke13  529  91 I48
stroke13  528  91 I48
stroke13  528  92 I48
stroke13  528  93 I48
stroke13  528  94 I48
stroke13  529  94 I48
stroke13  529  95 I48
stroke13  530  96 I48
stroke13  532  96 I48
stroke13  533  96 I48
stroke13  535  96 I48
stroke13  536  95 I48
stroke13  538  95 I48
stroke13  539  94 I48
stroke13  541  92 I48
stroke13  542  91 I48
stroke13  544  90 I48
stroke13  545  88 I48
stroke13  546  87 I48
stroke13  546  85 I48
stroke13  547  84 I48
stroke14  593  34 B8
stroke14  593  33 I8
stroke14  593  32 I8
stroke14  593  31 I8
stroke14  592  31 I8
stroke14  592  30 I8
stroke14  591  30 I8
stroke14  590  29 I8
stroke14  589  29 I8
stroke14  588  29 I8
stroke14  587  29 I8
stroke14  585  29 I8
stroke14  584  29 I8
stroke14  582  30 I8
stroke14  581  31 I8
stroke14  579  32 I8
stroke14  578  33 I8
stroke14  577  34 I8
stroke14  577  36 I8
stroke14  577  38 I8
stroke14  576  40 I8
stroke14  577  41 I8
stroke14  577  43 I8
stroke14  578  44 I8
stroke14  579  45 I8
stroke14  580  45 I8
stroke14  581  45 I8
stroke14  582  45 I8
stroke14  583  44 I8
stroke14  585  42 I8
stroke14  586  40 I8
stroke14  588  38 I8
stroke14  589  35 I8
stroke14  591  32 I8
stroke14  592  29 I8
stroke14  593  26 I8
stroke14  595  23 I8
stroke14  596  21 I8
stroke14  597  18 I8
stroke14  597  16 I8
stroke14  598  14 I8
stroke14  598  13 I8
stroke14  599  12 I8
stroke14  599  11 I8
stroke14  599  10 I8
stroke14  599  9 I8
stroke14  600  9 I8
stroke14  600  10 I8
stroke14  600  11 I8
stroke14  600  12 I8
stroke14  600  14 I8
stroke14  600  16 I8
stroke14  600  19 I8
stroke14  600  22 I8
stroke14  600  26 I8
stroke14  600  30 I8
stroke14  601  34 I8
stroke14  601  37 I8
stroke14  601  40 I8
stroke14  601  43 I8
stroke14  601  46 I8
stroke14  601  48 I8
stroke14  601  50 I8
stroke14  601  51 I8
stroke14  601  52 I8
stroke14  600  53 I8
stroke14  600  54 I8
stroke14  600  55 I8
stroke14  599  56 I8
stroke14  599  57 I8
stroke14  598  57 I8
stroke14  597  58 I8
stroke14  596  59 I8
stroke14  595  60 I8
stroke14  593  61 I8
stroke14  591  61 I8
stroke14  588  62 I8
stroke14  586  62 I8
stroke14  584  61 I8
stroke14  581  60 I8
stroke14  578  59 I8
stroke14  575  57 I8
stroke14  573  55 I8
stroke14  571  53 I8
stroke14  569  51 I8
