stroke1  64  66 B9
stroke1  65  66 I9
stroke1  66  65 I9
stroke1  65  65 I9
stroke1  65  64 I9
stroke1  65  63 I9
stroke1  64  63 I9
stroke1  63  63 I9
stroke1  63  62 I9
stroke1  62  62 I9
stroke1  61  62 I9
stroke1  60  61 I9
stroke1  59  61 I9
stroke1  58  61 I9
stroke1  58  62 I9
stroke1  57  62 I9
stroke1  56  63 I9
stroke1  55  64 I9
stroke1  55  65 I9
stroke1  55  65 I9
stroke1  54  66 I9
stroke1  54  67 I9
stroke1  54  69 I9
stroke1  54  70 I9
stroke1  54  72 I9
stroke1  55  73 I9
stroke1  55  74 I9
stroke1  56  75 I9
stroke1  57  76 I9
stroke1  58  75 I9
stroke1  59  75 I9
stroke1  60  74 I9
stroke1  60  72 I9
stroke1  61  71 I9
stroke1  62  69 I9
stroke1  62  68 I9
stroke1  63  65 I9
stroke1  63  63 I9
stroke1  64  61 I9
stroke1  64  59 I9
stroke1  64  56 I9
stroke1  64  54 I9
stroke1  64  52 I9
stroke1  65  50 I9
stroke1  65  48 I9
stroke1  65  46 I9
stroke1  65  45 I9
stroke1  65  44 I9
stroke1  65  43 I9
stroke1  65  42 I9
stroke1  66  43 I9
stroke1  66  44 I9
stroke1  67  45 I9
stroke1  67  47 I9
stroke1  68  48 I9
stroke1  69  49 I9
stroke1  71  51 I9
stroke1  72  52 I9
stroke1  73  53 I9
stroke1  74  54 I9
stroke1  76  55 I9
stroke1  77  56 I9
stroke1  79  56 I9
stroke1  80  56 I9
stroke1  81  57 I9
stroke1  82  57 I9
stroke1  83  56 I9
stroke1  84  56 I9
stroke1  85  56 I9
stroke1  85  55 I9
stroke1  86  54 I9
stroke1  87  53 I9
stroke1  88  52 I9
stroke1  88  50 I9
stroke1  88  49 I9
stroke1  88  48 I9
stroke1  88  47 I9
stroke1  87  46 I9
stroke1  87  45 I9
stroke1  86  44 I9
stroke1  85  43 I9
stroke1  84  43 I9
stroke1  83  43 I9
stroke1  83  44 I9
stroke1  82  45 I9
stroke1  82  46 I9
stroke1  81  47 I9
stroke1  80  49 I9
stroke1  80  51 I9
stroke1  80  53 I9
stroke1  79  55 I9
stroke1  79  57 I9
stroke1  79  60 I9
stroke1  78  62 I9
stroke1  78  65 I9
stroke1  78  69 I9
stroke1  78  72 I9
stroke1  77  75 I9
stroke1  77  78 I9
stroke1  77  81 I9
stroke1  77  84 I9
stroke1  77  86 I9
stroke1  76  88 I9
stroke1  76  89 I9
stroke1  76  90 I9
stroke1  76  91 I9
stroke1  76  92 I9
stroke1  76  93 I9
stroke1  76  94 I9
stroke1  75  94 I9
stroke1  75  95 I9
stroke1  74  95 I9
stroke1  73  96 I9
stroke1  72  97 I9
stroke1  71  98 I9
stroke1  69  98 I9
stroke1  68  99 I9
stroke1  67  100 I9
stroke1  65  101 I9
stroke1  64  102 I9
stroke1  62  102 I9
stroke1  60  103 I9
stroke1  58  103 I9
stroke1  56  103 I9
stroke1  54  102 I9
stroke1  52  101 I9
stroke1  50  99 I9
stroke1  48  97 I9
stroke1  46  95 I9
stroke1  44  92 I9
stroke1  43  90 I9
stroke1  42  86 I9
stroke1  42  82 I9
stroke2  78  13 B52
stroke2  77  13 I52
stroke2  76  13 I52
stroke2  76  12 I52
stroke2  75  13 I52
stroke2  74  13 I52
stroke2  73  13 I52
stroke2  72  14 I52
stroke2  71  14 I52
stroke2  70  15 I52
stroke2  70  16 I52
stroke2  69  16 I52
stroke2  69  17 I52
stroke2  69  18 I52
stroke2  70  19 I52
stroke2  71  19 I52
stroke2  72  19 I52
stroke2  73  19 I52
stroke2  74  19 I52
stroke2  75  18 I52
stroke2  76  17 I52
stroke2  77  16 I52
stroke2  78  15 I52
stroke2  79  13 I52
stroke2  79  11 I52
stroke2  80  9 I52
stroke2  80  7 I52
stroke2  80  6 I52
stroke2  80  4 I52
stroke2  80  3 I52
stroke2  81  2 I52
stroke2  81  1 I52
stroke2  81  0 I52
stroke2  81  1 I52
stroke2  81  2 I52
stroke2  81  3 I52
stroke3  114  41 B1
stroke3  115  42 I1
stroke3  115  43 I1
stroke3  115  44 I1
stroke3  115  45 I1
stroke3  115  46 I1
stroke3  115  47 I1
stroke3  116  49 I1
stroke3  116  50 I1
stroke3  116  52 I1
stroke3  116  54 I1
stroke3  116  56 I1
stroke3  116  58 I1
stroke3  116  60 I1
stroke3  116  62 I1
stroke3  116  64 I1
stroke3  116  66 I1
stroke3  116  68 I1
stroke3  115  70 I1
stroke3  115  72 I1
stroke3  115  74 I1
stroke3  114  75 I1
stroke3  114  76 I1
stroke3  113  76 I1
stroke3  113  75 I1
stroke3  112  74 I1
stroke3  112  73 I1
stroke3  111  72 I1
stroke3  110  71 I1
stroke3  110  70 I1
stroke3  109  69 I1
stroke3  109  68 I1
stroke3  108  67 I1
stroke3  108  68 I1
stroke3  108  69 I1
stroke3  108  71 I1
stroke3  108  72 I1
stroke3  109  74 I1
stroke3  109  76 I1
stroke3  109  78 I1
stroke3  110  80 I1
stroke3  110  82 I1
stroke3  111  84 I1
stroke3  111  86 I1
stroke3  112  88 I1
stroke3  113  90 I1
stroke3  113  92 I1
stroke3  114  93 I1
stroke3  115  94 I1
stroke3  116  96 I1
stroke3  117  97 I1
stroke3  118  98 I1
stroke3  119  99 I1
stroke3  120  100 I1
stroke3  121  101 I1
stroke3  122  101 I1
stroke3  123  101 I1
stroke3  124  102 I1
stroke3  125  102 I1
stroke3  126  102 I1
stroke3  127  102 I1
stroke3  128  102 I1
stroke3  129  102 I1
stroke3  130  102 I1
stroke3  132  102 I1
stroke3  133  101 I1
stroke3  134  101 I1
stroke3  135  100 I1
stroke3  136  100 I1
stroke3  137  99 I1
stroke3  138  99 I1
stroke3  139  98 I1
stroke3  140  97 I1
stroke3  141  96 I1
stroke3  142  95 I1
stroke3  142  94 I1
stroke3  143  92 I1
stroke3  144  91 I1
stroke3  144  89 I1
stroke3  144  87 I1
stroke3  145  85 I1
stroke3  145  83 I1
stroke3  145  80 I1
stroke3  145  77 I1
stroke3  145  74 I1
stroke3  145  71 I1
stroke3  144  67 I1
stroke3  144  64 I1
stroke3  144  61 I1
stroke3  144  58 I1
stroke3  144  56 I1
stroke3  144  53 I1
stroke3  144  51 I1
stroke3  144  49 I1
stroke3  144  47 I1
stroke3  144  46 I1
stroke3  144  45 I1
stroke3  144  44 I1
stroke3  144  43 I1
stroke3  144  42 I1
stroke3  144  41 I1
stroke3  143  41 I1
stroke3  143  42 I1
stroke4  171  86 B54
stroke4  171  88 I54
stroke4  172  90 I54
stroke4  172  91 I54
stroke4  172  92 I54
stroke4  173  94 I54
stroke4  173  95 I54
stroke4  173  96 I54
stroke4  173  97 I54
stroke4  172  97 I54
stroke4  173  97 I54
stroke4  173  96 I54
stroke4  173  95 I54
stroke4  173  92 I54
stroke4  173  90 I54
stroke4  174  86 I54
stroke4  173  82 I54
stroke4  173  78 I54
stroke4  173  74 I54
stroke4  173  70 I54
stroke4  172  66 I54
stroke4  172  63 I54
stroke4  172  59 I54
stroke4  172  56 I54
stroke4  172  54 I54
stroke4  172  51 I54
stroke4  172  49 I54
stroke4  172  47 I54
stroke4  172  45 I54
stroke4  172  44 I54
stroke4  172  43 I54
stroke4  172  42 I54
stroke4  172  41 I54
stroke4  172  40 I54
stroke4  172  39 I54
stroke4  172  38 I54
stroke4  173  38 I54
stroke4  173  37 I54
stroke4  174  37 I54
stroke4  175  37 I54
stroke4  176  37 I54
stroke4  177  37 I54
stroke4  178  37 I54
stroke4  179  37 I54
stroke4  180  38 I54
stroke4  181  39 I54
stroke4  182  39 I54
stroke4  183  40 I54
stroke4  184  41 I54
stroke4  185  43 I54
stroke4  185  44 I54
stroke4  186  45 I54
stroke4  186  47 I54
stroke4  186  48 I54
stroke4  185  49 I54
stroke4  184  50 I54
stroke4  184  51 I54
stroke4  183  52 I54
stroke4  182  52 I54
stroke4  180  52 I54
stroke4  179  52 I54
stroke4  178  52 I54
stroke4  177  52 I54
stroke4  177  51 I54
stroke5  207  64 B9
stroke5  207  63 I9
stroke5  206  64 I9
stroke5  205  64 I9
stroke5  204  64 I9
stroke5  203  65 I9
stroke5  202  65 I9
stroke5  202  66 I9
stroke5  201  67 I9
stroke5  201  68 I9
stroke5  200  69 I9
stroke5  200  70 I9
stroke5  200  71 I9
stroke5  201  72 I9
stroke5  201  73 I9
stroke5  201  75 I9
stroke5  202  76 I9
stroke5  203  77 I9
stroke5  204  77 I9
stroke5  204  78 I9
stroke5  205  78 I9
stroke5  206  78 I9
stroke5  207  77 I9
stroke5  207  76 I9
stroke5  208  75 I9
stroke5  208  73 I9
stroke5  208  71 I9
stroke5  209  69 I9
stroke5  209  67 I9
stroke5  209  65 I9
stroke5  209  62 I9
stroke5  209  60 I9
stroke5  209  58 I9
stroke5  209  55 I9
stroke5  209  53 I9
stroke5  209  51 I9
stroke5  209  49 I9
stroke5  209  48 I9
stroke5  209  46 I9
stroke5  209  45 I9
stroke5  210  44 I9
stroke5  210  43 I9
stroke5  210  44 I9
stroke5  211  44 I9
stroke5  212  45 I9
stroke5  213  46 I9
stroke5  214  47 I9
stroke5  215  48 I9
stroke5  216  49 I9
stroke5  218  50 I9
stroke5  219  51 I9
stroke5  221  52 I9
stroke5  222  52 I9
stroke5  224  53 I9
stroke5  225  53 I9
stroke5  227  54 I9
stroke5  228  54 I9
stroke5  229  54 I9
stroke5  230  54 I9
stroke5  231  54 I9
stroke5  232  53 I9
stroke5  233  53 I9
stroke5  234  53 I9
stroke5  234  52 I9
stroke5  235  52 I9
stroke5  236  51 I9
stroke5  236  50 I9
stroke5  236  49 I9
stroke5  236  48 I9
stroke5  236  47 I9
stroke5  236  46 I9
stroke5  235  45 I9
stroke5  235  44 I9
stroke5  234  44 I9
stroke5  234  43 I9
stroke5  233  42 I9
stroke5  232  42 I9
stroke5  231  41 I9
stroke5  231  42 I9
stroke5  230  42 I9
stroke5  230  43 I9
stroke5  229  44 I9
stroke5  229  45 I9
stroke5  229  46 I9
stroke5  228  48 I9
stroke5  228  50 I9
stroke5  228  52 I9
stroke5  228  55 I9
stroke5  227  58 I9
stroke5  227  61 I9
stroke5  227  64 I9
stroke5  227  67 I9
stroke5  228  70 I9
stroke5  228  74 I9
stroke5  228  77 I9
stroke5  228  80 I9
stroke5  228  83 I9
stroke5  228  85 I9
stroke5  228  87 I9
stroke5  228  88 I9
stroke5  228  89 I9
stroke5  228  90 I9
stroke5  228  91 I9
stroke5  228  92 I9
stroke5  228  93 I9
stroke5  228  94 I9
stroke5  227  95 I9
stroke5  227  96 I9
stroke5  226  96 I9
stroke5  225  97 I9
stroke5  223  98 I9
stroke5  222  98 I9
stroke5  220  99 I9
stroke5  218  100 I9
stroke5  216  100 I9
stroke5  213  101 I9
stroke5  211  101 I9
stroke5  208  101 I9
stroke5  206  101 I9
stroke5  203  100 I9
stroke5  201  99 I9
stroke5  200  98 I9
stroke5  198  97 I9
stroke5  197  96 I9
stroke5  196  95 I9
stroke5  195  94 I9
stroke5  195  93 I9
stroke5  194  92 I9
stroke6  225  114 B48
stroke6  225  115 I48
stroke6  225  116 I48
stroke6  224  116 I48
stroke6  223  116 I48
stroke6  222  117 I48
stroke6  220  117 I48
stroke6  219  117 I48
stroke6  216  118 I48
stroke6  214  118 I48
stroke6  211  118 I48
stroke6  209  118 I48
stroke6  207  118 I48
stroke6  205  118 I48
stroke6  203  119 I48
stroke6  202  119 I48
stroke6  201  119 I48
stroke6  200  119 I48
stroke6  199  119 I48
stroke6  199  120 I48
stroke6  198  121 I48
stroke6  198  122 I48
stroke6  198  123 I48
stroke6  199  125 I48
stroke6  199  126 I48
stroke6  200  127 I48
stroke6  201  129 I48
stroke6  202  130 I48
stroke6  204  131 I48
stroke6  205  132 I48
stroke6  207  132 I48
stroke6  209  132 I48
stroke6  211  132 I48
stroke6  212  132 I48
stroke6  214  131 I48
stroke6  216  129 I48
stroke6  218  127 I48
stroke6  220  126 I48
stroke6  221  124 I48
stroke6  222  122 I48
stroke6  223  121 I48
stroke6  224  120 I48
stroke6  224  118 I48
stroke6  225  117 I48
stroke6  224  116 I48
stroke6  224  114 I48
stroke7  266  90 B25
stroke7  267  90 I25
stroke7  267  89 I25
stroke7  266  89 I25
stroke7  266  88 I25
stroke7  265  89 I25
stroke7  264  89 I25
stroke7  263  89 I25
stroke7  262  89 I25
stroke7  262  90 I25
stroke7  261  90 I25
stroke7  260  91 I25
stroke7  260  92 I25
stroke7  259  93 I25
stroke7  259  94 I25
stroke7  259  95 I25
stroke7  260  96 I25
stroke7  260  98 I25
stroke7  260  99 I25
stroke7  261  99 I25
stroke7  262  100 I25
stroke7  262  101 I25
stroke7  263  101 I25
stroke7  264  101 I25
stroke7  265  101 I25
stroke7  266  100 I25
stroke7  267  99 I25
stroke7  268  98 I25
stroke7  268  97 I25
stroke7  269  96 I25
stroke7  269  94 I25
stroke7  269  92 I25
stroke7  269  90 I25
stroke7  270  87 I25
stroke7  269  85 I25
stroke7  269  82 I25
stroke7  269  79 I25
stroke7  268  76 I25
stroke7  268  73 I25
stroke7  267  70 I25
stroke7  267  67 I25
stroke7  267  64 I25
stroke7  266  62 I25
stroke7  266  60 I25
stroke7  266  58 I25
stroke7  266  56 I25
stroke7  266  55 I25
stroke7  265  53 I25
stroke7  265  52 I25
stroke7  265  51 I25
stroke7  265  50 I25
stroke7  265  49 I25
stroke7  265  48 I25
stroke7  265  47 I25
stroke7  265  46 I25
stroke7  265  45 I25
stroke7  265  44 I25
stroke7  265  43 I25
stroke7  265  42 I25
stroke7  266  42 I25
stroke7  267  43 I25
stroke7  268  44 I25
stroke7  269  46 I25
stroke7  270  47 I25
stroke7  272  48 I25
stroke7  273  50 I25
stroke7  275  51 I25
stroke7  276  52 I25
stroke7  278  53 I25
stroke7  279  54 I25
stroke7  281  55 I25
stroke7  283  56 I25
stroke7  285  56 I25
stroke7  286  56 I25
stroke7  288  56 I25
stroke7  289  56 I25
stroke7  290  56 I25
stroke7  291  55 I25
stroke7  293  55 I25
stroke7  293  54 I25
stroke7  294  54 I25
stroke7  295  53 I25
stroke7  296  52 I25
stroke7  296  51 I25
stroke7  296  50 I25
stroke7  297  49 I25
stroke7  297  48 I25
stroke7  297  47 I25
stroke7  296  47 I25
stroke7  296  46 I25
stroke7  296  45 I25
stroke7  295  45 I25
stroke7  295  44 I25
stroke7  294  44 I25
stroke7  294  43 I25
stroke7  293  43 I25
stroke7  292  43 I25
stroke7  291  43 I25
stroke7  290  43 I25
stroke7  290  44 I25
stroke7  290  45 I25
stroke7  289  46 I25
stroke7  289  48 I25
stroke7  289  49 I25
stroke7  289  51 I25
stroke7  289  53 I25
stroke7  289  55 I25
stroke7  289  58 I25
stroke7  289  60 I25
stroke7  289  63 I25
stroke7  289  65 I25
stroke7  290  68 I25
stroke7  289  70 I25
stroke7  289  73 I25
stroke7  289  75 I25
stroke7  289  78 I25
stroke7  290  80 I25
stroke7  290  82 I25
stroke7  290  84 I25
stroke7  290  86 I25
stroke7  291  88 I25
stroke7  291  89 I25
stroke7  291  91 I25
stroke7  291  92 I25
stroke7  291  93 I25
stroke7  291  94 I25
stroke7  291  95 I25
stroke7  291  96 I25
stroke7  291  97 I25
stroke7  291  98 I25
stroke7  291  97 I25
stroke7  290  96 I25
