stroke1  82  45 B30
stroke1  83  44 I30
stroke1  83  43 I30
stroke1  83  42 I30
stroke1  82  41 I30
stroke1  81  41 I30
stroke1  81  40 I30
stroke1  80  40 I30
stroke1  79  40 I30
stroke1  78  39 I30
stroke1  78  40 I30
stroke1  77  40 I30
stroke1  76  40 I30
stroke1  75  41 I30
stroke1  74  42 I30
stroke1  74  43 I30
stroke1  73  45 I30
stroke1  73  46 I30
stroke1  72  48 I30
stroke1  72  48 I30
stroke1  72  49 I30
stroke1  72  51 I30
stroke1  72  53 I30
stroke1  72  54 I30
stroke1  73  56 I30
stroke1  73  57 I30
stroke1  74  57 I30
stroke1  75  58 I30
stroke1  76  58 I30
stroke1  77  59 I30
stroke1  78  59 I30
stroke1  80  59 I30
stroke1  81  59 I30
stroke1  82  58 I30
stroke1  83  58 I30
stroke1  84  56 I30
stroke1  85  55 I30
stroke1  85  53 I30
stroke1  86  51 I30
stroke1  86  48 I30
stroke1  86  45 I30
stroke1  87  42 I30
stroke1  87  38 I30
stroke1  87  35 I30
stroke1  86  31 I30
stroke1  86  28 I30
stroke1  87  24 I30
stroke1  87  21 I30
stroke1  86  18 I30
stroke1  87  14 I30
stroke1  87  11 I30
stroke1  87  9 I30
stroke1  87  6 I30
stroke1  87  4 I30
stroke1  87  3 I30
stroke1  87  2 I30
stroke1  87  1 I30
stroke1  87  0 I30
stroke1  88  1 I30
stroke1  88  3 I30
stroke1  89  5 I30
stroke1  89  7 I30
stroke1  90  9 I30
stroke1  90  12 I30
stroke1  91  15 I30
stroke1  92  17 I30
stroke1  93  20 I30
stroke1  93  23 I30
stroke1  94  25 I30
stroke1  95  27 I30
stroke1  95  29 I30
stroke1  96  31 I30
stroke1  97  32 I30
stroke1  97  33 I30
stroke1  98  34 I30
stroke1  99  34 I30
stroke1  100  34 I30
stroke1  101  33 I30
stroke1  101  32 I30
stroke1  102  30 I30
stroke1  103  28 I30
stroke1  104  26 I30
stroke1  105  24 I30
stroke1  107  22 I30
stroke1  108  20 I30
stroke1  109  18 I30
stroke1  110  15 I30
stroke1  111  13 I30
stroke1  112  11 I30
stroke1  113  10 I30
stroke1  114  8 I30
stroke1  114  7 I30
stroke1  115  5 I30
stroke1  115  4 I30
stroke1  116  4 I30
stroke1  116  3 I30
stroke1  116  4 I30
stroke1  116  5 I30
stroke1  116  6 I30
stroke1  116  8 I30
stroke1  117  10 I30
stroke1  117  12 I30
stroke1  117  14 I30
stroke1  117  17 I30
stroke1  117  20 I30
stroke1  117  23 I30
stroke1  117  26 I30
stroke1  117  29 I30
stroke1  117  32 I30
stroke1  117  36 I30
stroke1  116  39 I30
stroke1  116  41 I30
stroke1  116  44 I30
stroke1  116  47 I30
stroke1  116  50 I30
stroke1  116  52 I30
stroke1  116  54 I30
stroke1  116  56 I30
stroke1  116  58 I30
stroke1  117  59 I30
stroke1  117  60 I30
stroke1  117  61 I30
stroke1  117  62 I30
stroke1  116  62 I30
stroke1  116  61 I30
stroke2  120  81 B51
stroke2  119  81 I51
stroke2  118  82 I51
stroke2  117  82 I51
stroke2  116  83 I51
stroke2  115  83 I51
stroke2  113  84 I51
stroke2  112  84 I51
stroke2  110  85 I51
stroke2  108  85 I51
stroke2  106  86 I51
stroke2  104  86 I51
stroke2  103  86 I51
stroke2  101  86 I51
stroke2  99  87 I51
stroke2  98  87 I51
stroke2  96  86 I51
stroke2  95  87 I51
stroke2  94  87 I51
stroke2  93  87 I51
stroke2  93  88 I51
stroke2  93  89 I51
stroke2  93  90 I51
stroke2  94  91 I51
stroke2  95  92 I51
stroke2  96  93 I51
stroke2  97  94 I51
stroke2  98  95 I51
stroke2  100  96 I51
stroke2  101  97 I51
stroke2  103  98 I51
stroke2  105  98 I51
stroke2  107  98 I51
stroke2  108  98 I51
stroke2  110  98 I51
stroke2  111  97 I51
stroke2  113  95 I51
stroke2  114  94 I51
stroke2  115  93 I51
stroke2  116  91 I51
stroke2  118  90 I51
stroke2  118  89 I51
stroke2  119  88 I51
stroke2  119  87 I51
stroke2  120  87 I51
stroke2  120  88 I51
stroke2  120  89 I51
stroke2  120  90 I51
stroke2  120  92 I51
stroke2  119  93 I51
stroke2  119  95 I51
stroke2  120  98 I51
stroke2  120  100 I51
stroke2  120  102 I51
stroke2  120  103 I51
stroke2  120  105 I51
stroke2  120  106 I51
stroke2  120  107 I51
stroke2  120  108 I51
stroke2  119  108 I51
stroke2  118  108 I51
stroke2  110  106 I51
stroke2  110  105 I51
stroke2  111  104 I51
stroke2  111  103 I51
stroke2  111  102 I51
stroke2  111  100 I51
stroke2  111  99 I51
stroke2  110  98 I51
stroke3  126  127 B66
stroke3  125  128 I66
stroke3  124  128 I66
stroke3  123  129 I66
stroke3  122  129 I66
stroke3  122  130 I66
stroke3  122  131 I66
stroke3  123  132 I66
stroke3  124  133 I66
stroke3  125  133 I66
stroke3  126  132 I66
stroke3  127  132 I66
stroke3  128  130 I66
stroke3  129  129 I66
stroke3  129  127 I66
stroke3  129  125 I66
stroke3  130  123 I66
stroke3  129  121 I66
stroke3  129  120 I66
stroke3  129  119 I66
stroke3  130  118 I66
stroke3  130  117 I66
stroke3  131  117 I66
stroke3  132  118 I66
stroke3  133  119 I66
stroke3  134  120 I66
stroke3  136  121 I66
stroke3  138  123 I66
stroke3  139  125 I66
stroke3  141  126 I66
stroke3  142  128 I66
stroke3  144  129 I66
stroke3  145  131 I66
stroke3  146  131 I66
stroke3  146  132 I66
stroke3  147  132 I66
stroke3  147  131 I66
stroke3  147  129 I66
stroke4  144  38 B25
stroke4  144  37 I25
stroke4  143  36 I25
stroke4  143  35 I25
stroke4  142  34 I25
stroke4  141  33 I25
stroke4  140  33 I25
stroke4  139  33 I25
stroke4  138  33 I25
stroke4  137  34 I25
stroke4  136  34 I25
stroke4  135  35 I25
stroke4  134  37 I25
stroke4  134  38 I25
stroke4  133  40 I25
stroke4  133  42 I25
stroke4  133  44 I25
stroke4  133  46 I25
stroke4  134  48 I25
stroke4  134  50 I25
stroke4  135  52 I25
stroke4  136  53 I25
stroke4  137  55 I25
stroke4  138  55 I25
stroke4  139  56 I25
stroke4  140  56 I25
stroke4  141  56 I25
stroke4  142  56 I25
stroke4  142  55 I25
stroke4  143  53 I25
stroke4  144  52 I25
stroke4  144  49 I25
stroke4  145  47 I25
stroke4  145  44 I25
stroke4  145  40 I25
stroke4  146  36 I25
stroke4  146  32 I25
stroke4  146  28 I25
stroke4  146  25 I25
stroke4  146  21 I25
stroke4  146  18 I25
stroke4  146  15 I25
stroke4  146  12 I25
stroke4  146  9 I25
stroke4  146  7 I25
stroke4  146  5 I25
stroke4  146  4 I25
stroke4  146  3 I25
stroke4  146  2 I25
stroke4  146  3 I25
stroke4  147  4 I25
stroke4  148  5 I25
stroke4  149  7 I25
stroke4  151  8 I25
stroke4  153  10 I25
stroke4  155  12 I25
stroke4  157  13 I25
stroke4  159  14 I25
stroke4  161  16 I25
stroke4  163  17 I25
stroke4  165  17 I25
stroke4  167  18 I25
stroke4  168  18 I25
stroke4  170  18 I25
stroke4  171  18 I25
stroke4  172  17 I25
stroke4  172  16 I25
stroke4  173  15 I25
stroke4  174  14 I25
stroke4  174  13 I25
stroke4  174  12 I25
stroke4  175  11 I25
stroke4  174  10 I25
stroke4  174  8 I25
stroke4  174  7 I25
stroke4  173  5 I25
stroke4  172  4 I25
stroke4  172  3 I25
stroke4  171  2 I25
stroke4  170  2 I25
stroke4  169  2 I25
stroke4  168  2 I25
stroke4  168  3 I25
stroke4  168  5 I25
stroke4  167  6 I25
stroke4  167  8 I25
stroke4  167  11 I25
stroke4  167  13 I25
stroke4  167  16 I25
stroke4  167  20 I25
stroke4  166  24 I25
stroke4  167  28 I25
stroke4  167  32 I25
stroke4  167  36 I25
stroke4  167  40 I25
stroke4  167  43 I25
stroke4  168  46 I25
stroke4  168  48 I25
stroke4  168  51 I25
stroke4  168  53 I25
stroke4  168  54 I25
stroke4  168  56 I25
stroke4  168  57 I25
stroke4  168  58 I25
stroke4  168  59 I25
stroke4  167  59 I25
stroke5  213  44 B23
stroke5  214  43 I23
stroke5  214  42 I23
stroke5  214  41 I23
stroke5  213  40 I23
stroke5  212  39 I23
stroke5  212  38 I23
stroke5  211  38 I23
stroke5  209  37 I23
stroke5  208  37 I23
stroke5  207  37 I23
stroke5  206  37 I23
stroke5  205  38 I23
stroke5  204  39 I23
stroke5  204  40 I23
stroke5  203  41 I23
stroke5  203  43 I23
stroke5  202  44 I23
stroke5  202  46 I23
stroke5  203  48 I23
stroke5  203  50 I23
stroke5  204  51 I23
stroke5  204  53 I23
stroke5  205  54 I23
stroke5  206  55 I23
stroke5  207  56 I23
stroke5  208  56 I23
stroke5  209  56 I23
stroke5  210  56 I23
stroke5  211  56 I23
stroke5  212  55 I23
stroke5  213  54 I23
stroke5  214  53 I23
stroke5  215  51 I23
stroke5  215  49 I23
stroke5  215  46 I23
stroke5  215  44 I23
stroke5  215  41 I23
stroke5  215  37 I23
stroke5  215  34 I23
stroke5  215  31 I23
stroke5  215  28 I23
stroke5  215  25 I23
stroke5  215  22 I23
stroke5  215  19 I23
stroke5  215  17 I23
stroke5  215  14 I23
stroke5  215  12 I23
stroke5  215  11 I23
stroke5  215  9 I23
stroke5  215  8 I23
stroke5  215  7 I23
stroke5  215  6 I23
stroke5  215  7 I23
stroke5  215  8 I23
stroke5  215  9 I23
stroke5  216  11 I23
stroke5  216  13 I23
stroke5  217  15 I23
stroke5  218  17 I23
stroke5  219  20 I23
stroke5  220  23 I23
stroke5  221  26 I23
stroke5  222  29 I23
stroke5  223  33 I23
stroke5  224  36 I23
stroke5  225  40 I23
stroke5  226  43 I23
stroke5  227  45 I23
stroke5  228  48 I23
stroke5  229  50 I23
stroke5  229  52 I23
stroke5  230  54 I23
stroke5  231  56 I23
stroke5  231  57 I23
stroke5  232  58 I23
stroke5  232  59 I23
stroke5  233  59 I23
stroke5  234  58 I23
stroke5  235  57 I23
stroke5  236  57 I23
stroke5  237  56 I23
stroke5  238  56 I23
stroke5  239  56 I23
stroke5  240  55 I23
stroke5  241  55 I23
stroke5  242  55 I23
stroke5  243  54 I23
stroke5  244  53 I23
stroke5  244  52 I23
stroke5  245  51 I23
stroke5  245  49 I23
stroke5  245  47 I23
stroke5  246  44 I23
stroke5  246  42 I23
stroke5  246  39 I23
stroke5  246  35 I23
stroke5  245  32 I23
stroke5  245  29 I23
stroke5  245  25 I23
stroke5  244  22 I23
stroke5  244  19 I23
stroke5  244  16 I23
stroke5  243  13 I23
stroke5  243  11 I23
stroke5  243  9 I23
stroke5  242  7 I23
stroke5  242  6 I23
stroke5  242  5 I23
stroke5  242  4 I23
stroke5  242  3 I23
stroke5  242  4 I23
stroke5  242  5 I23
stroke5  241  6 I23
stroke5  241  8 I23
stroke5  241  10 I23
stroke6  244  70 B49
stroke6  245  70 I49
stroke6  245  71 I49
stroke6  244  71 I49
stroke6  244  72 I49
stroke6  243  73 I49
stroke6  242  73 I49
stroke6  241  74 I49
stroke6  240  74 I49
stroke6  238  75 I49
stroke6  236  75 I49
stroke6  234  75 I49
stroke6  232  76 I49
stroke6  229  76 I49
stroke6  227  76 I49
stroke6  225  77 I49
stroke6  223  77 I49
stroke6  221  77 I49
stroke6  219  78 I49
stroke6  218  79 I49
stroke6  218  80 I49
stroke6  217  82 I49
stroke6  217  83 I49
stroke6  217  85 I49
stroke6  218  87 I49
stroke6  219  88 I49
stroke6  220  90 I49
stroke6  221  91 I49
stroke6  223  92 I49
stroke6  225  93 I49
stroke6  227  93 I49
stroke6  229  93 I49
stroke6  231  92 I49
stroke6  233  91 I49
stroke6  235  90 I49
stroke6  237  88 I49
stroke6  238  87 I49
stroke6  240  85 I49
stroke6  241  83 I49
stroke6  242  81 I49
stroke6  243  80 I49
stroke6  244  78 I49
stroke6  244  77 I49
stroke6  245  76 I49
stroke6  245  75 I49
stroke6  246  76 I49
stroke6  246  77 I49
stroke6  246  79 I49
stroke6  246  81 I49
stroke6  246  83 I49
stroke6  246  85 I49
stroke6  246  88 I49
stroke6  246  90 I49
stroke6  246  92 I49
stroke6  246  94 I49
stroke6  246  95 I49
stroke6  246  96 I49
stroke6  246  98 I49
stroke6  246  99 I49
stroke6  246  100 I49
stroke6  246  101 I49
stroke6  246  102 I49
stroke6  246  103 I49
stroke7  249  122 B65
stroke7  249  123 I65
stroke7  249  124 I65
stroke7  249  125 I65
stroke7  249  124 I65
stroke7  249  122 I65
stroke7  249  121 I65
stroke7  249  120 I65
stroke7  249  118 I65
stroke7  249  117 I65
stroke7  249  116 I65
stroke7  249  115 I65
stroke7  249  114 I65
