stroke1  48  55 B29
stroke1  48  54 I29
stroke1  49  54 I29
stroke1  49  53 I29
stroke1  49  52 I29
stroke1  49  51 I29
stroke1  50  51 I29
stroke1  50  50 I29
stroke1  51  50 I29
stroke1  52  50 I29
stroke1  53  50 I29
stroke1  54  50 I29
stroke1  55  50 I29
stroke1  56  51 I29
stroke1  57  52 I29
stroke1  58  52 I29
stroke1  59  53 I29
stroke1  60  54 I29
stroke1  60  55 I29
stroke1  60  55 I29
stroke1  61  56 I29
stroke1  62  57 I29
stroke1  62  58 I29
stroke1  62  59 I29
stroke1  63  60 I29
stroke1  63  61 I29
stroke1  63  62 I29
stroke1  63  63 I29
stroke1  62  63 I29
stroke1  62  64 I29
stroke1  62  65 I29
stroke1  61  65 I29
stroke1  61  66 I29
stroke1  60  66 I29
stroke1  59  66 I29
stroke1  59  67 I29
stroke1  58  67 I29
stroke1  57  67 I29
stroke1  57  66 I29
stroke1  56  66 I29
stroke1  55  66 I29
stroke1  54  65 I29
stroke1  54  64 I29
stroke1  53  63 I29
stroke1  53  62 I29
stroke1  52  61 I29
stroke1  52  60 I29
stroke1  51  58 I29
stroke1  51  57 I29
stroke1  50  55 I29
stroke1  50  53 I29
stroke1  50  51 I29
stroke1  49  49 I29
stroke1  49  47 I29
stroke1  50  44 I29
stroke1  50  41 I29
stroke1  50  39 I29
stroke1  50  36 I29
stroke1  51  33 I29
stroke1  51  30 I29
stroke1  52  28 I29
stroke1  52  25 I29
stroke1  52  23 I29
stroke1  53  20 I29
stroke1  53  18 I29
stroke1  54  16 I29
stroke1  54  14 I29
stroke1  54  12 I29
stroke1  55  10 I29
stroke1  55  8 I29
stroke1  55  7 I29
stroke1  55  6 I29
stroke1  55  5 I29
stroke1  56  4 I29
stroke1  56  3 I29
stroke1  56  4 I29
stroke1  57  5 I29
stroke1  57  6 I29
stroke1  57  7 I29
stroke1  58  9 I29
stroke1  58  11 I29
stroke1  59  14 I29
stroke1  60  16 I29
stroke1  60  19 I29
stroke1  61  21 I29
stroke1  62  24 I29
stroke1  63  26 I29
stroke1  64  28 I29
stroke1  64  29 I29
stroke1  65  31 I29
stroke1  66  32 I29
stroke1  67  33 I29
stroke1  68  34 I29
stroke1  69  34 I29
stroke1  70  34 I29
stroke1  71  33 I29
stroke1  72  33 I29
stroke1  73  32 I29
stroke1  74  31 I29
stroke1  75  30 I29
stroke1  77  28 I29
stroke1  78  27 I29
stroke1  79  25 I29
stroke1  81  24 I29
stroke1  82  22 I29
stroke1  83  21 I29
stroke1  85  19 I29
stroke1  86  18 I29
stroke1  87  16 I29
stroke1  88  15 I29
stroke1  88  14 I29
stroke1  89  12 I29
stroke1  90  11 I29
stroke1  91  10 I29
stroke1  91  9 I29
stroke1  92  9 I29
stroke1  92  8 I29
stroke1  93  7 I29
stroke1  94  7 I29
stroke1  94  8 I29
stroke1  94  9 I29
stroke1  93  11 I29
stroke1  93  13 I29
stroke1  93  15 I29
stroke1  93  17 I29
stroke1  93  20 I29
stroke1  92  22 I29
stroke1  92  25 I29
stroke1  92  28 I29
stroke1  92  31 I29
stroke1  91  34 I29
stroke1  91  37 I29
stroke1  91  41 I29
stroke1  91  44 I29
stroke1  90  48 I29
stroke1  90  51 I29
stroke1  89  55 I29
stroke1  89  58 I29
stroke1  89  62 I29
stroke1  88  65 I29
stroke1  88  68 I29
stroke1  88  71 I29
stroke1  88  74 I29
stroke1  87  77 I29
stroke1  87  80 I29
stroke1  87  82 I29
stroke1  87  85 I29
stroke1  87  87 I29
stroke1  86  89 I29
stroke1  86  91 I29
stroke1  86  93 I29
stroke1  86  95 I29
stroke1  86  96 I29
stroke1  86  97 I29
stroke1  85  98 I29
stroke1  85  99 I29
stroke1  85  100 I29
stroke1  85  101 I29
stroke1  85  102 I29
stroke1  84  102 I29
stroke1  84  101 I29
stroke1  84  100 I29
stroke2  71  81 B49
stroke2  70  82 I49
stroke2  69  82 I49
stroke2  68  83 I49
stroke2  67  84 I49
stroke2  66  85 I49
stroke2  64  86 I49
stroke2  63  86 I49
stroke2  61  87 I49
stroke2  59  88 I49
stroke2  57  89 I49
stroke2  55  90 I49
stroke2  53  90 I49
stroke2  50  91 I49
stroke2  47  91 I49
stroke2  45  92 I49
stroke2  42  92 I49
stroke2  40  92 I49
stroke2  37  91 I49
stroke2  35  91 I49
stroke2  33  91 I49
stroke2  32  90 I49
stroke2  31  90 I49
stroke2  30  90 I49
stroke2  29  90 I49
stroke2  29  91 I49
stroke2  30  91 I49
stroke2  30  92 I49
stroke2  31  94 I49
stroke2  33  95 I49
stroke2  34  96 I49
stroke2  35  97 I49
stroke2  37  98 I49
stroke2  38  98 I49
stroke2  40  99 I49
stroke2  41  99 I49
stroke2  43  100 I49
stroke2  45  99 I49
stroke2  46  99 I49
stroke2  48  98 I49
stroke2  50  97 I49
stroke2  52  95 I49
stroke2  54  94 I49
stroke2  56  92 I49
stroke2  58  90 I49
stroke2  60  88 I49
stroke2  62  87 I49
stroke2  64  85 I49
stroke2  65  84 I49
stroke2  67  83 I49
stroke2  68  81 I49
stroke2  69  81 I49
stroke2  70  80 I49
stroke2  71  79 I49
stroke2  72  79 I49
stroke2  73  79 I49
stroke2  74  79 I49
stroke2  74  80 I49
stroke2  74  81 I49
stroke2  75  83 I49
stroke2  75  84 I49
stroke2  75  86 I49
stroke2  75  87 I49
stroke2  75  89 I49
stroke2  75  91 I49
stroke2  75  93 I49
stroke2  75  95 I49
stroke2  75  96 I49
stroke2  74  98 I49
stroke2  74  99 I49
stroke2  74  100 I49
stroke2  74  101 I49
stroke2  74  102 I49
stroke2  74  103 I49
stroke2  74  104 I49
stroke2  74  103 I49
stroke2  74  102 I49
stroke3  113  61 B33
stroke3  114  61 I33
stroke3  115  60 I33
stroke3  116  60 I33
stroke3  116  59 I33
stroke3  117  58 I33
stroke3  117  57 I33
stroke3  117  56 I33
stroke3  118  55 I33
stroke3  118  54 I33
stroke3  118  53 I33
stroke3  118  52 I33
stroke3  118  51 I33
stroke3  118  50 I33
stroke3  117  49 I33
stroke3  117  48 I33
stroke3  116  48 I33
stroke3  115  47 I33
stroke3  114  46 I33
stroke3  113  46 I33
stroke3  112  45 I33
stroke3  111  45 I33
stroke3  110  45 I33
stroke3  109  45 I33
stroke3  108  45 I33
stroke3  107  46 I33
stroke3  107  47 I33
stroke3  106  49 I33
stroke3  105  50 I33
stroke3  105  52 I33
stroke3  105  54 I33
stroke3  105  55 I33
stroke3  105  57 I33
stroke3  105  58 I33
stroke3  106  59 I33
stroke3  107  60 I33
stroke3  108  61 I33
stroke3  109  61 I33
stroke3  110  62 I33
stroke3  111  62 I33
stroke3  112  63 I33
stroke3  113  63 I33
stroke3  114  63 I33
stroke3  115  63 I33
stroke3  116  63 I33
stroke3  117  63 I33
stroke3  118  63 I33
stroke3  119  62 I33
stroke3  119  61 I33
stroke3  120  61 I33
stroke3  120  60 I33
stroke3  120  59 I33
stroke3  121  57 I33
stroke3  121  56 I33
stroke3  122  54 I33
stroke3  122  51 I33
stroke3  123  49 I33
stroke3  123  45 I33
stroke3  124  42 I33
stroke3  124  39 I33
stroke3  125  35 I33
stroke3  125  32 I33
stroke3  126  29 I33
stroke3  126  25 I33
stroke3  127  22 I33
stroke3  127  19 I33
stroke3  127  17 I33
stroke3  127  14 I33
stroke3  127  12 I33
stroke3  127  10 I33
stroke3  127  9 I33
stroke3  127  8 I33
stroke3  126  7 I33
stroke3  126  6 I33
stroke3  126  5 I33
stroke3  126  4 I33
stroke3  125  4 I33
stroke3  125  3 I33
stroke3  124  3 I33
stroke3  123  3 I33
stroke3  122  3 I33
stroke3  121  3 I33
stroke3  120  4 I33
stroke3  119  5 I33
stroke3  118  6 I33
stroke3  118  7 I33
stroke3  117  9 I33
stroke3  117  10 I33
stroke3  116  12 I33
stroke3  117  14 I33
stroke3  117  15 I33
stroke3  117  16 I33
stroke3  118  17 I33
stroke3  119  18 I33
stroke3  120  19 I33
stroke3  121  20 I33
stroke3  123  21 I33
stroke3  124  21 I33
stroke3  126  21 I33
stroke3  128  21 I33
stroke3  129  20 I33
stroke3  131  19 I33
stroke3  133  18 I33
stroke3  134  17 I33
stroke3  136  16 I33
stroke3  137  14 I33
stroke3  138  13 I33
stroke3  140  12 I33
stroke3  141  10 I33
stroke3  141  9 I33
stroke3  142  8 I33
stroke3  143  7 I33
stroke3  144  6 I33
stroke3  144  5 I33
stroke3  144  6 I33
stroke3  144  7 I33
stroke3  143  8 I33
stroke3  143  9 I33
stroke3  143  11 I33
stroke3  143  13 I33
stroke3  142  15 I33
stroke3  142  18 I33
stroke3  141  21 I33
stroke3  141  24 I33
stroke3  140  27 I33
stroke3  140  30 I33
stroke3  140  34 I33
stroke3  139  37 I33
stroke3  139  41 I33
stroke3  138  45 I33
stroke3  138  48 I33
stroke3  138  51 I33
stroke3  138  54 I33
stroke3  137  56 I33
stroke3  137  58 I33
stroke3  137  60 I33
stroke3  137  61 I33
stroke3  136  63 I33
stroke3  136  64 I33
stroke3  136  65 I33
stroke3  136  66 I33
stroke3  136  67 I33
stroke3  135  67 I33
stroke3  135  66 I33
stroke3  134  66 I33
stroke4  133  82 B51
stroke4  132  83 I51
stroke4  131  84 I51
stroke4  130  85 I51
stroke4  129  86 I51
stroke4  127  87 I51
stroke4  125  89 I51
stroke4  123  90 I51
stroke4  121  91 I51
stroke4  119  92 I51
stroke4  117  93 I51
stroke4  115  94 I51
stroke4  113  95 I51
stroke4  111  95 I51
stroke4  109  96 I51
stroke4  107  96 I51
stroke4  105  96 I51
stroke4  103  96 I51
stroke4  101  95 I51
stroke4  99  95 I51
stroke4  98  95 I51
stroke4  96  95 I51
stroke4  95  95 I51
stroke4  94  94 I51
stroke4  94  95 I51
stroke4  94  96 I51
stroke4  95  97 I51
stroke4  96  98 I51
stroke4  97  99 I51
stroke4  98  100 I51
stroke4  100  101 I51
stroke4  101  102 I51
stroke4  103  103 I51
stroke4  104  104 I51
stroke4  106  104 I51
stroke4  108  104 I51
stroke4  111  103 I51
stroke4  113  102 I51
stroke4  115  101 I51
stroke4  118  99 I51
stroke4  120  97 I51
stroke4  123  95 I51
stroke4  125  93 I51
stroke4  127  91 I51
stroke4  129  89 I51
stroke4  131  88 I51
stroke4  133  86 I51
stroke4  134  85 I51
stroke4  135  84 I51
stroke4  136  83 I51
stroke4  137  82 I51
stroke4  138  82 I51
stroke4  138  81 I51
stroke4  138  82 I51
stroke4  139  82 I51
stroke4  139  83 I51
stroke4  139  84 I51
stroke4  139  86 I51
stroke4  139  87 I51
stroke4  139  89 I51
stroke4  139  91 I51
stroke4  138  93 I51
stroke4  138  95 I51
stroke4  138  97 I51
stroke4  138  99 I51
stroke4  138  101 I51
stroke4  137  103 I51
stroke4  137  104 I51
stroke4  137  105 I51
stroke4  137  106 I51
stroke4  137  107 I51
stroke4  136  108 I51
stroke4  135  108 I51
stroke4  134  107 I51
stroke4  128  91 I51
stroke4  127  91 I51
stroke4  126  91 I51
stroke4  126  92 I51
stroke4  125  93 I51
stroke4  125  94 I51
stroke4  125  95 I51
stroke4  125  96 I51
stroke4  125  97 I51
stroke4  125  98 I51
stroke4  125  99 I51
stroke4  126  101 I51
stroke4  126  102 I51
stroke4  126  103 I51
stroke4  126  104 I51
stroke4  126  105 I51
stroke4  126  104 I51
stroke5  164  36 B43
stroke5  164  35 I43
stroke5  164  34 I43
stroke5  164  33 I43
stroke5  164  32 I43
stroke5  164  31 I43
stroke5  165  30 I43
stroke5  166  30 I43
stroke5  167  30 I43
stroke5  168  30 I43
stroke5  169  30 I43
stroke5  171  31 I43
stroke5  172  31 I43
stroke5  173  33 I43
stroke5  174  34 I43
stroke5  175  35 I43
stroke5  176  36 I43
stroke5  177  38 I43
stroke5  177  39 I43
stroke5  178  40 I43
stroke5  178  41 I43
stroke5  178  42 I43
stroke5  177  43 I43
stroke5  177  45 I43
stroke5  176  45 I43
stroke5  175  46 I43
stroke5  174  47 I43
stroke5  173  48 I43
stroke5  172  48 I43
stroke5  171  47 I43
stroke5  170  47 I43
stroke5  169  46 I43
stroke5  169  45 I43
stroke5  168  43 I43
stroke5  167  41 I43
stroke5  167  39 I43
stroke5  167  36 I43
stroke5  166  34 I43
stroke5  166  31 I43
stroke5  166  28 I43
stroke5  166  25 I43
stroke5  166  22 I43
stroke5  166  19 I43
stroke5  166  16 I43
stroke5  166  13 I43
stroke5  166  11 I43
stroke5  166  9 I43
stroke5  167  7 I43
stroke5  167  6 I43
stroke5  167  4 I43
stroke5  167  3 I43
stroke5  167  2 I43
stroke5  168  1 I43
stroke5  168  0 I43
stroke5  169  0 I43
stroke5  170  0 I43
stroke5  171  0 I43
stroke5  172  0 I43
stroke5  173  0 I43
stroke5  174  0 I43
stroke5  175  0 I43
stroke5  177  0 I43
stroke5  178  0 I43
stroke5  179  0 I43
stroke5  181  0 I43
stroke5  182  1 I43
stroke5  184  1 I43
stroke5  185  1 I43
stroke5  187  1 I43
stroke5  188  1 I43
stroke5  189  1 I43
stroke5  190  1 I43
stroke5  191  1 I43
stroke5  192  1 I43
stroke5  193  1 I43
stroke5  193  2 I43
stroke5  193  3 I43
stroke5  193  4 I43
stroke5  194  5 I43
stroke5  194  6 I43
stroke5  194  8 I43
stroke5  194  10 I43
stroke5  194  13 I43
stroke5  194  16 I43
stroke5  194  19 I43
stroke5  193  22 I43
stroke5  193  26 I43
stroke5  193  29 I43
stroke5  193  33 I43
stroke5  192  36 I43
stroke5  192  40 I43
stroke5  192  43 I43
stroke5  191  46 I43
stroke5  191  49 I43
stroke5  191  52 I43
stroke5  190  54 I43
stroke5  190  57 I43
stroke5  189  58 I43
stroke5  189  60 I43
stroke5  188  62 I43
stroke5  188  63 I43
stroke5  187  64 I43
stroke5  187  65 I43
stroke5  186  66 I43
stroke5  185  68 I43
stroke5  184  69 I43
stroke5  183  70 I43
stroke5  182  71 I43
stroke5  181  71 I43
stroke5  180  71 I43
stroke5  179  71 I43
stroke5  177  71 I43
stroke5  176  71 I43
stroke5  174  71 I43
stroke5  172  70 I43
stroke5  171  70 I43
stroke5  169  69 I43
stroke5  167  68 I43
stroke5  165  67 I43
stroke5  163  66 I43
stroke5  161  65 I43
stroke5  160  65 I43
stroke5  159  64 I43
stroke5  157  63 I43
stroke5  156  62 I43
stroke5  155  62 I43
stroke5  155  61 I43
stroke5  156  61 I43
stroke5  156  60 I43
