stroke1  169  108 B27
stroke1  169  107 I27
stroke1  169  106 I27
stroke1  169  105 I27
stroke1  169  104 I27
stroke1  168  103 I27
stroke1  168  102 I27
stroke1  168  101 I27
stroke1  168  100 I27
stroke1  167  99 I27
stroke1  167  98 I27
stroke1  167  97 I27
stroke1  166  96 I27
stroke1  166  95 I27
stroke1  165  94 I27
stroke1  165  93 I27
stroke1  164  92 I27
stroke1  163  91 I27
stroke1  163  90 I27
stroke1  163  90 I27
stroke1  162  90 I27
stroke1  162  89 I27
stroke1  161  89 I27
stroke1  160  88 I27
stroke1  159  88 I27
stroke1  158  88 I27
stroke1  157  88 I27
stroke1  157  89 I27
stroke1  156  89 I27
stroke1  156  90 I27
stroke1  155  91 I27
stroke1  155  92 I27
stroke1  155  93 I27
stroke1  154  94 I27
stroke1  154  95 I27
stroke1  154  96 I27
stroke1  155  97 I27
stroke1  155  98 I27
stroke1  155  99 I27
stroke1  155  100 I27
stroke1  156  101 I27
stroke1  157  102 I27
stroke1  157  103 I27
stroke1  158  104 I27
stroke1  159  105 I27
stroke1  160  106 I27
stroke1  161  107 I27
stroke1  162  107 I27
stroke1  162  108 I27
stroke1  163  108 I27
stroke1  164  109 I27
stroke1  165  109 I27
stroke1  166  109 I27
stroke1  167  109 I27
stroke1  167  108 I27
stroke1  168  108 I27
stroke1  169  108 I27
stroke1  169  107 I27
stroke1  170  107 I27
stroke1  170  106 I27
stroke1  170  105 I27
stroke1  170  104 I27
stroke1  170  103 I27
stroke1  170  102 I27
stroke1  169  101 I27
stroke1  169  100 I27
stroke1  169  98 I27
stroke1  169  97 I27
stroke1  169  96 I27
stroke1  169  95 I27
stroke1  169  93 I27
stroke1  168  92 I27
stroke1  168  90 I27
stroke1  168  89 I27
stroke1  168  87 I27
stroke1  168  85 I27
stroke1  167  83 I27
stroke1  167  82 I27
stroke1  167  80 I27
stroke1  167  79 I27
stroke1  166  77 I27
stroke1  166  76 I27
stroke1  166  74 I27
stroke1  165  73 I27
stroke1  165  72 I27
stroke1  165  70 I27
stroke1  165  69 I27
stroke1  164  68 I27
stroke1  164  66 I27
stroke1  164  65 I27
stroke1  164  63 I27
stroke1  163  62 I27
stroke1  163  61 I27
stroke1  163  59 I27
stroke1  163  58 I27
stroke1  163  57 I27
stroke1  163  56 I27
stroke1  162  54 I27
stroke1  162  53 I27
stroke1  162  52 I27
stroke1  162  51 I27
stroke1  162  50 I27
stroke1  162  49 I27
stroke1  162  48 I27
stroke1  162  47 I27
stroke1  162  46 I27
stroke1  162  45 I27
stroke1  162  44 I27
stroke1  162  43 I27
stroke1  162  42 I27
stroke1  162  41 I27
stroke1  162  42 I27
stroke1  163  42 I27
stroke1  164  42 I27
stroke1  165  42 I27
stroke1  166  43 I27
stroke1  167  43 I27
stroke1  168  43 I27
stroke1  169  44 I27
stroke1  170  44 I27
stroke1  171  44 I27
stroke1  172  45 I27
stroke1  173  45 I27
stroke1  175  45 I27
stroke1  176  45 I27
stroke1  177  45 I27
stroke1  178  45 I27
stroke1  179  45 I27
stroke1  181  45 I27
stroke1  182  45 I27
stroke1  183  45 I27
stroke1  184  45 I27
stroke1  185  45 I27
stroke1  186  45 I27
stroke1  187  45 I27
stroke1  188  45 I27
stroke1  189  45 I27
stroke1  190  45 I27
stroke1  191  45 I27
stroke1  192  45 I27
stroke1  192  46 I27
stroke1  193  46 I27
stroke1  193  47 I27
stroke1  193  48 I27
stroke1  193  49 I27
stroke1  193  50 I27
stroke1  193  52 I27
stroke1  193  54 I27
stroke1  193  56 I27
stroke1  193  59 I27
stroke1  193  61 I27
stroke1  193  64 I27
stroke1  193  66 I27
stroke1  193  69 I27
stroke1  193  72 I27
stroke1  193  74 I27
stroke1  193  77 I27
stroke1  193  80 I27
stroke1  193  83 I27
stroke1  193  85 I27
stroke1  193  88 I27
stroke1  193  90 I27
stroke1  193  92 I27
stroke1  193  95 I27
stroke1  193  97 I27
stroke1  193  99 I27
stroke1  193  101 I27
stroke1  193  103 I27
stroke1  193  105 I27
stroke1  194  107 I27
stroke1  194  108 I27
stroke1  194  110 I27
stroke1  193  112 I27
stroke1  194  113 I27
stroke1  193  115 I27
stroke1  194  117 I27
stroke1  193  118 I27
stroke1  194  120 I27
stroke1  193  121 I27
stroke1  193  122 I27
stroke1  193  124 I27
stroke1  193  125 I27
stroke1  194  126 I27
stroke1  194  127 I27
stroke1  194  128 I27
stroke1  194  129 I27
stroke1  194  130 I27
stroke1  194  131 I27
stroke1  194  132 I27
stroke1  194  133 I27
stroke1  194  134 I27
stroke1  194  135 I27
stroke1  194  136 I27
stroke1  194  137 I27
stroke1  194  138 I27
stroke1  194  139 I27
stroke1  193  139 I27
stroke2  171  121 B45
stroke2  172  121 I45
stroke2  173  121 I45
stroke2  173  122 I45
stroke2  174  122 I45
stroke2  175  122 I45
stroke2  176  123 I45
stroke2  177  124 I45
stroke2  178  125 I45
stroke2  179  126 I45
stroke2  179  127 I45
stroke2  179  128 I45
stroke2  179  129 I45
stroke2  178  130 I45
stroke2  177  130 I45
stroke2  177  131 I45
stroke2  176  131 I45
stroke2  175  131 I45
stroke2  174  131 I45
stroke2  173  130 I45
stroke2  172  130 I45
stroke2  172  129 I45
stroke2  171  129 I45
stroke2  171  128 I45
stroke2  170  127 I45
stroke2  169  126 I45
stroke2  169  125 I45
stroke2  169  124 I45
stroke2  169  123 I45
stroke2  169  122 I45
stroke2  169  121 I45
stroke2  169  120 I45
stroke2  170  119 I45
stroke2  171  118 I45
stroke2  172  118 I45
stroke2  173  117 I45
stroke2  174  117 I45
stroke2  175  116 I45
stroke2  176  116 I45
stroke2  178  116 I45
stroke2  179  116 I45
stroke2  180  116 I45
stroke2  182  117 I45
stroke2  184  117 I45
stroke2  185  118 I45
stroke2  187  118 I45
stroke2  188  119 I45
stroke2  190  119 I45
stroke2  191  120 I45
stroke2  192  121 I45
stroke2  194  122 I45
stroke2  195  123 I45
stroke2  196  124 I45
stroke2  197  124 I45
stroke2  198  125 I45
stroke2  199  126 I45
stroke2  200  127 I45
stroke2  201  128 I45
stroke2  202  130 I45
stroke2  202  131 I45
stroke2  203  131 I45
stroke2  204  132 I45
stroke2  204  133 I45
stroke2  205  134 I45
stroke2  205  135 I45
stroke2  206  135 I45
stroke2  205  135 I45
stroke2  205  134 I45
stroke3  232  85 B8
stroke3  233  84 I8
stroke3  232  84 I8
stroke3  232  83 I8
stroke3  231  82 I8
stroke3  231  81 I8
stroke3  231  80 I8
stroke3  230  79 I8
stroke3  230  78 I8
stroke3  229  77 I8
stroke3  229  76 I8
stroke3  228  76 I8
stroke3  228  75 I8
stroke3  227  74 I8
stroke3  226  74 I8
stroke3  226  73 I8
stroke3  225  73 I8
stroke3  224  73 I8
stroke3  223  72 I8
stroke3  222  72 I8
stroke3  221  72 I8
stroke3  220  72 I8
stroke3  219  72 I8
stroke3  218  72 I8
stroke3  218  73 I8
stroke3  217  73 I8
stroke3  216  74 I8
stroke3  215  75 I8
stroke3  215  76 I8
stroke3  215  77 I8
stroke3  215  78 I8
stroke3  215  79 I8
stroke3  215  80 I8
stroke3  215  81 I8
stroke3  215  82 I8
stroke3  215  83 I8
stroke3  216  85 I8
stroke3  216  86 I8
stroke3  217  87 I8
stroke3  218  88 I8
stroke3  218  89 I8
stroke3  219  90 I8
stroke3  220  90 I8
stroke3  221  91 I8
stroke3  222  92 I8
stroke3  223  93 I8
stroke3  224  93 I8
stroke3  225  93 I8
stroke3  226  94 I8
stroke3  227  93 I8
stroke3  228  93 I8
stroke3  229  92 I8
stroke3  229  91 I8
stroke3  229  90 I8
stroke3  230  90 I8
stroke3  230  89 I8
stroke3  230  88 I8
stroke3  230  87 I8
stroke3  230  86 I8
stroke3  231  85 I8
stroke3  231  84 I8
stroke3  231  83 I8
stroke3  231  82 I8
stroke3  231  81 I8
stroke3  231  79 I8
stroke3  232  78 I8
stroke3  232  77 I8
stroke3  232  76 I8
stroke3  232  75 I8
stroke3  233  73 I8
stroke3  233  72 I8
stroke3  233  70 I8
stroke3  233  69 I8
stroke3  234  68 I8
stroke3  234  66 I8
stroke3  234  65 I8
stroke3  234  64 I8
stroke3  235  62 I8
stroke3  235  61 I8
stroke3  235  59 I8
stroke3  236  58 I8
stroke3  236  57 I8
stroke3  236  56 I8
stroke3  236  55 I8
stroke3  237  54 I8
stroke3  237  53 I8
stroke3  237  52 I8
stroke3  237  51 I8
stroke3  237  50 I8
stroke3  237  49 I8
stroke3  238  48 I8
stroke3  238  47 I8
stroke3  238  46 I8
stroke3  238  45 I8
stroke3  238  44 I8
stroke3  238  43 I8
stroke3  239  43 I8
stroke3  239  42 I8
stroke3  239  41 I8
stroke3  240  41 I8
stroke3  240  42 I8
stroke3  241  42 I8
stroke3  241  43 I8
stroke3  241  44 I8
stroke3  241  45 I8
stroke3  242  47 I8
stroke3  242  48 I8
stroke3  242  49 I8
stroke3  242  51 I8
stroke3  243  53 I8
stroke3  243  54 I8
stroke3  243  56 I8
stroke3  243  58 I8
stroke3  243  59 I8
stroke3  244  61 I8
stroke3  244  63 I8
stroke3  244  65 I8
stroke3  244  67 I8
stroke3  245  69 I8
stroke3  245  71 I8
stroke3  245  72 I8
stroke3  245  74 I8
stroke3  246  76 I8
stroke3  246  77 I8
stroke3  246  79 I8
stroke3  246  80 I8
stroke3  246  82 I8
stroke3  246  83 I8
stroke3  246  85 I8
stroke3  246  86 I8
stroke3  246  88 I8
stroke3  246  89 I8
stroke3  246  90 I8
stroke3  245  92 I8
stroke3  245  93 I8
stroke3  245  94 I8
stroke3  245  95 I8
stroke3  245  96 I8
stroke3  245  97 I8
stroke3  244  98 I8
stroke3  244  99 I8
stroke3  244  100 I8
stroke3  243  101 I8
stroke3  242  102 I8
stroke3  242  103 I8
stroke3  241  103 I8
stroke3  241  104 I8
stroke3  240  104 I8
stroke3  239  105 I8
stroke3  238  105 I8
stroke3  237  105 I8
stroke3  236  105 I8
stroke3  235  105 I8
stroke3  234  105 I8
stroke3  233  105 I8
stroke3  232  105 I8
stroke3  230  105 I8
stroke3  229  105 I8
stroke3  228  105 I8
stroke3  227  104 I8
stroke3  226  104 I8
stroke3  224  104 I8
stroke3  223  104 I8
stroke3  222  103 I8
stroke3  221  103 I8
stroke3  220  102 I8
stroke3  218  102 I8
stroke3  217  101 I8
stroke3  216  101 I8
stroke3  215  100 I8
stroke3  214  99 I8
stroke3  213  98 I8
stroke3  212  98 I8
stroke3  211  97 I8
stroke3  211  96 I8
stroke3  210  96 I8
stroke3  209  95 I8
stroke3  208  94 I8
stroke3  208  93 I8
stroke3  207  93 I8
stroke3  208  93 I8
stroke3  208  94 I8
stroke3  209  94 I8
stroke4  279  77 B8
stroke4  280  77 I8
stroke4  279  77 I8
stroke4  279  76 I8
stroke4  278  76 I8
stroke4  278  75 I8
stroke4  278  74 I8
stroke4  277  74 I8
stroke4  276  73 I8
stroke4  275  72 I8
stroke4  274  72 I8
stroke4  273  71 I8
stroke4  272  71 I8
stroke4  271  71 I8
stroke4  270  71 I8
stroke4  269  71 I8
stroke4  268  72 I8
stroke4  267  72 I8
stroke4  266  72 I8
stroke4  266  73 I8
stroke4  265  74 I8
stroke4  264  75 I8
stroke4  264  76 I8
stroke4  264  77 I8
stroke4  264  78 I8
stroke4  264  79 I8
stroke4  264  80 I8
stroke4  264  81 I8
stroke4  264  82 I8
stroke4  265  82 I8
stroke4  265  83 I8
stroke4  265  84 I8
stroke4  266  85 I8
stroke4  267  86 I8
stroke4  268  86 I8
stroke4  269  87 I8
stroke4  270  87 I8
stroke4  271  88 I8
stroke4  272  88 I8
stroke4  273  88 I8
stroke4  274  87 I8
stroke4  275  87 I8
stroke4  276  86 I8
stroke4  277  86 I8
stroke4  277  85 I8
stroke4  278  85 I8
stroke4  278  84 I8
stroke4  278  83 I8
stroke4  279  82 I8
stroke4  279  81 I8
stroke4  279  80 I8
stroke4  280  80 I8
stroke4  280  79 I8
stroke4  280  77 I8
stroke4  281  76 I8
stroke4  281  75 I8
stroke4  281  74 I8
stroke4  282  73 I8
stroke4  282  72 I8
stroke4  283  71 I8
stroke4  283  69 I8
stroke4  283  68 I8
stroke4  284  67 I8
stroke4  284  65 I8
stroke4  285  64 I8
stroke4  285  63 I8
stroke4  286  61 I8
stroke4  286  60 I8
stroke4  286  59 I8
stroke4  287  57 I8
stroke4  287  56 I8
stroke4  287  55 I8
stroke4  288  54 I8
stroke4  288  53 I8
stroke4  288  52 I8
stroke4  289  51 I8
stroke4  289  50 I8
stroke4  289  49 I8
stroke4  290  48 I8
stroke4  290  47 I8
stroke4  290  46 I8
stroke4  291  45 I8
stroke4  291  44 I8
stroke4  291  45 I8
stroke4  291  46 I8
stroke4  291  47 I8
stroke4  292  48 I8
stroke4  291  49 I8
stroke4  292  51 I8
stroke4  292  53 I8
stroke4  292  54 I8
stroke4  292  56 I8
stroke4  292  58 I8
stroke4  292  60 I8
stroke4  292  62 I8
stroke4  293  64 I8
stroke4  293  65 I8
stroke4  293  67 I8
stroke4  293  69 I8
stroke4  293  71 I8
stroke4  293  72 I8
stroke4  293  74 I8
stroke4  293  76 I8
stroke4  293  78 I8
stroke4  292  79 I8
stroke4  293  81 I8
stroke4  292  83 I8
stroke4  292  85 I8
stroke4  292  86 I8
stroke4  292  88 I8
stroke4  292  90 I8
stroke4  292  91 I8
stroke4  291  92 I8
stroke4  291  93 I8
stroke4  291  94 I8
stroke4  291  95 I8
stroke4  290  96 I8
stroke4  290  97 I8
stroke4  290  98 I8
stroke4  290  99 I8
stroke4  289  100 I8
stroke4  288  101 I8
stroke4  288  102 I8
stroke4  287  103 I8
stroke4  286  103 I8
stroke4  286  104 I8
stroke4  285  104 I8
stroke4  284  105 I8
stroke4  283  105 I8
stroke4  282  105 I8
stroke4  281  106 I8
stroke4  280  106 I8
stroke4  279  106 I8
stroke4  278  106 I8
stroke4  277  106 I8
stroke4  276  106 I8
stroke4  275  106 I8
stroke4  274  106 I8
stroke4  273  106 I8
stroke4  272  105 I8
stroke4  271  105 I8
stroke4  270  105 I8
stroke4  268  104 I8
stroke4  267  104 I8
stroke4  266  103 I8
stroke4  265  102 I8
stroke4  264  102 I8
stroke4  263  101 I8
stroke4  262  100 I8
stroke4  261  99 I8
stroke4  260  98 I8
stroke4  259  97 I8
stroke4  260  97 I8
stroke4  261  97 I8
stroke4  262  98 I8
stroke5  295  29 B52
stroke5  296  29 I52
stroke5  295  28 I52
stroke5  295  27 I52
stroke5  295  26 I52
stroke5  294  26 I52
stroke5  294  25 I52
stroke5  293  24 I52
stroke5  293  23 I52
stroke5  292  23 I52
stroke5  291  23 I52
stroke5  290  22 I52
stroke5  289  22 I52
stroke5  288  22 I52
stroke5  287  22 I52
stroke5  286  22 I52
stroke5  286  23 I52
stroke5  285  23 I52
stroke5  284  23 I52
stroke5  284  24 I52
stroke5  283  24 I52
stroke5  283  25 I52
stroke5  283  26 I52
stroke5  283  27 I52
stroke5  284  28 I52
stroke5  284  29 I52
stroke5  285  30 I52
stroke5  285  31 I52
stroke5  286  31 I52
stroke5  287  31 I52
stroke5  288  32 I52
stroke5  289  32 I52
stroke5  289  31 I52
stroke5  290  31 I52
stroke5  291  31 I52
stroke5  292  31 I52
stroke5  293  30 I52
stroke5  294  30 I52
stroke5  295  30 I52
stroke5  295  29 I52
stroke5  296  29 I52
stroke5  296  28 I52
stroke5  297  28 I52
stroke5  297  27 I52
stroke5  298  26 I52
stroke5  298  25 I52
stroke5  298  24 I52
stroke5  298  23 I52
stroke5  298  22 I52
stroke5  298  21 I52
stroke5  298  20 I52
stroke5  298  19 I52
stroke5  298  18 I52
stroke5  298  16 I52
stroke5  298  15 I52
stroke5  298  14 I52
stroke5  298  13 I52
stroke5  298  12 I52
stroke5  298  10 I52
stroke5  298  9 I52
stroke5  298  8 I52
stroke5  297  7 I52
stroke5  297  6 I52
stroke5  297  5 I52
stroke5  297  4 I52
stroke5  297  3 I52
stroke5  297  2 I52
stroke5  297  1 I52
stroke5  297  0 I52
stroke5  297  1 I52
stroke5  298  2 I52
stroke5  298  3 I52
stroke5  298  4 I52
stroke5  297  4 I52
stroke6  317  107 B26
stroke6  318  107 I26
stroke6  318  106 I26
stroke6  318  105 I26
stroke6  318  104 I26
stroke6  318  103 I26
stroke6  318  102 I26
stroke6  318  101 I26
stroke6  318  100 I26
stroke6  318  99 I26
stroke6  318  98 I26
stroke6  318  97 I26
stroke6  318  96 I26
stroke6  317  95 I26
stroke6  317  94 I26
stroke6  317  93 I26
stroke6  316  92 I26
stroke6  316  91 I26
stroke6  315  90 I26
stroke6  314  90 I26
stroke6  314  89 I26
stroke6  313  89 I26
stroke6  312  89 I26
stroke6  312  90 I26
stroke6  311  90 I26
stroke6  310  91 I26
stroke6  309  91 I26
stroke6  309  92 I26
stroke6  308  92 I26
stroke6  308  93 I26
stroke6  308  94 I26
stroke6  307  95 I26
stroke6  307  96 I26
stroke6  307  97 I26
stroke6  307  98 I26
stroke6  307  99 I26
stroke6  307  100 I26
stroke6  307  101 I26
stroke6  308  101 I26
stroke6  308  102 I26
stroke6  308  103 I26
stroke6  309  104 I26
stroke6  309  105 I26
stroke6  310  106 I26
stroke6  311  107 I26
stroke6  311  108 I26
stroke6  312  108 I26
stroke6  312  109 I26
stroke6  313  109 I26
stroke6  314  109 I26
stroke6  314  110 I26
stroke6  315  110 I26
stroke6  316  110 I26
stroke6  317  110 I26
stroke6  318  110 I26
stroke6  318  109 I26
stroke6  319  109 I26
stroke6  320  109 I26
stroke6  320  108 I26
stroke6  320  107 I26
stroke6  321  106 I26
stroke6  321  105 I26
stroke6  321  104 I26
stroke6  321  103 I26
stroke6  321  102 I26
stroke6  321  101 I26
stroke6  321  100 I26
stroke6  321  99 I26
stroke6  321  98 I26
stroke6  321  97 I26
stroke6  321  96 I26
stroke6  321  95 I26
stroke6  321  94 I26
stroke6  321  92 I26
stroke6  320  91 I26
stroke6  320  90 I26
stroke6  320  89 I26
stroke6  320  87 I26
stroke6  320  86 I26
stroke6  320  85 I26
stroke6  320  84 I26
stroke6  320  82 I26
stroke6  320  81 I26
stroke6  320  80 I26
stroke6  320  79 I26
stroke6  320  78 I26
stroke6  319  77 I26
stroke6  319  76 I26
stroke6  319  75 I26
stroke6  319  74 I26
stroke6  319  72 I26
stroke6  319  71 I26
stroke6  319  70 I26
stroke6  319  69 I26
stroke6  319  68 I26
stroke6  319  67 I26
stroke6  319  66 I26
stroke6  319  65 I26
stroke6  319  64 I26
stroke6  319  63 I26
stroke6  319  62 I26
stroke6  318  61 I26
stroke6  318  60 I26
stroke6  318  59 I26
stroke6  318  58 I26
stroke6  318  57 I26
stroke6  318  56 I26
stroke6  318  55 I26
stroke6  318  54 I26
stroke6  318  53 I26
stroke6  318  52 I26
stroke6  317  52 I26
stroke6  318  51 I26
stroke6  318  50 I26
stroke6  318  49 I26
stroke6  317  48 I26
stroke6  317  47 I26
stroke6  317  46 I26
stroke6  318  46 I26
stroke6  318  45 I26
stroke6  318  44 I26
stroke6  318  43 I26
stroke6  318  42 I26
stroke6  319  42 I26
stroke6  319  41 I26
stroke6  320  41 I26
stroke6  321  41 I26
stroke6  321  42 I26
stroke6  322  42 I26
stroke6  323  42 I26
stroke6  324  42 I26
stroke6  325  42 I26
stroke6  326  43 I26
stroke6  327  43 I26
stroke6  328  43 I26
stroke6  329  43 I26
stroke6  330  43 I26
stroke6  331  43 I26
stroke6  332  43 I26
stroke6  333  43 I26
stroke6  334  43 I26
stroke6  335  44 I26
stroke6  336  44 I26
stroke6  337  44 I26
stroke6  338  44 I26
stroke6  339  44 I26
stroke6  340  44 I26
stroke6  341  44 I26
stroke6  342  44 I26
stroke6  343  44 I26
stroke6  344  44 I26
stroke6  344  45 I26
stroke6  345  44 I26
stroke6  345  45 I26
stroke6  346  45 I26
stroke6  346  46 I26
stroke6  346  47 I26
stroke6  346  48 I26
stroke6  346  49 I26
stroke6  346  50 I26
stroke6  346  52 I26
stroke6  346  53 I26
stroke6  346  55 I26
stroke6  346  57 I26
stroke6  346  59 I26
stroke6  345  62 I26
stroke6  345  64 I26
stroke6  345  66 I26
stroke6  345  68 I26
stroke6  345  70 I26
stroke6  345  72 I26
stroke6  344  74 I26
stroke6  344  76 I26
stroke6  344  77 I26
stroke6  344  79 I26
stroke6  344  81 I26
stroke6  344  82 I26
stroke6  343  84 I26
stroke6  343  86 I26
stroke6  343  87 I26
stroke6  343  89 I26
stroke6  343  91 I26
stroke6  342  93 I26
stroke6  342  95 I26
stroke6  342  96 I26
stroke6  342  98 I26
stroke6  342  99 I26
stroke6  342  101 I26
stroke6  341  102 I26
stroke6  341  103 I26
stroke6  341  104 I26
stroke6  341  105 I26
stroke6  341  106 I26
stroke6  341  107 I26
stroke6  341  108 I26
stroke6  340  108 I26
stroke6  340  109 I26
stroke6  340  110 I26
stroke6  340  111 I26
stroke6  339  111 I26
stroke6  339  110 I26
stroke7  338  122 B45
stroke7  337  123 I45
stroke7  336  123 I45
stroke7  336  124 I45
stroke7  335  123 I45
stroke7  336  124 I45
stroke7  336  125 I45
stroke7  337  125 I45
stroke7  337  126 I45
stroke7  337  127 I45
stroke7  338  128 I45
stroke7  338  129 I45
stroke7  338  130 I45
stroke7  337  131 I45
stroke7  337  132 I45
stroke7  337  133 I45
stroke7  336  133 I45
stroke7  336  134 I45
stroke7  335  134 I45
stroke7  334  134 I45
stroke7  333  134 I45
stroke7  332  133 I45
stroke7  331  133 I45
stroke7  331  132 I45
stroke7  330  132 I45
stroke7  330  131 I45
stroke7  329  130 I45
stroke7  329  129 I45
stroke7  328  128 I45
stroke7  328  127 I45
stroke7  328  126 I45
stroke7  328  125 I45
stroke7  329  125 I45
stroke7  329  124 I45
stroke7  329  123 I45
stroke7  330  123 I45
stroke7  330  122 I45
stroke7  331  122 I45
stroke7  332  121 I45
stroke7  333  121 I45
stroke7  334  121 I45
stroke7  335  121 I45
stroke7  336  121 I45
stroke7  337  121 I45
stroke7  338  121 I45
stroke7  340  122 I45
stroke7  341  122 I45
stroke7  342  123 I45
stroke7  343  124 I45
stroke7  344  124 I45
stroke7  345  125 I45
stroke7  346  126 I45
stroke7  347  127 I45
stroke7  349  128 I45
stroke7  349  129 I45
stroke7  350  130 I45
stroke7  351  131 I45
stroke7  352  132 I45
stroke7  353  133 I45
stroke7  354  134 I45
stroke7  354  135 I45
stroke7  355  136 I45
stroke7  356  137 I45
stroke7  357  138 I45
stroke7  357  140 I45
stroke7  358  141 I45
stroke7  358  142 I45
stroke7  359  143 I45
stroke7  359  144 I45
stroke7  359  145 I45
stroke7  360  145 I45
stroke7  359  145 I45
stroke7  359  144 I45
stroke7  358  144 I45
stroke7  358  143 I45
stroke7  358  142 I45
stroke8  369  95 B25
stroke8  369  94 I25
stroke8  368  93 I25
stroke8  368  92 I25
stroke8  367  91 I25
stroke8  366  90 I25
stroke8  365  89 I25
stroke8  364  88 I25
stroke8  363  87 I25
stroke8  362  87 I25
stroke8  361  87 I25
stroke8  360  87 I25
stroke8  359  87 I25
stroke8  358  87 I25
stroke8  357  87 I25
stroke8  356  88 I25
stroke8  355  88 I25
stroke8  354  89 I25
stroke8  354  90 I25
stroke8  353  91 I25
stroke8  353  92 I25
stroke8  352  93 I25
stroke8  352  94 I25
stroke8  352  95 I25
stroke8  352  96 I25
stroke8  352  97 I25
stroke8  352  98 I25
stroke8  352  99 I25
stroke8  352  100 I25
stroke8  353  100 I25
stroke8  353  101 I25
stroke8  354  102 I25
stroke8  355  103 I25
stroke8  356  104 I25
stroke8  357  104 I25
stroke8  358  105 I25
stroke8  359  106 I25
stroke8  360  106 I25
stroke8  361  107 I25
stroke8  362  107 I25
stroke8  363  107 I25
stroke8  364  107 I25
stroke8  365  107 I25
stroke8  366  107 I25
stroke8  366  106 I25
stroke8  367  106 I25
stroke8  368  105 I25
stroke8  369  104 I25
stroke8  369  103 I25
stroke8  369  102 I25
stroke8  370  102 I25
stroke8  370  101 I25
stroke8  370  100 I25
stroke8  369  100 I25
stroke8  369  99 I25
stroke8  369  98 I25
stroke8  369  97 I25
stroke8  369  96 I25
stroke8  369  95 I25
stroke8  369  93 I25
stroke8  369  92 I25
stroke8  369  91 I25
stroke8  369  89 I25
stroke8  369  88 I25
stroke8  369  87 I25
stroke8  369  85 I25
stroke8  369  84 I25
stroke8  369  82 I25
stroke8  369  81 I25
stroke8  369  80 I25
stroke8  369  79 I25
stroke8  369  77 I25
stroke8  369  76 I25
stroke8  368  75 I25
stroke8  368  74 I25
stroke8  368  72 I25
stroke8  368  71 I25
stroke8  368  70 I25
stroke8  368  69 I25
stroke8  368  68 I25
stroke8  369  66 I25
stroke8  369  65 I25
stroke8  369  64 I25
stroke8  369  63 I25
stroke8  369  61 I25
stroke8  369  60 I25
stroke8  369  59 I25
stroke8  369  58 I25
stroke8  369  57 I25
stroke8  369  56 I25
stroke8  369  55 I25
stroke8  369  54 I25
stroke8  369  53 I25
stroke8  369  52 I25
stroke8  369  51 I25
stroke8  369  50 I25
stroke8  369  49 I25
stroke8  369  48 I25
stroke8  369  47 I25
stroke8  369  46 I25
stroke8  370  47 I25
stroke8  371  47 I25
stroke8  371  48 I25
stroke8  372  49 I25
stroke8  373  50 I25
stroke8  374  51 I25
stroke8  375  52 I25
stroke8  376  53 I25
stroke8  377  54 I25
stroke8  378  55 I25
stroke8  379  57 I25
stroke8  380  58 I25
stroke8  382  59 I25
stroke8  383  60 I25
stroke8  384  61 I25
stroke8  385  62 I25
stroke8  386  63 I25
stroke8  387  63 I25
stroke8  389  64 I25
stroke8  390  64 I25
stroke8  391  65 I25
stroke8  392  65 I25
stroke8  393  65 I25
stroke8  394  66 I25
stroke8  395  66 I25
stroke8  396  66 I25
stroke8  397  66 I25
stroke8  398  66 I25
stroke8  399  66 I25
stroke8  400  65 I25
stroke8  401  65 I25
stroke8  401  64 I25
stroke8  402  64 I25
stroke8  403  63 I25
stroke8  403  62 I25
stroke8  404  62 I25
stroke8  404  61 I25
stroke8  404  60 I25
stroke8  405  60 I25
stroke8  405  59 I25
stroke8  405  58 I25
stroke8  405  57 I25
stroke8  405  56 I25
stroke8  405  55 I25
stroke8  405  54 I25
stroke8  405  53 I25
stroke8  404  52 I25
stroke8  404  51 I25
stroke8  404  50 I25
stroke8  403  50 I25
stroke8  403  49 I25
stroke8  402  48 I25
stroke8  401  47 I25
stroke8  400  46 I25
stroke8  399  45 I25
stroke8  398  45 I25
stroke8  398  44 I25
stroke8  397  44 I25
stroke8  397  43 I25
stroke8  396  43 I25
stroke8  395  43 I25
stroke8  394  42 I25
stroke8  393  43 I25
stroke8  393  44 I25
stroke8  392  44 I25
stroke8  392  45 I25
stroke8  392  46 I25
stroke8  392  47 I25
stroke8  392  48 I25
stroke8  392  50 I25
stroke8  392  51 I25
stroke8  392  52 I25
stroke8  393  54 I25
stroke8  393  55 I25
stroke8  393  57 I25
stroke8  393  59 I25
stroke8  393  60 I25
stroke8  393  62 I25
stroke8  393  64 I25
stroke8  393  65 I25
stroke8  393  67 I25
stroke8  393  68 I25
stroke8  393  70 I25
stroke8  393  71 I25
stroke8  394  73 I25
stroke8  394  74 I25
stroke8  394  76 I25
stroke8  394  77 I25
stroke8  394  79 I25
stroke8  394  80 I25
stroke8  394  82 I25
stroke8  394  84 I25
stroke8  394  85 I25
stroke8  394  86 I25
stroke8  393  88 I25
stroke8  393  90 I25
stroke8  393  91 I25
stroke8  393  92 I25
stroke8  393  93 I25
stroke8  393  95 I25
stroke8  393  96 I25
stroke8  393  97 I25
stroke8  393  98 I25
stroke8  393  99 I25
stroke8  392  100 I25
stroke8  392  101 I25
stroke8  392  102 I25
stroke8  392  103 I25
stroke8  392  104 I25
stroke8  392  105 I25
stroke8  392  106 I25
stroke8  391  105 I25
stroke8  390  104 I25
