stroke1  106  105 B31
stroke1  106  106 I31
stroke1  107  106 I31
stroke1  107  105 I31
stroke1  107  104 I31
stroke1  107  103 I31
stroke1  107  102 I31
stroke1  108  101 I31
stroke1  107  100 I31
stroke1  107  99 I31
stroke1  107  97 I31
stroke1  107  96 I31
stroke1  107  95 I31
stroke1  107  94 I31
stroke1  107  93 I31
stroke1  106  92 I31
stroke1  106  91 I31
stroke1  105  90 I31
stroke1  105  89 I31
stroke1  105  89 I31
stroke1  104  89 I31
stroke1  104  88 I31
stroke1  103  88 I31
stroke1  102  88 I31
stroke1  101  89 I31
stroke1  100  89 I31
stroke1  99  90 I31
stroke1  99  91 I31
stroke1  98  91 I31
stroke1  98  92 I31
stroke1  98  93 I31
stroke1  97  94 I31
stroke1  97  95 I31
stroke1  97  96 I31
stroke1  96  97 I31
stroke1  97  98 I31
stroke1  97  99 I31
stroke1  97  100 I31
stroke1  97  101 I31
stroke1  97  102 I31
stroke1  98  103 I31
stroke1  99  104 I31
stroke1  100  105 I31
stroke1  101  105 I31
stroke1  102  105 I31
stroke1  102  106 I31
stroke1  103  106 I31
stroke1  104  106 I31
stroke1  105  106 I31
stroke1  106  105 I31
stroke1  107  104 I31
stroke1  107  103 I31
stroke1  107  102 I31
stroke1  107  101 I31
stroke1  108  100 I31
stroke1  108  99 I31
stroke1  108  97 I31
stroke1  108  95 I31
stroke1  108  93 I31
stroke1  108  91 I31
stroke1  108  89 I31
stroke1  108  86 I31
stroke1  109  83 I31
stroke1  109  80 I31
stroke1  109  77 I31
stroke1  109  75 I31
stroke1  109  72 I31
stroke1  109  70 I31
stroke1  109  67 I31
stroke1  110  65 I31
stroke1  110  63 I31
stroke1  110  61 I31
stroke1  110  59 I31
stroke1  110  57 I31
stroke1  110  55 I31
stroke1  110  54 I31
stroke1  110  52 I31
stroke1  111  50 I31
stroke1  111  49 I31
stroke1  111  48 I31
stroke1  111  47 I31
stroke1  111  46 I31
stroke1  111  45 I31
stroke1  111  44 I31
stroke1  111  43 I31
stroke1  112  43 I31
stroke1  111  42 I31
stroke1  112  42 I31
stroke1  111  42 I31
stroke1  111  43 I31
stroke1  111  44 I31
stroke1  111  45 I31
stroke1  111  47 I31
stroke1  112  49 I31
stroke1  112  51 I31
stroke1  112  53 I31
stroke1  112  56 I31
stroke1  113  59 I31
stroke1  113  61 I31
stroke1  114  64 I31
stroke1  114  66 I31
stroke1  115  68 I31
stroke1  115  70 I31
stroke1  116  72 I31
stroke1  116  73 I31
stroke1  117  75 I31
stroke1  117  76 I31
stroke1  117  77 I31
stroke1  118  78 I31
stroke1  118  79 I31
stroke1  119  79 I31
stroke1  119  80 I31
stroke1  120  80 I31
stroke1  120  79 I31
stroke1  121  79 I31
stroke1  122  78 I31
stroke1  122  77 I31
stroke1  123  76 I31
stroke1  124  74 I31
stroke1  125  73 I31
stroke1  126  71 I31
stroke1  127  70 I31
stroke1  129  68 I31
stroke1  130  66 I31
stroke1  131  65 I31
stroke1  132  63 I31
stroke1  134  61 I31
stroke1  135  59 I31
stroke1  136  58 I31
stroke1  137  56 I31
stroke1  138  55 I31
stroke1  140  53 I31
stroke1  141  52 I31
stroke1  141  51 I31
stroke1  142  50 I31
stroke1  143  49 I31
stroke1  144  49 I31
stroke1  144  48 I31
stroke1  145  48 I31
stroke1  145  47 I31
stroke1  146  47 I31
stroke1  146  48 I31
stroke1  146  49 I31
stroke1  146  51 I31
stroke1  146  52 I31
stroke1  146  55 I31
stroke1  146  57 I31
stroke1  145  60 I31
stroke1  145  63 I31
stroke1  145  66 I31
stroke1  144  70 I31
stroke1  144  73 I31
stroke1  144  77 I31
stroke1  144  81 I31
stroke1  143  85 I31
stroke1  143  89 I31
stroke1  143  93 I31
stroke1  143  97 I31
stroke1  143  100 I31
stroke1  143  104 I31
stroke1  143  107 I31
stroke1  143  111 I31
stroke1  143  114 I31
stroke1  143  117 I31
stroke1  143  120 I31
stroke1  143  123 I31
stroke1  143  125 I31
stroke1  142  127 I31
stroke1  142  128 I31
stroke1  142  130 I31
stroke1  142  131 I31
stroke1  142  132 I31
stroke1  142  133 I31
stroke1  142  134 I31
stroke1  142  133 I31
stroke1  141  132 I31
stroke1  141  131 I31
stroke2  128  121 B51
stroke2  127  122 I51
stroke2  126  122 I51
stroke2  125  122 I51
stroke2  124  122 I51
stroke2  123  122 I51
stroke2  122  123 I51
stroke2  120  123 I51
stroke2  119  124 I51
stroke2  117  124 I51
stroke2  115  125 I51
stroke2  114  126 I51
stroke2  111  127 I51
stroke2  109  127 I51
stroke2  107  128 I51
stroke2  104  129 I51
stroke2  101  130 I51
stroke2  98  131 I51
stroke2  95  132 I51
stroke2  93  132 I51
stroke2  90  132 I51
stroke2  87  132 I51
stroke2  85  132 I51
stroke2  83  132 I51
stroke2  82  132 I51
stroke2  80  132 I51
stroke2  79  132 I51
stroke2  78  131 I51
stroke2  77  131 I51
stroke2  77  132 I51
stroke2  78  132 I51
stroke2  79  132 I51
stroke2  79  133 I51
stroke2  80  133 I51
stroke2  81  134 I51
stroke2  83  135 I51
stroke2  84  135 I51
stroke2  86  136 I51
stroke2  88  136 I51
stroke2  90  137 I51
stroke2  92  137 I51
stroke2  95  137 I51
stroke2  97  137 I51
stroke2  99  136 I51
stroke2  102  135 I51
stroke2  104  134 I51
stroke2  107  133 I51
stroke2  109  131 I51
stroke2  112  130 I51
stroke2  114  128 I51
stroke2  117  127 I51
stroke2  119  125 I51
stroke2  121  124 I51
stroke2  123  122 I51
stroke2  125  121 I51
stroke2  126  120 I51
stroke2  128  119 I51
stroke2  129  119 I51
stroke2  130  118 I51
stroke2  131  118 I51
stroke2  132  118 I51
stroke2  133  119 I51
stroke2  133  121 I51
stroke2  133  122 I51
stroke2  133  123 I51
stroke2  134  125 I51
stroke2  134  127 I51
stroke2  134  129 I51
stroke2  134  130 I51
stroke2  134  132 I51
stroke2  133  134 I51
stroke2  133  135 I51
stroke2  133  136 I51
stroke2  133  137 I51
stroke2  132  138 I51
stroke2  132  139 I51
stroke2  132  140 I51
stroke2  131  140 I51
stroke2  132  140 I51
stroke2  131  139 I51
stroke2  119  120 I51
stroke2  118  120 I51
stroke2  117  120 I51
stroke2  116  120 I51
stroke2  115  120 I51
stroke2  114  120 I51
stroke2  114  121 I51
stroke2  114  122 I51
stroke2  115  123 I51
stroke2  115  124 I51
stroke2  115  125 I51
stroke2  116  126 I51
stroke2  116  128 I51
stroke2  117  129 I51
stroke2  117  130 I51
stroke2  117  132 I51
stroke2  117  133 I51
stroke2  118  134 I51
stroke2  118  135 I51
stroke2  118  136 I51
stroke2  117  137 I51
stroke2  117  138 I51
stroke2  117  139 I51
stroke2  117  140 I51
stroke3  137  159 B66
stroke3  136  158 I66
stroke3  135  158 I66
stroke3  134  158 I66
stroke3  133  158 I66
stroke3  132  159 I66
stroke3  131  159 I66
stroke3  130  159 I66
stroke3  129  159 I66
stroke3  128  159 I66
stroke3  127  160 I66
stroke3  126  161 I66
stroke3  126  162 I66
stroke3  127  162 I66
stroke3  127  163 I66
stroke3  128  164 I66
stroke3  129  164 I66
stroke3  130  164 I66
stroke3  131  164 I66
stroke3  132  163 I66
stroke3  133  163 I66
stroke3  133  162 I66
stroke3  134  162 I66
stroke3  134  161 I66
stroke3  135  160 I66
stroke3  135  159 I66
stroke3  135  157 I66
stroke3  135  155 I66
stroke3  135  153 I66
stroke3  135  151 I66
stroke3  134  149 I66
stroke3  134  148 I66
stroke3  134  146 I66
stroke3  134  145 I66
stroke3  134  144 I66
stroke3  134  143 I66
stroke3  134  142 I66
stroke3  135  142 I66
stroke3  136  142 I66
stroke3  137  142 I66
stroke3  138  143 I66
stroke3  139  144 I66
stroke3  141  145 I66
stroke3  143  147 I66
stroke3  145  148 I66
stroke3  147  150 I66
stroke3  148  152 I66
stroke3  150  153 I66
stroke3  152  155 I66
stroke3  154  156 I66
stroke3  155  158 I66
stroke3  156  159 I66
stroke3  157  160 I66
stroke3  158  160 I66
stroke3  159  161 I66
stroke3  160  162 I66
stroke3  159  162 I66
stroke3  159  161 I66
stroke3  159  160 I66
stroke3  158  159 I66
stroke4  159  102 B25
stroke4  160  102 I25
stroke4  159  102 I25
stroke4  159  101 I25
stroke4  159  100 I25
stroke4  159  98 I25
stroke4  158  97 I25
stroke4  158  96 I25
stroke4  158  94 I25
stroke4  158  93 I25
stroke4  157  92 I25
stroke4  157  90 I25
stroke4  156  89 I25
stroke4  156  88 I25
stroke4  155  87 I25
stroke4  154  86 I25
stroke4  153  85 I25
stroke4  152  85 I25
stroke4  151  85 I25
stroke4  150  85 I25
stroke4  149  85 I25
stroke4  148  85 I25
stroke4  148  86 I25
stroke4  147  87 I25
stroke4  147  88 I25
stroke4  147  89 I25
stroke4  146  91 I25
stroke4  147  92 I25
stroke4  147  94 I25
stroke4  147  95 I25
stroke4  148  97 I25
stroke4  148  98 I25
stroke4  149  100 I25
stroke4  150  101 I25
stroke4  151  102 I25
stroke4  152  103 I25
stroke4  153  104 I25
stroke4  154  104 I25
stroke4  155  105 I25
stroke4  156  105 I25
stroke4  157  105 I25
stroke4  158  104 I25
stroke4  159  104 I25
stroke4  159  103 I25
stroke4  160  102 I25
stroke4  160  101 I25
stroke4  160  100 I25
stroke4  160  99 I25
stroke4  160  98 I25
stroke4  160  96 I25
stroke4  160  95 I25
stroke4  160  93 I25
stroke4  160  91 I25
stroke4  160  89 I25
stroke4  160  87 I25
stroke4  160  85 I25
stroke4  160  82 I25
stroke4  159  79 I25
stroke4  159  77 I25
stroke4  159  74 I25
stroke4  159  71 I25
stroke4  158  68 I25
stroke4  158  65 I25
stroke4  158  63 I25
stroke4  158  60 I25
stroke4  157  58 I25
stroke4  157  56 I25
stroke4  157  54 I25
stroke4  157  52 I25
stroke4  157  51 I25
stroke4  157  50 I25
stroke4  157  49 I25
stroke4  157  48 I25
stroke4  157  47 I25
stroke4  157  46 I25
stroke4  157  45 I25
stroke4  157  46 I25
stroke4  158  46 I25
stroke4  158  47 I25
stroke4  158  48 I25
stroke4  159  48 I25
stroke4  160  50 I25
stroke4  160  51 I25
stroke4  161  52 I25
stroke4  162  54 I25
stroke4  164  55 I25
stroke4  165  56 I25
stroke4  167  58 I25
stroke4  169  59 I25
stroke4  171  60 I25
stroke4  173  62 I25
stroke4  175  63 I25
stroke4  177  63 I25
stroke4  179  64 I25
stroke4  181  65 I25
stroke4  183  65 I25
stroke4  184  65 I25
stroke4  186  66 I25
stroke4  188  66 I25
stroke4  190  66 I25
stroke4  191  66 I25
stroke4  193  66 I25
stroke4  194  66 I25
stroke4  195  66 I25
stroke4  196  66 I25
stroke4  198  65 I25
stroke4  199  65 I25
stroke4  200  64 I25
stroke4  201  63 I25
stroke4  201  62 I25
stroke4  201  61 I25
stroke4  200  60 I25
stroke4  200  59 I25
stroke4  199  57 I25
stroke4  198  56 I25
stroke4  198  54 I25
stroke4  197  53 I25
stroke4  196  52 I25
stroke4  195  51 I25
stroke4  194  50 I25
stroke4  193  49 I25
stroke4  192  48 I25
stroke4  191  47 I25
stroke4  190  46 I25
stroke4  189  45 I25
stroke4  188  44 I25
stroke4  187  44 I25
stroke4  187  43 I25
stroke4  186  43 I25
stroke4  185  43 I25
stroke4  185  44 I25
stroke4  185  45 I25
stroke4  185  46 I25
stroke4  185  48 I25
stroke4  186  50 I25
stroke4  186  53 I25
stroke4  186  55 I25
stroke4  186  58 I25
stroke4  186  61 I25
stroke4  186  64 I25
stroke4  186  67 I25
stroke4  187  70 I25
stroke4  187  74 I25
stroke4  187  77 I25
stroke4  186  80 I25
stroke4  186  83 I25
stroke4  186  86 I25
stroke4  186  89 I25
stroke4  186  91 I25
stroke4  186  93 I25
stroke4  186  95 I25
stroke4  186  97 I25
stroke4  186  98 I25
stroke4  186  100 I25
stroke4  186  101 I25
stroke4  186  102 I25
stroke4  186  103 I25
stroke4  186  104 I25
stroke4  186  105 I25
stroke4  186  106 I25
stroke4  186  105 I25
stroke4  186  104 I25
stroke4  186  103 I25
stroke5  224  101 B31
stroke5  223  100 I31
stroke5  223  99 I31
stroke5  223  98 I31
stroke5  223  97 I31
stroke5  222  96 I31
stroke5  222  95 I31
stroke5  221  94 I31
stroke5  220  93 I31
stroke5  219  92 I31
stroke5  217  91 I31
stroke5  216  90 I31
stroke5  215  90 I31
stroke5  214  89 I31
stroke5  212  89 I31
stroke5  211  89 I31
stroke5  210  88 I31
stroke5  209  88 I31
stroke5  208  89 I31
stroke5  207  89 I31
stroke5  206  89 I31
stroke5  205  90 I31
stroke5  204  91 I31
stroke5  204  92 I31
stroke5  203  93 I31
stroke5  203  94 I31
stroke5  203  96 I31
stroke5  203  97 I31
stroke5  203  99 I31
stroke5  204  100 I31
stroke5  204  101 I31
stroke5  204  102 I31
stroke5  205  103 I31
stroke5  206  104 I31
stroke5  207  104 I31
stroke5  208  105 I31
stroke5  209  105 I31
stroke5  210  106 I31
stroke5  212  106 I31
stroke5  213  106 I31
stroke5  214  106 I31
stroke5  215  105 I31
stroke5  216  105 I31
stroke5  217  105 I31
stroke5  218  104 I31
stroke5  219  104 I31
stroke5  219  103 I31
stroke5  220  103 I31
stroke5  220  102 I31
stroke5  220  101 I31
stroke5  221  100 I31
stroke5  221  99 I31
stroke5  221  97 I31
stroke5  221  96 I31
stroke5  221  95 I31
stroke5  221  93 I31
stroke5  221  91 I31
stroke5  221  88 I31
stroke5  221  86 I31
stroke5  221  84 I31
stroke5  221  81 I31
stroke5  220  78 I31
stroke5  220  76 I31
stroke5  220  73 I31
stroke5  220  70 I31
stroke5  220  67 I31
stroke5  220  65 I31
stroke5  220  62 I31
stroke5  219  60 I31
stroke5  219  57 I31
stroke5  219  55 I31
stroke5  219  54 I31
stroke5  219  52 I31
stroke5  219  50 I31
stroke5  219  49 I31
stroke5  219  48 I31
stroke5  219  47 I31
stroke5  219  46 I31
stroke5  219  45 I31
stroke5  219  44 I31
stroke5  219  43 I31
stroke5  219  42 I31
stroke5  219  41 I31
stroke5  219  42 I31
stroke5  219  43 I31
stroke5  220  44 I31
stroke5  220  45 I31
stroke5  220  46 I31
stroke5  221  48 I31
stroke5  221  49 I31
stroke5  222  51 I31
stroke5  223  54 I31
stroke5  223  56 I31
stroke5  224  58 I31
stroke5  225  60 I31
stroke5  226  62 I31
stroke5  226  64 I31
stroke5  227  66 I31
stroke5  228  68 I31
stroke5  229  70 I31
stroke5  230  71 I31
stroke5  230  72 I31
stroke5  231  73 I31
stroke5  231  74 I31
stroke5  232  75 I31
stroke5  233  75 I31
stroke5  234  75 I31
stroke5  235  75 I31
stroke5  235  74 I31
stroke5  236  74 I31
stroke5  236  73 I31
stroke5  237  72 I31
stroke5  238  71 I31
stroke5  238  70 I31
stroke5  239  69 I31
stroke5  240  67 I31
stroke5  241  66 I31
stroke5  242  64 I31
stroke5  244  63 I31
stroke5  245  61 I31
stroke5  246  59 I31
stroke5  248  57 I31
stroke5  250  55 I31
stroke5  251  53 I31
stroke5  253  52 I31
stroke5  255  50 I31
stroke5  256  49 I31
stroke5  258  47 I31
stroke5  259  46 I31
stroke5  260  45 I31
stroke5  261  45 I31
stroke5  262  44 I31
stroke5  263  44 I31
stroke5  263  45 I31
stroke5  263  46 I31
stroke5  262  47 I31
stroke5  262  48 I31
stroke5  262  50 I31
stroke5  261  52 I31
stroke5  261  54 I31
stroke5  260  57 I31
stroke5  260  60 I31
stroke5  259  63 I31
stroke5  259  66 I31
stroke5  258  69 I31
stroke5  258  73 I31
stroke5  258  77 I31
stroke5  257  81 I31
stroke5  257  84 I31
stroke5  257  88 I31
stroke5  256  92 I31
stroke5  256  95 I31
stroke5  255  99 I31
stroke5  255  102 I31
stroke5  254  105 I31
stroke5  254  109 I31
stroke5  253  112 I31
stroke5  253  115 I31
stroke5  252  117 I31
stroke5  252  120 I31
stroke5  251  122 I31
stroke5  251  124 I31
stroke5  251  125 I31
stroke5  250  127 I31
stroke5  250  128 I31
stroke5  250  129 I31
stroke5  250  130 I31
stroke5  250  131 I31
stroke5  250  132 I31
stroke5  250  131 I31
stroke5  249  130 I31
stroke5  249  129 I31
stroke5  249  127 I31
stroke6  234  13 B53
stroke6  233  13 I53
stroke6  232  13 I53
stroke6  231  13 I53
stroke6  230  13 I53
stroke6  229  14 I53
stroke6  228  14 I53
stroke6  227  14 I53
stroke6  227  15 I53
stroke6  226  16 I53
stroke6  226  17 I53
stroke6  227  18 I53
stroke6  227  19 I53
stroke6  228  19 I53
stroke6  228  20 I53
stroke6  229  20 I53
stroke6  230  19 I53
stroke6  231  18 I53
stroke6  232  17 I53
stroke6  232  16 I53
stroke6  232  15 I53
stroke6  233  13 I53
stroke6  233  12 I53
stroke6  232  11 I53
stroke6  232  10 I53
stroke6  232  8 I53
stroke6  232  7 I53
stroke6  231  6 I53
stroke6  231  5 I53
stroke6  231  4 I53
stroke6  230  3 I53
stroke6  230  2 I53
stroke6  230  1 I53
stroke6  231  0 I53
stroke6  232  0 I53
stroke6  233  0 I53
stroke6  234  0 I53
stroke6  235  0 I53
stroke6  236  0 I53
stroke6  237  0 I53
stroke6  238  0 I53
stroke6  239  0 I53
stroke6  240  1 I53
stroke6  241  1 I53
stroke6  242  1 I53
stroke6  243  1 I53
stroke6  243  2 I53
stroke6  244  2 I53
stroke6  244  3 I53
stroke6  245  4 I53
stroke6  245  5 I53
stroke6  245  6 I53
stroke6  245  8 I53
stroke6  245  10 I53
stroke6  245  11 I53
stroke6  245  13 I53
stroke6  245  15 I53
stroke6  244  17 I53
stroke6  244  19 I53
stroke6  244  21 I53
stroke6  244  22 I53
stroke6  244  23 I53
stroke6  244  24 I53
stroke6  244  25 I53
stroke6  245  26 I53
stroke6  244  26 I53
stroke6  245  25 I53
stroke6  245  24 I53
stroke6  245  23 I53
