stroke1  82  62 B4
stroke1  82  61 I4
stroke1  82  60 I4
stroke1  83  59 I4
stroke1  83  58 I4
stroke1  84  58 I4
stroke1  84  57 I4
stroke1  85  57 I4
stroke1  86  57 I4
stroke1  87  57 I4
stroke1  88  58 I4
stroke1  89  58 I4
stroke1  90  58 I4
stroke1  91  59 I4
stroke1  92  60 I4
stroke1  93  60 I4
stroke1  93  61 I4
stroke1  94  61 I4
stroke1  94  62 I4
stroke1  94  62 I4
stroke1  94  63 I4
stroke1  95  64 I4
stroke1  95  65 I4
stroke1  94  65 I4
stroke1  94  66 I4
stroke1  94  67 I4
stroke1  93  67 I4
stroke1  93  68 I4
stroke1  92  68 I4
stroke1  91  68 I4
stroke1  91  69 I4
stroke1  90  68 I4
stroke1  89  68 I4
stroke1  88  68 I4
stroke1  88  67 I4
stroke1  87  67 I4
stroke1  87  66 I4
stroke1  86  66 I4
stroke1  86  65 I4
stroke1  85  65 I4
stroke1  85  64 I4
stroke1  85  63 I4
stroke1  84  63 I4
stroke1  84  62 I4
stroke1  84  61 I4
stroke1  84  60 I4
stroke1  83  59 I4
stroke1  83  58 I4
stroke1  83  57 I4
stroke1  83  56 I4
stroke1  83  55 I4
stroke1  83  54 I4
stroke1  82  53 I4
stroke1  82  52 I4
stroke1  82  51 I4
stroke1  82  50 I4
stroke1  82  49 I4
stroke1  82  48 I4
stroke1  82  47 I4
stroke1  82  45 I4
stroke1  82  44 I4
stroke1  82  43 I4
stroke1  82  42 I4
stroke1  82  41 I4
stroke1  82  40 I4
stroke1  82  39 I4
stroke1  82  37 I4
stroke1  83  36 I4
stroke1  83  35 I4
stroke1  83  34 I4
stroke1  83  33 I4
stroke1  83  32 I4
stroke1  83  31 I4
stroke1  83  30 I4
stroke1  83  29 I4
stroke1  84  29 I4
stroke1  83  29 I4
stroke1  84  28 I4
stroke1  83  28 I4
stroke1  82  29 I4
stroke1  82  30 I4
stroke1  81  31 I4
stroke1  81  32 I4
stroke1  80  32 I4
stroke1  79  33 I4
stroke1  78  34 I4
stroke1  78  35 I4
stroke1  77  35 I4
stroke1  77  36 I4
stroke1  76  37 I4
stroke1  75  38 I4
stroke1  75  39 I4
stroke1  74  40 I4
stroke1  73  42 I4
stroke1  73  43 I4
stroke1  73  44 I4
stroke1  72  45 I4
stroke1  72  46 I4
stroke1  72  47 I4
stroke1  71  48 I4
stroke1  71  49 I4
stroke1  71  51 I4
stroke1  71  52 I4
stroke1  70  53 I4
stroke1  70  54 I4
stroke1  70  56 I4
stroke1  70  57 I4
stroke1  70  58 I4
stroke1  70  59 I4
stroke1  70  61 I4
stroke1  70  62 I4
stroke1  70  63 I4
stroke1  70  64 I4
stroke1  70  65 I4
stroke1  70  67 I4
stroke1  70  68 I4
stroke1  71  69 I4
stroke1  71  70 I4
stroke1  71  72 I4
stroke1  72  73 I4
stroke1  73  74 I4
stroke1  73  76 I4
stroke1  74  77 I4
stroke1  74  78 I4
stroke1  75  79 I4
stroke1  76  80 I4
stroke1  77  81 I4
stroke1  77  82 I4
stroke1  78  83 I4
stroke1  79  84 I4
stroke1  80  85 I4
stroke1  80  86 I4
stroke1  81  87 I4
stroke1  82  87 I4
stroke1  83  88 I4
stroke1  84  88 I4
stroke1  84  89 I4
stroke1  85  89 I4
stroke1  86  90 I4
stroke1  87  90 I4
stroke1  88  90 I4
stroke1  89  91 I4
stroke1  90  91 I4
stroke1  91  90 I4
stroke1  92  90 I4
stroke1  93  90 I4
stroke1  94  90 I4
stroke1  94  89 I4
stroke1  95  89 I4
stroke1  96  89 I4
stroke1  96  88 I4
stroke1  97  88 I4
stroke1  97  87 I4
stroke1  98  87 I4
stroke1  98  86 I4
stroke1  99  85 I4
stroke1  100  85 I4
stroke1  100  84 I4
stroke1  100  83 I4
stroke1  100  82 I4
stroke1  101  81 I4
stroke1  101  80 I4
stroke1  101  79 I4
stroke1  101  78 I4
stroke1  101  76 I4
stroke1  101  75 I4
stroke1  102  74 I4
stroke1  102  72 I4
stroke1  102  71 I4
stroke1  102  69 I4
stroke1  103  68 I4
stroke1  103  66 I4
stroke1  103  64 I4
stroke1  103  63 I4
stroke1  103  61 I4
stroke1  103  59 I4
stroke1  104  57 I4
stroke1  104  55 I4
stroke1  104  54 I4
stroke1  104  52 I4
stroke1  104  50 I4
stroke1  104  48 I4
stroke1  105  46 I4
stroke1  105  44 I4
stroke1  105  43 I4
stroke1  105  41 I4
stroke1  105  40 I4
stroke1  105  38 I4
stroke1  106  37 I4
stroke1  106  36 I4
stroke1  106  35 I4
stroke1  106  34 I4
stroke1  106  33 I4
stroke1  107  32 I4
stroke1  106  31 I4
stroke1  107  31 I4
stroke1  107  30 I4
stroke1  107  29 I4
stroke1  106  30 I4
stroke2  136  38 B35
stroke2  137  38 I35
stroke2  136  38 I35
stroke2  136  39 I35
stroke2  135  40 I35
stroke2  135  41 I35
stroke2  134  41 I35
stroke2  133  42 I35
stroke2  132  42 I35
stroke2  131  42 I35
stroke2  130  42 I35
stroke2  130  41 I35
stroke2  129  41 I35
stroke2  128  40 I35
stroke2  127  40 I35
stroke2  127  39 I35
stroke2  126  38 I35
stroke2  126  37 I35
stroke2  126  36 I35
stroke2  126  35 I35
stroke2  127  35 I35
stroke2  127  34 I35
stroke2  127  33 I35
stroke2  128  32 I35
stroke2  129  32 I35
stroke2  129  31 I35
stroke2  130  31 I35
stroke2  130  30 I35
stroke2  131  30 I35
stroke2  132  29 I35
stroke2  133  29 I35
stroke2  134  29 I35
stroke2  135  29 I35
stroke2  135  30 I35
stroke2  136  30 I35
stroke2  136  31 I35
stroke2  137  31 I35
stroke2  137  32 I35
stroke2  137  33 I35
stroke2  137  34 I35
stroke2  137  35 I35
stroke2  137  36 I35
stroke2  137  37 I35
stroke2  137  38 I35
stroke2  136  38 I35
stroke2  136  39 I35
stroke2  136  40 I35
stroke2  136  41 I35
stroke2  136  42 I35
stroke2  136  43 I35
stroke2  135  44 I35
stroke2  135  46 I35
stroke2  135  47 I35
stroke2  135  48 I35
stroke2  135  49 I35
stroke2  134  51 I35
stroke2  134  52 I35
stroke2  134  53 I35
stroke2  134  55 I35
stroke2  134  56 I35
stroke2  134  58 I35
stroke2  134  59 I35
stroke2  133  60 I35
stroke2  133  62 I35
stroke2  133  63 I35
stroke2  132  65 I35
stroke2  132  66 I35
stroke2  132  68 I35
stroke2  132  69 I35
stroke2  132  71 I35
stroke2  131  72 I35
stroke2  131  73 I35
stroke2  131  74 I35
stroke2  131  75 I35
stroke2  131  76 I35
stroke2  131  77 I35
stroke2  130  78 I35
stroke2  130  79 I35
stroke2  130  80 I35
stroke2  129  80 I35
stroke2  129  81 I35
stroke2  128  81 I35
stroke2  127  81 I35
stroke2  126  81 I35
stroke2  125  81 I35
stroke2  123  81 I35
stroke2  122  81 I35
stroke2  121  81 I35
stroke2  119  80 I35
stroke2  118  80 I35
stroke2  116  80 I35
stroke2  115  80 I35
stroke2  114  80 I35
stroke2  112  80 I35
stroke2  111  79 I35
stroke2  110  79 I35
stroke2  109  79 I35
stroke2  108  79 I35
stroke2  108  78 I35
stroke2  107  78 I35
stroke2  106  78 I35
stroke2  106  79 I35
stroke2  107  79 I35
stroke2  107  80 I35
stroke2  107  81 I35
stroke2  108  82 I35
stroke2  108  83 I35
stroke2  109  84 I35
stroke2  109  85 I35
stroke2  110  86 I35
stroke2  111  87 I35
stroke2  111  88 I35
stroke2  112  88 I35
stroke2  112  89 I35
stroke2  113  90 I35
stroke2  114  91 I35
stroke2  115  91 I35
stroke2  116  92 I35
stroke2  117  92 I35
stroke2  118  92 I35
stroke2  119  92 I35
stroke2  120  91 I35
stroke2  121  91 I35
stroke2  122  91 I35
stroke2  123  91 I35
stroke2  124  91 I35
stroke2  125  90 I35
stroke2  126  90 I35
stroke2  127  90 I35
stroke2  128  90 I35
stroke2  129  90 I35
stroke2  130  90 I35
stroke2  131  90 I35
stroke2  132  91 I35
stroke2  133  91 I35
stroke2  133  92 I35
stroke2  133  93 I35
stroke2  133  94 I35
stroke2  133  95 I35
stroke2  133  96 I35
stroke2  132  96 I35
stroke2  132  97 I35
stroke3  128  106 B50
stroke3  128  107 I50
stroke3  127  107 I50
stroke3  126  107 I50
stroke3  126  108 I50
stroke3  125  108 I50
stroke3  125  109 I50
stroke3  124  109 I50
stroke3  124  110 I50
stroke3  123  111 I50
stroke3  122  111 I50
stroke3  121  112 I50
stroke3  120  112 I50
stroke3  119  113 I50
stroke3  117  113 I50
stroke3  116  113 I50
stroke3  115  113 I50
stroke3  113  114 I50
stroke3  112  114 I50
stroke3  110  114 I50
stroke3  109  114 I50
stroke3  107  114 I50
stroke3  106  113 I50
stroke3  105  113 I50
stroke3  104  113 I50
stroke3  103  113 I50
stroke3  102  112 I50
stroke3  101  112 I50
stroke3  100  112 I50
stroke3  100  111 I50
stroke3  100  112 I50
stroke3  101  112 I50
stroke3  101  113 I50
stroke3  102  114 I50
stroke3  102  115 I50
stroke3  103  116 I50
stroke3  104  117 I50
stroke3  105  118 I50
stroke3  105  119 I50
stroke3  106  120 I50
stroke3  107  121 I50
stroke3  108  121 I50
stroke3  108  122 I50
stroke3  109  123 I50
stroke3  110  123 I50
stroke3  110  124 I50
stroke3  111  124 I50
stroke3  112  124 I50
stroke3  113  124 I50
stroke3  114  124 I50
stroke3  115  123 I50
stroke3  116  123 I50
stroke3  117  122 I50
stroke3  118  122 I50
stroke3  118  121 I50
stroke3  119  121 I50
stroke3  120  120 I50
stroke3  120  119 I50
stroke3  121  119 I50
stroke3  122  118 I50
stroke3  123  117 I50
stroke3  124  116 I50
stroke3  125  115 I50
stroke3  125  114 I50
stroke3  126  114 I50
stroke3  127  113 I50
stroke3  128  112 I50
stroke3  129  111 I50
stroke3  130  110 I50
stroke3  131  110 I50
stroke3  132  110 I50
stroke3  133  111 I50
stroke3  134  112 I50
stroke3  135  113 I50
stroke3  135  114 I50
stroke3  136  115 I50
stroke3  136  116 I50
stroke3  136  117 I50
stroke3  137  117 I50
stroke3  137  118 I50
stroke3  137  119 I50
stroke3  137  120 I50
stroke3  137  121 I50
stroke3  136  121 I50
stroke3  136  122 I50
stroke3  135  123 I50
stroke3  134  123 I50
stroke3  133  123 I50
stroke3  132  123 I50
stroke3  131  123 I50
stroke3  130  122 I50
stroke3  129  122 I50
stroke3  129  121 I50
stroke3  128  121 I50
stroke3  128  120 I50
stroke3  127  120 I50
stroke3  127  119 I50
stroke3  126  119 I50
stroke3  126  118 I50
stroke3  126  117 I50
stroke3  126  116 I50
stroke4  133  160 B65
stroke4  133  159 I65
stroke4  133  158 I65
stroke4  133  157 I65
stroke4  133  156 I65
stroke4  133  155 I65
stroke4  133  154 I65
stroke4  134  153 I65
stroke4  134  152 I65
stroke4  134  151 I65
stroke4  134  150 I65
stroke4  135  150 I65
stroke4  135  149 I65
stroke4  135  148 I65
stroke4  135  147 I65
stroke4  135  146 I65
stroke4  135  145 I65
stroke4  135  146 I65
stroke4  134  146 I65
stroke5  165  89 B7
stroke5  165  90 I7
stroke5  165  89 I7
stroke5  166  89 I7
stroke5  166  88 I7
stroke5  166  87 I7
stroke5  165  86 I7
stroke5  165  85 I7
stroke5  164  85 I7
stroke5  164  84 I7
stroke5  163  83 I7
stroke5  162  83 I7
stroke5  162  82 I7
stroke5  161  82 I7
stroke5  161  81 I7
stroke5  160  81 I7
stroke5  159  81 I7
stroke5  158  81 I7
stroke5  158  82 I7
stroke5  157  82 I7
stroke5  156  82 I7
stroke5  155  83 I7
stroke5  155  84 I7
stroke5  154  84 I7
stroke5  154  85 I7
stroke5  154  86 I7
stroke5  154  87 I7
stroke5  154  88 I7
stroke5  155  89 I7
stroke5  155  90 I7
stroke5  156  90 I7
stroke5  156  91 I7
stroke5  157  91 I7
stroke5  157  92 I7
stroke5  158  92 I7
stroke5  159  93 I7
stroke5  160  93 I7
stroke5  161  93 I7
stroke5  162  93 I7
stroke5  163  93 I7
stroke5  164  93 I7
stroke5  165  93 I7
stroke5  165  92 I7
stroke5  166  92 I7
stroke5  166  91 I7
stroke5  166  90 I7
stroke5  167  89 I7
stroke5  167  88 I7
stroke5  167  87 I7
stroke5  167  86 I7
stroke5  167  85 I7
stroke5  167  84 I7
stroke5  167  83 I7
stroke5  168  82 I7
stroke5  168  81 I7
stroke5  168  80 I7
stroke5  168  79 I7
stroke5  168  77 I7
stroke5  168  76 I7
stroke5  168  75 I7
stroke5  169  73 I7
stroke5  169  72 I7
stroke5  169  71 I7
stroke5  169  69 I7
stroke5  169  68 I7
stroke5  170  66 I7
stroke5  170  65 I7
stroke5  170  64 I7
stroke5  170  62 I7
stroke5  170  61 I7
stroke5  171  60 I7
stroke5  171  58 I7
stroke5  171  57 I7
stroke5  171  56 I7
stroke5  171  54 I7
stroke5  171  53 I7
stroke5  172  52 I7
stroke5  172  51 I7
stroke5  172  49 I7
stroke5  172  48 I7
stroke5  172  47 I7
stroke5  173  46 I7
stroke5  173  44 I7
stroke5  173  43 I7
stroke5  173  42 I7
stroke5  173  41 I7
stroke5  173  40 I7
stroke5  174  39 I7
stroke5  174  38 I7
stroke5  174  37 I7
stroke5  174  36 I7
stroke5  174  35 I7
stroke5  174  34 I7
stroke5  175  34 I7
stroke5  175  33 I7
stroke5  175  32 I7
stroke5  175  31 I7
stroke5  175  30 I7
stroke5  175  31 I7
stroke5  174  31 I7
stroke5  174  32 I7
stroke5  173  33 I7
stroke5  172  34 I7
stroke5  171  35 I7
stroke5  171  36 I7
stroke5  170  37 I7
stroke5  169  38 I7
stroke5  168  39 I7
stroke5  167  39 I7
stroke5  166  40 I7
stroke5  165  41 I7
stroke5  164  42 I7
stroke5  163  43 I7
stroke5  162  44 I7
stroke5  161  45 I7
stroke5  160  45 I7
stroke5  159  46 I7
stroke5  158  47 I7
stroke5  157  48 I7
stroke5  156  48 I7
stroke5  155  49 I7
stroke5  154  49 I7
stroke5  155  50 I7
stroke5  156  50 I7
stroke6  198  60 B70
stroke6  198  59 I70
stroke6  198  60 I70
stroke6  199  60 I70
stroke6  200  60 I70
stroke6  201  59 I70
stroke6  202  59 I70
stroke6  202  58 I70
stroke6  203  58 I70
stroke6  203  57 I70
stroke6  204  56 I70
stroke6  203  56 I70
stroke6  204  55 I70
stroke6  203  55 I70
stroke6  203  54 I70
stroke6  202  54 I70
stroke6  201  55 I70
stroke6  200  55 I70
stroke6  200  56 I70
stroke6  199  56 I70
stroke6  199  57 I70
stroke6  199  58 I70
stroke6  198  59 I70
stroke6  198  60 I70
stroke6  198  61 I70
stroke6  198  62 I70
stroke6  198  63 I70
stroke6  198  64 I70
stroke6  199  65 I70
stroke6  199  66 I70
stroke6  199  67 I70
stroke6  200  68 I70
stroke6  200  69 I70
stroke6  201  69 I70
stroke6  202  69 I70
stroke6  203  69 I70
stroke6  203  68 I70
stroke6  204  68 I70
stroke6  205  67 I70
stroke6  205  66 I70
stroke6  206  66 I70
stroke6  206  65 I70
stroke6  207  65 I70
stroke6  207  64 I70
stroke6  208  64 I70
stroke6  208  65 I70
stroke6  209  65 I70
stroke6  209  66 I70
stroke6  210  67 I70
stroke6  210  68 I70
stroke6  211  68 I70
stroke6  211  69 I70
stroke6  212  69 I70
stroke6  213  70 I70
stroke6  214  70 I70
stroke6  214  71 I70
stroke6  215  71 I70
stroke6  216  71 I70
stroke6  217  72 I70
stroke6  218  72 I70
stroke6  219  72 I70
stroke6  220  71 I70
stroke6  221  70 I70
stroke6  221  69 I70
stroke6  222  69 I70
stroke6  222  68 I70
stroke6  222  67 I70
stroke6  222  66 I70
stroke6  222  65 I70
stroke6  222  64 I70
stroke6  222  63 I70
stroke6  223  62 I70
stroke6  223  61 I70
stroke6  223  59 I70
stroke6  223  58 I70
stroke6  223  57 I70
stroke6  223  55 I70
stroke6  223  53 I70
stroke6  223  52 I70
stroke6  223  50 I70
stroke6  223  48 I70
stroke6  223  46 I70
stroke6  223  45 I70
stroke6  224  43 I70
stroke6  224  41 I70
stroke6  224  40 I70
stroke6  224  38 I70
stroke6  224  36 I70
stroke6  224  35 I70
stroke6  224  33 I70
stroke6  224  32 I70
stroke6  224  30 I70
stroke6  224  28 I70
stroke6  224  27 I70
stroke6  224  25 I70
stroke6  224  24 I70
stroke6  224  22 I70
stroke6  224  21 I70
stroke6  224  19 I70
stroke6  224  18 I70
stroke6  224  17 I70
stroke6  224  15 I70
stroke6  224  14 I70
stroke6  225  12 I70
stroke6  225  11 I70
stroke6  225  10 I70
stroke6  225  9 I70
stroke6  225  8 I70
stroke6  225  7 I70
stroke6  225  6 I70
stroke6  225  5 I70
stroke6  225  4 I70
stroke6  225  3 I70
stroke6  225  2 I70
stroke6  225  1 I70
stroke6  225  2 I70
stroke6  226  3 I70
stroke6  226  4 I70
stroke7  247  28 B1
stroke7  247  27 I1
stroke7  246  28 I1
stroke7  247  28 I1
stroke7  247  29 I1
stroke7  247  30 I1
stroke7  247  31 I1
stroke7  247  32 I1
stroke7  247  33 I1
stroke7  247  34 I1
stroke7  246  35 I1
stroke7  246  36 I1
stroke7  246  37 I1
stroke7  246  38 I1
stroke7  246  40 I1
stroke7  246  41 I1
stroke7  246  43 I1
stroke7  246  45 I1
stroke7  246  46 I1
stroke7  245  48 I1
stroke7  245  50 I1
stroke7  245  51 I1
stroke7  246  53 I1
stroke7  246  55 I1
stroke7  246  56 I1
stroke7  246  58 I1
stroke7  246  60 I1
stroke7  247  61 I1
stroke7  247  62 I1
stroke7  247  63 I1
stroke7  247  64 I1
stroke7  248  65 I1
stroke7  248  66 I1
stroke7  248  67 I1
stroke7  248  68 I1
stroke7  249  69 I1
stroke7  249  70 I1
stroke7  249  71 I1
stroke7  249  72 I1
stroke7  248  72 I1
stroke7  247  72 I1
stroke7  246  72 I1
stroke7  245  72 I1
stroke7  244  72 I1
stroke7  243  72 I1
stroke7  242  71 I1
stroke7  241  71 I1
stroke7  240  71 I1
stroke7  239  70 I1
stroke7  238  70 I1
stroke7  237  70 I1
stroke7  236  70 I1
stroke7  235  70 I1
stroke7  236  71 I1
stroke7  236  72 I1
stroke7  237  73 I1
stroke7  237  74 I1
stroke7  237  75 I1
stroke7  238  75 I1
stroke7  238  76 I1
stroke7  238  77 I1
stroke7  239  78 I1
stroke7  239  79 I1
stroke7  240  80 I1
stroke7  240  81 I1
stroke7  241  82 I1
stroke7  242  82 I1
stroke7  242  83 I1
stroke7  243  84 I1
stroke7  243  85 I1
stroke7  244  86 I1
stroke7  245  86 I1
stroke7  245  87 I1
stroke7  246  88 I1
stroke7  247  88 I1
stroke7  247  89 I1
stroke7  248  89 I1
stroke7  249  90 I1
stroke7  250  90 I1
stroke7  251  90 I1
stroke7  252  90 I1
stroke7  253  90 I1
stroke7  254  90 I1
stroke7  255  90 I1
stroke7  256  90 I1
stroke7  257  90 I1
stroke7  258  90 I1
stroke7  259  90 I1
stroke7  260  89 I1
stroke7  261  89 I1
stroke7  262  89 I1
stroke7  262  88 I1
stroke7  263  88 I1
stroke7  264  88 I1
stroke7  264  87 I1
stroke7  265  87 I1
stroke7  265  86 I1
stroke7  266  86 I1
stroke7  266  85 I1
stroke7  267  85 I1
stroke7  267  84 I1
stroke7  267  83 I1
stroke7  267  82 I1
stroke7  268  81 I1
stroke7  267  80 I1
stroke7  268  79 I1
stroke7  268  78 I1
stroke7  268  77 I1
stroke7  268  75 I1
stroke7  268  74 I1
stroke7  268  73 I1
stroke7  268  71 I1
stroke7  268  70 I1
stroke7  269  68 I1
stroke7  269  67 I1
stroke7  269  65 I1
stroke7  269  63 I1
stroke7  269  62 I1
stroke7  269  60 I1
stroke7  269  58 I1
stroke7  269  56 I1
stroke7  269  55 I1
stroke7  270  53 I1
stroke7  270  51 I1
stroke7  270  50 I1
stroke7  270  48 I1
stroke7  270  47 I1
stroke7  270  45 I1
stroke7  270  44 I1
stroke7  270  43 I1
stroke7  270  41 I1
stroke7  270  40 I1
stroke7  270  39 I1
stroke7  270  38 I1
stroke7  270  37 I1
stroke7  270  36 I1
stroke7  270  35 I1
stroke7  270  34 I1
stroke7  270  33 I1
stroke7  270  32 I1
stroke7  270  31 I1
stroke7  270  30 I1
stroke7  270  29 I1
stroke7  271  29 I1
stroke7  270  29 I1
stroke7  270  28 I1
stroke7  270  29 I1
stroke7  271  29 I1
stroke7  270  30 I1
stroke7  271  30 I1
stroke7  271  31 I1
stroke8  288  39 B36
stroke8  288  40 I36
stroke8  289  41 I36
stroke8  289  42 I36
stroke8  290  42 I36
stroke8  291  42 I36
stroke8  291  43 I36
stroke8  292  43 I36
stroke8  293  43 I36
stroke8  293  42 I36
stroke8  294  42 I36
stroke8  295  42 I36
stroke8  295  41 I36
stroke8  296  41 I36
stroke8  296  40 I36
stroke8  297  40 I36
stroke8  298  39 I36
stroke8  299  39 I36
stroke8  299  38 I36
stroke8  299  37 I36
stroke8  300  36 I36
stroke8  300  35 I36
stroke8  300  34 I36
stroke8  299  33 I36
stroke8  298  32 I36
stroke8  297  32 I36
stroke8  297  31 I36
stroke8  296  31 I36
stroke8  295  30 I36
stroke8  295  31 I36
stroke8  294  31 I36
stroke8  293  31 I36
stroke8  292  31 I36
stroke8  291  32 I36
stroke8  290  32 I36
stroke8  290  33 I36
stroke8  289  34 I36
stroke8  289  35 I36
stroke8  289  36 I36
stroke8  289  37 I36
stroke8  289  38 I36
stroke8  288  39 I36
stroke8  288  40 I36
stroke8  288  41 I36
stroke8  288  42 I36
stroke8  288  43 I36
stroke8  288  44 I36
stroke8  288  46 I36
stroke8  288  47 I36
stroke8  288  49 I36
stroke8  288  50 I36
stroke8  288  52 I36
stroke8  288  53 I36
stroke8  288  55 I36
stroke8  288  56 I36
stroke8  288  58 I36
stroke8  288  59 I36
stroke8  289  60 I36
stroke8  289  62 I36
stroke8  289  63 I36
stroke8  289  64 I36
stroke8  289  65 I36
stroke8  289  66 I36
stroke8  290  68 I36
stroke8  290  69 I36
stroke8  290  70 I36
stroke8  291  71 I36
stroke8  291  72 I36
stroke8  291  73 I36
stroke8  292  74 I36
stroke8  293  74 I36
stroke8  294  73 I36
stroke8  295  72 I36
stroke8  296  72 I36
stroke8  296  71 I36
stroke8  297  70 I36
stroke8  298  70 I36
stroke8  298  69 I36
stroke8  299  68 I36
stroke8  300  68 I36
stroke8  300  67 I36
stroke8  301  66 I36
stroke8  302  65 I36
stroke8  303  64 I36
stroke8  303  63 I36
stroke8  304  62 I36
stroke8  305  61 I36
stroke8  305  60 I36
stroke8  306  59 I36
stroke8  307  57 I36
stroke8  307  56 I36
stroke8  308  55 I36
stroke8  308  54 I36
stroke8  309  53 I36
stroke8  309  52 I36
stroke8  310  51 I36
stroke8  310  50 I36
stroke8  311  48 I36
stroke8  311  47 I36
stroke8  311  46 I36
stroke8  312  45 I36
stroke8  312  44 I36
stroke8  312  43 I36
stroke8  313  42 I36
stroke8  313  40 I36
stroke8  314  39 I36
stroke8  314  38 I36
stroke8  315  37 I36
stroke8  315  36 I36
stroke8  315  35 I36
stroke8  316  35 I36
stroke8  316  34 I36
stroke8  316  33 I36
stroke8  316  32 I36
stroke8  316  31 I36
stroke8  316  30 I36
stroke8  316  31 I36
stroke8  317  32 I36
stroke8  316  33 I36
stroke8  316  34 I36
stroke8  316  36 I36
stroke8  316  37 I36
stroke8  316  38 I36
stroke8  316  39 I36
stroke8  316  41 I36
stroke8  316  42 I36
stroke8  315  44 I36
stroke8  315  45 I36
stroke8  315  47 I36
stroke8  315  49 I36
stroke8  315  50 I36
stroke8  315  51 I36
stroke8  315  53 I36
stroke8  314  54 I36
stroke8  314  56 I36
stroke8  314  57 I36
stroke8  314  58 I36
stroke8  314  60 I36
stroke8  313  61 I36
stroke8  313  62 I36
stroke8  313  64 I36
stroke8  313  65 I36
stroke8  313  66 I36
stroke8  313  67 I36
stroke8  312  68 I36
stroke8  312  70 I36
stroke8  312  71 I36
stroke8  312  72 I36
stroke8  312  73 I36
stroke8  312  74 I36
stroke8  311  75 I36
stroke8  311  77 I36
stroke8  311  78 I36
stroke8  311  79 I36
stroke8  311  80 I36
stroke8  310  81 I36
stroke8  310  82 I36
stroke8  310  83 I36
stroke8  309  83 I36
stroke8  309  84 I36
stroke8  309  85 I36
stroke8  308  86 I36
stroke8  308  87 I36
stroke8  308  88 I36
stroke8  307  88 I36
stroke8  307  89 I36
stroke8  306  90 I36
stroke8  305  90 I36
stroke8  305  91 I36
stroke8  304  91 I36
stroke8  303  92 I36
stroke8  302  92 I36
stroke8  301  92 I36
stroke8  300  93 I36
stroke8  299  93 I36
stroke8  298  93 I36
stroke8  297  93 I36
stroke8  296  92 I36
stroke8  295  92 I36
stroke8  294  92 I36
stroke8  293  92 I36
stroke8  293  91 I36
stroke8  292  91 I36
stroke8  291  91 I36
stroke8  290  90 I36
stroke8  289  90 I36
stroke8  288  89 I36
stroke8  287  88 I36
stroke8  286  88 I36
stroke8  285  87 I36
stroke8  284  86 I36
stroke8  283  86 I36
stroke8  283  85 I36
stroke8  282  85 I36
stroke8  282  84 I36
stroke8  283  84 I36
stroke8  284  84 I36
stroke9  325  79 B47
stroke9  325  78 I47
stroke9  325  79 I47
stroke9  326  80 I47
stroke9  326  81 I47
stroke9  327  81 I47
stroke9  327  82 I47
stroke9  328  83 I47
stroke9  328  84 I47
stroke9  328  85 I47
stroke9  329  86 I47
stroke9  329  87 I47
stroke9  330  87 I47
stroke9  330  88 I47
stroke9  331  89 I47
stroke9  332  90 I47
stroke9  333  90 I47
stroke9  333  91 I47
stroke9  334  91 I47
stroke9  335  92 I47
stroke9  336  92 I47
stroke9  336  93 I47
stroke9  337  93 I47
stroke9  338  93 I47
stroke9  339  94 I47
stroke9  340  93 I47
stroke9  341  93 I47
stroke9  342  93 I47
stroke9  343  92 I47
stroke9  344  92 I47
stroke9  345  91 I47
stroke9  346  91 I47
stroke9  346  90 I47
stroke9  347  90 I47
stroke9  347  89 I47
stroke9  348  89 I47
stroke9  348  88 I47
stroke9  349  87 I47
stroke9  349  86 I47
stroke9  349  85 I47
stroke9  349  84 I47
stroke9  349  83 I47
stroke9  350  82 I47
stroke9  350  81 I47
stroke9  350  80 I47
stroke9  350  79 I47
stroke9  350  78 I47
stroke9  350  77 I47
stroke9  350  76 I47
stroke9  350  75 I47
stroke9  350  73 I47
stroke9  350  72 I47
stroke9  350  71 I47
stroke9  350  69 I47
stroke9  350  68 I47
stroke9  350  66 I47
stroke9  350  65 I47
stroke9  351  63 I47
stroke9  350  62 I47
stroke9  350  60 I47
stroke9  350  58 I47
stroke9  350  57 I47
stroke9  350  55 I47
stroke9  350  54 I47
stroke9  350  52 I47
stroke9  350  50 I47
stroke9  350  49 I47
stroke9  350  47 I47
stroke9  350  45 I47
stroke9  350  44 I47
stroke9  351  43 I47
stroke9  350  41 I47
stroke9  350  40 I47
stroke9  350  39 I47
stroke9  350  38 I47
stroke9  350  37 I47
stroke9  350  36 I47
stroke9  350  35 I47
stroke9  350  34 I47
stroke9  350  33 I47
stroke9  350  32 I47
stroke9  350  31 I47
stroke9  350  30 I47
stroke9  350  29 I47
stroke9  350  30 I47
stroke9  350  31 I47
stroke10  388  87 B7
stroke10  387  87 I7
stroke10  387  86 I7
stroke10  387  85 I7
stroke10  386  85 I7
stroke10  386  84 I7
stroke10  386  83 I7
stroke10  385  83 I7
stroke10  385  82 I7
stroke10  384  81 I7
stroke10  384  80 I7
stroke10  383  80 I7
stroke10  382  80 I7
stroke10  381  80 I7
stroke10  380  80 I7
stroke10  380  81 I7
stroke10  379  81 I7
stroke10  378  82 I7
stroke10  377  83 I7
stroke10  376  84 I7
stroke10  376  85 I7
stroke10  376  86 I7
stroke10  376  87 I7
stroke10  376  88 I7
stroke10  377  89 I7
stroke10  377  90 I7
stroke10  378  91 I7
stroke10  378  92 I7
stroke10  379  92 I7
stroke10  379  93 I7
stroke10  380  93 I7
stroke10  381  93 I7
stroke10  382  93 I7
stroke10  383  93 I7
stroke10  384  93 I7
stroke10  385  93 I7
stroke10  386  93 I7
stroke10  386  92 I7
stroke10  387  92 I7
stroke10  387  91 I7
stroke10  387  90 I7
stroke10  388  90 I7
stroke10  388  89 I7
stroke10  388  88 I7
stroke10  388  87 I7
stroke10  388  86 I7
stroke10  388  85 I7
stroke10  388  84 I7
stroke10  388  83 I7
stroke10  388  82 I7
stroke10  388  81 I7
stroke10  388  79 I7
stroke10  388  78 I7
stroke10  388  77 I7
stroke10  388  76 I7
stroke10  388  74 I7
stroke10  388  73 I7
stroke10  388  72 I7
stroke10  388  71 I7
stroke10  388  69 I7
stroke10  388  68 I7
stroke10  388  67 I7
stroke10  388  66 I7
stroke10  388  65 I7
stroke10  388  63 I7
stroke10  388  62 I7
stroke10  388  61 I7
stroke10  388  60 I7
stroke10  388  59 I7
stroke10  388  58 I7
stroke10  388  57 I7
stroke10  388  56 I7
stroke10  388  55 I7
stroke10  387  55 I7
stroke10  387  54 I7
stroke10  387  53 I7
stroke10  387  52 I7
stroke10  387  51 I7
stroke10  387  50 I7
stroke10  387  49 I7
stroke10  387  48 I7
stroke10  387  47 I7
stroke10  387  46 I7
stroke10  387  45 I7
stroke10  387  44 I7
stroke10  387  43 I7
stroke10  387  42 I7
stroke10  387  41 I7
stroke10  386  40 I7
stroke10  386  39 I7
stroke10  386  38 I7
stroke10  386  37 I7
stroke10  386  36 I7
stroke10  386  35 I7
stroke10  386  34 I7
stroke10  386  33 I7
stroke10  387  33 I7
stroke10  387  32 I7
stroke10  386  32 I7
stroke10  387  31 I7
stroke10  386  31 I7
stroke10  386  32 I7
stroke10  385  32 I7
stroke10  385  33 I7
stroke10  385  34 I7
stroke10  384  34 I7
stroke10  384  35 I7
stroke10  383  36 I7
stroke10  383  37 I7
stroke10  383  38 I7
stroke10  382  39 I7
stroke10  381  41 I7
stroke10  381  42 I7
stroke10  380  43 I7
stroke10  379  44 I7
stroke10  378  45 I7
stroke10  377  46 I7
stroke10  376  47 I7
stroke10  375  48 I7
stroke10  374  49 I7
stroke10  373  50 I7
stroke10  373  51 I7
stroke10  372  52 I7
stroke10  371  53 I7
stroke10  370  53 I7
stroke10  370  54 I7
stroke10  369  54 I7
stroke10  369  55 I7
stroke10  368  55 I7
stroke10  368  56 I7
stroke10  368  55 I7
stroke11  412  61 B70
stroke11  412  62 I70
stroke11  413  62 I70
stroke11  414  62 I70
stroke11  415  62 I70
stroke11  415  61 I70
stroke11  416  61 I70
stroke11  416  60 I70
stroke11  417  60 I70
stroke11  417  59 I70
stroke11  418  58 I70
stroke11  418  57 I70
stroke11  418  56 I70
stroke11  417  56 I70
stroke11  417  55 I70
stroke11  416  55 I70
stroke11  415  55 I70
stroke11  414  55 I70
stroke11  413  55 I70
stroke11  413  56 I70
stroke11  412  56 I70
stroke11  412  57 I70
stroke11  412  58 I70
stroke11  411  59 I70
stroke11  411  60 I70
stroke11  411  61 I70
stroke11  411  63 I70
stroke11  411  64 I70
stroke11  411  65 I70
stroke11  412  66 I70
stroke11  412  67 I70
stroke11  412  68 I70
stroke11  412  69 I70
stroke11  413  70 I70
stroke11  414  70 I70
stroke11  415  70 I70
stroke11  415  69 I70
stroke11  416  69 I70
stroke11  416  68 I70
stroke11  417  67 I70
stroke11  417  66 I70
stroke11  418  66 I70
stroke11  418  65 I70
stroke11  419  65 I70
stroke11  420  64 I70
stroke11  420  65 I70
stroke11  421  65 I70
stroke11  422  66 I70
stroke11  422  67 I70
stroke11  423  68 I70
stroke11  424  69 I70
stroke11  425  70 I70
stroke11  426  71 I70
stroke11  426  72 I70
stroke11  427  72 I70
stroke11  428  73 I70
stroke11  429  73 I70
stroke11  429  74 I70
stroke11  430  74 I70
stroke11  431  73 I70
stroke11  432  73 I70
stroke11  433  72 I70
stroke11  434  71 I70
stroke11  434  70 I70
stroke11  434  69 I70
stroke11  434  68 I70
stroke11  434  67 I70
stroke11  434  66 I70
stroke11  434  65 I70
stroke11  434  64 I70
stroke11  434  62 I70
stroke11  434  61 I70
stroke11  434  59 I70
stroke11  434  57 I70
stroke11  434  55 I70
stroke11  434  53 I70
stroke11  434  50 I70
stroke11  434  48 I70
stroke11  434  45 I70
stroke11  434  43 I70
stroke11  434  40 I70
stroke11  434  38 I70
stroke11  434  36 I70
stroke11  434  33 I70
stroke11  434  31 I70
stroke11  434  29 I70
stroke11  434  26 I70
stroke11  434  24 I70
stroke11  434  22 I70
stroke11  434  20 I70
stroke11  434  18 I70
stroke11  434  16 I70
stroke11  434  14 I70
stroke11  434  12 I70
stroke11  434  11 I70
stroke11  434  9 I70
stroke11  434  8 I70
stroke11  434  6 I70
stroke11  434  5 I70
stroke11  434  4 I70
stroke11  434  3 I70
stroke11  434  2 I70
stroke11  434  1 I70
stroke11  434  0 I70
stroke11  434  1 I70
stroke11  435  1 I70
stroke11  435  2 I70
stroke11  435  3 I70
