stroke1  147  11 B59
stroke1  147  12 I59
stroke1  147  13 I59
stroke1  147  14 I59
stroke1  147  15 I59
stroke1  147  16 I59
stroke1  148  17 I59
stroke1  149  17 I59
stroke1  150  17 I59
stroke1  151  17 I59
stroke1  151  16 I59
stroke1  152  16 I59
stroke1  153  15 I59
stroke1  154  14 I59
stroke1  155  13 I59
stroke1  156  12 I59
stroke1  156  11 I59
stroke1  156  10 I59
stroke1  157  9 I59
stroke1  157  9 I59
stroke1  157  8 I59
stroke1  157  7 I59
stroke1  157  6 I59
stroke1  156  5 I59
stroke1  156  4 I59
stroke1  155  3 I59
stroke1  154  2 I59
stroke1  153  2 I59
stroke1  152  1 I59
stroke1  151  1 I59
stroke1  150  2 I59
stroke1  149  2 I59
stroke1  149  3 I59
stroke1  148  3 I59
stroke1  148  4 I59
stroke1  147  5 I59
stroke1  147  6 I59
stroke1  146  7 I59
stroke1  146  8 I59
stroke1  145  10 I59
stroke1  145  12 I59
stroke1  145  14 I59
stroke1  145  16 I59
stroke1  144  19 I59
stroke1  144  22 I59
stroke1  144  25 I59
stroke1  144  27 I59
stroke1  144  31 I59
stroke1  144  34 I59
stroke1  144  37 I59
stroke1  144  41 I59
stroke1  145  44 I59
stroke1  145  48 I59
stroke1  145  51 I59
stroke1  145  55 I59
stroke1  146  58 I59
stroke1  146  61 I59
stroke1  145  64 I59
stroke1  145  68 I59
stroke1  145  71 I59
stroke1  145  74 I59
stroke1  145  78 I59
stroke1  144  81 I59
stroke1  144  84 I59
stroke1  144  88 I59
stroke1  144  90 I59
stroke1  144  93 I59
stroke1  144  96 I59
stroke1  144  98 I59
stroke1  144  101 I59
stroke1  144  103 I59
stroke1  144  105 I59
stroke1  143  107 I59
stroke1  143  109 I59
stroke1  143  110 I59
stroke1  143  112 I59
stroke1  143  113 I59
stroke1  143  114 I59
stroke1  143  115 I59
stroke1  143  116 I59
stroke1  143  117 I59
stroke1  142  117 I59
stroke1  142  116 I59
stroke1  141  116 I59
stroke1  140  114 I59
stroke1  140  113 I59
stroke1  139  111 I59
stroke1  138  109 I59
stroke1  137  106 I59
stroke1  136  104 I59
stroke1  134  101 I59
stroke1  133  98 I59
stroke1  133  96 I59
stroke1  132  94 I59
stroke1  131  92 I59
stroke1  130  90 I59
stroke1  129  88 I59
stroke1  128  87 I59
stroke1  127  86 I59
stroke1  127  85 I59
stroke1  126  84 I59
stroke1  126  83 I59
stroke1  125  83 I59
stroke1  124  83 I59
stroke1  123  83 I59
stroke1  123  84 I59
stroke1  122  85 I59
stroke1  121  86 I59
stroke1  120  87 I59
stroke1  118  88 I59
stroke1  117  89 I59
stroke1  115  91 I59
stroke1  114  92 I59
stroke1  112  93 I59
stroke1  110  94 I59
stroke1  109  95 I59
stroke1  107  96 I59
stroke1  105  97 I59
stroke1  104  98 I59
stroke1  102  98 I59
stroke1  101  99 I59
stroke1  100  99 I59
stroke1  100  100 I59
stroke1  99  100 I59
stroke1  99  99 I59
stroke1  100  99 I59
stroke1  101  99 I59
stroke1  102  98 I59
stroke1  104  97 I59
stroke2  170  57 B31
stroke2  169  57 I31
stroke2  169  56 I31
stroke2  169  55 I31
stroke2  170  54 I31
stroke2  170  53 I31
stroke2  170  52 I31
stroke2  169  51 I31
stroke2  169  50 I31
stroke2  169  49 I31
stroke2  168  47 I31
stroke2  167  46 I31
stroke2  166  45 I31
stroke2  165  45 I31
stroke2  164  44 I31
stroke2  162  44 I31
stroke2  161  43 I31
stroke2  160  43 I31
stroke2  159  43 I31
stroke2  158  44 I31
stroke2  157  44 I31
stroke2  156  46 I31
stroke2  156  47 I31
stroke2  155  49 I31
stroke2  155  50 I31
stroke2  155  52 I31
stroke2  155  54 I31
stroke2  155  55 I31
stroke2  156  56 I31
stroke2  156  58 I31
stroke2  157  58 I31
stroke2  158  59 I31
stroke2  159  60 I31
stroke2  160  60 I31
stroke2  161  60 I31
stroke2  162  61 I31
stroke2  163  61 I31
stroke2  164  61 I31
stroke2  165  61 I31
stroke2  166  61 I31
stroke2  167  61 I31
stroke2  167  60 I31
stroke2  168  60 I31
stroke2  169  59 I31
stroke2  170  58 I31
stroke2  170  57 I31
stroke2  171  56 I31
stroke2  171  54 I31
stroke2  171  53 I31
stroke2  172  50 I31
stroke2  172  48 I31
stroke2  173  45 I31
stroke2  173  42 I31
stroke2  173  39 I31
stroke2  174  36 I31
stroke2  174  32 I31
stroke2  175  29 I31
stroke2  175  26 I31
stroke2  175  23 I31
stroke2  176  20 I31
stroke2  176  17 I31
stroke2  176  15 I31
stroke2  177  12 I31
stroke2  177  10 I31
stroke2  177  8 I31
stroke2  178  7 I31
stroke2  178  5 I31
stroke2  178  4 I31
stroke2  178  3 I31
stroke2  179  3 I31
stroke2  179  2 I31
stroke2  179  1 I31
stroke2  179  0 I31
stroke2  179  1 I31
stroke2  179  2 I31
stroke2  179  3 I31
stroke2  179  5 I31
stroke2  180  7 I31
stroke2  180  9 I31
stroke2  180  11 I31
stroke2  181  13 I31
stroke2  182  15 I31
stroke2  182  17 I31
stroke2  183  19 I31
stroke2  183  21 I31
stroke2  184  23 I31
stroke2  185  24 I31
stroke2  185  25 I31
stroke2  186  26 I31
stroke2  187  26 I31
stroke2  188  26 I31
stroke2  189  26 I31
stroke2  190  25 I31
stroke2  191  24 I31
stroke2  193  23 I31
stroke2  194  22 I31
stroke2  195  21 I31
stroke2  197  19 I31
stroke2  198  17 I31
stroke2  200  15 I31
stroke2  201  13 I31
stroke2  203  12 I31
stroke2  205  10 I31
stroke2  206  9 I31
stroke2  207  8 I31
stroke2  208  7 I31
stroke2  209  6 I31
stroke2  210  6 I31
stroke2  210  5 I31
stroke2  211  5 I31
stroke2  211  6 I31
stroke2  212  7 I31
stroke2  211  9 I31
stroke2  211  10 I31
stroke2  211  12 I31
stroke2  210  13 I31
stroke2  210  16 I31
stroke2  209  18 I31
stroke2  209  21 I31
stroke2  208  24 I31
stroke2  207  27 I31
stroke2  207  30 I31
stroke2  206  33 I31
stroke2  206  37 I31
stroke2  205  40 I31
stroke2  205  44 I31
stroke2  204  48 I31
stroke2  204  52 I31
stroke2  204  56 I31
stroke2  203  60 I31
stroke2  203  63 I31
stroke2  203  67 I31
stroke2  202  70 I31
stroke2  202  73 I31
stroke2  202  76 I31
stroke2  202  79 I31
stroke2  201  82 I31
stroke2  201  85 I31
stroke2  201  87 I31
stroke2  201  89 I31
stroke2  201  91 I31
stroke2  201  92 I31
stroke2  201  93 I31
stroke2  201  94 I31
stroke2  201  95 I31
stroke2  200  96 I31
stroke2  199  95 I31
stroke2  199  94 I31
stroke3  236  58 B31
stroke3  236  57 I31
stroke3  235  57 I31
stroke3  235  56 I31
stroke3  235  55 I31
stroke3  234  55 I31
stroke3  234  54 I31
stroke3  233  53 I31
stroke3  232  53 I31
stroke3  231  52 I31
stroke3  230  52 I31
stroke3  229  52 I31
stroke3  227  52 I31
stroke3  226  52 I31
stroke3  225  52 I31
stroke3  223  52 I31
stroke3  222  53 I31
stroke3  221  54 I31
stroke3  220  54 I31
stroke3  219  55 I31
stroke3  218  56 I31
stroke3  218  57 I31
stroke3  218  59 I31
stroke3  218  60 I31
stroke3  218  61 I31
stroke3  218  62 I31
stroke3  219  63 I31
stroke3  220  63 I31
stroke3  221  64 I31
stroke3  223  64 I31
stroke3  224  63 I31
stroke3  225  63 I31
stroke3  226  63 I31
stroke3  227  63 I31
stroke3  228  62 I31
stroke3  229  62 I31
stroke3  230  61 I31
stroke3  231  61 I31
stroke3  231  60 I31
stroke3  232  59 I31
stroke3  232  58 I31
stroke3  232  57 I31
stroke3  233  56 I31
stroke3  233  55 I31
stroke3  234  53 I31
stroke3  234  52 I31
stroke3  234  50 I31
stroke3  235  47 I31
stroke3  235  45 I31
stroke3  236  42 I31
stroke3  236  39 I31
stroke3  237  36 I31
stroke3  237  33 I31
stroke3  238  30 I31
stroke3  238  28 I31
stroke3  239  25 I31
stroke3  239  22 I31
stroke3  239  19 I31
stroke3  240  17 I31
stroke3  240  15 I31
stroke3  240  12 I31
stroke3  240  11 I31
stroke3  241  9 I31
stroke3  241  7 I31
stroke3  241  6 I31
stroke3  241  5 I31
stroke3  241  4 I31
stroke3  241  3 I31
stroke3  241  2 I31
stroke3  242  2 I31
stroke3  242  1 I31
stroke3  242  0 I31
stroke3  242  1 I31
stroke3  242  2 I31
stroke3  243  3 I31
stroke3  243  4 I31
stroke3  243  5 I31
stroke3  243  7 I31
stroke3  243  9 I31
stroke3  244  11 I31
stroke3  244  13 I31
stroke3  245  16 I31
stroke3  245  18 I31
stroke3  245  21 I31
stroke3  246  23 I31
stroke3  246  25 I31
stroke3  247  28 I31
stroke3  247  29 I31
stroke3  247  31 I31
stroke3  248  32 I31
stroke3  248  33 I31
stroke3  249  34 I31
stroke3  249  35 I31
stroke3  250  35 I31
stroke3  250  36 I31
stroke3  251  36 I31
stroke3  252  35 I31
stroke3  253  35 I31
stroke3  254  34 I31
stroke3  255  33 I31
stroke3  256  32 I31
stroke3  258  30 I31
stroke3  259  29 I31
stroke3  261  27 I31
stroke3  262  25 I31
stroke3  264  24 I31
stroke3  265  22 I31
stroke3  267  20 I31
stroke3  268  18 I31
stroke3  269  17 I31
stroke3  271  15 I31
stroke3  272  13 I31
stroke3  273  12 I31
stroke3  273  11 I31
stroke3  274  10 I31
stroke3  275  9 I31
stroke3  275  8 I31
stroke3  276  8 I31
stroke3  276  7 I31
stroke3  277  7 I31
stroke3  277  8 I31
stroke3  277  9 I31
stroke3  276  10 I31
stroke3  276  12 I31
stroke3  276  14 I31
stroke3  275  16 I31
stroke3  275  18 I31
stroke3  274  21 I31
stroke3  274  24 I31
stroke3  273  27 I31
stroke3  272  31 I31
stroke3  272  34 I31
stroke3  271  38 I31
stroke3  270  42 I31
stroke3  270  46 I31
stroke3  269  50 I31
stroke3  268  53 I31
stroke3  267  57 I31
stroke3  267  61 I31
stroke3  266  65 I31
stroke3  265  69 I31
stroke3  264  73 I31
stroke3  264  76 I31
stroke3  263  80 I31
stroke3  263  83 I31
stroke3  262  86 I31
stroke3  262  89 I31
stroke3  261  91 I31
stroke3  261  94 I31
stroke3  261  96 I31
stroke3  261  98 I31
stroke3  261  100 I31
stroke3  260  102 I31
stroke3  260  103 I31
stroke3  260  104 I31
stroke3  260  106 I31
stroke3  260  107 I31
stroke3  260  108 I31
stroke3  260  109 I31
stroke3  259  109 I31
stroke3  259  108 I31
stroke3  258  108 I31
stroke4  242  90 B66
stroke4  241  89 I66
stroke4  240  89 I66
stroke4  239  89 I66
stroke4  237  89 I66
stroke4  236  89 I66
stroke4  235  89 I66
stroke4  234  89 I66
stroke4  233  89 I66
stroke4  232  90 I66
stroke4  232  92 I66
stroke4  232  93 I66
stroke4  233  94 I66
stroke4  234  95 I66
stroke4  235  96 I66
stroke4  236  97 I66
stroke4  237  97 I66
stroke4  238  97 I66
stroke4  239  98 I66
stroke4  240  97 I66
stroke4  241  97 I66
stroke4  242  96 I66
stroke4  243  95 I66
stroke4  244  93 I66
stroke4  245  92 I66
stroke4  245  90 I66
stroke4  246  89 I66
stroke4  246  87 I66
stroke4  247  86 I66
stroke4  246  84 I66
stroke4  246  83 I66
stroke4  246  82 I66
stroke4  246  81 I66
stroke4  246  80 I66
stroke4  246  79 I66
stroke4  246  78 I66
stroke4  247  77 I66
stroke4  248  76 I66
stroke4  249  77 I66
stroke4  250  77 I66
stroke4  252  78 I66
stroke4  254  79 I66
stroke4  257  81 I66
stroke4  259  82 I66
stroke4  262  84 I66
stroke4  264  85 I66
stroke4  267  87 I66
stroke4  270  89 I66
stroke4  272  91 I66
stroke4  274  93 I66
stroke4  276  94 I66
stroke4  277  96 I66
stroke4  278  97 I66
stroke4  279  98 I66
stroke4  280  98 I66
stroke4  281  99 I66
stroke4  281  100 I66
stroke4  282  100 I66
stroke4  282  99 I66
stroke4  282  98 I66
stroke4  282  97 I66
stroke4  282  96 I66
stroke5  283  50 B47
stroke5  282  51 I47
stroke5  282  52 I47
stroke5  282  53 I47
stroke5  282  54 I47
stroke5  283  55 I47
stroke5  283  56 I47
stroke5  284  57 I47
stroke5  285  58 I47
stroke5  286  59 I47
stroke5  287  61 I47
stroke5  288  62 I47
stroke5  289  63 I47
stroke5  291  64 I47
stroke5  292  65 I47
stroke5  293  65 I47
stroke5  294  66 I47
stroke5  296  67 I47
stroke5  297  67 I47
stroke5  298  68 I47
stroke5  299  68 I47
stroke5  301  68 I47
stroke5  302  67 I47
stroke5  303  66 I47
stroke5  304  65 I47
stroke5  305  65 I47
stroke5  306  64 I47
stroke5  307  63 I47
stroke5  308  62 I47
stroke5  308  61 I47
stroke5  309  60 I47
stroke5  310  59 I47
stroke5  310  58 I47
stroke5  311  56 I47
stroke5  311  55 I47
stroke5  311  53 I47
stroke5  311  51 I47
stroke5  312  49 I47
stroke5  312  47 I47
stroke5  312  44 I47
stroke5  312  41 I47
stroke5  312  38 I47
stroke5  312  36 I47
stroke5  312  33 I47
stroke5  312  30 I47
stroke5  312  27 I47
stroke5  311  24 I47
stroke5  311  21 I47
stroke5  311  18 I47
stroke5  311  15 I47
stroke5  310  13 I47
stroke5  310  11 I47
stroke5  310  9 I47
stroke5  310  8 I47
stroke5  310  7 I47
stroke5  310  6 I47
stroke5  310  5 I47
stroke5  309  5 I47
stroke5  310  4 I47
stroke5  310  5 I47
stroke5  310  6 I47
stroke5  310  7 I47
