stroke1  88  8 B37
stroke1  89  8 I37
stroke1  90  8 I37
stroke1  89  8 I37
stroke1  89  9 I37
stroke1  88  9 I37
stroke1  87  10 I37
stroke1  86  10 I37
stroke1  86  11 I37
stroke1  85  11 I37
stroke1  84  11 I37
stroke1  84  12 I37
stroke1  83  12 I37
stroke1  82  12 I37
stroke1  81  11 I37
stroke1  80  11 I37
stroke1  79  10 I37
stroke1  78  9 I37
stroke1  78  8 I37
stroke1  78  8 I37
stroke1  78  7 I37
stroke1  78  6 I37
stroke1  78  5 I37
stroke1  79  4 I37
stroke1  79  3 I37
stroke1  80  3 I37
stroke1  80  2 I37
stroke1  81  2 I37
stroke1  81  1 I37
stroke1  82  1 I37
stroke1  83  1 I37
stroke1  84  0 I37
stroke1  85  0 I37
stroke1  86  1 I37
stroke1  87  1 I37
stroke1  88  1 I37
stroke1  88  2 I37
stroke1  89  2 I37
stroke1  89  3 I37
stroke1  90  3 I37
stroke1  90  4 I37
stroke1  90  5 I37
stroke1  90  6 I37
stroke1  90  7 I37
stroke1  90  8 I37
stroke1  90  9 I37
stroke1  90  10 I37
stroke1  90  11 I37
stroke1  90  12 I37
stroke1  90  13 I37
stroke1  90  14 I37
stroke1  90  15 I37
stroke1  90  16 I37
stroke1  90  17 I37
stroke1  90  18 I37
stroke1  90  19 I37
stroke1  90  20 I37
stroke1  90  21 I37
stroke1  90  22 I37
stroke1  90  23 I37
stroke1  90  25 I37
stroke1  90  26 I37
stroke1  90  27 I37
stroke1  90  28 I37
stroke1  90  29 I37
stroke1  90  31 I37
stroke1  90  32 I37
stroke1  90  33 I37
stroke1  90  34 I37
stroke1  90  35 I37
stroke1  90  36 I37
stroke1  90  37 I37
stroke1  90  38 I37
stroke1  90  39 I37
stroke1  90  40 I37
stroke1  90  41 I37
stroke1  90  42 I37
stroke1  89  43 I37
stroke1  89  44 I37
stroke1  89  45 I37
stroke1  89  46 I37
stroke1  89  47 I37
stroke1  88  48 I37
stroke1  88  49 I37
stroke1  88  50 I37
stroke1  88  51 I37
stroke1  88  52 I37
stroke1  87  53 I37
stroke1  87  54 I37
stroke1  87  55 I37
stroke1  87  56 I37
stroke1  86  56 I37
stroke1  86  57 I37
stroke1  86  58 I37
stroke1  85  59 I37
stroke1  85  60 I37
stroke1  84  60 I37
stroke1  84  61 I37
stroke1  83  62 I37
stroke1  83  63 I37
stroke1  82  63 I37
stroke1  82  64 I37
stroke1  81  64 I37
stroke1  81  65 I37
stroke1  80  65 I37
stroke1  79  66 I37
stroke1  78  66 I37
stroke1  77  66 I37
stroke1  76  66 I37
stroke1  75  66 I37
stroke1  74  66 I37
stroke1  74  65 I37
stroke1  73  65 I37
stroke1  72  65 I37
stroke1  71  65 I37
stroke1  70  65 I37
stroke1  69  64 I37
stroke1  68  64 I37
stroke1  67  63 I37
stroke1  66  63 I37
stroke1  65  62 I37
stroke1  64  61 I37
stroke1  63  61 I37
stroke1  63  60 I37
stroke1  62  60 I37
stroke1  61  59 I37
stroke1  60  58 I37
stroke1  59  58 I37
stroke1  59  57 I37
stroke1  59  58 I37
stroke1  60  58 I37
stroke1  60  59 I37
stroke2  86  82 B48
stroke2  86  81 I48
stroke2  86  82 I48
stroke2  85  82 I48
stroke2  84  82 I48
stroke2  84  83 I48
stroke2  83  83 I48
stroke2  82  83 I48
stroke2  82  84 I48
stroke2  81  84 I48
stroke2  81  85 I48
stroke2  80  86 I48
stroke2  79  86 I48
stroke2  78  87 I48
stroke2  77  87 I48
stroke2  75  88 I48
stroke2  74  89 I48
stroke2  72  89 I48
stroke2  71  89 I48
stroke2  69  90 I48
stroke2  67  90 I48
stroke2  66  90 I48
stroke2  65  90 I48
stroke2  63  91 I48
stroke2  62  91 I48
stroke2  61  90 I48
stroke2  60  90 I48
stroke2  59  90 I48
stroke2  58  90 I48
stroke2  57  90 I48
stroke2  56  89 I48
stroke2  55  89 I48
stroke2  55  88 I48
stroke2  54  88 I48
stroke2  54  87 I48
stroke2  53  88 I48
stroke2  54  88 I48
stroke2  54  89 I48
stroke2  54  90 I48
stroke2  55  91 I48
stroke2  55  92 I48
stroke2  56  93 I48
stroke2  56  94 I48
stroke2  57  95 I48
stroke2  58  96 I48
stroke2  58  97 I48
stroke2  59  98 I48
stroke2  59  99 I48
stroke2  60  99 I48
stroke2  60  100 I48
stroke2  61  100 I48
stroke2  61  101 I48
stroke2  62  101 I48
stroke2  63  101 I48
stroke2  64  101 I48
stroke2  65  101 I48
stroke2  66  100 I48
stroke2  67  100 I48
stroke2  68  99 I48
stroke2  69  98 I48
stroke2  70  97 I48
stroke2  71  96 I48
stroke2  72  95 I48
stroke2  73  94 I48
stroke2  74  94 I48
stroke2  75  93 I48
stroke2  76  92 I48
stroke2  77  91 I48
stroke2  78  90 I48
stroke2  79  89 I48
stroke2  80  89 I48
stroke2  81  88 I48
stroke2  82  87 I48
stroke2  83  86 I48
stroke2  84  85 I48
stroke2  85  85 I48
stroke2  85  84 I48
stroke2  86  84 I48
stroke2  87  83 I48
stroke3  112  63 B30
stroke3  112  62 I30
stroke3  112  61 I30
stroke3  112  60 I30
stroke3  112  59 I30
stroke3  111  58 I30
stroke3  111  57 I30
stroke3  111  56 I30
stroke3  111  55 I30
stroke3  110  54 I30
stroke3  110  53 I30
stroke3  109  52 I30
stroke3  109  51 I30
stroke3  108  51 I30
stroke3  107  50 I30
stroke3  106  50 I30
stroke3  106  49 I30
stroke3  105  49 I30
stroke3  104  49 I30
stroke3  104  50 I30
stroke3  103  50 I30
stroke3  103  51 I30
stroke3  102  52 I30
stroke3  102  53 I30
stroke3  102  54 I30
stroke3  102  55 I30
stroke3  102  56 I30
stroke3  102  57 I30
stroke3  102  58 I30
stroke3  103  59 I30
stroke3  103  60 I30
stroke3  103  61 I30
stroke3  104  62 I30
stroke3  104  63 I30
stroke3  105  64 I30
stroke3  105  65 I30
stroke3  106  65 I30
stroke3  106  66 I30
stroke3  107  66 I30
stroke3  108  67 I30
stroke3  108  66 I30
stroke3  109  66 I30
stroke3  110  66 I30
stroke3  110  65 I30
stroke3  111  65 I30
stroke3  111  64 I30
stroke3  112  64 I30
stroke3  112  63 I30
stroke3  112  62 I30
stroke3  113  62 I30
stroke3  112  61 I30
stroke3  113  61 I30
stroke3  113  60 I30
stroke3  113  59 I30
stroke3  113  58 I30
stroke3  113  57 I30
stroke3  113  56 I30
stroke3  113  55 I30
stroke3  113  54 I30
stroke3  114  52 I30
stroke3  114  51 I30
stroke3  114  50 I30
stroke3  114  49 I30
stroke3  114  48 I30
stroke3  114  47 I30
stroke3  114  46 I30
stroke3  114  45 I30
stroke3  114  44 I30
stroke3  115  43 I30
stroke3  115  42 I30
stroke3  115  40 I30
stroke3  115  39 I30
stroke3  115  38 I30
stroke3  116  37 I30
stroke3  116  36 I30
stroke3  116  35 I30
stroke3  116  34 I30
stroke3  117  33 I30
stroke3  117  32 I30
stroke3  117  31 I30
stroke3  117  29 I30
stroke3  118  28 I30
stroke3  118  27 I30
stroke3  118  26 I30
stroke3  118  25 I30
stroke3  119  24 I30
stroke3  119  22 I30
stroke3  119  21 I30
stroke3  119  20 I30
stroke3  120  19 I30
stroke3  120  18 I30
stroke3  120  17 I30
stroke3  120  16 I30
stroke3  121  15 I30
stroke3  121  14 I30
stroke3  122  13 I30
stroke3  122  12 I30
stroke3  122  11 I30
stroke3  122  10 I30
stroke3  123  9 I30
stroke3  123  8 I30
stroke3  123  7 I30
stroke3  123  6 I30
stroke3  124  6 I30
stroke3  124  5 I30
stroke3  123  5 I30
stroke3  124  5 I30
stroke3  124  4 I30
stroke3  123  4 I30
stroke3  124  5 I30
stroke3  124  6 I30
stroke3  124  7 I30
stroke3  124  8 I30
stroke3  124  9 I30
stroke3  124  10 I30
stroke3  124  12 I30
stroke3  124  13 I30
stroke3  125  15 I30
stroke3  125  17 I30
stroke3  125  19 I30
stroke3  125  20 I30
stroke3  125  22 I30
stroke3  126  24 I30
stroke3  126  26 I30
stroke3  126  28 I30
stroke3  126  29 I30
stroke3  127  31 I30
stroke3  127  32 I30
stroke3  127  33 I30
stroke3  127  34 I30
stroke3  127  35 I30
stroke3  127  36 I30
stroke3  127  37 I30
stroke3  127  38 I30
stroke3  128  38 I30
stroke3  128  37 I30
stroke3  129  37 I30
stroke3  130  36 I30
stroke3  131  35 I30
stroke3  131  34 I30
stroke3  132  34 I30
stroke3  133  33 I30
stroke3  133  32 I30
stroke3  134  31 I30
stroke3  134  30 I30
stroke3  135  29 I30
stroke3  136  28 I30
stroke3  136  27 I30
stroke3  137  26 I30
stroke3  138  25 I30
stroke3  138  24 I30
stroke3  139  23 I30
stroke3  140  22 I30
stroke3  140  21 I30
stroke3  141  19 I30
stroke3  142  18 I30
stroke3  142  17 I30
stroke3  143  16 I30
stroke3  143  15 I30
stroke3  144  14 I30
stroke3  144  13 I30
stroke3  145  12 I30
stroke3  145  11 I30
stroke3  146  11 I30
stroke3  146  10 I30
stroke3  147  9 I30
stroke3  147  10 I30
stroke3  147  11 I30
stroke3  147  12 I30
stroke3  146  13 I30
stroke3  146  14 I30
stroke3  146  15 I30
stroke3  146  16 I30
stroke3  146  17 I30
stroke3  146  19 I30
stroke3  146  21 I30
stroke3  146  22 I30
stroke3  146  24 I30
stroke3  146  26 I30
stroke3  146  27 I30
stroke3  145  29 I30
stroke3  146  31 I30
stroke3  146  33 I30
stroke3  145  34 I30
stroke3  145  36 I30
stroke3  145  38 I30
stroke3  145  39 I30
stroke3  145  41 I30
stroke3  145  42 I30
stroke3  145  43 I30
stroke3  145  45 I30
stroke3  145  46 I30
stroke3  144  48 I30
stroke3  144  49 I30
stroke3  144  50 I30
stroke3  144  52 I30
stroke3  144  53 I30
stroke3  143  54 I30
stroke3  143  56 I30
stroke3  143  57 I30
stroke3  143  58 I30
stroke3  142  59 I30
stroke3  142  60 I30
stroke3  142  61 I30
stroke3  142  62 I30
stroke3  142  63 I30
stroke3  142  64 I30
stroke3  141  65 I30
stroke3  141  66 I30
stroke3  141  67 I30
stroke3  141  68 I30
stroke3  141  69 I30
stroke3  141  70 I30
stroke3  140  70 I30
stroke4  155  56 B47
stroke4  155  57 I47
stroke4  155  58 I47
stroke4  155  59 I47
stroke4  156  59 I47
stroke4  156  60 I47
stroke4  157  61 I47
stroke4  157  62 I47
stroke4  158  62 I47
stroke4  158  63 I47
stroke4  159  64 I47
stroke4  159  65 I47
stroke4  160  65 I47
stroke4  160  66 I47
stroke4  161  67 I47
stroke4  162  67 I47
stroke4  163  68 I47
stroke4  164  69 I47
stroke4  165  69 I47
stroke4  166  69 I47
stroke4  166  70 I47
stroke4  167  70 I47
stroke4  168  69 I47
stroke4  169  69 I47
stroke4  170  69 I47
stroke4  171  68 I47
stroke4  172  67 I47
stroke4  173  66 I47
stroke4  174  66 I47
stroke4  174  65 I47
stroke4  175  64 I47
stroke4  176  63 I47
stroke4  176  62 I47
stroke4  176  61 I47
stroke4  177  61 I47
stroke4  177  60 I47
stroke4  177  59 I47
stroke4  177  58 I47
stroke4  178  58 I47
stroke4  178  57 I47
stroke4  178  56 I47
stroke4  178  55 I47
stroke4  178  54 I47
stroke4  178  53 I47
stroke4  178  52 I47
stroke4  178  51 I47
stroke4  178  49 I47
stroke4  178  48 I47
stroke4  178  47 I47
stroke4  178  46 I47
stroke4  178  45 I47
stroke4  178  43 I47
stroke4  178  42 I47
stroke4  178  41 I47
stroke4  178  39 I47
stroke4  178  38 I47
stroke4  178  36 I47
stroke4  178  35 I47
stroke4  178  34 I47
stroke4  178  33 I47
stroke4  178  31 I47
stroke4  178  30 I47
stroke4  178  29 I47
stroke4  178  27 I47
stroke4  178  26 I47
stroke4  178  25 I47
stroke4  178  23 I47
stroke4  178  22 I47
stroke4  178  21 I47
stroke4  178  19 I47
stroke4  178  18 I47
stroke4  178  17 I47
stroke4  178  16 I47
stroke4  178  15 I47
stroke4  178  14 I47
stroke4  178  13 I47
stroke4  178  12 I47
stroke4  178  11 I47
stroke4  178  10 I47
stroke4  178  9 I47
stroke4  178  8 I47
stroke4  178  7 I47
stroke4  178  6 I47
stroke4  178  5 I47
stroke4  178  4 I47
stroke4  178  3 I47
stroke4  178  4 I47
stroke4  179  4 I47
stroke4  179  5 I47
stroke5  196  4 B1
stroke5  196  5 I1
stroke5  195  5 I1
stroke5  195  6 I1
stroke5  194  7 I1
stroke5  194  8 I1
stroke5  194  9 I1
stroke5  194  10 I1
stroke5  193  11 I1
stroke5  193  12 I1
stroke5  193  13 I1
stroke5  193  14 I1
stroke5  193  16 I1
stroke5  193  17 I1
stroke5  193  19 I1
stroke5  193  20 I1
stroke5  193  22 I1
stroke5  193  23 I1
stroke5  192  25 I1
stroke5  192  27 I1
stroke5  192  28 I1
stroke5  192  30 I1
stroke5  192  31 I1
stroke5  192  33 I1
stroke5  192  34 I1
stroke5  192  36 I1
stroke5  193  37 I1
stroke5  193  39 I1
stroke5  193  40 I1
stroke5  193  42 I1
stroke5  193  43 I1
stroke5  194  44 I1
stroke5  194  45 I1
stroke5  195  46 I1
stroke5  195  48 I1
stroke5  196  49 I1
stroke5  196  50 I1
stroke5  197  50 I1
stroke5  197  51 I1
stroke5  198  52 I1
stroke5  198  53 I1
stroke5  199  53 I1
stroke5  198  54 I1
stroke5  197  54 I1
stroke5  196  54 I1
stroke5  195  54 I1
stroke5  194  53 I1
stroke5  193  53 I1
stroke5  192  53 I1
stroke5  191  53 I1
stroke5  190  53 I1
stroke5  189  53 I1
stroke5  188  53 I1
stroke5  188  52 I1
stroke5  187  52 I1
stroke5  186  52 I1
stroke5  185  52 I1
stroke5  185  51 I1
stroke5  184  52 I1
stroke5  185  53 I1
stroke5  185  54 I1
stroke5  186  54 I1
stroke5  186  55 I1
stroke5  186  56 I1
stroke5  187  57 I1
stroke5  187  58 I1
stroke5  188  59 I1
stroke5  188  60 I1
stroke5  189  61 I1
stroke5  190  62 I1
stroke5  191  63 I1
stroke5  191  64 I1
stroke5  192  65 I1
stroke5  193  66 I1
stroke5  193  67 I1
stroke5  194  67 I1
stroke5  195  68 I1
stroke5  196  69 I1
stroke5  197  70 I1
stroke5  198  70 I1
stroke5  199  71 I1
stroke5  200  71 I1
stroke5  201  71 I1
stroke5  202  71 I1
stroke5  203  71 I1
stroke5  204  71 I1
stroke5  205  71 I1
stroke5  206  70 I1
stroke5  207  70 I1
stroke5  208  70 I1
stroke5  209  69 I1
stroke5  210  69 I1
stroke5  211  69 I1
stroke5  212  68 I1
stroke5  213  68 I1
stroke5  214  68 I1
stroke5  214  67 I1
stroke5  215  67 I1
stroke5  215  66 I1
stroke5  216  66 I1
stroke5  217  65 I1
stroke5  217  64 I1
stroke5  217  63 I1
stroke5  217  62 I1
stroke5  218  62 I1
stroke5  218  61 I1
stroke5  218  60 I1
stroke5  218  59 I1
stroke5  218  58 I1
stroke5  218  57 I1
stroke5  218  55 I1
stroke5  218  54 I1
stroke5  218  53 I1
stroke5  219  51 I1
stroke5  219  50 I1
stroke5  219  48 I1
stroke5  219  47 I1
stroke5  219  45 I1
stroke5  219  44 I1
stroke5  219  42 I1
stroke5  219  41 I1
stroke5  219  39 I1
stroke5  219  38 I1
stroke5  219  36 I1
stroke5  219  35 I1
stroke5  219  33 I1
stroke5  219  32 I1
stroke5  219  31 I1
stroke5  220  29 I1
stroke5  220  27 I1
stroke5  220  26 I1
stroke5  220  25 I1
stroke5  220  23 I1
stroke5  220  22 I1
stroke5  220  21 I1
stroke5  220  20 I1
stroke5  220  19 I1
stroke5  220  17 I1
stroke5  220  16 I1
stroke5  219  15 I1
stroke5  219  14 I1
stroke5  219  13 I1
stroke5  219  12 I1
stroke5  220  12 I1
stroke5  220  11 I1
stroke5  220  10 I1
stroke5  220  9 I1
stroke5  220  8 I1
stroke5  220  7 I1
stroke5  220  6 I1
stroke5  220  7 I1
stroke5  221  8 I1
stroke6  241  63 B39
stroke6  242  63 I39
stroke6  242  62 I39
stroke6  241  62 I39
stroke6  241  61 I39
stroke6  241  60 I39
stroke6  241  59 I39
stroke6  241  58 I39
stroke6  240  58 I39
stroke6  240  57 I39
stroke6  240  56 I39
stroke6  239  55 I39
stroke6  239  54 I39
stroke6  238  54 I39
stroke6  238  53 I39
stroke6  237  53 I39
stroke6  236  52 I39
stroke6  235  53 I39
stroke6  234  53 I39
stroke6  233  54 I39
stroke6  232  55 I39
stroke6  232  56 I39
stroke6  231  57 I39
stroke6  231  58 I39
stroke6  231  59 I39
stroke6  232  60 I39
stroke6  232  61 I39
stroke6  232  62 I39
stroke6  232  63 I39
stroke6  233  64 I39
stroke6  233  65 I39
stroke6  234  66 I39
stroke6  235  67 I39
stroke6  236  68 I39
stroke6  237  68 I39
stroke6  238  68 I39
stroke6  239  68 I39
stroke6  240  68 I39
stroke6  241  68 I39
stroke6  241  67 I39
stroke6  242  67 I39
stroke6  242  66 I39
stroke6  243  66 I39
stroke6  243  65 I39
stroke6  243  64 I39
stroke6  243  63 I39
stroke6  243  62 I39
stroke6  243  61 I39
stroke6  243  60 I39
stroke6  243  59 I39
stroke6  243  58 I39
stroke6  243  57 I39
stroke6  243  56 I39
stroke6  243  55 I39
stroke6  243  53 I39
stroke6  243  52 I39
stroke6  243  51 I39
stroke6  243  50 I39
stroke6  244  49 I39
stroke6  244  48 I39
stroke6  244  46 I39
stroke6  244  45 I39
stroke6  244  44 I39
stroke6  244  43 I39
stroke6  244  42 I39
stroke6  244  40 I39
stroke6  244  39 I39
stroke6  244  38 I39
stroke6  244  37 I39
stroke6  244  36 I39
stroke6  245  35 I39
stroke6  245  34 I39
stroke6  245  33 I39
stroke6  245  32 I39
stroke6  245  31 I39
stroke6  245  30 I39
stroke6  245  28 I39
stroke6  245  27 I39
stroke6  245  26 I39
stroke6  245  25 I39
stroke6  245  24 I39
stroke6  245  23 I39
stroke6  245  22 I39
stroke6  245  21 I39
stroke6  246  20 I39
stroke6  246  19 I39
stroke6  246  18 I39
stroke6  246  17 I39
stroke6  246  16 I39
stroke6  246  15 I39
stroke6  246  14 I39
stroke6  246  13 I39
stroke6  246  12 I39
stroke6  246  11 I39
stroke6  246  10 I39
stroke6  246  9 I39
stroke6  246  8 I39
stroke6  246  7 I39
stroke6  246  6 I39
stroke6  246  5 I39
stroke6  246  4 I39
stroke6  247  4 I39
stroke6  247  5 I39
stroke6  248  5 I39
stroke6  249  5 I39
stroke6  250  5 I39
stroke6  251  5 I39
stroke6  252  5 I39
stroke6  253  5 I39
stroke6  254  5 I39
stroke6  255  5 I39
stroke6  256  5 I39
stroke6  257  5 I39
stroke6  258  4 I39
stroke6  259  4 I39
stroke6  260  4 I39
stroke6  261  4 I39
stroke6  262  4 I39
stroke6  263  4 I39
stroke6  264  4 I39
stroke6  265  4 I39
stroke6  266  5 I39
stroke6  267  5 I39
stroke6  268  6 I39
stroke6  268  7 I39
stroke6  269  7 I39
stroke6  269  8 I39
stroke6  269  9 I39
stroke6  269  10 I39
stroke6  269  11 I39
stroke6  269  12 I39
stroke6  268  14 I39
stroke6  268  16 I39
stroke6  268  18 I39
stroke6  268  19 I39
stroke6  268  21 I39
stroke6  268  23 I39
stroke6  268  25 I39
stroke6  267  27 I39
stroke6  267  30 I39
stroke6  267  32 I39
stroke6  267  34 I39
stroke6  266  36 I39
stroke6  266  38 I39
stroke6  266  40 I39
stroke6  266  42 I39
stroke6  265  44 I39
stroke6  265  46 I39
stroke6  265  48 I39
stroke6  265  50 I39
stroke6  264  52 I39
stroke6  264  54 I39
stroke6  264  55 I39
stroke6  264  57 I39
stroke6  264  58 I39
stroke6  263  60 I39
stroke6  263  61 I39
stroke6  263  62 I39
stroke6  263  63 I39
stroke6  262  63 I39
stroke6  262  64 I39
stroke6  262  65 I39
stroke6  261  66 I39
stroke6  261  67 I39
stroke6  261  68 I39
stroke6  260  68 I39
stroke6  260  69 I39
stroke6  260  68 I39
stroke6  260  67 I39
stroke6  260  66 I39
stroke6  257  39 I39
stroke6  257  38 I39
stroke6  258  38 I39
stroke6  259  38 I39
stroke6  259  39 I39
stroke6  260  39 I39
stroke6  260  40 I39
stroke6  260  41 I39
stroke6  259  42 I39
stroke6  258  42 I39
stroke6  258  43 I39
stroke6  257  43 I39
stroke6  256  43 I39
stroke6  255  43 I39
stroke6  255  42 I39
stroke6  254  42 I39
stroke6  254  41 I39
stroke6  253  40 I39
stroke6  253  39 I39
stroke6  254  38 I39
stroke6  254  37 I39
stroke6  254  36 I39
stroke6  255  36 I39
stroke6  256  35 I39
stroke6  257  35 I39
stroke6  258  35 I39
stroke6  259  35 I39
stroke6  260  35 I39
stroke6  261  36 I39
stroke6  262  36 I39
stroke6  263  36 I39
stroke6  264  37 I39
stroke6  265  37 I39
stroke6  266  38 I39
stroke6  267  38 I39
stroke6  268  39 I39
stroke6  269  39 I39
stroke6  269  40 I39
stroke6  270  41 I39
stroke6  271  42 I39
stroke6  272  43 I39
stroke6  272  44 I39
stroke6  273  44 I39
stroke6  273  45 I39
stroke6  274  46 I39
stroke6  274  47 I39
stroke6  274  48 I39
stroke6  275  48 I39
stroke6  275  49 I39
stroke6  275  50 I39
stroke6  275  51 I39
stroke6  275  52 I39
stroke6  275  53 I39
stroke7  247  87 B64
stroke7  247  88 I64
stroke7  247  89 I64
stroke7  248  90 I64
stroke7  249  91 I64
stroke7  250  91 I64
stroke7  251  91 I64
stroke7  251  90 I64
stroke7  252  90 I64
stroke7  253  89 I64
stroke7  254  88 I64
stroke7  255  87 I64
stroke7  255  86 I64
stroke7  255  85 I64
stroke7  255  84 I64
stroke7  255  83 I64
stroke7  254  82 I64
stroke7  253  82 I64
stroke7  252  82 I64
stroke7  251  82 I64
stroke7  250  82 I64
stroke7  249  82 I64
stroke7  248  82 I64
stroke7  248  83 I64
stroke7  247  83 I64
stroke7  247  84 I64
stroke7  247  85 I64
stroke7  247  86 I64
stroke7  247  87 I64
stroke7  247  88 I64
stroke7  247  89 I64
stroke7  247  90 I64
stroke7  247  91 I64
stroke7  248  92 I64
stroke7  248  93 I64
stroke7  249  94 I64
stroke7  249  95 I64
stroke7  250  96 I64
stroke7  251  97 I64
stroke7  251  98 I64
stroke7  252  99 I64
stroke7  253  100 I64
stroke7  253  101 I64
stroke7  254  101 I64
stroke7  255  102 I64
stroke7  255  103 I64
stroke7  256  104 I64
stroke7  256  105 I64
stroke7  257  105 I64
stroke7  257  106 I64
stroke7  257  107 I64
stroke7  258  108 I64
stroke7  258  109 I64
stroke7  259  109 I64
stroke7  258  109 I64
stroke7  257  109 I64
stroke7  257  108 I64
stroke8  307  9 B37
stroke8  308  9 I37
stroke8  308  10 I37
stroke8  307  11 I37
stroke8  307  12 I37
stroke8  306  12 I37
stroke8  306  13 I37
stroke8  305  13 I37
stroke8  304  14 I37
stroke8  303  14 I37
stroke8  302  14 I37
stroke8  302  15 I37
stroke8  301  15 I37
stroke8  300  14 I37
stroke8  299  14 I37
stroke8  298  13 I37
stroke8  297  13 I37
stroke8  297  12 I37
stroke8  296  12 I37
stroke8  296  11 I37
stroke8  296  10 I37
stroke8  295  10 I37
stroke8  296  9 I37
stroke8  296  8 I37
stroke8  296  7 I37
stroke8  297  7 I37
stroke8  297  6 I37
stroke8  297  5 I37
stroke8  298  5 I37
stroke8  299  4 I37
stroke8  300  3 I37
stroke8  301  3 I37
stroke8  302  3 I37
stroke8  303  3 I37
stroke8  304  3 I37
stroke8  305  3 I37
stroke8  306  4 I37
stroke8  307  4 I37
stroke8  307  5 I37
stroke8  308  5 I37
stroke8  308  6 I37
stroke8  309  6 I37
stroke8  309  7 I37
stroke8  309  8 I37
stroke8  309  9 I37
stroke8  309  10 I37
stroke8  309  11 I37
stroke8  309  12 I37
stroke8  310  13 I37
stroke8  310  14 I37
stroke8  310  15 I37
stroke8  310  16 I37
stroke8  310  17 I37
stroke8  310  19 I37
stroke8  310  20 I37
stroke8  310  21 I37
stroke8  310  23 I37
stroke8  310  24 I37
stroke8  310  26 I37
stroke8  310  27 I37
stroke8  310  29 I37
stroke8  309  30 I37
stroke8  309  32 I37
stroke8  309  33 I37
stroke8  309  35 I37
stroke8  309  36 I37
stroke8  309  37 I37
stroke8  309  39 I37
stroke8  309  40 I37
stroke8  308  41 I37
stroke8  308  43 I37
stroke8  308  44 I37
stroke8  308  45 I37
stroke8  308  46 I37
stroke8  308  48 I37
stroke8  308  49 I37
stroke8  308  50 I37
stroke8  308  51 I37
stroke8  307  52 I37
stroke8  308  53 I37
stroke8  307  54 I37
stroke8  307  55 I37
stroke8  307  56 I37
stroke8  307  57 I37
stroke8  307  58 I37
stroke8  307  59 I37
stroke8  307  60 I37
stroke8  306  60 I37
stroke8  306  61 I37
stroke8  306  62 I37
stroke8  305  62 I37
stroke8  305  63 I37
stroke8  304  63 I37
stroke8  303  64 I37
stroke8  302  64 I37
stroke8  302  65 I37
stroke8  301  65 I37
stroke8  300  65 I37
stroke8  299  66 I37
stroke8  298  66 I37
stroke8  297  66 I37
stroke8  295  66 I37
stroke8  294  65 I37
stroke8  293  65 I37
stroke8  292  65 I37
stroke8  291  65 I37
stroke8  290  65 I37
stroke8  289  65 I37
stroke8  288  64 I37
stroke8  287  64 I37
stroke8  285  64 I37
stroke8  284  64 I37
stroke8  284  63 I37
stroke8  283  63 I37
stroke8  282  63 I37
stroke8  281  62 I37
stroke8  280  62 I37
stroke8  280  61 I37
stroke8  279  61 I37
stroke8  280  61 I37
stroke9  308  84 B48
stroke9  307  85 I48
stroke9  306  85 I48
stroke9  306  86 I48
stroke9  305  86 I48
stroke9  305  87 I48
stroke9  304  87 I48
stroke9  303  88 I48
stroke9  303  89 I48
stroke9  302  89 I48
stroke9  301  90 I48
stroke9  300  91 I48
stroke9  299  91 I48
stroke9  297  92 I48
stroke9  296  92 I48
stroke9  294  93 I48
stroke9  292  93 I48
stroke9  290  93 I48
stroke9  288  93 I48
stroke9  287  94 I48
stroke9  285  94 I48
stroke9  283  93 I48
stroke9  282  93 I48
stroke9  281  93 I48
stroke9  280  93 I48
stroke9  279  92 I48
stroke9  278  92 I48
stroke9  277  91 I48
stroke9  276  91 I48
stroke9  277  92 I48
stroke9  278  93 I48
stroke9  278  94 I48
stroke9  279  94 I48
stroke9  279  95 I48
stroke9  280  96 I48
stroke9  281  97 I48
stroke9  281  98 I48
stroke9  282  99 I48
stroke9  283  100 I48
stroke9  284  101 I48
stroke9  285  101 I48
stroke9  286  102 I48
stroke9  287  103 I48
stroke9  289  104 I48
stroke9  290  105 I48
stroke9  291  105 I48
stroke9  291  106 I48
stroke9  292  106 I48
stroke9  293  106 I48
stroke9  294  106 I48
stroke9  295  106 I48
stroke9  296  106 I48
stroke9  297  105 I48
stroke9  298  104 I48
stroke9  299  103 I48
stroke9  300  103 I48
stroke9  301  102 I48
stroke9  301  101 I48
stroke9  302  100 I48
stroke9  303  99 I48
stroke9  304  98 I48
stroke9  305  97 I48
stroke9  305  96 I48
stroke9  306  95 I48
stroke9  306  94 I48
stroke9  307  93 I48
stroke9  307  92 I48
stroke9  308  91 I48
stroke9  308  90 I48
stroke9  308  89 I48
stroke9  309  89 I48
stroke9  309  88 I48
stroke9  309  87 I48
stroke9  309  86 I48
stroke9  310  86 I48
stroke9  310  85 I48
stroke9  310  84 I48
stroke10  340  42 B8
stroke10  341  42 I8
stroke10  341  41 I8
stroke10  341  40 I8
stroke10  340  40 I8
stroke10  340  39 I8
stroke10  339  39 I8
stroke10  339  38 I8
stroke10  338  38 I8
stroke10  337  37 I8
stroke10  336  37 I8
stroke10  335  37 I8
stroke10  334  37 I8
stroke10  333  37 I8
stroke10  332  37 I8
stroke10  331  38 I8
stroke10  331  39 I8
stroke10  330  39 I8
stroke10  330  40 I8
stroke10  330  41 I8
stroke10  330  42 I8
stroke10  330  43 I8
stroke10  330  44 I8
stroke10  331  44 I8
stroke10  331  45 I8
stroke10  331  46 I8
stroke10  332  46 I8
stroke10  333  47 I8
stroke10  333  46 I8
stroke10  334  46 I8
stroke10  335  46 I8
stroke10  336  46 I8
stroke10  337  46 I8
stroke10  338  45 I8
stroke10  339  45 I8
stroke10  339  44 I8
stroke10  340  44 I8
stroke10  340  43 I8
stroke10  341  43 I8
stroke10  341  42 I8
stroke10  341  41 I8
stroke10  342  40 I8
stroke10  342  39 I8
stroke10  342  38 I8
stroke10  342  37 I8
stroke10  343  36 I8
stroke10  343  35 I8
stroke10  344  34 I8
stroke10  344  33 I8
stroke10  344  32 I8
stroke10  344  31 I8
stroke10  344  30 I8
stroke10  345  29 I8
stroke10  345  28 I8
stroke10  345  27 I8
stroke10  346  25 I8
stroke10  346  24 I8
stroke10  346  23 I8
stroke10  346  22 I8
stroke10  346  21 I8
stroke10  346  20 I8
stroke10  347  19 I8
stroke10  347  18 I8
stroke10  347  17 I8
stroke10  347  16 I8
stroke10  347  15 I8
stroke10  347  14 I8
stroke10  348  14 I8
stroke10  348  13 I8
stroke10  348  12 I8
stroke10  348  11 I8
stroke10  348  10 I8
stroke10  348  9 I8
stroke10  348  8 I8
stroke10  349  8 I8
stroke10  349  7 I8
stroke10  349  6 I8
stroke10  349  5 I8
stroke10  350  5 I8
stroke10  350  6 I8
stroke10  350  7 I8
stroke10  351  7 I8
stroke10  351  8 I8
stroke10  351  9 I8
stroke10  351  10 I8
stroke10  351  11 I8
stroke10  351  12 I8
stroke10  351  14 I8
stroke10  351  15 I8
stroke10  351  16 I8
stroke10  351  18 I8
stroke10  351  19 I8
stroke10  351  21 I8
stroke10  351  22 I8
stroke10  351  24 I8
stroke10  352  26 I8
stroke10  352  27 I8
stroke10  352  29 I8
stroke10  352  30 I8
stroke10  352  32 I8
stroke10  352  33 I8
stroke10  352  35 I8
stroke10  352  36 I8
stroke10  352  38 I8
stroke10  351  39 I8
stroke10  351  40 I8
stroke10  351  41 I8
stroke10  351  43 I8
stroke10  351  44 I8
stroke10  351  45 I8
stroke10  351  47 I8
stroke10  350  48 I8
stroke10  350  49 I8
stroke10  350  51 I8
stroke10  350  52 I8
stroke10  349  53 I8
stroke10  349  55 I8
stroke10  349  56 I8
stroke10  349  57 I8
stroke10  349  58 I8
stroke10  348  59 I8
stroke10  348  60 I8
stroke10  348  61 I8
stroke10  348  62 I8
stroke10  347  63 I8
stroke10  347  64 I8
stroke10  347  65 I8
stroke10  346  66 I8
stroke10  346  67 I8
stroke10  345  68 I8
stroke10  344  69 I8
stroke10  343  70 I8
stroke10  342  70 I8
stroke10  341  71 I8
stroke10  340  71 I8
stroke10  339  71 I8
stroke10  338  71 I8
stroke10  337  71 I8
stroke10  336  71 I8
stroke10  335  71 I8
stroke10  334  70 I8
stroke10  333  70 I8
stroke10  332  70 I8
stroke10  331  69 I8
stroke10  330  69 I8
stroke10  329  69 I8
stroke10  328  68 I8
stroke10  327  68 I8
stroke10  326  67 I8
stroke10  325  66 I8
stroke10  324  66 I8
stroke10  323  65 I8
stroke10  322  64 I8
stroke10  321  63 I8
stroke10  320  62 I8
stroke10  320  61 I8
stroke10  321  61 I8
stroke10  322  61 I8
stroke10  323  62 I8
stroke11  361  52 B47
stroke11  361  53 I47
stroke11  362  54 I47
stroke11  362  55 I47
stroke11  362  56 I47
stroke11  363  56 I47
stroke11  363  57 I47
stroke11  363  58 I47
stroke11  364  59 I47
stroke11  364  60 I47
stroke11  365  61 I47
stroke11  365  62 I47
stroke11  366  63 I47
stroke11  366  64 I47
stroke11  367  64 I47
stroke11  368  65 I47
stroke11  368  66 I47
stroke11  369  66 I47
stroke11  370  67 I47
stroke11  371  68 I47
stroke11  372  68 I47
stroke11  373  69 I47
stroke11  374  69 I47
stroke11  375  69 I47
stroke11  376  69 I47
stroke11  377  69 I47
stroke11  378  69 I47
stroke11  378  68 I47
stroke11  379  68 I47
stroke11  380  68 I47
stroke11  380  67 I47
stroke11  381  67 I47
stroke11  382  67 I47
stroke11  382  66 I47
stroke11  383  66 I47
stroke11  383  65 I47
stroke11  384  64 I47
stroke11  384  63 I47
stroke11  385  62 I47
stroke11  385  61 I47
stroke11  385  60 I47
stroke11  384  59 I47
stroke11  384  58 I47
stroke11  384  57 I47
stroke11  384  55 I47
stroke11  385  54 I47
stroke11  385  53 I47
stroke11  384  51 I47
stroke11  384  50 I47
stroke11  384  48 I47
stroke11  384  46 I47
stroke11  384  45 I47
stroke11  384  44 I47
stroke11  384  42 I47
stroke11  384  41 I47
stroke11  384  39 I47
stroke11  384  38 I47
stroke11  384  36 I47
stroke11  384  35 I47
stroke11  384  33 I47
stroke11  384  32 I47
stroke11  384  30 I47
stroke11  384  29 I47
stroke11  384  28 I47
stroke11  384  26 I47
stroke11  383  25 I47
stroke11  383  24 I47
stroke11  383  23 I47
stroke11  383  21 I47
stroke11  383  20 I47
stroke11  383  19 I47
stroke11  382  18 I47
stroke11  382  16 I47
stroke11  382  15 I47
stroke11  382  14 I47
stroke11  382  13 I47
stroke11  382  12 I47
stroke11  382  11 I47
stroke11  382  10 I47
stroke11  382  9 I47
stroke11  382  8 I47
stroke11  382  7 I47
stroke11  382  6 I47
stroke11  382  5 I47
stroke11  383  5 I47
stroke11  383  6 I47
stroke11  383  7 I47
stroke11  384  7 I47
stroke12  421  13 B35
stroke12  422  14 I35
stroke12  423  14 I35
stroke12  422  15 I35
stroke12  421  15 I35
stroke12  421  16 I35
stroke12  420  16 I35
stroke12  420  17 I35
stroke12  419  17 I35
stroke12  419  18 I35
stroke12  418  19 I35
stroke12  417  19 I35
stroke12  416  19 I35
stroke12  415  19 I35
stroke12  414  19 I35
stroke12  413  19 I35
stroke12  412  18 I35
stroke12  411  17 I35
stroke12  410  16 I35
stroke12  410  15 I35
stroke12  409  14 I35
stroke12  409  13 I35
stroke12  409  12 I35
stroke12  410  11 I35
stroke12  410  10 I35
stroke12  411  10 I35
stroke12  411  9 I35
stroke12  412  8 I35
stroke12  412  7 I35
stroke12  413  7 I35
stroke12  414  6 I35
stroke12  415  6 I35
stroke12  416  6 I35
stroke12  417  6 I35
stroke12  418  6 I35
stroke12  419  6 I35
stroke12  419  7 I35
stroke12  420  7 I35
stroke12  420  8 I35
stroke12  421  8 I35
stroke12  421  9 I35
stroke12  421  10 I35
stroke12  421  11 I35
stroke12  422  12 I35
stroke12  422  13 I35
stroke12  422  14 I35
stroke12  422  15 I35
stroke12  422  16 I35
stroke12  422  18 I35
stroke12  422  19 I35
stroke12  422  21 I35
stroke12  422  22 I35
stroke12  423  24 I35
stroke12  422  25 I35
stroke12  423  27 I35
stroke12  423  29 I35
stroke12  423  31 I35
stroke12  423  33 I35
stroke12  423  34 I35
stroke12  422  36 I35
stroke12  422  38 I35
stroke12  422  40 I35
stroke12  422  41 I35
stroke12  422  43 I35
stroke12  422  44 I35
stroke12  422  45 I35
stroke12  422  47 I35
stroke12  422  48 I35
stroke12  422  49 I35
stroke12  422  50 I35
stroke12  422  51 I35
stroke12  422  52 I35
stroke12  421  53 I35
stroke12  421  54 I35
stroke12  420  55 I35
stroke12  419  56 I35
stroke12  418  56 I35
stroke12  417  56 I35
stroke12  416  56 I35
stroke12  415  56 I35
stroke12  414  56 I35
stroke12  413  56 I35
stroke12  412  57 I35
stroke12  410  57 I35
stroke12  409  57 I35
stroke12  408  57 I35
stroke12  407  57 I35
stroke12  405  57 I35
stroke12  404  57 I35
stroke12  403  57 I35
stroke12  402  57 I35
stroke12  400  56 I35
stroke12  399  56 I35
stroke12  398  56 I35
stroke12  397  56 I35
stroke12  396  56 I35
stroke12  395  56 I35
stroke12  395  57 I35
stroke12  395  58 I35
stroke12  396  58 I35
stroke12  396  59 I35
stroke12  396  60 I35
stroke12  397  60 I35
stroke12  397  61 I35
stroke12  398  62 I35
stroke12  398  63 I35
stroke12  399  63 I35
stroke12  400  64 I35
stroke12  400  65 I35
stroke12  401  66 I35
stroke12  402  66 I35
stroke12  403  67 I35
stroke12  404  67 I35
stroke12  405  68 I35
stroke12  406  67 I35
stroke12  407  67 I35
stroke12  408  67 I35
stroke12  409  67 I35
stroke12  410  66 I35
stroke12  411  66 I35
stroke12  412  66 I35
stroke12  412  65 I35
stroke12  413  65 I35
stroke12  414  65 I35
stroke12  415  65 I35
stroke12  416  65 I35
stroke12  417  65 I35
stroke12  418  65 I35
stroke12  419  65 I35
stroke12  420  65 I35
stroke12  421  66 I35
stroke12  422  66 I35
stroke12  422  67 I35
stroke12  423  67 I35
stroke12  423  68 I35
stroke12  424  69 I35
stroke13  445  12 B19
stroke13  445  13 I19
stroke13  446  13 I19
stroke13  446  14 I19
stroke13  447  14 I19
stroke13  447  15 I19
stroke13  448  15 I19
stroke13  449  16 I19
stroke13  450  16 I19
stroke13  451  16 I19
stroke13  451  15 I19
stroke13  452  15 I19
stroke13  452  14 I19
stroke13  453  14 I19
stroke13  453  13 I19
stroke13  454  12 I19
stroke13  454  11 I19
stroke13  454  10 I19
stroke13  454  9 I19
stroke13  454  8 I19
stroke13  454  7 I19
stroke13  453  7 I19
stroke13  453  6 I19
stroke13  452  6 I19
stroke13  452  5 I19
stroke13  451  5 I19
stroke13  450  5 I19
stroke13  449  5 I19
stroke13  448  5 I19
stroke13  448  6 I19
stroke13  447  6 I19
stroke13  447  7 I19
stroke13  446  8 I19
stroke13  446  9 I19
stroke13  446  10 I19
stroke13  446  11 I19
stroke13  446  12 I19
stroke13  446  13 I19
stroke13  445  14 I19
stroke13  445  15 I19
stroke13  445  16 I19
stroke13  445  18 I19
stroke13  445  19 I19
stroke13  445  20 I19
stroke13  445  22 I19
stroke13  446  23 I19
stroke13  446  25 I19
stroke13  446  26 I19
stroke13  446  28 I19
stroke13  447  29 I19
stroke13  447  30 I19
stroke13  447  32 I19
stroke13  448  33 I19
stroke13  448  35 I19
stroke13  449  36 I19
stroke13  449  37 I19
stroke13  449  39 I19
stroke13  449  40 I19
stroke13  450  41 I19
stroke13  450  42 I19
stroke13  450  43 I19
stroke13  450  44 I19
stroke13  450  45 I19
stroke13  449  46 I19
stroke13  448  46 I19
stroke13  447  46 I19
stroke13  446  46 I19
stroke13  445  46 I19
stroke13  444  46 I19
stroke13  443  45 I19
stroke13  442  45 I19
stroke13  441  45 I19
stroke13  440  45 I19
stroke13  439  45 I19
stroke13  438  45 I19
stroke13  438  46 I19
stroke13  437  46 I19
stroke13  437  47 I19
stroke13  438  47 I19
stroke13  438  48 I19
stroke13  438  49 I19
stroke13  439  49 I19
stroke13  439  50 I19
stroke13  440  51 I19
stroke13  440  52 I19
stroke13  440  53 I19
stroke13  441  54 I19
stroke13  441  55 I19
stroke13  442  56 I19
stroke13  442  57 I19
stroke13  443  58 I19
stroke13  443  59 I19
stroke13  444  60 I19
stroke13  444  61 I19
stroke13  445  61 I19
stroke13  445  62 I19
stroke13  446  63 I19
stroke13  446  64 I19
stroke13  447  64 I19
stroke13  447  65 I19
stroke13  448  66 I19
stroke13  449  66 I19
stroke13  449  67 I19
stroke13  450  67 I19
stroke13  450  68 I19
stroke13  451  68 I19
stroke13  451  69 I19
stroke13  452  69 I19
stroke13  453  69 I19
stroke13  454  70 I19
stroke13  455  70 I19
stroke13  456  70 I19
stroke13  457  70 I19
stroke13  458  70 I19
stroke13  459  70 I19
stroke13  460  70 I19
stroke13  461  69 I19
stroke13  462  69 I19
stroke13  463  68 I19
stroke13  464  68 I19
stroke13  465  67 I19
stroke13  466  66 I19
stroke13  466  65 I19
stroke13  467  64 I19
stroke13  467  63 I19
stroke13  467  62 I19
stroke13  467  61 I19
stroke13  467  60 I19
stroke13  466  59 I19
stroke13  466  58 I19
stroke13  466  57 I19
stroke13  466  56 I19
stroke13  466  54 I19
stroke13  466  53 I19
stroke13  466  52 I19
stroke13  466  50 I19
stroke13  465  49 I19
stroke13  465  47 I19
stroke13  465  45 I19
stroke13  465  43 I19
stroke13  465  42 I19
stroke13  465  40 I19
stroke13  465  38 I19
stroke13  465  36 I19
stroke13  465  34 I19
stroke13  465  33 I19
stroke13  465  31 I19
stroke13  465  29 I19
stroke13  465  27 I19
stroke13  465  25 I19
stroke13  465  24 I19
stroke13  465  22 I19
stroke13  465  20 I19
stroke13  466  19 I19
stroke13  466  18 I19
stroke13  466  16 I19
stroke13  466  15 I19
stroke13  466  14 I19
stroke13  466  13 I19
stroke13  466  12 I19
stroke13  466  11 I19
stroke13  466  10 I19
stroke13  466  9 I19
stroke13  467  9 I19
stroke13  467  8 I19
stroke13  467  7 I19
stroke13  466  7 I19
stroke13  467  6 I19
stroke13  467  7 I19
stroke13  466  7 I19
stroke13  467  7 I19
stroke13  466  8 I19
stroke13  466  9 I19
stroke13  466  10 I19
stroke13  466  11 I19
stroke13  467  12 I19
stroke13  467  13 I19
stroke13  468  14 I19
stroke13  469  16 I19
stroke13  470  17 I19
stroke13  471  18 I19
stroke13  473  19 I19
stroke13  474  20 I19
stroke13  475  21 I19
stroke13  477  22 I19
stroke13  478  23 I19
stroke13  479  24 I19
stroke13  481  24 I19
stroke13  482  25 I19
stroke13  483  25 I19
stroke13  484  25 I19
stroke13  485  25 I19
stroke13  485  26 I19
stroke13  486  25 I19
stroke13  487  25 I19
stroke13  488  25 I19
stroke13  489  24 I19
stroke13  489  23 I19
stroke13  490  23 I19
stroke13  490  22 I19
stroke13  491  21 I19
stroke13  491  20 I19
stroke13  491  19 I19
stroke13  491  18 I19
stroke13  491  17 I19
stroke13  491  16 I19
stroke13  491  15 I19
stroke13  491  14 I19
stroke13  491  13 I19
stroke13  490  13 I19
stroke13  490  12 I19
stroke13  489  11 I19
stroke13  488  10 I19
stroke13  487  9 I19
stroke13  487  8 I19
stroke13  486  8 I19
stroke13  486  7 I19
stroke13  485  7 I19
stroke13  484  6 I19
stroke13  483  6 I19
stroke13  483  5 I19
stroke13  482  5 I19
stroke13  481  6 I19
stroke13  481  7 I19
stroke13  481  8 I19
stroke13  481  9 I19
stroke13  481  10 I19
stroke13  481  11 I19
stroke13  481  12 I19
stroke13  481  14 I19
stroke13  481  15 I19
stroke13  481  17 I19
stroke13  481  19 I19
stroke13  481  20 I19
stroke13  481  22 I19
stroke13  481  24 I19
stroke13  481  26 I19
stroke13  481  27 I19
stroke13  481  29 I19
stroke13  481  30 I19
stroke13  481  32 I19
stroke13  481  34 I19
stroke13  481  35 I19
stroke13  481  37 I19
stroke13  481  38 I19
stroke13  481  40 I19
stroke13  481  41 I19
stroke13  481  43 I19
stroke13  480  44 I19
stroke13  480  46 I19
stroke13  480  47 I19
stroke13  480  48 I19
stroke13  480  50 I19
stroke13  480  51 I19
stroke13  480  52 I19
stroke13  480  54 I19
stroke13  480  55 I19
stroke13  480  56 I19
stroke13  479  57 I19
stroke13  479  58 I19
stroke13  479  59 I19
stroke13  479  60 I19
stroke13  479  61 I19
stroke13  479  62 I19
stroke13  479  63 I19
stroke13  479  64 I19
stroke13  479  65 I19
stroke13  479  66 I19
stroke13  479  67 I19
stroke13  479  68 I19
stroke13  480  68 I19
stroke13  480  69 I19
stroke14  477  95 B64
stroke14  476  95 I64
stroke14  477  96 I64
stroke14  477  97 I64
stroke14  478  97 I64
stroke14  479  97 I64
stroke14  479  96 I64
stroke14  480  96 I64
stroke14  480  95 I64
stroke14  481  94 I64
stroke14  481  93 I64
stroke14  482  92 I64
stroke14  482  91 I64
stroke14  482  90 I64
stroke14  482  89 I64
stroke14  481  89 I64
stroke14  481  88 I64
stroke14  480  88 I64
stroke14  479  88 I64
stroke14  478  88 I64
stroke14  477  88 I64
stroke14  476  88 I64
stroke14  476  89 I64
stroke14  475  89 I64
stroke14  474  90 I64
stroke14  473  91 I64
stroke14  473  92 I64
stroke14  473  93 I64
stroke14  473  94 I64
stroke14  473  95 I64
stroke14  474  96 I64
stroke14  474  97 I64
stroke14  475  98 I64
stroke14  476  99 I64
stroke14  476  100 I64
stroke14  477  101 I64
stroke14  478  102 I64
stroke14  479  102 I64
stroke14  479  103 I64
stroke14  480  104 I64
stroke14  481  105 I64
stroke14  482  107 I64
stroke14  483  108 I64
stroke14  484  109 I64
stroke14  485  110 I64
stroke14  485  111 I64
stroke14  486  112 I64
stroke14  487  113 I64
stroke14  488  114 I64
stroke14  488  115 I64
stroke14  489  115 I64
stroke14  489  116 I64
stroke14  490  116 I64
stroke14  490  117 I64
stroke14  491  118 I64
stroke14  490  118 I64
stroke14  490  117 I64
