stroke1  116  13 B37
stroke1  117  13 I37
stroke1  117  14 I37
stroke1  117  15 I37
stroke1  116  15 I37
stroke1  116  16 I37
stroke1  115  16 I37
stroke1  114  16 I37
stroke1  114  17 I37
stroke1  113  17 I37
stroke1  112  17 I37
stroke1  111  17 I37
stroke1  110  16 I37
stroke1  109  16 I37
stroke1  109  15 I37
stroke1  109  14 I37
stroke1  108  14 I37
stroke1  108  13 I37
stroke1  108  12 I37
stroke1  108  12 I37
stroke1  108  11 I37
stroke1  108  10 I37
stroke1  108  9 I37
stroke1  109  8 I37
stroke1  109  7 I37
stroke1  109  6 I37
stroke1  110  6 I37
stroke1  110  5 I37
stroke1  111  4 I37
stroke1  112  4 I37
stroke1  112  3 I37
stroke1  113  3 I37
stroke1  114  3 I37
stroke1  115  3 I37
stroke1  116  3 I37
stroke1  117  3 I37
stroke1  117  4 I37
stroke1  118  4 I37
stroke1  118  5 I37
stroke1  119  6 I37
stroke1  119  7 I37
stroke1  119  8 I37
stroke1  119  9 I37
stroke1  119  10 I37
stroke1  119  11 I37
stroke1  119  12 I37
stroke1  119  13 I37
stroke1  119  14 I37
stroke1  120  15 I37
stroke1  120  17 I37
stroke1  120  18 I37
stroke1  120  19 I37
stroke1  119  20 I37
stroke1  119  21 I37
stroke1  119  22 I37
stroke1  120  23 I37
stroke1  119  25 I37
stroke1  119  26 I37
stroke1  119  27 I37
stroke1  119  29 I37
stroke1  119  30 I37
stroke1  119  31 I37
stroke1  119  33 I37
stroke1  119  34 I37
stroke1  119  36 I37
stroke1  119  37 I37
stroke1  119  38 I37
stroke1  119  40 I37
stroke1  119  41 I37
stroke1  119  42 I37
stroke1  119  43 I37
stroke1  119  45 I37
stroke1  118  46 I37
stroke1  118  47 I37
stroke1  118  48 I37
stroke1  118  49 I37
stroke1  118  50 I37
stroke1  118  51 I37
stroke1  118  52 I37
stroke1  118  53 I37
stroke1  117  54 I37
stroke1  117  55 I37
stroke1  117  56 I37
stroke1  117  57 I37
stroke1  117  58 I37
stroke1  116  58 I37
stroke1  116  59 I37
stroke1  116  60 I37
stroke1  115  61 I37
stroke1  115  62 I37
stroke1  114  62 I37
stroke1  114  63 I37
stroke1  113  63 I37
stroke1  112  63 I37
stroke1  111  64 I37
stroke1  110  64 I37
stroke1  109  64 I37
stroke1  108  64 I37
stroke1  107  64 I37
stroke1  106  64 I37
stroke1  105  64 I37
stroke1  104  64 I37
stroke1  103  64 I37
stroke1  102  64 I37
stroke1  101  64 I37
stroke1  100  63 I37
stroke1  99  63 I37
stroke1  98  63 I37
stroke1  97  62 I37
stroke1  96  62 I37
stroke1  95  61 I37
stroke1  94  61 I37
stroke1  93  60 I37
stroke1  92  59 I37
stroke1  91  58 I37
stroke1  90  57 I37
stroke1  89  56 I37
stroke1  89  55 I37
stroke1  88  55 I37
stroke1  88  54 I37
stroke1  87  53 I37
stroke1  87  52 I37
stroke1  88  52 I37
stroke1  88  53 I37
stroke2  119  85 B48
stroke2  118  85 I48
stroke2  117  86 I48
stroke2  116  86 I48
stroke2  115  87 I48
stroke2  114  88 I48
stroke2  113  89 I48
stroke2  112  90 I48
stroke2  110  91 I48
stroke2  109  91 I48
stroke2  108  92 I48
stroke2  106  93 I48
stroke2  105  93 I48
stroke2  103  94 I48
stroke2  102  94 I48
stroke2  101  95 I48
stroke2  99  95 I48
stroke2  98  95 I48
stroke2  96  95 I48
stroke2  95  95 I48
stroke2  94  95 I48
stroke2  93  95 I48
stroke2  92  95 I48
stroke2  91  94 I48
stroke2  90  94 I48
stroke2  89  94 I48
stroke2  88  94 I48
stroke2  87  93 I48
stroke2  86  93 I48
stroke2  87  93 I48
stroke2  87  94 I48
stroke2  87  95 I48
stroke2  88  96 I48
stroke2  89  97 I48
stroke2  89  98 I48
stroke2  90  99 I48
stroke2  91  100 I48
stroke2  91  101 I48
stroke2  92  102 I48
stroke2  93  103 I48
stroke2  94  103 I48
stroke2  95  104 I48
stroke2  96  104 I48
stroke2  96  105 I48
stroke2  97  105 I48
stroke2  98  106 I48
stroke2  99  106 I48
stroke2  100  106 I48
stroke2  101  106 I48
stroke2  102  106 I48
stroke2  103  106 I48
stroke2  104  105 I48
stroke2  105  105 I48
stroke2  105  104 I48
stroke2  106  104 I48
stroke2  107  103 I48
stroke2  107  102 I48
stroke2  108  102 I48
stroke2  109  101 I48
stroke2  109  100 I48
stroke2  110  100 I48
stroke2  111  99 I48
stroke2  112  98 I48
stroke2  113  97 I48
stroke2  113  96 I48
stroke2  114  95 I48
stroke2  115  95 I48
stroke2  116  94 I48
stroke2  116  93 I48
stroke2  117  92 I48
stroke2  118  91 I48
stroke2  119  90 I48
stroke2  119  89 I48
stroke2  120  88 I48
stroke2  120  87 I48
stroke2  121  87 I48
stroke2  121  86 I48
stroke2  122  86 I48
stroke2  122  85 I48
stroke2  123  85 I48
stroke3  142  60 B23
stroke3  143  60 I23
stroke3  143  59 I23
stroke3  143  58 I23
stroke3  143  57 I23
stroke3  143  56 I23
stroke3  142  55 I23
stroke3  142  54 I23
stroke3  142  53 I23
stroke3  141  52 I23
stroke3  141  51 I23
stroke3  140  50 I23
stroke3  139  49 I23
stroke3  138  49 I23
stroke3  138  48 I23
stroke3  137  48 I23
stroke3  136  49 I23
stroke3  135  49 I23
stroke3  135  50 I23
stroke3  134  50 I23
stroke3  134  51 I23
stroke3  134  52 I23
stroke3  133  53 I23
stroke3  133  54 I23
stroke3  133  55 I23
stroke3  133  56 I23
stroke3  133  57 I23
stroke3  133  58 I23
stroke3  133  59 I23
stroke3  133  60 I23
stroke3  133  61 I23
stroke3  133  62 I23
stroke3  134  63 I23
stroke3  134  64 I23
stroke3  135  65 I23
stroke3  136  66 I23
stroke3  136  67 I23
stroke3  137  67 I23
stroke3  138  67 I23
stroke3  139  67 I23
stroke3  140  67 I23
stroke3  141  67 I23
stroke3  141  66 I23
stroke3  142  66 I23
stroke3  142  65 I23
stroke3  142  64 I23
stroke3  142  63 I23
stroke3  142  62 I23
stroke3  143  62 I23
stroke3  143  61 I23
stroke3  143  60 I23
stroke3  143  59 I23
stroke3  143  58 I23
stroke3  143  57 I23
stroke3  144  57 I23
stroke3  144  55 I23
stroke3  144  54 I23
stroke3  144  53 I23
stroke3  144  52 I23
stroke3  144  51 I23
stroke3  145  49 I23
stroke3  145  48 I23
stroke3  145  47 I23
stroke3  145  45 I23
stroke3  145  44 I23
stroke3  145  43 I23
stroke3  145  41 I23
stroke3  146  40 I23
stroke3  146  39 I23
stroke3  146  38 I23
stroke3  146  36 I23
stroke3  146  35 I23
stroke3  147  34 I23
stroke3  147  33 I23
stroke3  147  31 I23
stroke3  147  30 I23
stroke3  147  29 I23
stroke3  147  27 I23
stroke3  147  26 I23
stroke3  148  25 I23
stroke3  148  23 I23
stroke3  148  22 I23
stroke3  148  21 I23
stroke3  148  19 I23
stroke3  149  18 I23
stroke3  149  17 I23
stroke3  149  15 I23
stroke3  149  14 I23
stroke3  149  13 I23
stroke3  149  12 I23
stroke3  149  11 I23
stroke3  150  10 I23
stroke3  150  9 I23
stroke3  150  8 I23
stroke3  150  7 I23
stroke3  150  6 I23
stroke3  151  5 I23
stroke3  151  4 I23
stroke3  151  3 I23
stroke3  151  2 I23
stroke3  151  1 I23
stroke3  151  0 I23
stroke3  152  1 I23
stroke3  152  2 I23
stroke3  152  3 I23
stroke3  152  4 I23
stroke3  152  5 I23
stroke3  152  6 I23
stroke3  152  7 I23
stroke3  152  9 I23
stroke3  152  10 I23
stroke3  152  12 I23
stroke3  152  13 I23
stroke3  152  14 I23
stroke3  152  16 I23
stroke3  152  18 I23
stroke3  152  19 I23
stroke3  152  21 I23
stroke3  152  23 I23
stroke3  152  25 I23
stroke3  152  27 I23
stroke3  153  29 I23
stroke3  153  30 I23
stroke3  153  32 I23
stroke3  153  34 I23
stroke3  153  36 I23
stroke3  153  38 I23
stroke3  153  39 I23
stroke3  153  41 I23
stroke3  153  43 I23
stroke3  153  44 I23
stroke3  153  46 I23
stroke3  154  48 I23
stroke3  154  49 I23
stroke3  154  51 I23
stroke3  154  52 I23
stroke3  154  54 I23
stroke3  155  55 I23
stroke3  155  56 I23
stroke3  155  57 I23
stroke3  155  58 I23
stroke3  156  58 I23
stroke3  156  59 I23
stroke3  156  60 I23
stroke3  157  60 I23
stroke3  157  61 I23
stroke3  157  62 I23
stroke3  158  62 I23
stroke3  158  63 I23
stroke3  159  63 I23
stroke3  159  64 I23
stroke3  160  64 I23
stroke3  161  65 I23
stroke3  162  65 I23
stroke3  163  65 I23
stroke3  164  65 I23
stroke3  165  65 I23
stroke3  165  64 I23
stroke3  166  64 I23
stroke3  166  63 I23
stroke3  167  63 I23
stroke3  167  62 I23
stroke3  168  62 I23
stroke3  168  61 I23
stroke3  168  60 I23
stroke3  169  59 I23
stroke3  169  58 I23
stroke3  170  58 I23
stroke3  170  57 I23
stroke3  170  56 I23
stroke3  171  55 I23
stroke3  171  53 I23
stroke3  171  52 I23
stroke3  171  51 I23
stroke3  172  49 I23
stroke3  172  48 I23
stroke3  172  47 I23
stroke3  172  45 I23
stroke3  173  44 I23
stroke3  173  42 I23
stroke3  173  41 I23
stroke3  173  39 I23
stroke3  173  38 I23
stroke3  174  36 I23
stroke3  174  35 I23
stroke3  174  33 I23
stroke3  174  32 I23
stroke3  174  30 I23
stroke3  175  29 I23
stroke3  175  27 I23
stroke3  175  25 I23
stroke3  175  24 I23
stroke3  175  22 I23
stroke3  175  21 I23
stroke3  175  19 I23
stroke3  175  18 I23
stroke3  175  17 I23
stroke3  175  15 I23
stroke3  175  14 I23
stroke3  176  13 I23
stroke3  176  12 I23
stroke3  176  11 I23
stroke3  176  10 I23
stroke3  176  9 I23
stroke3  176  8 I23
stroke3  176  7 I23
stroke3  176  6 I23
stroke3  176  5 I23
stroke3  176  4 I23
stroke3  176  3 I23
stroke3  176  2 I23
stroke3  176  3 I23
stroke3  176  4 I23
stroke3  176  5 I23
stroke4  194  61 B34
stroke4  194  60 I34
stroke4  194  59 I34
stroke4  194  58 I34
stroke4  194  57 I34
stroke4  194  56 I34
stroke4  194  55 I34
stroke4  194  54 I34
stroke4  195  54 I34
stroke4  195  53 I34
stroke4  195  52 I34
stroke4  196  52 I34
stroke4  196  51 I34
stroke4  197  51 I34
stroke4  198  52 I34
stroke4  199  52 I34
stroke4  200  53 I34
stroke4  201  54 I34
stroke4  201  55 I34
stroke4  202  55 I34
stroke4  202  56 I34
stroke4  203  57 I34
stroke4  203  58 I34
stroke4  204  59 I34
stroke4  204  60 I34
stroke4  204  61 I34
stroke4  204  62 I34
stroke4  203  62 I34
stroke4  203  63 I34
stroke4  203  64 I34
stroke4  202  65 I34
stroke4  201  66 I34
stroke4  200  66 I34
stroke4  199  66 I34
stroke4  199  67 I34
stroke4  198  67 I34
stroke4  198  66 I34
stroke4  197  66 I34
stroke4  196  66 I34
stroke4  195  65 I34
stroke4  195  64 I34
stroke4  194  64 I34
stroke4  194  63 I34
stroke4  194  62 I34
stroke4  194  61 I34
stroke4  193  60 I34
stroke4  193  59 I34
stroke4  193  58 I34
stroke4  194  57 I34
stroke4  194  56 I34
stroke4  194  55 I34
stroke4  194  54 I34
stroke4  194  53 I34
stroke4  194  52 I34
stroke4  194  51 I34
stroke4  194  50 I34
stroke4  195  49 I34
stroke4  195  48 I34
stroke4  195  47 I34
stroke4  196  46 I34
stroke4  196  45 I34
stroke4  197  44 I34
stroke4  198  43 I34
stroke4  199  43 I34
stroke4  200  43 I34
stroke4  201  42 I34
stroke4  202  43 I34
stroke4  203  43 I34
stroke4  204  43 I34
stroke4  205  43 I34
stroke4  206  44 I34
stroke4  207  44 I34
stroke4  208  44 I34
stroke4  209  44 I34
stroke4  209  43 I34
stroke4  208  43 I34
stroke4  208  42 I34
stroke4  207  41 I34
stroke4  207  40 I34
stroke4  206  39 I34
stroke4  206  38 I34
stroke4  206  37 I34
stroke4  205  36 I34
stroke4  205  35 I34
stroke4  205  34 I34
stroke4  204  33 I34
stroke4  204  32 I34
stroke4  204  31 I34
stroke4  204  29 I34
stroke4  203  28 I34
stroke4  203  27 I34
stroke4  203  26 I34
stroke4  203  25 I34
stroke4  203  23 I34
stroke4  203  22 I34
stroke4  204  21 I34
stroke4  204  20 I34
stroke4  204  19 I34
stroke4  204  18 I34
stroke4  205  17 I34
stroke4  205  16 I34
stroke4  205  15 I34
stroke4  206  14 I34
stroke4  206  13 I34
stroke4  206  12 I34
stroke4  207  12 I34
stroke4  207  11 I34
stroke4  208  10 I34
stroke4  209  9 I34
stroke4  210  8 I34
stroke4  211  8 I34
stroke4  211  7 I34
stroke4  212  7 I34
stroke4  213  7 I34
stroke4  214  7 I34
stroke4  215  7 I34
stroke4  216  7 I34
stroke4  217  7 I34
stroke4  218  7 I34
stroke4  219  7 I34
stroke4  220  8 I34
stroke4  220  9 I34
stroke4  221  9 I34
stroke4  221  10 I34
stroke4  221  11 I34
stroke4  221  12 I34
stroke4  221  13 I34
stroke4  221  14 I34
stroke4  221  15 I34
stroke4  221  16 I34
stroke4  221  18 I34
stroke4  221  19 I34
stroke4  221  21 I34
stroke4  220  22 I34
stroke4  220  24 I34
stroke4  220  25 I34
stroke4  220  27 I34
stroke4  220  29 I34
stroke4  220  30 I34
stroke4  220  32 I34
stroke4  219  34 I34
stroke4  219  35 I34
stroke4  219  37 I34
stroke4  219  39 I34
stroke4  218  40 I34
stroke4  218  42 I34
stroke4  218  44 I34
stroke4  218  46 I34
stroke4  217  48 I34
stroke4  217  50 I34
stroke4  217  52 I34
stroke4  216  53 I34
stroke4  216  55 I34
stroke4  216  57 I34
stroke4  216  58 I34
stroke4  215  60 I34
stroke4  215  61 I34
stroke4  215  62 I34
stroke4  215  63 I34
stroke4  215  64 I34
stroke4  215  65 I34
stroke4  215  66 I34
stroke4  214  67 I34
stroke4  214  68 I34
stroke4  214  69 I34
stroke4  214  70 I34
stroke4  214  71 I34
stroke4  214  72 I34
stroke4  213  72 I34
stroke4  213  71 I34
stroke5  228  55 B47
stroke5  228  54 I47
stroke5  228  55 I47
stroke5  228  56 I47
stroke5  228  57 I47
stroke5  229  58 I47
stroke5  229  59 I47
stroke5  229  60 I47
stroke5  230  61 I47
stroke5  230  62 I47
stroke5  231  63 I47
stroke5  231  64 I47
stroke5  232  65 I47
stroke5  233  65 I47
stroke5  233  66 I47
stroke5  234  67 I47
stroke5  235  67 I47
stroke5  235  68 I47
stroke5  236  68 I47
stroke5  237  69 I47
stroke5  238  69 I47
stroke5  239  70 I47
stroke5  240  70 I47
stroke5  241  70 I47
stroke5  242  70 I47
stroke5  243  69 I47
stroke5  244  69 I47
stroke5  245  68 I47
stroke5  246  68 I47
stroke5  247  67 I47
stroke5  248  66 I47
stroke5  249  65 I47
stroke5  249  64 I47
stroke5  250  63 I47
stroke5  250  62 I47
stroke5  250  61 I47
stroke5  250  60 I47
stroke5  251  59 I47
stroke5  251  58 I47
stroke5  251  57 I47
stroke5  251  56 I47
stroke5  251  55 I47
stroke5  251  53 I47
stroke5  251  52 I47
stroke5  251  50 I47
stroke5  251  48 I47
stroke5  252  46 I47
stroke5  252  45 I47
stroke5  252  43 I47
stroke5  252  41 I47
stroke5  251  39 I47
stroke5  251  38 I47
stroke5  251  36 I47
stroke5  251  34 I47
stroke5  252  32 I47
stroke5  252  30 I47
stroke5  251  29 I47
stroke5  251  27 I47
stroke5  251  25 I47
stroke5  251  24 I47
stroke5  251  22 I47
stroke5  251  21 I47
stroke5  251  19 I47
stroke5  251  18 I47
stroke5  251  17 I47
stroke5  251  15 I47
stroke5  251  14 I47
stroke5  251  13 I47
stroke5  251  12 I47
stroke5  251  11 I47
stroke5  251  10 I47
stroke5  251  9 I47
stroke5  251  8 I47
stroke5  251  7 I47
stroke5  251  6 I47
stroke5  252  6 I47
stroke5  251  6 I47
stroke5  252  6 I47
stroke5  252  7 I47
stroke5  251  7 I47
stroke5  251  8 I47
stroke6  273  37 B38
stroke6  273  36 I38
stroke6  274  36 I38
stroke6  275  35 I38
stroke6  276  35 I38
stroke6  277  35 I38
stroke6  278  36 I38
stroke6  279  36 I38
stroke6  280  37 I38
stroke6  281  37 I38
stroke6  282  38 I38
stroke6  283  38 I38
stroke6  283  39 I38
stroke6  284  40 I38
stroke6  285  40 I38
stroke6  285  41 I38
stroke6  286  42 I38
stroke6  286  43 I38
stroke6  287  43 I38
stroke6  287  44 I38
stroke6  287  45 I38
stroke6  287  46 I38
stroke6  286  46 I38
stroke6  286  47 I38
stroke6  285  47 I38
stroke6  285  48 I38
stroke6  284  48 I38
stroke6  283  48 I38
stroke6  282  48 I38
stroke6  281  48 I38
stroke6  280  48 I38
stroke6  279  47 I38
stroke6  278  47 I38
stroke6  278  46 I38
stroke6  277  46 I38
stroke6  277  45 I38
stroke6  276  44 I38
stroke6  276  43 I38
stroke6  275  43 I38
stroke6  275  42 I38
stroke6  275  41 I38
stroke6  275  40 I38
stroke6  274  39 I38
stroke6  274  38 I38
stroke6  274  36 I38
stroke6  274  35 I38
stroke6  274  34 I38
stroke6  274  32 I38
stroke6  274  31 I38
stroke6  274  30 I38
stroke6  274  28 I38
stroke6  274  26 I38
stroke6  274  25 I38
stroke6  274  23 I38
stroke6  275  22 I38
stroke6  275  20 I38
stroke6  275  19 I38
stroke6  275  17 I38
stroke6  275  16 I38
stroke6  275  15 I38
stroke6  275  14 I38
stroke6  275  12 I38
stroke6  275  11 I38
stroke6  275  10 I38
stroke6  275  9 I38
stroke6  275  8 I38
stroke6  275  7 I38
stroke6  275  6 I38
stroke6  275  5 I38
stroke6  275  4 I38
stroke6  275  3 I38
stroke6  275  2 I38
stroke6  274  2 I38
stroke6  274  3 I38
stroke6  274  4 I38
stroke6  273  4 I38
stroke6  273  5 I38
stroke6  273  6 I38
stroke6  272  6 I38
stroke6  272  7 I38
stroke6  272  8 I38
stroke6  271  8 I38
stroke6  271  9 I38
stroke6  270  10 I38
stroke6  270  11 I38
stroke6  269  12 I38
stroke6  269  13 I38
stroke6  268  14 I38
stroke6  268  15 I38
stroke6  267  16 I38
stroke6  267  17 I38
stroke6  266  18 I38
stroke6  266  19 I38
stroke6  265  20 I38
stroke6  265  21 I38
stroke6  265  23 I38
stroke6  264  24 I38
stroke6  264  25 I38
stroke6  264  26 I38
stroke6  264  28 I38
stroke6  263  29 I38
stroke6  263  30 I38
stroke6  263  31 I38
stroke6  263  32 I38
stroke6  263  34 I38
stroke6  263  35 I38
stroke6  263  36 I38
stroke6  263  37 I38
stroke6  264  39 I38
stroke6  264  40 I38
stroke6  264  41 I38
stroke6  264  43 I38
stroke6  265  44 I38
stroke6  265  45 I38
stroke6  265  46 I38
stroke6  266  48 I38
stroke6  266  49 I38
stroke6  267  50 I38
stroke6  267  51 I38
stroke6  268  52 I38
stroke6  268  54 I38
stroke6  269  55 I38
stroke6  270  56 I38
stroke6  270  57 I38
stroke6  271  58 I38
stroke6  272  59 I38
stroke6  273  59 I38
stroke6  274  60 I38
stroke6  274  61 I38
stroke6  275  61 I38
stroke6  276  62 I38
stroke6  277  63 I38
stroke6  278  63 I38
stroke6  279  64 I38
stroke6  280  64 I38
stroke6  281  64 I38
stroke6  281  65 I38
stroke6  282  65 I38
stroke6  283  65 I38
stroke6  284  66 I38
stroke6  285  66 I38
stroke6  286  66 I38
stroke6  287  66 I38
stroke6  288  66 I38
stroke6  289  66 I38
stroke6  290  66 I38
stroke6  291  66 I38
stroke6  291  65 I38
stroke6  292  65 I38
stroke6  293  65 I38
stroke6  294  65 I38
stroke6  294  64 I38
stroke6  294  63 I38
stroke6  295  63 I38
stroke6  296  62 I38
stroke6  296  61 I38
stroke6  296  60 I38
stroke6  297  60 I38
stroke6  297  59 I38
stroke6  297  58 I38
stroke6  297  57 I38
stroke6  297  56 I38
stroke6  297  55 I38
stroke6  297  54 I38
stroke6  297  53 I38
stroke6  298  52 I38
stroke6  298  50 I38
stroke6  298  49 I38
stroke6  298  48 I38
stroke6  298  46 I38
stroke6  298  45 I38
stroke6  298  43 I38
stroke6  298  41 I38
stroke6  298  40 I38
stroke6  297  38 I38
stroke6  297  36 I38
stroke6  297  35 I38
stroke6  297  33 I38
stroke6  297  31 I38
stroke6  297  30 I38
stroke6  297  28 I38
stroke6  297  26 I38
stroke6  297  25 I38
stroke6  297  23 I38
stroke6  297  21 I38
stroke6  297  20 I38
stroke6  297  18 I38
stroke6  297  17 I38
stroke6  297  15 I38
stroke6  297  14 I38
stroke6  297  13 I38
stroke6  296  12 I38
stroke6  296  10 I38
stroke6  296  9 I38
stroke6  296  8 I38
stroke6  296  7 I38
stroke6  296  6 I38
stroke6  296  5 I38
stroke6  296  4 I38
stroke6  296  3 I38
stroke6  296  2 I38
stroke6  296  1 I38
stroke6  296  2 I38
stroke6  296  3 I38
stroke6  295  3 I38
stroke6  295  4 I38
stroke6  295  5 I38
stroke6  292  70 I38
stroke6  292  69 I38
stroke6  291  69 I38
stroke6  291  68 I38
stroke6  291  69 I38
stroke6  290  69 I38
stroke6  291  69 I38
stroke6  291  70 I38
stroke6  292  71 I38
stroke6  293  72 I38
stroke6  293  73 I38
stroke6  294  74 I38
stroke6  295  75 I38
stroke6  296  76 I38
stroke6  297  78 I38
stroke6  298  80 I38
stroke6  300  82 I38
stroke6  301  84 I38
stroke6  302  86 I38
stroke6  303  88 I38
stroke6  304  89 I38
stroke6  305  91 I38
stroke6  305  93 I38
stroke6  306  94 I38
stroke6  306  96 I38
stroke6  306  97 I38
stroke6  307  98 I38
stroke6  307  99 I38
stroke6  307  100 I38
stroke6  306  100 I38
stroke6  306  101 I38
stroke6  306  100 I38
stroke7  314  56 B47
stroke7  315  56 I47
stroke7  315  57 I47
stroke7  315  58 I47
stroke7  315  59 I47
stroke7  316  59 I47
stroke7  316  60 I47
stroke7  316  61 I47
stroke7  316  62 I47
stroke7  317  63 I47
stroke7  317  64 I47
stroke7  318  65 I47
stroke7  318  66 I47
stroke7  319  67 I47
stroke7  319  68 I47
stroke7  320  68 I47
stroke7  320  69 I47
stroke7  321  69 I47
stroke7  321  70 I47
stroke7  322  70 I47
stroke7  322  71 I47
stroke7  323  71 I47
stroke7  324  71 I47
stroke7  325  71 I47
stroke7  326  71 I47
stroke7  327  70 I47
stroke7  328  70 I47
stroke7  329  70 I47
stroke7  330  69 I47
stroke7  331  69 I47
stroke7  332  68 I47
stroke7  333  68 I47
stroke7  333  67 I47
stroke7  334  66 I47
stroke7  334  65 I47
stroke7  335  65 I47
stroke7  335  64 I47
stroke7  336  63 I47
stroke7  336  62 I47
stroke7  336  61 I47
stroke7  336  60 I47
stroke7  336  59 I47
stroke7  337  58 I47
stroke7  337  57 I47
stroke7  337  56 I47
stroke7  337  54 I47
stroke7  337  53 I47
stroke7  337  51 I47
stroke7  337  50 I47
stroke7  338  48 I47
stroke7  338  47 I47
stroke7  338  45 I47
stroke7  338  43 I47
stroke7  338  41 I47
stroke7  338  40 I47
stroke7  338  38 I47
stroke7  338  36 I47
stroke7  338  35 I47
stroke7  339  33 I47
stroke7  339  31 I47
stroke7  339  30 I47
stroke7  339  28 I47
stroke7  339  27 I47
stroke7  339  25 I47
stroke7  339  24 I47
stroke7  339  22 I47
stroke7  339  21 I47
stroke7  339  19 I47
stroke7  339  18 I47
stroke7  340  17 I47
stroke7  340  16 I47
stroke7  340  15 I47
stroke7  340  14 I47
stroke7  340  13 I47
stroke7  340  12 I47
stroke7  340  11 I47
stroke7  340  10 I47
stroke7  340  9 I47
stroke7  340  8 I47
stroke7  340  7 I47
stroke7  340  6 I47
stroke7  341  5 I47
stroke7  340  5 I47
stroke7  340  6 I47
stroke7  341  6 I47
stroke7  341  7 I47
stroke8  356  23 B40
stroke8  357  24 I40
stroke8  358  24 I40
stroke8  358  25 I40
stroke8  359  25 I40
stroke8  360  25 I40
stroke8  361  24 I40
stroke8  362  24 I40
stroke8  363  23 I40
stroke8  364  22 I40
stroke8  365  22 I40
stroke8  365  21 I40
stroke8  365  20 I40
stroke8  366  20 I40
stroke8  366  19 I40
stroke8  366  18 I40
stroke8  367  18 I40
stroke8  367  17 I40
stroke8  367  16 I40
stroke8  368  16 I40
stroke8  368  15 I40
stroke8  368  14 I40
stroke8  368  13 I40
stroke8  369  12 I40
stroke8  368  11 I40
stroke8  368  10 I40
stroke8  368  9 I40
stroke8  367  8 I40
stroke8  367  7 I40
stroke8  366  7 I40
stroke8  365  7 I40
stroke8  365  6 I40
stroke8  364  6 I40
stroke8  363  6 I40
stroke8  362  7 I40
stroke8  361  7 I40
stroke8  361  8 I40
stroke8  361  9 I40
stroke8  360  9 I40
stroke8  360  10 I40
stroke8  360  11 I40
stroke8  359  12 I40
stroke8  359  13 I40
stroke8  359  14 I40
stroke8  359  15 I40
stroke8  358  16 I40
stroke8  358  18 I40
stroke8  358  19 I40
stroke8  358  20 I40
stroke8  358  21 I40
stroke8  359  23 I40
stroke8  359  24 I40
stroke8  359  25 I40
stroke8  359  27 I40
stroke8  359  28 I40
stroke8  359  29 I40
stroke8  359  30 I40
stroke8  359  32 I40
stroke8  360  33 I40
stroke8  360  34 I40
stroke8  360  35 I40
stroke8  360  36 I40
stroke8  360  37 I40
stroke8  361  38 I40
stroke8  361  39 I40
stroke8  361  40 I40
stroke8  361  41 I40
stroke8  362  42 I40
stroke8  362  43 I40
stroke8  362  44 I40
stroke8  363  44 I40
stroke8  363  45 I40
stroke8  364  45 I40
stroke8  364  46 I40
stroke8  365  46 I40
stroke8  366  46 I40
stroke8  366  45 I40
stroke8  367  45 I40
stroke8  367  44 I40
stroke8  368  44 I40
stroke8  368  43 I40
stroke8  368  42 I40
stroke8  369  42 I40
stroke8  369  41 I40
stroke8  370  40 I40
stroke8  370  39 I40
stroke8  371  38 I40
stroke8  372  37 I40
stroke8  372  36 I40
stroke8  373  35 I40
stroke8  373  34 I40
stroke8  374  33 I40
stroke8  374  32 I40
stroke8  375  31 I40
stroke8  376  30 I40
stroke8  376  28 I40
stroke8  376  27 I40
stroke8  377  26 I40
stroke8  377  25 I40
stroke8  378  24 I40
stroke8  378  23 I40
stroke8  378  21 I40
stroke8  379  20 I40
stroke8  379  19 I40
stroke8  380  18 I40
stroke8  380  17 I40
stroke8  380  16 I40
stroke8  381  15 I40
stroke8  381  14 I40
stroke8  381  13 I40
stroke8  382  12 I40
stroke8  382  11 I40
stroke8  383  10 I40
stroke8  383  9 I40
stroke8  383  8 I40
stroke8  383  7 I40
stroke8  384  7 I40
stroke8  384  6 I40
stroke8  384  7 I40
stroke8  384  8 I40
stroke8  384  9 I40
stroke8  384  10 I40
stroke8  384  11 I40
stroke8  384  12 I40
stroke8  384  13 I40
stroke8  384  14 I40
stroke8  383  15 I40
stroke8  383  16 I40
stroke8  383  18 I40
stroke8  383  19 I40
stroke8  383  21 I40
stroke8  383  23 I40
stroke8  383  24 I40
stroke8  383  26 I40
stroke8  382  28 I40
stroke8  382  30 I40
stroke8  382  31 I40
stroke8  382  33 I40
stroke8  382  35 I40
stroke8  382  36 I40
stroke8  381  38 I40
stroke8  381  39 I40
stroke8  381  41 I40
stroke8  381  42 I40
stroke8  381  44 I40
stroke8  380  46 I40
stroke8  380  47 I40
stroke8  380  49 I40
stroke8  379  50 I40
stroke8  379  52 I40
stroke8  379  53 I40
stroke8  379  54 I40
stroke8  378  55 I40
stroke8  378  56 I40
stroke8  378  57 I40
stroke8  378  58 I40
stroke8  378  59 I40
stroke8  378  60 I40
stroke8  377  61 I40
stroke8  377  62 I40
stroke8  376  63 I40
stroke8  376  64 I40
stroke8  375  64 I40
stroke8  375  65 I40
stroke8  374  65 I40
stroke8  373  66 I40
stroke8  373  67 I40
stroke8  372  67 I40
stroke8  371  67 I40
stroke8  371  68 I40
stroke8  370  68 I40
stroke8  369  68 I40
stroke8  368  68 I40
stroke8  367  69 I40
stroke8  366  69 I40
stroke8  365  69 I40
stroke8  364  69 I40
stroke8  363  68 I40
stroke8  362  68 I40
stroke8  361  68 I40
stroke8  360  68 I40
stroke8  359  67 I40
stroke8  358  67 I40
stroke8  357  66 I40
stroke8  356  66 I40
stroke8  356  65 I40
stroke8  355  65 I40
stroke8  354  64 I40
stroke8  353  63 I40
stroke8  352  63 I40
stroke8  352  62 I40
stroke8  351  62 I40
stroke8  351  61 I40
stroke8  350  60 I40
stroke8  349  59 I40
stroke8  350  59 I40
stroke8  351  59 I40
stroke8  351  60 I40
stroke8  352  60 I40
stroke8  373  64 I40
stroke8  372  63 I40
stroke8  371  63 I40
stroke8  371  64 I40
stroke8  372  64 I40
stroke8  372  65 I40
stroke8  373  65 I40
stroke8  373  66 I40
stroke8  374  67 I40
stroke8  375  67 I40
stroke8  375  68 I40
stroke8  376  69 I40
stroke8  377  71 I40
stroke8  378  72 I40
stroke8  379  73 I40
stroke8  380  75 I40
stroke8  380  76 I40
stroke8  381  78 I40
stroke8  382  80 I40
stroke8  382  82 I40
stroke8  382  83 I40
stroke8  383  85 I40
stroke8  383  87 I40
stroke8  383  88 I40
stroke8  383  89 I40
stroke8  383  90 I40
stroke8  383  91 I40
stroke8  383  92 I40
stroke8  382  92 I40
stroke8  382  93 I40
stroke8  383  93 I40
stroke8  383  92 I40
stroke9  412  42 B21
stroke9  412  41 I21
stroke9  411  41 I21
stroke9  411  40 I21
stroke9  411  39 I21
stroke9  411  38 I21
stroke9  410  38 I21
stroke9  410  37 I21
stroke9  409  37 I21
stroke9  409  36 I21
stroke9  408  36 I21
stroke9  407  36 I21
stroke9  406  36 I21
stroke9  405  36 I21
stroke9  405  37 I21
stroke9  404  37 I21
stroke9  404  38 I21
stroke9  405  39 I21
stroke9  405  40 I21
stroke9  405  41 I21
stroke9  405  42 I21
stroke9  406  43 I21
stroke9  406  44 I21
stroke9  407  45 I21
stroke9  408  46 I21
stroke9  409  46 I21
stroke9  410  46 I21
stroke9  411  46 I21
stroke9  411  45 I21
stroke9  412  45 I21
stroke9  412  44 I21
stroke9  413  43 I21
stroke9  412  42 I21
stroke9  412  41 I21
stroke9  411  40 I21
stroke9  411  39 I21
stroke9  411  38 I21
stroke9  411  37 I21
stroke9  410  36 I21
stroke9  410  35 I21
stroke9  410  34 I21
stroke9  409  33 I21
stroke9  409  32 I21
stroke9  409  31 I21
stroke9  408  29 I21
stroke9  408  28 I21
stroke9  408  27 I21
stroke9  407  26 I21
stroke9  407  24 I21
stroke9  407  23 I21
stroke9  406  22 I21
stroke9  406  21 I21
stroke9  406  19 I21
stroke9  406  18 I21
stroke9  405  17 I21
stroke9  405  16 I21
stroke9  405  15 I21
stroke9  405  14 I21
stroke9  405  13 I21
stroke9  404  12 I21
stroke9  404  11 I21
stroke9  404  10 I21
stroke9  404  9 I21
stroke9  404  8 I21
stroke9  404  7 I21
stroke9  404  8 I21
stroke9  403  9 I21
stroke9  403  10 I21
stroke9  402  11 I21
stroke9  402  12 I21
stroke9  401  13 I21
stroke9  401  14 I21
stroke9  400  15 I21
stroke9  400  16 I21
stroke9  399  17 I21
stroke9  399  18 I21
stroke9  398  19 I21
stroke9  398  20 I21
stroke9  397  21 I21
stroke9  397  22 I21
stroke9  397  23 I21
stroke9  396  24 I21
stroke9  396  25 I21
stroke9  396  26 I21
stroke9  395  27 I21
stroke9  395  28 I21
stroke9  395  29 I21
stroke9  395  30 I21
stroke9  395  31 I21
stroke9  395  32 I21
stroke9  395  33 I21
stroke9  395  34 I21
stroke9  396  35 I21
stroke9  396  36 I21
stroke9  396  37 I21
stroke9  396  38 I21
stroke9  396  39 I21
stroke9  396  40 I21
stroke9  396  41 I21
stroke9  397  42 I21
stroke9  397  43 I21
stroke9  397  44 I21
stroke9  397  45 I21
stroke9  397  46 I21
stroke9  398  47 I21
stroke9  398  48 I21
stroke9  398  49 I21
stroke9  399  50 I21
stroke9  399  52 I21
stroke9  399  53 I21
stroke9  400  54 I21
stroke9  400  55 I21
stroke9  401  56 I21
stroke9  401  57 I21
stroke9  402  58 I21
stroke9  402  59 I21
stroke9  403  59 I21
stroke9  403  60 I21
stroke9  404  60 I21
stroke9  404  61 I21
stroke9  404  62 I21
stroke9  405  62 I21
stroke9  405  63 I21
stroke9  406  63 I21
stroke9  407  64 I21
stroke9  408  64 I21
stroke9  408  65 I21
stroke9  409  65 I21
stroke9  410  65 I21
stroke9  411  65 I21
stroke9  411  64 I21
stroke9  412  63 I21
stroke9  413  62 I21
stroke9  413  61 I21
stroke9  414  60 I21
stroke9  414  59 I21
stroke9  415  58 I21
stroke9  415  57 I21
stroke9  415  56 I21
stroke9  415  55 I21
stroke9  416  56 I21
stroke9  417  57 I21
stroke9  417  58 I21
stroke9  418  58 I21
stroke9  418  59 I21
stroke9  419  60 I21
stroke9  420  60 I21
stroke9  420  61 I21
stroke9  421  62 I21
stroke9  422  62 I21
stroke9  422  63 I21
stroke9  423  63 I21
stroke9  424  63 I21
stroke9  424  64 I21
stroke9  425  64 I21
stroke9  426  64 I21
stroke9  427  64 I21
stroke9  428  64 I21
stroke9  428  63 I21
stroke9  429  63 I21
stroke9  429  62 I21
stroke9  430  62 I21
stroke9  430  61 I21
stroke9  430  60 I21
stroke9  430  59 I21
stroke9  430  58 I21
stroke9  430  57 I21
stroke9  430  56 I21
stroke9  430  55 I21
stroke9  430  54 I21
stroke9  430  53 I21
stroke9  430  51 I21
stroke9  430  50 I21
stroke9  430  48 I21
stroke9  430  47 I21
stroke9  430  45 I21
stroke9  430  44 I21
stroke9  430  42 I21
stroke9  430  41 I21
stroke9  430  39 I21
stroke9  430  38 I21
stroke9  430  36 I21
stroke9  430  34 I21
stroke9  430  33 I21
stroke9  430  31 I21
stroke9  430  30 I21
stroke9  430  28 I21
stroke9  430  27 I21
stroke9  430  26 I21
stroke9  430  25 I21
stroke9  430  23 I21
stroke9  430  22 I21
stroke9  430  21 I21
stroke9  430  20 I21
stroke9  430  19 I21
stroke9  430  18 I21
stroke9  430  17 I21
stroke9  430  16 I21
stroke9  430  15 I21
stroke9  430  14 I21
stroke9  430  13 I21
stroke9  430  12 I21
stroke9  430  11 I21
stroke9  430  10 I21
stroke9  430  9 I21
stroke9  430  8 I21
stroke9  430  7 I21
stroke9  430  8 I21
stroke10  452  8 B35
stroke10  453  8 I35
stroke10  454  8 I35
stroke10  455  9 I35
stroke10  455  10 I35
stroke10  456  10 I35
stroke10  456  11 I35
stroke10  457  12 I35
stroke10  457  13 I35
stroke10  457  14 I35
stroke10  457  15 I35
stroke10  456  15 I35
stroke10  456  16 I35
stroke10  455  16 I35
stroke10  455  17 I35
stroke10  454  17 I35
stroke10  453  17 I35
stroke10  452  16 I35
stroke10  451  16 I35
stroke10  451  15 I35
stroke10  450  15 I35
stroke10  450  14 I35
stroke10  449  13 I35
stroke10  449  12 I35
stroke10  448  11 I35
stroke10  448  10 I35
stroke10  449  9 I35
stroke10  449  8 I35
stroke10  449  7 I35
stroke10  450  6 I35
stroke10  450  5 I35
stroke10  451  5 I35
stroke10  451  4 I35
stroke10  452  4 I35
stroke10  453  4 I35
stroke10  454  4 I35
stroke10  455  5 I35
stroke10  456  6 I35
stroke10  456  7 I35
stroke10  457  8 I35
stroke10  457  9 I35
stroke10  457  10 I35
stroke10  457  11 I35
stroke10  457  12 I35
stroke10  458  13 I35
stroke10  458  14 I35
stroke10  458  15 I35
stroke10  458  16 I35
stroke10  458  17 I35
stroke10  458  19 I35
stroke10  458  20 I35
stroke10  458  21 I35
stroke10  459  23 I35
stroke10  459  24 I35
stroke10  459  26 I35
stroke10  459  27 I35
stroke10  459  29 I35
stroke10  459  30 I35
stroke10  459  32 I35
stroke10  459  33 I35
stroke10  459  34 I35
stroke10  459  36 I35
stroke10  459  37 I35
stroke10  459  39 I35
stroke10  459  40 I35
stroke10  459  42 I35
stroke10  459  43 I35
stroke10  459  44 I35
stroke10  459  45 I35
stroke10  459  46 I35
stroke10  458  47 I35
stroke10  459  48 I35
stroke10  459  49 I35
stroke10  459  50 I35
stroke10  459  51 I35
stroke10  459  52 I35
stroke10  459  53 I35
stroke10  459  54 I35
stroke10  458  54 I35
stroke10  458  55 I35
stroke10  457  55 I35
stroke10  456  55 I35
stroke10  455  55 I35
stroke10  454  55 I35
stroke10  453  55 I35
stroke10  451  55 I35
stroke10  450  55 I35
stroke10  449  55 I35
stroke10  448  55 I35
stroke10  447  55 I35
stroke10  446  55 I35
stroke10  445  55 I35
stroke10  444  55 I35
stroke10  443  54 I35
stroke10  442  54 I35
stroke10  441  54 I35
stroke10  440  54 I35
stroke10  439  54 I35
stroke10  439  55 I35
stroke10  440  56 I35
stroke10  440  57 I35
stroke10  441  58 I35
stroke10  441  59 I35
stroke10  442  60 I35
stroke10  442  61 I35
stroke10  443  61 I35
stroke10  443  62 I35
stroke10  444  63 I35
stroke10  445  64 I35
stroke10  446  65 I35
stroke10  447  65 I35
stroke10  448  65 I35
stroke10  449  65 I35
stroke10  450  65 I35
stroke10  450  64 I35
stroke10  451  64 I35
stroke10  452  64 I35
stroke10  453  64 I35
stroke10  453  63 I35
stroke10  454  63 I35
stroke10  455  63 I35
stroke10  456  63 I35
stroke10  457  63 I35
stroke10  458  63 I35
stroke10  458  64 I35
stroke10  459  64 I35
stroke10  460  64 I35
stroke10  460  65 I35
stroke10  461  65 I35
stroke10  461  66 I35
stroke10  462  66 I35
stroke10  462  67 I35
stroke10  462  68 I35
stroke10  462  69 I35
stroke11  463  93 B64
stroke11  462  93 I64
stroke11  463  93 I64
stroke11  463  94 I64
stroke11  464  94 I64
stroke11  465  94 I64
stroke11  466  93 I64
stroke11  467  93 I64
stroke11  468  92 I64
stroke11  468  91 I64
stroke11  469  91 I64
stroke11  469  90 I64
stroke11  469  89 I64
stroke11  469  88 I64
stroke11  468  87 I64
stroke11  468  86 I64
stroke11  467  86 I64
stroke11  466  85 I64
stroke11  465  85 I64
stroke11  464  85 I64
stroke11  463  85 I64
stroke11  462  85 I64
stroke11  462  86 I64
stroke11  461  86 I64
stroke11  460  86 I64
stroke11  460  87 I64
stroke11  459  87 I64
stroke11  459  88 I64
stroke11  459  89 I64
stroke11  459  90 I64
stroke11  459  91 I64
stroke11  459  92 I64
stroke11  460  93 I64
stroke11  460  94 I64
stroke11  461  94 I64
stroke11  461  95 I64
stroke11  462  96 I64
stroke11  462  97 I64
stroke11  463  98 I64
stroke11  464  99 I64
stroke11  465  100 I64
stroke11  466  101 I64
stroke11  467  102 I64
stroke11  468  103 I64
stroke11  469  104 I64
stroke11  469  105 I64
stroke11  470  106 I64
stroke11  471  107 I64
stroke11  472  108 I64
stroke11  472  109 I64
stroke11  473  110 I64
stroke11  473  111 I64
stroke11  474  111 I64
stroke11  474  112 I64
stroke11  473  111 I64
