stroke1  56  15 B40
stroke1  57  15 I40
stroke1  57  16 I40
stroke1  58  16 I40
stroke1  58  17 I40
stroke1  59  17 I40
stroke1  60  17 I40
stroke1  61  16 I40
stroke1  62  16 I40
stroke1  63  15 I40
stroke1  64  15 I40
stroke1  64  14 I40
stroke1  65  14 I40
stroke1  65  13 I40
stroke1  66  13 I40
stroke1  66  12 I40
stroke1  66  11 I40
stroke1  67  11 I40
stroke1  67  10 I40
stroke1  67  10 I40
stroke1  67  9 I40
stroke1  68  9 I40
stroke1  68  8 I40
stroke1  68  7 I40
stroke1  68  6 I40
stroke1  68  5 I40
stroke1  67  5 I40
stroke1  67  4 I40
stroke1  66  4 I40
stroke1  66  3 I40
stroke1  65  3 I40
stroke1  64  3 I40
stroke1  63  3 I40
stroke1  62  3 I40
stroke1  62  4 I40
stroke1  61  4 I40
stroke1  60  5 I40
stroke1  60  6 I40
stroke1  59  7 I40
stroke1  59  8 I40
stroke1  58  9 I40
stroke1  58  10 I40
stroke1  58  11 I40
stroke1  58  12 I40
stroke1  58  13 I40
stroke1  58  14 I40
stroke1  58  15 I40
stroke1  58  16 I40
stroke1  58  17 I40
stroke1  58  18 I40
stroke1  58  19 I40
stroke1  58  20 I40
stroke1  58  21 I40
stroke1  58  22 I40
stroke1  59  23 I40
stroke1  59  24 I40
stroke1  59  26 I40
stroke1  59  27 I40
stroke1  59  28 I40
stroke1  59  29 I40
stroke1  60  30 I40
stroke1  60  31 I40
stroke1  60  32 I40
stroke1  60  33 I40
stroke1  60  34 I40
stroke1  60  35 I40
stroke1  61  36 I40
stroke1  61  37 I40
stroke1  61  38 I40
stroke1  62  39 I40
stroke1  62  40 I40
stroke1  62  41 I40
stroke1  62  42 I40
stroke1  62  43 I40
stroke1  63  44 I40
stroke1  63  45 I40
stroke1  63  46 I40
stroke1  64  46 I40
stroke1  64  47 I40
stroke1  64  48 I40
stroke1  65  48 I40
stroke1  65  47 I40
stroke1  66  47 I40
stroke1  66  46 I40
stroke1  67  45 I40
stroke1  67  44 I40
stroke1  68  44 I40
stroke1  68  43 I40
stroke1  69  42 I40
stroke1  69  41 I40
stroke1  70  40 I40
stroke1  70  39 I40
stroke1  71  38 I40
stroke1  72  37 I40
stroke1  72  36 I40
stroke1  73  34 I40
stroke1  74  33 I40
stroke1  74  32 I40
stroke1  75  30 I40
stroke1  76  29 I40
stroke1  76  28 I40
stroke1  77  26 I40
stroke1  77  25 I40
stroke1  78  23 I40
stroke1  79  22 I40
stroke1  79  20 I40
stroke1  80  19 I40
stroke1  81  17 I40
stroke1  81  16 I40
stroke1  82  15 I40
stroke1  82  14 I40
stroke1  83  13 I40
stroke1  83  12 I40
stroke1  84  11 I40
stroke1  84  10 I40
stroke1  85  9 I40
stroke1  85  8 I40
stroke1  85  7 I40
stroke1  86  6 I40
stroke1  86  5 I40
stroke1  87  4 I40
stroke1  87  3 I40
stroke1  87  2 I40
stroke1  88  1 I40
stroke1  88  0 I40
stroke1  89  1 I40
stroke1  89  2 I40
stroke1  89  3 I40
stroke1  89  4 I40
stroke1  88  5 I40
stroke1  88  7 I40
stroke1  88  8 I40
stroke1  88  9 I40
stroke1  88  10 I40
stroke1  88  12 I40
stroke1  88  13 I40
stroke1  88  15 I40
stroke1  88  16 I40
stroke1  88  18 I40
stroke1  88  19 I40
stroke1  88  21 I40
stroke1  88  22 I40
stroke1  87  24 I40
stroke1  87  25 I40
stroke1  87  27 I40
stroke1  87  28 I40
stroke1  87  30 I40
stroke1  87  31 I40
stroke1  87  33 I40
stroke1  87  34 I40
stroke1  87  36 I40
stroke1  87  37 I40
stroke1  87  39 I40
stroke1  87  40 I40
stroke1  87  42 I40
stroke1  87  43 I40
stroke1  87  44 I40
stroke1  87  46 I40
stroke1  87  47 I40
stroke1  87  48 I40
stroke1  87  49 I40
stroke1  87  50 I40
stroke1  87  52 I40
stroke1  87  53 I40
stroke1  87  54 I40
stroke1  87  55 I40
stroke1  87  56 I40
stroke1  87  57 I40
stroke1  87  58 I40
stroke1  87  59 I40
stroke1  87  60 I40
stroke1  86  61 I40
stroke1  86  62 I40
stroke1  86  63 I40
stroke1  86  64 I40
stroke1  85  65 I40
stroke1  85  66 I40
stroke1  85  67 I40
stroke1  84  67 I40
stroke1  84  68 I40
stroke1  83  68 I40
stroke1  83  69 I40
stroke1  82  69 I40
stroke1  81  70 I40
stroke1  80  70 I40
stroke1  79  71 I40
stroke1  78  71 I40
stroke1  77  71 I40
stroke1  76  71 I40
stroke1  75  72 I40
stroke1  74  71 I40
stroke1  73  71 I40
stroke1  72  71 I40
stroke1  71  71 I40
stroke1  70  71 I40
stroke1  69  70 I40
stroke1  68  70 I40
stroke1  67  70 I40
stroke1  66  70 I40
stroke1  65  70 I40
stroke1  64  70 I40
stroke1  63  69 I40
stroke1  62  69 I40
stroke1  61  68 I40
stroke1  60  68 I40
stroke1  59  68 I40
stroke1  58  67 I40
stroke1  57  67 I40
stroke1  56  67 I40
stroke1  55  66 I40
stroke1  54  66 I40
stroke1  53  65 I40
stroke1  52  65 I40
stroke1  51  64 I40
stroke1  51  63 I40
stroke1  50  63 I40
stroke1  49  62 I40
stroke1  48  62 I40
stroke1  48  61 I40
stroke1  47  60 I40
stroke1  46  60 I40
stroke1  46  59 I40
stroke1  45  59 I40
stroke1  45  58 I40
stroke1  46  58 I40
stroke1  75  64 I40
stroke1  76  64 I40
stroke1  75  64 I40
stroke1  75  65 I40
stroke1  76  65 I40
stroke1  77  65 I40
stroke1  77  66 I40
stroke1  78  66 I40
stroke1  79  67 I40
stroke1  80  68 I40
stroke1  81  69 I40
stroke1  82  70 I40
stroke1  83  72 I40
stroke1  84  73 I40
stroke1  85  75 I40
stroke1  86  77 I40
stroke1  87  78 I40
stroke1  88  80 I40
stroke1  88  82 I40
stroke1  89  83 I40
stroke1  89  85 I40
stroke1  90  87 I40
stroke1  90  89 I40
stroke1  90  90 I40
stroke1  91  92 I40
stroke1  91  93 I40
stroke1  91  94 I40
stroke1  91  95 I40
stroke1  91  96 I40
stroke1  92  96 I40
stroke1  92  97 I40
stroke1  92  98 I40
stroke1  92  99 I40
stroke1  92  100 I40
stroke1  92  99 I40
stroke2  107  12 B22
stroke2  108  12 I22
stroke2  108  13 I22
stroke2  108  14 I22
stroke2  109  15 I22
stroke2  109  16 I22
stroke2  110  16 I22
stroke2  110  17 I22
stroke2  111  17 I22
stroke2  111  18 I22
stroke2  112  18 I22
stroke2  113  19 I22
stroke2  114  19 I22
stroke2  114  20 I22
stroke2  115  20 I22
stroke2  116  20 I22
stroke2  117  20 I22
stroke2  118  19 I22
stroke2  119  18 I22
stroke2  120  18 I22
stroke2  120  17 I22
stroke2  121  16 I22
stroke2  121  15 I22
stroke2  122  14 I22
stroke2  122  13 I22
stroke2  122  12 I22
stroke2  122  11 I22
stroke2  122  10 I22
stroke2  122  9 I22
stroke2  121  9 I22
stroke2  121  8 I22
stroke2  120  8 I22
stroke2  120  7 I22
stroke2  119  7 I22
stroke2  119  6 I22
stroke2  118  6 I22
stroke2  117  6 I22
stroke2  116  6 I22
stroke2  115  6 I22
stroke2  114  7 I22
stroke2  113  7 I22
stroke2  113  8 I22
stroke2  112  8 I22
stroke2  112  9 I22
stroke2  111  10 I22
stroke2  111  11 I22
stroke2  111  12 I22
stroke2  110  13 I22
stroke2  110  14 I22
stroke2  109  15 I22
stroke2  109  16 I22
stroke2  109  17 I22
stroke2  109  18 I22
stroke2  109  19 I22
stroke2  109  20 I22
stroke2  109  21 I22
stroke2  109  22 I22
stroke2  109  23 I22
stroke2  109  24 I22
stroke2  109  25 I22
stroke2  109  26 I22
stroke2  109  27 I22
stroke2  109  28 I22
stroke2  109  29 I22
stroke2  109  30 I22
stroke2  110  31 I22
stroke2  110  32 I22
stroke2  110  33 I22
stroke2  110  34 I22
stroke2  110  35 I22
stroke2  110  36 I22
stroke2  111  37 I22
stroke2  111  38 I22
stroke2  111  39 I22
stroke2  111  40 I22
stroke2  112  41 I22
stroke2  112  42 I22
stroke2  112  43 I22
stroke2  113  44 I22
stroke2  113  45 I22
stroke2  113  46 I22
stroke2  113  47 I22
stroke2  113  48 I22
stroke2  114  48 I22
stroke2  114  49 I22
stroke2  113  49 I22
stroke2  112  49 I22
stroke2  112  50 I22
stroke2  111  49 I22
stroke2  110  49 I22
stroke2  109  49 I22
stroke2  108  49 I22
stroke2  107  49 I22
stroke2  107  48 I22
stroke2  106  48 I22
stroke2  105  48 I22
stroke2  104  48 I22
stroke2  103  48 I22
stroke2  102  47 I22
stroke2  102  48 I22
stroke2  101  48 I22
stroke2  101  47 I22
stroke2  101  48 I22
stroke2  101  49 I22
stroke2  101  50 I22
stroke2  102  50 I22
stroke2  102  51 I22
stroke2  103  52 I22
stroke2  104  53 I22
stroke2  104  54 I22
stroke2  104  55 I22
stroke2  105  56 I22
stroke2  106  57 I22
stroke2  106  58 I22
stroke2  107  58 I22
stroke2  108  59 I22
stroke2  108  60 I22
stroke2  109  61 I22
stroke2  110  61 I22
stroke2  110  62 I22
stroke2  111  63 I22
stroke2  112  63 I22
stroke2  112  64 I22
stroke2  113  64 I22
stroke2  113  65 I22
stroke2  114  65 I22
stroke2  115  66 I22
stroke2  116  67 I22
stroke2  117  68 I22
stroke2  118  68 I22
stroke2  118  69 I22
stroke2  119  69 I22
stroke2  119  70 I22
stroke2  120  70 I22
stroke2  121  71 I22
stroke2  122  71 I22
stroke2  122  72 I22
stroke2  123  72 I22
stroke2  124  72 I22
stroke2  124  73 I22
stroke2  125  73 I22
stroke2  126  73 I22
stroke2  127  73 I22
stroke2  127  72 I22
stroke2  128  72 I22
stroke2  129  72 I22
stroke2  130  71 I22
stroke2  131  71 I22
stroke2  132  70 I22
stroke2  133  70 I22
stroke2  133  69 I22
stroke2  134  69 I22
stroke2  134  68 I22
stroke2  135  68 I22
stroke2  135  67 I22
stroke2  136  66 I22
stroke2  136  65 I22
stroke2  137  64 I22
stroke2  137  63 I22
stroke2  137  62 I22
stroke2  138  61 I22
stroke2  138  60 I22
stroke2  138  59 I22
stroke2  139  57 I22
stroke2  139  56 I22
stroke2  139  55 I22
stroke2  139  53 I22
stroke2  139  52 I22
stroke2  140  50 I22
stroke2  140  49 I22
stroke2  140  47 I22
stroke2  140  45 I22
stroke2  140  44 I22
stroke2  140  42 I22
stroke2  141  41 I22
stroke2  141  39 I22
stroke2  141  38 I22
stroke2  141  36 I22
stroke2  141  35 I22
stroke2  141  33 I22
stroke2  141  31 I22
stroke2  141  30 I22
stroke2  142  28 I22
stroke2  142  27 I22
stroke2  142  25 I22
stroke2  142  24 I22
stroke2  142  23 I22
stroke2  142  21 I22
stroke2  142  20 I22
stroke2  143  18 I22
stroke2  143  17 I22
stroke2  143  16 I22
stroke2  143  15 I22
stroke2  143  14 I22
stroke2  143  13 I22
stroke2  143  12 I22
stroke2  143  11 I22
stroke2  143  10 I22
stroke2  144  9 I22
stroke2  144  8 I22
stroke2  144  7 I22
stroke2  144  6 I22
stroke2  144  5 I22
stroke2  144  4 I22
stroke2  144  5 I22
stroke2  144  6 I22
stroke3  149  66 B47
stroke3  149  65 I47
stroke3  149  66 I47
stroke3  150  66 I47
stroke3  150  67 I47
stroke3  151  68 I47
stroke3  151  69 I47
stroke3  152  69 I47
stroke3  152  70 I47
stroke3  153  71 I47
stroke3  153  72 I47
stroke3  154  72 I47
stroke3  155  73 I47
stroke3  156  74 I47
stroke3  157  74 I47
stroke3  157  75 I47
stroke3  158  75 I47
stroke3  159  75 I47
stroke3  160  75 I47
stroke3  161  76 I47
stroke3  162  76 I47
stroke3  163  76 I47
stroke3  164  76 I47
stroke3  165  75 I47
stroke3  166  75 I47
stroke3  167  75 I47
stroke3  168  75 I47
stroke3  168  74 I47
stroke3  169  74 I47
stroke3  169  73 I47
stroke3  170  73 I47
stroke3  171  72 I47
stroke3  172  71 I47
stroke3  173  70 I47
stroke3  174  69 I47
stroke3  174  68 I47
stroke3  175  68 I47
stroke3  175  67 I47
stroke3  175  66 I47
stroke3  176  65 I47
stroke3  176  64 I47
stroke3  176  63 I47
stroke3  176  62 I47
stroke3  177  61 I47
stroke3  177  60 I47
stroke3  177  58 I47
stroke3  177  57 I47
stroke3  177  56 I47
stroke3  178  54 I47
stroke3  178  53 I47
stroke3  178  51 I47
stroke3  178  50 I47
stroke3  178  48 I47
stroke3  178  47 I47
stroke3  178  46 I47
stroke3  178  44 I47
stroke3  178  43 I47
stroke3  178  42 I47
stroke3  178  41 I47
stroke3  178  40 I47
stroke3  179  38 I47
stroke3  179  37 I47
stroke3  179  36 I47
stroke3  179  35 I47
stroke3  179  34 I47
stroke3  179  33 I47
stroke3  179  32 I47
stroke3  179  31 I47
stroke3  179  30 I47
stroke3  179  29 I47
stroke3  179  27 I47
stroke3  179  26 I47
stroke3  179  25 I47
stroke3  179  24 I47
stroke3  179  23 I47
stroke3  179  22 I47
stroke3  179  21 I47
stroke3  179  20 I47
stroke3  179  19 I47
stroke3  179  18 I47
stroke3  179  17 I47
stroke3  179  16 I47
stroke3  178  16 I47
stroke3  178  15 I47
stroke3  178  14 I47
stroke3  178  13 I47
stroke3  179  13 I47
stroke3  179  12 I47
stroke3  179  11 I47
stroke3  179  10 I47
stroke3  179  9 I47
stroke3  178  9 I47
stroke3  179  9 I47
stroke3  178  8 I47
stroke3  179  8 I47
stroke3  178  8 I47
stroke3  179  8 I47
stroke3  178  8 I47
stroke3  179  7 I47
stroke3  179  8 I47
stroke4  203  67 B25
stroke4  203  66 I25
stroke4  203  65 I25
stroke4  203  64 I25
stroke4  203  63 I25
stroke4  203  62 I25
stroke4  202  61 I25
stroke4  202  60 I25
stroke4  202  59 I25
stroke4  202  58 I25
stroke4  201  57 I25
stroke4  201  56 I25
stroke4  201  55 I25
stroke4  200  55 I25
stroke4  200  54 I25
stroke4  199  54 I25
stroke4  198  54 I25
stroke4  198  53 I25
stroke4  197  53 I25
stroke4  196  53 I25
stroke4  195  52 I25
stroke4  195  53 I25
stroke4  194  53 I25
stroke4  193  53 I25
stroke4  193  54 I25
stroke4  192  55 I25
stroke4  192  56 I25
stroke4  192  57 I25
stroke4  192  58 I25
stroke4  191  59 I25
stroke4  192  60 I25
stroke4  192  61 I25
stroke4  192  62 I25
stroke4  192  63 I25
stroke4  193  64 I25
stroke4  193  65 I25
stroke4  193  66 I25
stroke4  193  67 I25
stroke4  194  67 I25
stroke4  194  68 I25
stroke4  195  68 I25
stroke4  195  69 I25
stroke4  196  69 I25
stroke4  196  70 I25
stroke4  197  70 I25
stroke4  198  71 I25
stroke4  199  71 I25
stroke4  200  72 I25
stroke4  201  72 I25
stroke4  202  72 I25
stroke4  202  71 I25
stroke4  203  71 I25
stroke4  204  70 I25
stroke4  204  69 I25
stroke4  205  69 I25
stroke4  205  68 I25
stroke4  206  67 I25
stroke4  206  66 I25
stroke4  206  65 I25
stroke4  207  64 I25
stroke4  207  63 I25
stroke4  207  62 I25
stroke4  207  60 I25
stroke4  208  59 I25
stroke4  208  58 I25
stroke4  208  56 I25
stroke4  208  55 I25
stroke4  209  54 I25
stroke4  209  52 I25
stroke4  209  51 I25
stroke4  209  49 I25
stroke4  209  48 I25
stroke4  210  46 I25
stroke4  210  45 I25
stroke4  210  44 I25
stroke4  211  42 I25
stroke4  211  41 I25
stroke4  211  40 I25
stroke4  211  39 I25
stroke4  212  37 I25
stroke4  212  36 I25
stroke4  212  35 I25
stroke4  212  34 I25
stroke4  213  33 I25
stroke4  213  32 I25
stroke4  213  31 I25
stroke4  213  30 I25
stroke4  214  29 I25
stroke4  214  28 I25
stroke4  214  27 I25
stroke4  214  26 I25
stroke4  215  25 I25
stroke4  215  24 I25
stroke4  215  23 I25
stroke4  215  22 I25
stroke4  215  21 I25
stroke4  215  20 I25
stroke4  216  19 I25
stroke4  216  18 I25
stroke4  216  17 I25
stroke4  216  16 I25
stroke4  216  15 I25
stroke4  216  14 I25
stroke4  216  13 I25
stroke4  216  12 I25
stroke4  216  11 I25
stroke4  216  10 I25
stroke4  217  10 I25
stroke4  216  10 I25
stroke4  216  9 I25
stroke4  216  8 I25
stroke4  216  7 I25
stroke4  217  8 I25
stroke4  217  9 I25
stroke4  218  10 I25
stroke4  218  11 I25
stroke4  219  12 I25
stroke4  219  13 I25
stroke4  220  15 I25
stroke4  221  16 I25
stroke4  222  17 I25
stroke4  222  18 I25
stroke4  223  19 I25
stroke4  224  20 I25
stroke4  225  21 I25
stroke4  226  21 I25
stroke4  226  22 I25
stroke4  227  23 I25
stroke4  228  23 I25
stroke4  229  24 I25
stroke4  230  24 I25
stroke4  231  25 I25
stroke4  232  25 I25
stroke4  233  25 I25
stroke4  234  25 I25
stroke4  235  25 I25
stroke4  236  25 I25
stroke4  237  26 I25
stroke4  238  25 I25
stroke4  239  25 I25
stroke4  240  25 I25
stroke4  241  25 I25
stroke4  242  25 I25
stroke4  243  25 I25
stroke4  244  25 I25
stroke4  244  24 I25
stroke4  245  24 I25
stroke4  246  24 I25
stroke4  246  23 I25
stroke4  247  23 I25
stroke4  248  22 I25
stroke4  249  22 I25
stroke4  249  21 I25
stroke4  250  20 I25
stroke4  251  19 I25
stroke4  251  18 I25
stroke4  251  17 I25
stroke4  251  16 I25
stroke4  251  15 I25
stroke4  250  14 I25
stroke4  250  13 I25
stroke4  249  12 I25
stroke4  248  12 I25
stroke4  248  11 I25
stroke4  247  11 I25
stroke4  247  10 I25
stroke4  246  10 I25
stroke4  245  10 I25
stroke4  245  9 I25
stroke4  244  9 I25
stroke4  244  8 I25
stroke4  243  8 I25
stroke4  242  8 I25
stroke4  242  7 I25
stroke4  241  7 I25
stroke4  240  7 I25
stroke4  240  6 I25
stroke4  239  6 I25
stroke4  239  7 I25
stroke4  238  7 I25
stroke4  238  8 I25
stroke4  238  9 I25
stroke4  238  10 I25
stroke4  238  11 I25
stroke4  237  12 I25
stroke4  237  13 I25
stroke4  237  15 I25
stroke4  237  16 I25
stroke4  236  18 I25
stroke4  236  19 I25
stroke4  236  21 I25
stroke4  236  22 I25
stroke4  236  24 I25
stroke4  235  25 I25
stroke4  235  27 I25
stroke4  235  29 I25
stroke4  235  30 I25
stroke4  234  32 I25
stroke4  234  34 I25
stroke4  234  35 I25
stroke4  234  37 I25
stroke4  233  39 I25
stroke4  233  40 I25
stroke4  233  42 I25
stroke4  233  43 I25
stroke4  232  45 I25
stroke4  232  46 I25
stroke4  232  48 I25
stroke4  231  49 I25
stroke4  231  51 I25
stroke4  231  52 I25
stroke4  231  54 I25
stroke4  230  55 I25
stroke4  230  57 I25
stroke4  230  58 I25
stroke4  230  59 I25
stroke4  230  60 I25
stroke4  229  62 I25
stroke4  229  63 I25
stroke4  229  64 I25
stroke4  229  65 I25
stroke4  229  66 I25
stroke4  229  67 I25
stroke4  229  68 I25
stroke4  229  69 I25
stroke4  229  70 I25
stroke4  229  71 I25
stroke4  229  72 I25
stroke4  229  73 I25
stroke4  228  73 I25
stroke4  228  72 I25
stroke4  228  71 I25
stroke5  267  2 B1
stroke5  267  3 I1
stroke5  267  4 I1
stroke5  266  5 I1
stroke5  266  6 I1
stroke5  266  7 I1
stroke5  266  8 I1
stroke5  266  9 I1
stroke5  266  11 I1
stroke5  266  12 I1
stroke5  265  13 I1
stroke5  265  15 I1
stroke5  265  16 I1
stroke5  265  18 I1
stroke5  265  19 I1
stroke5  265  21 I1
stroke5  265  23 I1
stroke5  266  24 I1
stroke5  266  26 I1
stroke5  266  28 I1
stroke5  266  29 I1
stroke5  266  31 I1
stroke5  266  32 I1
stroke5  267  34 I1
stroke5  267  35 I1
stroke5  267  36 I1
stroke5  267  37 I1
stroke5  268  38 I1
stroke5  268  39 I1
stroke5  268  40 I1
stroke5  268  41 I1
stroke5  268  42 I1
stroke5  268  43 I1
stroke5  268  44 I1
stroke5  267  44 I1
stroke5  267  45 I1
stroke5  266  45 I1
stroke5  265  45 I1
stroke5  264  45 I1
stroke5  263  45 I1
stroke5  262  45 I1
stroke5  261  45 I1
stroke5  260  45 I1
stroke5  259  45 I1
stroke5  258  45 I1
stroke5  257  45 I1
stroke5  256  45 I1
stroke5  255  45 I1
stroke5  255  44 I1
stroke5  254  44 I1
stroke5  253  44 I1
stroke5  253  45 I1
stroke5  253  46 I1
stroke5  254  46 I1
stroke5  254  47 I1
stroke5  254  48 I1
stroke5  255  49 I1
stroke5  255  50 I1
stroke5  256  51 I1
stroke5  256  52 I1
stroke5  257  53 I1
stroke5  257  54 I1
stroke5  258  55 I1
stroke5  258  56 I1
stroke5  259  56 I1
stroke5  260  57 I1
stroke5  260  58 I1
stroke5  261  59 I1
stroke5  262  60 I1
stroke5  262  61 I1
stroke5  263  61 I1
stroke5  264  62 I1
stroke5  265  63 I1
stroke5  265  64 I1
stroke5  266  64 I1
stroke5  267  65 I1
stroke5  268  66 I1
stroke5  269  66 I1
stroke5  269  67 I1
stroke5  270  67 I1
stroke5  271  67 I1
stroke5  272  68 I1
stroke5  273  68 I1
stroke5  274  69 I1
stroke5  275  69 I1
stroke5  276  69 I1
stroke5  277  69 I1
stroke5  278  69 I1
stroke5  279  69 I1
stroke5  280  69 I1
stroke5  280  68 I1
stroke5  281  68 I1
stroke5  282  67 I1
stroke5  283  66 I1
stroke5  283  65 I1
stroke5  284  65 I1
stroke5  284  64 I1
stroke5  285  63 I1
stroke5  285  62 I1
stroke5  285  61 I1
stroke5  286  60 I1
stroke5  286  59 I1
stroke5  286  58 I1
stroke5  286  57 I1
stroke5  286  55 I1
stroke5  287  54 I1
stroke5  287  53 I1
stroke5  287  51 I1
stroke5  288  50 I1
stroke5  288  48 I1
stroke5  288  46 I1
stroke5  288  44 I1
stroke5  288  43 I1
stroke5  288  41 I1
stroke5  288  39 I1
stroke5  289  37 I1
stroke5  288  36 I1
stroke5  289  34 I1
stroke5  289  32 I1
stroke5  289  31 I1
stroke5  289  29 I1
stroke5  289  27 I1
stroke5  289  25 I1
stroke5  289  23 I1
stroke5  289  21 I1
stroke5  289  20 I1
stroke5  289  18 I1
stroke5  289  17 I1
stroke5  289  16 I1
stroke5  289  15 I1
stroke5  289  13 I1
stroke5  289  12 I1
stroke5  289  11 I1
stroke5  289  10 I1
stroke5  289  9 I1
stroke5  289  8 I1
stroke5  289  7 I1
stroke5  289  6 I1
stroke5  289  5 I1
stroke5  290  4 I1
stroke5  289  4 I1
stroke5  289  3 I1
stroke5  289  2 I1
stroke5  289  1 I1
stroke5  289  0 I1
stroke5  289  1 I1
stroke5  289  2 I1
stroke5  288  2 I1
stroke6  297  62 B47
stroke6  297  61 I47
stroke6  296  61 I47
stroke6  297  62 I47
stroke6  297  63 I47
stroke6  298  63 I47
stroke6  298  64 I47
stroke6  299  65 I47
stroke6  300  65 I47
stroke6  300  66 I47
stroke6  301  67 I47
stroke6  302  68 I47
stroke6  303  69 I47
stroke6  304  70 I47
stroke6  305  70 I47
stroke6  306  70 I47
stroke6  306  71 I47
stroke6  307  71 I47
stroke6  308  71 I47
stroke6  309  72 I47
stroke6  310  71 I47
stroke6  311  71 I47
stroke6  312  71 I47
stroke6  313  71 I47
stroke6  314  70 I47
stroke6  315  70 I47
stroke6  316  70 I47
stroke6  316  69 I47
stroke6  317  69 I47
stroke6  318  68 I47
stroke6  319  67 I47
stroke6  319  66 I47
stroke6  320  66 I47
stroke6  320  65 I47
stroke6  320  64 I47
stroke6  321  63 I47
stroke6  321  62 I47
stroke6  322  61 I47
stroke6  322  60 I47
stroke6  322  59 I47
stroke6  322  58 I47
stroke6  322  56 I47
stroke6  322  55 I47
stroke6  322  53 I47
stroke6  322  51 I47
stroke6  322  50 I47
stroke6  322  48 I47
stroke6  322  47 I47
stroke6  322  45 I47
stroke6  322  44 I47
stroke6  322  42 I47
stroke6  322  41 I47
stroke6  322  40 I47
stroke6  322  38 I47
stroke6  322  37 I47
stroke6  322  35 I47
stroke6  321  34 I47
stroke6  321  33 I47
stroke6  321  32 I47
stroke6  321  30 I47
stroke6  321  29 I47
stroke6  321  28 I47
stroke6  321  27 I47
stroke6  321  26 I47
stroke6  321  24 I47
stroke6  321  23 I47
stroke6  321  22 I47
stroke6  321  21 I47
stroke6  321  20 I47
stroke6  321  19 I47
stroke6  321  18 I47
stroke6  321  17 I47
stroke6  321  16 I47
stroke6  321  15 I47
stroke6  321  14 I47
stroke6  321  13 I47
stroke6  321  12 I47
stroke6  321  11 I47
stroke6  321  10 I47
stroke6  321  9 I47
stroke6  321  8 I47
stroke6  322  9 I47
stroke6  322  10 I47
stroke6  321  10 I47
stroke7  349  18 B35
stroke7  348  19 I35
stroke7  347  19 I35
stroke7  346  19 I35
stroke7  345  18 I35
stroke7  344  18 I35
stroke7  344  17 I35
stroke7  343  16 I35
stroke7  343  15 I35
stroke7  343  14 I35
stroke7  343  13 I35
stroke7  343  12 I35
stroke7  344  11 I35
stroke7  344  10 I35
stroke7  344  9 I35
stroke7  345  8 I35
stroke7  345  7 I35
stroke7  346  7 I35
stroke7  346  6 I35
stroke7  347  5 I35
stroke7  348  5 I35
stroke7  348  4 I35
stroke7  349  4 I35
stroke7  350  4 I35
stroke7  351  4 I35
stroke7  352  4 I35
stroke7  352  5 I35
stroke7  353  5 I35
stroke7  353  6 I35
stroke7  353  7 I35
stroke7  354  7 I35
stroke7  354  8 I35
stroke7  354  9 I35
stroke7  354  10 I35
stroke7  354  11 I35
stroke7  354  12 I35
stroke7  354  13 I35
stroke7  354  14 I35
stroke7  353  14 I35
stroke7  353  15 I35
stroke7  353  16 I35
stroke7  353  17 I35
stroke7  353  18 I35
stroke7  353  19 I35
stroke7  352  19 I35
stroke7  352  20 I35
stroke7  352  21 I35
stroke7  352  22 I35
stroke7  352  23 I35
stroke7  352  24 I35
stroke7  352  25 I35
stroke7  351  26 I35
stroke7  351  28 I35
stroke7  351  29 I35
stroke7  351  30 I35
stroke7  351  31 I35
stroke7  351  33 I35
stroke7  351  34 I35
stroke7  351  35 I35
stroke7  351  37 I35
stroke7  351  38 I35
stroke7  351  39 I35
stroke7  351  40 I35
stroke7  351  42 I35
stroke7  351  43 I35
stroke7  351  44 I35
stroke7  351  45 I35
stroke7  351  46 I35
stroke7  351  47 I35
stroke7  350  48 I35
stroke7  350  49 I35
stroke7  350  50 I35
stroke7  350  51 I35
stroke7  350  52 I35
stroke7  350  53 I35
stroke7  350  54 I35
stroke7  349  54 I35
stroke7  349  55 I35
stroke7  348  55 I35
stroke7  347  56 I35
stroke7  346  56 I35
stroke7  345  56 I35
stroke7  344  56 I35
stroke7  343  56 I35
stroke7  342  56 I35
stroke7  341  56 I35
stroke7  340  56 I35
stroke7  339  56 I35
stroke7  337  56 I35
stroke7  336  56 I35
stroke7  335  56 I35
stroke7  334  56 I35
stroke7  333  56 I35
stroke7  332  56 I35
stroke7  331  56 I35
stroke7  330  56 I35
stroke7  330  55 I35
stroke7  329  55 I35
stroke7  329  56 I35
stroke7  329  55 I35
stroke7  329  56 I35
stroke7  329  57 I35
stroke7  330  58 I35
stroke7  330  59 I35
stroke7  331  60 I35
stroke7  332  61 I35
stroke7  333  62 I35
stroke7  334  63 I35
stroke7  335  64 I35
stroke7  336  64 I35
stroke7  337  65 I35
stroke7  338  65 I35
stroke7  339  66 I35
stroke7  340  66 I35
stroke7  341  66 I35
stroke7  342  66 I35
stroke7  343  66 I35
stroke7  343  65 I35
stroke7  344  65 I35
stroke7  345  65 I35
stroke7  346  65 I35
stroke7  347  64 I35
stroke7  348  64 I35
stroke7  349  64 I35
stroke7  350  63 I35
stroke7  351  63 I35
stroke7  352  62 I35
stroke7  353  62 I35
stroke7  354  62 I35
stroke7  355  62 I35
stroke7  356  62 I35
stroke7  357  62 I35
stroke7  357  63 I35
stroke7  358  63 I35
stroke7  359  63 I35
stroke7  359  64 I35
stroke7  360  65 I35
stroke7  361  66 I35
stroke7  360  65 I35
stroke8  376  10 B19
stroke8  376  11 I19
stroke8  376  12 I19
stroke8  377  12 I19
stroke8  377  13 I19
stroke8  378  13 I19
stroke8  378  14 I19
stroke8  379  14 I19
stroke8  380  14 I19
stroke8  381  14 I19
stroke8  382  14 I19
stroke8  382  13 I19
stroke8  383  13 I19
stroke8  384  13 I19
stroke8  384  12 I19
stroke8  385  12 I19
stroke8  386  11 I19
stroke8  386  10 I19
stroke8  387  10 I19
stroke8  387  9 I19
stroke8  388  8 I19
stroke8  388  7 I19
stroke8  388  6 I19
stroke8  388  5 I19
stroke8  387  5 I19
stroke8  387  4 I19
stroke8  386  4 I19
stroke8  386  3 I19
stroke8  385  3 I19
stroke8  384  3 I19
stroke8  383  3 I19
stroke8  382  3 I19
stroke8  381  3 I19
stroke8  381  4 I19
stroke8  380  4 I19
stroke8  380  5 I19
stroke8  379  5 I19
stroke8  379  6 I19
stroke8  378  7 I19
stroke8  378  8 I19
stroke8  378  9 I19
stroke8  377  10 I19
stroke8  377  11 I19
stroke8  376  12 I19
stroke8  376  13 I19
stroke8  376  14 I19
stroke8  376  15 I19
stroke8  376  16 I19
stroke8  376  17 I19
stroke8  376  18 I19
stroke8  376  20 I19
stroke8  376  21 I19
stroke8  376  22 I19
stroke8  376  24 I19
stroke8  376  25 I19
stroke8  376  27 I19
stroke8  377  28 I19
stroke8  377  29 I19
stroke8  377  31 I19
stroke8  378  32 I19
stroke8  378  33 I19
stroke8  378  35 I19
stroke8  379  36 I19
stroke8  379  37 I19
stroke8  379  38 I19
stroke8  380  39 I19
stroke8  380  40 I19
stroke8  380  41 I19
stroke8  380  42 I19
stroke8  381  43 I19
stroke8  381  44 I19
stroke8  381  45 I19
stroke8  381  46 I19
stroke8  382  46 I19
stroke8  381  47 I19
stroke8  380  48 I19
stroke8  379  48 I19
stroke8  378  48 I19
stroke8  377  48 I19
stroke8  376  48 I19
stroke8  375  48 I19
stroke8  374  48 I19
stroke8  373  48 I19
stroke8  372  47 I19
stroke8  371  47 I19
stroke8  370  47 I19
stroke8  369  47 I19
stroke8  368  47 I19
stroke8  368  48 I19
stroke8  369  48 I19
stroke8  369  49 I19
stroke8  369  50 I19
stroke8  370  50 I19
stroke8  370  51 I19
stroke8  371  52 I19
stroke8  372  53 I19
stroke8  373  54 I19
stroke8  374  55 I19
stroke8  374  56 I19
stroke8  375  57 I19
stroke8  376  57 I19
stroke8  376  58 I19
stroke8  377  59 I19
stroke8  378  59 I19
stroke8  378  60 I19
stroke8  379  61 I19
stroke8  380  61 I19
stroke8  380  62 I19
stroke8  381  63 I19
stroke8  382  63 I19
stroke8  382  64 I19
stroke8  383  64 I19
stroke8  383  65 I19
stroke8  384  65 I19
stroke8  384  66 I19
stroke8  385  66 I19
stroke8  385  67 I19
stroke8  386  67 I19
stroke8  387  67 I19
stroke8  388  68 I19
stroke8  389  68 I19
stroke8  389  69 I19
stroke8  390  69 I19
stroke8  391  70 I19
stroke8  392  70 I19
stroke8  393  70 I19
stroke8  394  70 I19
stroke8  395  70 I19
stroke8  396  70 I19
stroke8  396  69 I19
stroke8  397  69 I19
stroke8  398  68 I19
stroke8  398  67 I19
stroke8  399  66 I19
stroke8  399  65 I19
stroke8  400  64 I19
stroke8  400  63 I19
stroke8  400  62 I19
stroke8  400  61 I19
stroke8  400  60 I19
stroke8  400  59 I19
stroke8  400  58 I19
stroke8  400  57 I19
stroke8  400  56 I19
stroke8  400  54 I19
stroke8  400  53 I19
stroke8  400  52 I19
stroke8  400  50 I19
stroke8  400  49 I19
stroke8  400  47 I19
stroke8  400  45 I19
stroke8  400  43 I19
stroke8  400  42 I19
stroke8  399  40 I19
stroke8  399  39 I19
stroke8  399  37 I19
stroke8  399  35 I19
stroke8  399  34 I19
stroke8  398  32 I19
stroke8  398  31 I19
stroke8  398  29 I19
stroke8  398  28 I19
stroke8  398  26 I19
stroke8  398  25 I19
stroke8  398  23 I19
stroke8  398  22 I19
stroke8  398  20 I19
stroke8  398  19 I19
stroke8  398  17 I19
stroke8  397  16 I19
stroke8  397  15 I19
stroke8  397  13 I19
stroke8  397  12 I19
stroke8  397  11 I19
stroke8  397  10 I19
stroke8  397  9 I19
stroke8  396  8 I19
stroke8  396  7 I19
stroke8  396  6 I19
stroke8  396  5 I19
stroke8  396  4 I19
stroke8  396  3 I19
stroke8  396  2 I19
stroke8  397  2 I19
stroke8  397  3 I19
stroke8  398  3 I19
stroke8  398  4 I19
stroke8  398  5 I19
stroke8  399  5 I19
stroke8  399  6 I19
stroke8  400  7 I19
stroke8  400  8 I19
stroke8  401  9 I19
stroke8  401  10 I19
stroke8  402  12 I19
stroke8  403  13 I19
stroke8  404  14 I19
stroke8  404  15 I19
stroke8  405  16 I19
stroke8  406  17 I19
stroke8  407  18 I19
stroke8  407  19 I19
stroke8  408  19 I19
stroke8  409  20 I19
stroke8  410  21 I19
stroke8  411  21 I19
stroke8  412  21 I19
stroke8  413  22 I19
stroke8  414  22 I19
stroke8  415  22 I19
stroke8  416  22 I19
stroke8  417  22 I19
stroke8  418  22 I19
stroke8  419  22 I19
stroke8  420  22 I19
stroke8  421  21 I19
stroke8  422  21 I19
stroke8  423  20 I19
stroke8  424  20 I19
stroke8  425  20 I19
stroke8  425  19 I19
stroke8  426  19 I19
stroke8  426  18 I19
stroke8  427  18 I19
stroke8  427  17 I19
stroke8  427  16 I19
stroke8  428  16 I19
stroke8  428  15 I19
stroke8  429  14 I19
stroke8  429  13 I19
stroke8  429  12 I19
stroke8  429  11 I19
stroke8  430  10 I19
stroke8  429  10 I19
stroke8  430  9 I19
stroke8  429  9 I19
stroke8  429  8 I19
stroke8  429  7 I19
stroke8  428  7 I19
stroke8  428  6 I19
stroke8  427  5 I19
stroke8  426  5 I19
stroke8  425  4 I19
stroke8  424  4 I19
stroke8  423  4 I19
stroke8  422  4 I19
stroke8  422  3 I19
stroke8  421  3 I19
stroke8  420  3 I19
stroke8  419  3 I19
stroke8  419  4 I19
stroke8  419  5 I19
stroke8  419  6 I19
stroke8  419  7 I19
stroke8  419  8 I19
stroke8  419  9 I19
stroke8  419  10 I19
stroke8  419  11 I19
stroke8  419  12 I19
stroke8  419  13 I19
stroke8  419  15 I19
stroke8  419  16 I19
stroke8  419  17 I19
stroke8  419  19 I19
stroke8  419  20 I19
stroke8  419  22 I19
stroke8  419  23 I19
stroke8  419  25 I19
stroke8  419  26 I19
stroke8  419  28 I19
stroke8  418  29 I19
stroke8  419  31 I19
stroke8  419  32 I19
stroke8  418  34 I19
stroke8  419  35 I19
stroke8  418  36 I19
stroke8  419  37 I19
stroke8  419  39 I19
stroke8  419  40 I19
stroke8  418  41 I19
stroke8  418  42 I19
stroke8  418  44 I19
stroke8  418  45 I19
stroke8  418  46 I19
stroke8  418  48 I19
stroke8  418  49 I19
stroke8  418  51 I19
stroke8  418  52 I19
stroke8  418  54 I19
stroke8  418  55 I19
stroke8  418  56 I19
stroke8  418  57 I19
stroke8  418  58 I19
stroke8  418  59 I19
stroke8  418  60 I19
stroke8  418  61 I19
stroke8  419  62 I19
stroke8  418  63 I19
stroke8  419  64 I19
stroke8  419  65 I19
stroke8  419  66 I19
stroke8  419  67 I19
stroke8  419  68 I19
stroke8  418  68 I19
stroke8  417  68 I19
stroke9  400  99 B64
stroke9  400  100 I64
stroke9  400  101 I64
stroke9  401  101 I64
stroke9  402  101 I64
stroke9  402  102 I64
stroke9  403  102 I64
stroke9  404  101 I64
stroke9  405  101 I64
stroke9  405  100 I64
stroke9  406  100 I64
stroke9  406  99 I64
stroke9  407  98 I64
stroke9  408  97 I64
stroke9  408  96 I64
stroke9  409  95 I64
stroke9  409  94 I64
stroke9  408  93 I64
stroke9  407  92 I64
stroke9  406  92 I64
stroke9  406  91 I64
stroke9  405  91 I64
stroke9  404  91 I64
stroke9  404  92 I64
stroke9  403  92 I64
stroke9  402  92 I64
stroke9  401  92 I64
stroke9  401  93 I64
stroke9  400  93 I64
stroke9  400  94 I64
stroke9  400  95 I64
stroke9  399  95 I64
stroke9  399  96 I64
stroke9  399  97 I64
stroke9  400  98 I64
stroke9  400  99 I64
stroke9  400  100 I64
stroke9  401  101 I64
stroke9  402  102 I64
stroke9  402  103 I64
stroke9  403  104 I64
stroke9  404  105 I64
stroke9  405  106 I64
stroke9  406  108 I64
stroke9  407  109 I64
stroke9  408  110 I64
stroke9  409  112 I64
stroke9  410  113 I64
stroke9  411  114 I64
stroke9  412  115 I64
stroke9  413  117 I64
stroke9  414  118 I64
stroke9  415  119 I64
stroke9  415  120 I64
stroke9  416  121 I64
stroke9  417  122 I64
stroke9  417  123 I64
stroke9  418  124 I64
stroke9  419  125 I64
stroke9  419  126 I64
stroke9  419  125 I64
stroke9  418  125 I64
stroke9  417  124 I64
stroke9  417  123 I64
