stroke1  101  66 B30
stroke1  101  65 I30
stroke1  102  65 I30
stroke1  102  64 I30
stroke1  102  63 I30
stroke1  102  62 I30
stroke1  101  62 I30
stroke1  101  61 I30
stroke1  101  60 I30
stroke1  101  59 I30
stroke1  100  59 I30
stroke1  100  58 I30
stroke1  100  57 I30
stroke1  100  56 I30
stroke1  100  55 I30
stroke1  99  55 I30
stroke1  99  54 I30
stroke1  98  54 I30
stroke1  98  53 I30
stroke1  98  53 I30
stroke1  97  53 I30
stroke1  97  52 I30
stroke1  96  52 I30
stroke1  95  53 I30
stroke1  94  53 I30
stroke1  94  54 I30
stroke1  93  55 I30
stroke1  93  56 I30
stroke1  93  57 I30
stroke1  93  58 I30
stroke1  93  59 I30
stroke1  93  60 I30
stroke1  93  61 I30
stroke1  94  62 I30
stroke1  94  63 I30
stroke1  94  64 I30
stroke1  95  64 I30
stroke1  95  65 I30
stroke1  96  66 I30
stroke1  97  67 I30
stroke1  98  68 I30
stroke1  99  68 I30
stroke1  100  68 I30
stroke1  101  67 I30
stroke1  101  66 I30
stroke1  101  65 I30
stroke1  101  64 I30
stroke1  101  63 I30
stroke1  101  62 I30
stroke1  101  61 I30
stroke1  101  60 I30
stroke1  101  59 I30
stroke1  101  58 I30
stroke1  101  57 I30
stroke1  101  56 I30
stroke1  102  55 I30
stroke1  102  54 I30
stroke1  102  53 I30
stroke1  102  52 I30
stroke1  102  51 I30
stroke1  102  50 I30
stroke1  102  49 I30
stroke1  102  48 I30
stroke1  102  47 I30
stroke1  102  46 I30
stroke1  102  44 I30
stroke1  102  43 I30
stroke1  102  42 I30
stroke1  103  41 I30
stroke1  103  40 I30
stroke1  103  39 I30
stroke1  103  38 I30
stroke1  103  37 I30
stroke1  103  35 I30
stroke1  103  34 I30
stroke1  103  33 I30
stroke1  103  32 I30
stroke1  104  31 I30
stroke1  103  30 I30
stroke1  104  29 I30
stroke1  104  28 I30
stroke1  104  27 I30
stroke1  104  26 I30
stroke1  104  25 I30
stroke1  104  24 I30
stroke1  104  23 I30
stroke1  104  22 I30
stroke1  104  21 I30
stroke1  105  20 I30
stroke1  105  19 I30
stroke1  105  18 I30
stroke1  105  17 I30
stroke1  105  16 I30
stroke1  105  15 I30
stroke1  105  14 I30
stroke1  105  13 I30
stroke1  105  12 I30
stroke1  105  11 I30
stroke1  105  10 I30
stroke1  105  9 I30
stroke1  105  8 I30
stroke1  106  7 I30
stroke1  106  6 I30
stroke1  106  5 I30
stroke1  106  4 I30
stroke1  106  3 I30
stroke1  106  2 I30
stroke1  106  3 I30
stroke1  107  4 I30
stroke1  107  5 I30
stroke1  107  6 I30
stroke1  107  7 I30
stroke1  108  8 I30
stroke1  108  9 I30
stroke1  108  11 I30
stroke1  108  13 I30
stroke1  109  15 I30
stroke1  109  17 I30
stroke1  109  19 I30
stroke1  110  21 I30
stroke1  110  23 I30
stroke1  111  25 I30
stroke1  111  27 I30
stroke1  111  28 I30
stroke1  112  30 I30
stroke1  112  31 I30
stroke1  112  32 I30
stroke1  113  34 I30
stroke1  113  35 I30
stroke1  113  36 I30
stroke1  113  37 I30
stroke1  114  38 I30
stroke1  114  39 I30
stroke1  115  39 I30
stroke1  115  38 I30
stroke1  116  38 I30
stroke1  116  37 I30
stroke1  116  36 I30
stroke1  117  36 I30
stroke1  117  35 I30
stroke1  118  34 I30
stroke1  118  33 I30
stroke1  119  32 I30
stroke1  119  31 I30
stroke1  120  30 I30
stroke1  121  29 I30
stroke1  121  28 I30
stroke1  122  27 I30
stroke1  123  26 I30
stroke1  124  25 I30
stroke1  124  23 I30
stroke1  125  22 I30
stroke1  126  21 I30
stroke1  127  19 I30
stroke1  128  18 I30
stroke1  129  17 I30
stroke1  130  16 I30
stroke1  131  14 I30
stroke1  132  13 I30
stroke1  133  12 I30
stroke1  133  11 I30
stroke1  134  10 I30
stroke1  135  9 I30
stroke1  135  8 I30
stroke1  136  7 I30
stroke1  137  6 I30
stroke1  137  5 I30
stroke1  138  4 I30
stroke1  138  3 I30
stroke1  139  2 I30
stroke1  139  1 I30
stroke1  139  0 I30
stroke1  140  0 I30
stroke1  139  1 I30
stroke1  139  2 I30
stroke1  139  3 I30
stroke1  139  4 I30
stroke1  139  5 I30
stroke1  139  7 I30
stroke1  139  8 I30
stroke1  138  9 I30
stroke1  138  11 I30
stroke1  138  12 I30
stroke1  138  14 I30
stroke1  138  16 I30
stroke1  138  17 I30
stroke1  138  19 I30
stroke1  138  21 I30
stroke1  137  23 I30
stroke1  137  24 I30
stroke1  137  26 I30
stroke1  137  28 I30
stroke1  136  29 I30
stroke1  136  31 I30
stroke1  136  33 I30
stroke1  136  34 I30
stroke1  135  36 I30
stroke1  135  37 I30
stroke1  135  39 I30
stroke1  135  40 I30
stroke1  134  41 I30
stroke1  134  43 I30
stroke1  134  44 I30
stroke1  134  45 I30
stroke1  134  46 I30
stroke1  134  48 I30
stroke1  133  49 I30
stroke1  133  50 I30
stroke1  133  51 I30
stroke1  133  53 I30
stroke1  133  54 I30
stroke1  132  55 I30
stroke1  132  56 I30
stroke1  132  57 I30
stroke1  132  58 I30
stroke1  132  59 I30
stroke1  131  60 I30
stroke1  131  61 I30
stroke1  131  62 I30
stroke1  131  61 I30
stroke2  171  13 B35
stroke2  172  13 I35
stroke2  172  14 I35
stroke2  171  15 I35
stroke2  170  15 I35
stroke2  170  16 I35
stroke2  169  16 I35
stroke2  169  17 I35
stroke2  168  17 I35
stroke2  167  17 I35
stroke2  166  17 I35
stroke2  165  16 I35
stroke2  164  16 I35
stroke2  164  15 I35
stroke2  163  15 I35
stroke2  162  14 I35
stroke2  161  13 I35
stroke2  162  12 I35
stroke2  162  11 I35
stroke2  162  10 I35
stroke2  162  9 I35
stroke2  162  8 I35
stroke2  163  8 I35
stroke2  163  7 I35
stroke2  163  6 I35
stroke2  164  6 I35
stroke2  164  5 I35
stroke2  165  5 I35
stroke2  165  4 I35
stroke2  166  4 I35
stroke2  167  4 I35
stroke2  167  3 I35
stroke2  168  3 I35
stroke2  168  2 I35
stroke2  169  3 I35
stroke2  170  3 I35
stroke2  170  4 I35
stroke2  171  4 I35
stroke2  171  5 I35
stroke2  172  6 I35
stroke2  172  7 I35
stroke2  172  8 I35
stroke2  172  9 I35
stroke2  172  10 I35
stroke2  172  11 I35
stroke2  172  12 I35
stroke2  172  13 I35
stroke2  172  14 I35
stroke2  171  16 I35
stroke2  171  17 I35
stroke2  171  18 I35
stroke2  171  20 I35
stroke2  171  21 I35
stroke2  171  23 I35
stroke2  171  24 I35
stroke2  171  26 I35
stroke2  171  27 I35
stroke2  171  29 I35
stroke2  170  30 I35
stroke2  170  32 I35
stroke2  170  33 I35
stroke2  170  35 I35
stroke2  170  36 I35
stroke2  169  37 I35
stroke2  169  39 I35
stroke2  169  40 I35
stroke2  169  41 I35
stroke2  168  42 I35
stroke2  168  44 I35
stroke2  168  45 I35
stroke2  168  46 I35
stroke2  167  47 I35
stroke2  167  48 I35
stroke2  167  49 I35
stroke2  167  50 I35
stroke2  167  51 I35
stroke2  167  52 I35
stroke2  166  52 I35
stroke2  166  53 I35
stroke2  165  53 I35
stroke2  164  53 I35
stroke2  163  53 I35
stroke2  162  53 I35
stroke2  161  53 I35
stroke2  160  53 I35
stroke2  159  53 I35
stroke2  157  53 I35
stroke2  156  53 I35
stroke2  155  53 I35
stroke2  154  52 I35
stroke2  153  52 I35
stroke2  152  52 I35
stroke2  151  52 I35
stroke2  150  51 I35
stroke2  149  51 I35
stroke2  148  51 I35
stroke2  147  51 I35
stroke2  146  51 I35
stroke2  146  52 I35
stroke2  146  53 I35
stroke2  146  54 I35
stroke2  146  55 I35
stroke2  146  56 I35
stroke2  147  57 I35
stroke2  147  58 I35
stroke2  148  59 I35
stroke2  148  60 I35
stroke2  149  61 I35
stroke2  150  62 I35
stroke2  151  62 I35
stroke2  152  62 I35
stroke2  153  62 I35
stroke2  154  62 I35
stroke2  155  61 I35
stroke2  156  61 I35
stroke2  157  61 I35
stroke2  158  61 I35
stroke2  159  60 I35
stroke2  160  60 I35
stroke2  161  60 I35
stroke2  162  60 I35
stroke2  163  59 I35
stroke2  164  59 I35
stroke2  165  60 I35
stroke2  166  60 I35
stroke2  167  60 I35
stroke2  168  61 I35
stroke2  169  62 I35
stroke2  170  62 I35
stroke2  170  63 I35
stroke2  170  64 I35
stroke3  191  44 B46
stroke3  192  44 I46
stroke3  192  43 I46
stroke3  192  44 I46
stroke3  193  44 I46
stroke3  193  45 I46
stroke3  194  45 I46
stroke3  194  46 I46
stroke3  195  46 I46
stroke3  195  47 I46
stroke3  195  48 I46
stroke3  196  48 I46
stroke3  196  49 I46
stroke3  196  50 I46
stroke3  195  51 I46
stroke3  194  52 I46
stroke3  193  52 I46
stroke3  192  52 I46
stroke3  191  52 I46
stroke3  190  51 I46
stroke3  189  51 I46
stroke3  188  51 I46
stroke3  188  50 I46
stroke3  187  49 I46
stroke3  186  48 I46
stroke3  186  47 I46
stroke3  187  46 I46
stroke3  187  45 I46
stroke3  187  44 I46
stroke3  188  44 I46
stroke3  189  43 I46
stroke3  190  43 I46
stroke3  191  43 I46
stroke3  192  43 I46
stroke3  193  43 I46
stroke3  194  43 I46
stroke3  195  44 I46
stroke3  196  44 I46
stroke3  198  45 I46
stroke3  199  45 I46
stroke3  200  46 I46
stroke3  201  47 I46
stroke3  202  48 I46
stroke3  203  49 I46
stroke3  204  50 I46
stroke3  204  51 I46
stroke3  205  52 I46
stroke3  206  53 I46
stroke3  206  54 I46
stroke3  207  55 I46
stroke3  207  56 I46
stroke3  207  57 I46
stroke3  208  58 I46
stroke3  208  59 I46
stroke3  208  60 I46
stroke3  207  60 I46
stroke3  208  61 I46
stroke3  207  61 I46
stroke3  208  62 I46
stroke3  207  61 I46
stroke3  207  60 I46
stroke3  207  59 I46
stroke3  195  18 I46
stroke3  196  18 I46
stroke3  197  18 I46
stroke3  198  19 I46
stroke3  199  20 I46
stroke3  199  21 I46
stroke3  200  22 I46
stroke3  200  23 I46
stroke3  200  24 I46
stroke3  199  24 I46
stroke3  199  25 I46
stroke3  198  25 I46
stroke3  197  25 I46
stroke3  197  26 I46
stroke3  196  26 I46
stroke3  195  26 I46
stroke3  195  25 I46
stroke3  194  25 I46
stroke3  193  25 I46
stroke3  192  24 I46
stroke3  191  23 I46
stroke3  191  22 I46
stroke3  191  21 I46
stroke3  191  20 I46
stroke3  191  19 I46
stroke3  192  18 I46
stroke3  193  17 I46
stroke3  194  17 I46
stroke3  195  16 I46
stroke3  196  16 I46
stroke3  197  16 I46
stroke3  198  17 I46
stroke3  199  17 I46
stroke3  200  17 I46
stroke3  201  18 I46
stroke3  202  19 I46
stroke3  203  19 I46
stroke3  204  20 I46
stroke3  205  21 I46
stroke3  206  22 I46
stroke3  207  23 I46
stroke3  208  24 I46
stroke3  208  25 I46
stroke3  209  26 I46
stroke3  209  27 I46
stroke3  210  28 I46
stroke3  211  29 I46
stroke3  211  30 I46
stroke3  211  31 I46
stroke3  212  32 I46
stroke3  212  33 I46
stroke3  212  34 I46
stroke3  212  35 I46
stroke3  212  34 I46
stroke3  213  33 I46
stroke4  245  8 B35
stroke4  245  9 I35
stroke4  244  10 I35
stroke4  243  10 I35
stroke4  243  11 I35
stroke4  242  11 I35
stroke4  242  12 I35
stroke4  241  12 I35
stroke4  241  13 I35
stroke4  240  13 I35
stroke4  239  13 I35
stroke4  238  13 I35
stroke4  237  13 I35
stroke4  236  13 I35
stroke4  235  13 I35
stroke4  235  12 I35
stroke4  234  12 I35
stroke4  234  11 I35
stroke4  233  10 I35
stroke4  233  9 I35
stroke4  233  8 I35
stroke4  233  7 I35
stroke4  234  7 I35
stroke4  234  6 I35
stroke4  234  5 I35
stroke4  235  4 I35
stroke4  236  3 I35
stroke4  237  2 I35
stroke4  238  2 I35
stroke4  239  1 I35
stroke4  240  1 I35
stroke4  241  1 I35
stroke4  241  2 I35
stroke4  242  2 I35
stroke4  242  3 I35
stroke4  243  3 I35
stroke4  243  4 I35
stroke4  243  5 I35
stroke4  244  6 I35
stroke4  244  7 I35
stroke4  244  8 I35
stroke4  244  9 I35
stroke4  244  10 I35
stroke4  244  11 I35
stroke4  244  12 I35
stroke4  244  13 I35
stroke4  244  14 I35
stroke4  244  16 I35
stroke4  244  17 I35
stroke4  243  18 I35
stroke4  243  20 I35
stroke4  243  22 I35
stroke4  243  23 I35
stroke4  242  25 I35
stroke4  242  26 I35
stroke4  242  28 I35
stroke4  242  30 I35
stroke4  241  31 I35
stroke4  241  33 I35
stroke4  241  34 I35
stroke4  241  36 I35
stroke4  241  37 I35
stroke4  240  39 I35
stroke4  240  40 I35
stroke4  240  41 I35
stroke4  240  42 I35
stroke4  240  44 I35
stroke4  239  45 I35
stroke4  239  46 I35
stroke4  239  47 I35
stroke4  239  48 I35
stroke4  239  49 I35
stroke4  239  50 I35
stroke4  239  51 I35
stroke4  239  52 I35
stroke4  238  52 I35
stroke4  238  53 I35
stroke4  237  53 I35
stroke4  236  53 I35
stroke4  235  53 I35
stroke4  234  53 I35
stroke4  233  53 I35
stroke4  232  53 I35
stroke4  231  53 I35
stroke4  229  53 I35
stroke4  228  53 I35
stroke4  227  52 I35
stroke4  226  53 I35
stroke4  225  52 I35
stroke4  223  52 I35
stroke4  222  52 I35
stroke4  221  52 I35
stroke4  220  51 I35
stroke4  219  51 I35
stroke4  218  51 I35
stroke4  217  51 I35
stroke4  217  52 I35
stroke4  218  52 I35
stroke4  218  53 I35
stroke4  218  54 I35
stroke4  219  55 I35
stroke4  219  56 I35
stroke4  220  57 I35
stroke4  221  58 I35
stroke4  222  59 I35
stroke4  223  60 I35
stroke4  224  61 I35
stroke4  225  61 I35
stroke4  226  62 I35
stroke4  227  61 I35
stroke4  228  61 I35
stroke4  229  61 I35
stroke4  230  61 I35
stroke4  230  60 I35
stroke4  231  60 I35
stroke4  232  60 I35
stroke4  233  59 I35
stroke4  234  59 I35
stroke4  235  59 I35
stroke4  236  58 I35
stroke4  237  58 I35
stroke4  238  59 I35
stroke4  239  59 I35
stroke4  239  60 I35
stroke4  240  60 I35
stroke4  240  61 I35
stroke4  241  62 I35
stroke4  241  63 I35
stroke5  250  50 B47
stroke5  249  50 I47
stroke5  248  50 I47
stroke5  249  50 I47
stroke5  249  51 I47
stroke5  249  52 I47
stroke5  250  53 I47
stroke5  250  54 I47
stroke5  250  55 I47
stroke5  251  55 I47
stroke5  251  56 I47
stroke5  251  57 I47
stroke5  252  58 I47
stroke5  252  59 I47
stroke5  252  60 I47
stroke5  253  61 I47
stroke5  254  62 I47
stroke5  254  63 I47
stroke5  255  64 I47
stroke5  256  65 I47
stroke5  257  65 I47
stroke5  257  66 I47
stroke5  258  66 I47
stroke5  259  66 I47
stroke5  259  67 I47
stroke5  260  67 I47
stroke5  261  67 I47
stroke5  262  67 I47
stroke5  263  67 I47
stroke5  264  67 I47
stroke5  265  67 I47
stroke5  266  66 I47
stroke5  267  66 I47
stroke5  268  66 I47
stroke5  269  65 I47
stroke5  270  65 I47
stroke5  270  64 I47
stroke5  271  64 I47
stroke5  271  63 I47
stroke5  272  63 I47
stroke5  272  62 I47
stroke5  273  61 I47
stroke5  273  60 I47
stroke5  273  59 I47
stroke5  273  58 I47
stroke5  273  57 I47
stroke5  273  56 I47
stroke5  274  55 I47
stroke5  274  54 I47
stroke5  274  52 I47
stroke5  274  51 I47
stroke5  274  50 I47
stroke5  274  48 I47
stroke5  274  47 I47
stroke5  274  46 I47
stroke5  274  45 I47
stroke5  274  43 I47
stroke5  274  42 I47
stroke5  274  40 I47
stroke5  274  39 I47
stroke5  274  38 I47
stroke5  274  36 I47
stroke5  275  35 I47
stroke5  275  33 I47
stroke5  275  32 I47
stroke5  275  30 I47
stroke5  275  29 I47
stroke5  275  28 I47
stroke5  275  26 I47
stroke5  275  25 I47
stroke5  275  24 I47
stroke5  275  22 I47
stroke5  275  21 I47
stroke5  275  19 I47
stroke5  275  18 I47
stroke5  275  17 I47
stroke5  275  15 I47
stroke5  275  14 I47
stroke5  275  13 I47
stroke5  275  12 I47
stroke5  275  11 I47
stroke5  275  10 I47
stroke5  275  9 I47
stroke5  275  8 I47
stroke5  276  7 I47
stroke5  276  6 I47
stroke5  276  5 I47
stroke5  276  4 I47
stroke5  276  3 I47
stroke5  276  2 I47
stroke5  276  3 I47
stroke5  276  4 I47
stroke6  291  55 B10
stroke6  291  56 I10
stroke6  292  56 I10
stroke6  292  55 I10
stroke6  293  55 I10
stroke6  294  55 I10
stroke6  294  54 I10
stroke6  295  53 I10
stroke6  295  52 I10
stroke6  295  51 I10
stroke6  295  50 I10
stroke6  295  49 I10
stroke6  294  49 I10
stroke6  294  48 I10
stroke6  293  48 I10
stroke6  292  48 I10
stroke6  292  49 I10
stroke6  291  49 I10
stroke6  291  50 I10
stroke6  290  50 I10
stroke6  290  51 I10
stroke6  289  51 I10
stroke6  289  52 I10
stroke6  289  53 I10
stroke6  288  54 I10
stroke6  288  55 I10
stroke6  289  56 I10
stroke6  289  57 I10
stroke6  289  58 I10
stroke6  289  59 I10
stroke6  289  60 I10
stroke6  290  60 I10
stroke6  290  61 I10
stroke6  291  62 I10
stroke6  292  63 I10
stroke6  292  64 I10
stroke6  293  64 I10
stroke6  294  64 I10
stroke6  294  65 I10
stroke6  295  65 I10
stroke6  296  65 I10
stroke6  297  65 I10
stroke6  298  65 I10
stroke6  298  64 I10
stroke6  299  64 I10
stroke6  300  64 I10
stroke6  300  63 I10
stroke6  301  63 I10
stroke6  301  62 I10
stroke6  301  61 I10
stroke6  301  60 I10
stroke6  302  60 I10
stroke6  301  59 I10
stroke6  301  58 I10
stroke6  301  57 I10
stroke6  301  56 I10
stroke6  301  55 I10
stroke6  301  54 I10
stroke6  301  53 I10
stroke6  301  52 I10
stroke6  301  51 I10
stroke6  301  50 I10
stroke6  301  49 I10
stroke6  301  48 I10
stroke6  301  46 I10
stroke6  301  45 I10
stroke6  301  44 I10
stroke6  301  43 I10
stroke6  301  42 I10
stroke6  301  40 I10
stroke6  301  39 I10
stroke6  301  38 I10
stroke6  301  37 I10
stroke6  301  35 I10
stroke6  300  34 I10
stroke6  300  33 I10
stroke6  300  32 I10
stroke6  300  31 I10
stroke6  300  30 I10
stroke6  301  29 I10
stroke6  301  27 I10
stroke6  301  26 I10
stroke6  301  25 I10
stroke6  301  24 I10
stroke6  301  23 I10
stroke6  301  22 I10
stroke6  301  20 I10
stroke6  301  19 I10
stroke6  301  18 I10
stroke6  301  17 I10
stroke6  301  16 I10
stroke6  301  15 I10
stroke6  301  14 I10
stroke6  301  13 I10
stroke6  301  12 I10
stroke6  302  12 I10
stroke6  302  11 I10
stroke6  302  10 I10
stroke6  302  9 I10
stroke6  302  8 I10
stroke6  302  7 I10
stroke6  303  7 I10
stroke6  303  6 I10
stroke6  303  5 I10
stroke6  304  5 I10
stroke6  304  4 I10
stroke6  305  3 I10
stroke6  306  3 I10
stroke6  307  3 I10
stroke6  308  3 I10
stroke6  309  3 I10
stroke6  310  3 I10
stroke6  310  4 I10
stroke6  311  4 I10
stroke6  311  5 I10
stroke6  311  6 I10
stroke6  312  7 I10
stroke6  312  8 I10
stroke6  312  9 I10
stroke6  312  11 I10
stroke6  312  12 I10
stroke6  312  13 I10
stroke6  312  15 I10
stroke6  312  17 I10
stroke6  312  18 I10
stroke6  312  20 I10
stroke6  312  22 I10
stroke6  312  24 I10
stroke6  312  25 I10
stroke6  312  27 I10
stroke6  312  29 I10
stroke6  312  30 I10
stroke6  312  32 I10
stroke6  312  34 I10
stroke6  312  35 I10
stroke6  312  37 I10
stroke6  312  39 I10
stroke6  312  40 I10
stroke6  311  42 I10
stroke6  311  44 I10
stroke6  311  45 I10
stroke6  311  47 I10
stroke6  311  48 I10
stroke6  310  50 I10
stroke6  310  51 I10
stroke6  310  53 I10
stroke6  310  54 I10
stroke6  310  55 I10
stroke6  310  56 I10
stroke6  310  58 I10
stroke6  309  58 I10
stroke6  309  59 I10
stroke6  309  60 I10
stroke6  309  61 I10
stroke6  309  62 I10
stroke6  308  62 I10
stroke6  308  63 I10
stroke6  307  64 I10
stroke6  307  65 I10
stroke6  306  65 I10
stroke6  306  66 I10
stroke6  305  66 I10
stroke6  305  67 I10
stroke6  304  67 I10
stroke6  303  67 I10
stroke6  302  67 I10
stroke6  302  68 I10
stroke6  301  67 I10
stroke6  300  67 I10
stroke6  299  67 I10
stroke6  300  67 I10
stroke6  301  67 I10
stroke6  302  68 I10
stroke6  303  68 I10
stroke6  304  68 I10
stroke6  304  69 I10
stroke6  305  70 I10
stroke6  306  70 I10
stroke6  307  71 I10
stroke6  308  72 I10
stroke6  308  73 I10
stroke6  309  74 I10
stroke6  310  75 I10
stroke6  310  77 I10
stroke6  311  78 I10
stroke6  311  79 I10
stroke6  312  81 I10
stroke6  312  82 I10
stroke6  312  83 I10
stroke6  312  85 I10
stroke6  312  86 I10
stroke6  312  87 I10
stroke6  312  88 I10
stroke6  312  89 I10
stroke6  312  90 I10
stroke6  312  91 I10
stroke6  311  91 I10
stroke6  311  90 I10
stroke6  311  89 I10
stroke6  311  88 I10
stroke7  331  2 B1
stroke7  331  1 I1
stroke7  330  1 I1
stroke7  330  2 I1
stroke7  329  2 I1
stroke7  329  3 I1
stroke7  329  4 I1
stroke7  329  5 I1
stroke7  329  6 I1
stroke7  329  7 I1
stroke7  329  8 I1
stroke7  329  9 I1
stroke7  329  11 I1
stroke7  329  12 I1
stroke7  328  13 I1
stroke7  329  15 I1
stroke7  329  17 I1
stroke7  329  18 I1
stroke7  329  20 I1
stroke7  329  22 I1
stroke7  329  23 I1
stroke7  330  25 I1
stroke7  330  27 I1
stroke7  330  28 I1
stroke7  331  30 I1
stroke7  331  31 I1
stroke7  331  32 I1
stroke7  332  34 I1
stroke7  332  35 I1
stroke7  332  36 I1
stroke7  333  36 I1
stroke7  333  37 I1
stroke7  333  38 I1
stroke7  333  39 I1
stroke7  332  39 I1
stroke7  331  40 I1
stroke7  330  40 I1
stroke7  329  40 I1
stroke7  328  40 I1
stroke7  327  40 I1
stroke7  326  40 I1
stroke7  325  40 I1
stroke7  324  39 I1
stroke7  323  39 I1
stroke7  322  39 I1
stroke7  321  39 I1
stroke7  320  39 I1
stroke7  320  40 I1
stroke7  320  41 I1
stroke7  321  42 I1
stroke7  321  43 I1
stroke7  322  44 I1
stroke7  322  45 I1
stroke7  322  46 I1
stroke7  323  47 I1
stroke7  323  48 I1
stroke7  324  49 I1
stroke7  324  50 I1
stroke7  325  51 I1
stroke7  325  52 I1
stroke7  326  54 I1
stroke7  326  55 I1
stroke7  327  56 I1
stroke7  327  57 I1
stroke7  328  58 I1
stroke7  329  59 I1
stroke7  330  60 I1
stroke7  330  61 I1
stroke7  331  61 I1
stroke7  331  62 I1
stroke7  332  62 I1
stroke7  332  63 I1
stroke7  333  63 I1
stroke7  334  64 I1
stroke7  335  64 I1
stroke7  335  65 I1
stroke7  336  65 I1
stroke7  337  65 I1
stroke7  338  66 I1
stroke7  339  66 I1
stroke7  340  66 I1
stroke7  341  66 I1
stroke7  342  66 I1
stroke7  343  66 I1
stroke7  344  66 I1
stroke7  345  66 I1
stroke7  346  66 I1
stroke7  347  66 I1
stroke7  347  65 I1
stroke7  348  65 I1
stroke7  349  65 I1
stroke7  350  64 I1
stroke7  351  64 I1
stroke7  351  63 I1
stroke7  352  63 I1
stroke7  352  62 I1
stroke7  352  61 I1
stroke7  352  60 I1
stroke7  352  59 I1
stroke7  352  58 I1
stroke7  352  57 I1
stroke7  353  56 I1
stroke7  353  54 I1
stroke7  353  53 I1
stroke7  353  51 I1
stroke7  353  50 I1
stroke7  353  48 I1
stroke7  353  46 I1
stroke7  354  44 I1
stroke7  354  42 I1
stroke7  354  40 I1
stroke7  354  38 I1
stroke7  354  37 I1
stroke7  354  35 I1
stroke7  354  33 I1
stroke7  354  31 I1
stroke7  355  29 I1
stroke7  355  27 I1
stroke7  355  25 I1
stroke7  355  23 I1
stroke7  355  22 I1
stroke7  355  20 I1
stroke7  355  18 I1
stroke7  355  17 I1
stroke7  355  15 I1
stroke7  355  14 I1
stroke7  355  13 I1
stroke7  355  12 I1
stroke7  355  11 I1
stroke7  355  10 I1
stroke7  356  9 I1
stroke7  355  8 I1
stroke7  356  7 I1
stroke7  356  6 I1
stroke7  356  5 I1
stroke7  356  4 I1
stroke7  356  3 I1
stroke7  357  4 I1
stroke7  356  5 I1
stroke8  384  9 B35
stroke8  384  10 I35
stroke8  385  10 I35
stroke8  384  10 I35
stroke8  384  11 I35
stroke8  384  12 I35
stroke8  383  12 I35
stroke8  383  13 I35
stroke8  382  14 I35
stroke8  382  15 I35
stroke8  381  15 I35
stroke8  380  16 I35
stroke8  379  16 I35
stroke8  378  16 I35
stroke8  377  15 I35
stroke8  376  15 I35
stroke8  375  14 I35
stroke8  375  13 I35
stroke8  374  13 I35
stroke8  374  12 I35
stroke8  374  11 I35
stroke8  373  10 I35
stroke8  373  9 I35
stroke8  373  8 I35
stroke8  374  8 I35
stroke8  374  7 I35
stroke8  374  6 I35
stroke8  375  5 I35
stroke8  376  4 I35
stroke8  377  3 I35
stroke8  378  3 I35
stroke8  379  2 I35
stroke8  380  2 I35
stroke8  381  2 I35
stroke8  381  3 I35
stroke8  382  3 I35
stroke8  382  4 I35
stroke8  383  4 I35
stroke8  384  5 I35
stroke8  384  6 I35
stroke8  384  7 I35
stroke8  384  8 I35
stroke8  384  9 I35
stroke8  385  10 I35
stroke8  385  11 I35
stroke8  385  12 I35
stroke8  385  13 I35
stroke8  385  15 I35
stroke8  385  16 I35
stroke8  385  18 I35
stroke8  385  19 I35
stroke8  385  21 I35
stroke8  385  23 I35
stroke8  385  24 I35
stroke8  385  26 I35
stroke8  385  28 I35
stroke8  384  30 I35
stroke8  384  32 I35
stroke8  384  34 I35
stroke8  384  35 I35
stroke8  384  37 I35
stroke8  384  38 I35
stroke8  384  40 I35
stroke8  384  41 I35
stroke8  384  43 I35
stroke8  384  44 I35
stroke8  383  45 I35
stroke8  383  46 I35
stroke8  384  47 I35
stroke8  384  48 I35
stroke8  383  48 I35
stroke8  383  49 I35
stroke8  383  50 I35
stroke8  382  51 I35
stroke8  381  51 I35
stroke8  380  51 I35
stroke8  379  52 I35
stroke8  378  52 I35
stroke8  377  51 I35
stroke8  376  51 I35
stroke8  374  51 I35
stroke8  373  51 I35
stroke8  372  51 I35
stroke8  371  50 I35
stroke8  369  50 I35
stroke8  368  50 I35
stroke8  367  50 I35
stroke8  366  49 I35
stroke8  365  49 I35
stroke8  364  49 I35
stroke8  363  49 I35
stroke8  362  49 I35
stroke8  362  48 I35
stroke8  362  49 I35
stroke8  361  49 I35
stroke8  362  50 I35
stroke8  362  51 I35
stroke8  362  52 I35
stroke8  363  53 I35
stroke8  363  54 I35
stroke8  364  54 I35
stroke8  365  55 I35
stroke8  365  56 I35
stroke8  366  57 I35
stroke8  366  58 I35
stroke8  367  58 I35
stroke8  368  59 I35
stroke8  369  59 I35
stroke8  369  60 I35
stroke8  370  60 I35
stroke8  371  60 I35
stroke8  371  61 I35
stroke8  372  61 I35
stroke8  373  61 I35
stroke8  374  60 I35
stroke8  375  60 I35
stroke8  376  60 I35
stroke8  377  60 I35
stroke8  378  60 I35
stroke8  379  60 I35
stroke8  380  59 I35
stroke8  381  59 I35
stroke8  382  59 I35
stroke8  382  60 I35
stroke8  383  60 I35
stroke8  384  60 I35
stroke8  385  60 I35
stroke8  385  61 I35
stroke8  386  61 I35
stroke8  386  62 I35
stroke8  387  62 I35
stroke9  408  9 B19
stroke9  408  10 I19
stroke9  407  10 I19
stroke9  407  11 I19
stroke9  407  12 I19
stroke9  408  12 I19
stroke9  408  13 I19
stroke9  409  13 I19
stroke9  410  14 I19
stroke9  411  15 I19
stroke9  412  15 I19
stroke9  413  15 I19
stroke9  414  14 I19
stroke9  415  14 I19
stroke9  416  13 I19
stroke9  417  12 I19
stroke9  417  11 I19
stroke9  418  11 I19
stroke9  418  10 I19
stroke9  418  9 I19
stroke9  419  9 I19
stroke9  419  8 I19
stroke9  418  8 I19
stroke9  418  7 I19
stroke9  418  6 I19
stroke9  418  5 I19
stroke9  417  4 I19
stroke9  417  3 I19
stroke9  416  3 I19
stroke9  416  2 I19
stroke9  415  2 I19
stroke9  415  1 I19
stroke9  414  1 I19
stroke9  414  2 I19
stroke9  413  2 I19
stroke9  412  2 I19
stroke9  412  3 I19
stroke9  411  3 I19
stroke9  411  4 I19
stroke9  411  5 I19
stroke9  410  5 I19
stroke9  410  6 I19
stroke9  410  7 I19
stroke9  409  8 I19
stroke9  409  9 I19
stroke9  409  10 I19
stroke9  409  11 I19
stroke9  409  12 I19
stroke9  409  13 I19
stroke9  408  14 I19
stroke9  408  15 I19
stroke9  408  16 I19
stroke9  408  17 I19
stroke9  408  18 I19
stroke9  408  20 I19
stroke9  408  21 I19
stroke9  408  22 I19
stroke9  408  24 I19
stroke9  409  25 I19
stroke9  409  26 I19
stroke9  409  27 I19
stroke9  409  29 I19
stroke9  410  30 I19
stroke9  410  31 I19
stroke9  410  32 I19
stroke9  411  34 I19
stroke9  411  35 I19
stroke9  412  36 I19
stroke9  412  37 I19
stroke9  412  38 I19
stroke9  413  39 I19
stroke9  413  40 I19
stroke9  414  41 I19
stroke9  414  42 I19
stroke9  413  42 I19
stroke9  413  43 I19
stroke9  412  43 I19
stroke9  412  44 I19
stroke9  411  44 I19
stroke9  410  44 I19
stroke9  409  44 I19
stroke9  408  43 I19
stroke9  407  43 I19
stroke9  406  43 I19
stroke9  405  43 I19
stroke9  404  42 I19
stroke9  403  42 I19
stroke9  402  42 I19
stroke9  401  42 I19
stroke9  400  42 I19
stroke9  399  42 I19
stroke9  399  43 I19
stroke9  400  44 I19
stroke9  400  45 I19
stroke9  400  46 I19
stroke9  401  46 I19
stroke9  401  47 I19
stroke9  401  48 I19
stroke9  402  49 I19
stroke9  402  50 I19
stroke9  402  51 I19
stroke9  403  52 I19
stroke9  403  53 I19
stroke9  404  54 I19
stroke9  404  55 I19
stroke9  405  55 I19
stroke9  406  56 I19
stroke9  406  57 I19
stroke9  407  58 I19
stroke9  407  59 I19
stroke9  408  59 I19
stroke9  408  60 I19
stroke9  409  60 I19
stroke9  410  61 I19
stroke9  411  62 I19
stroke9  412  62 I19
stroke9  412  63 I19
stroke9  413  63 I19
stroke9  414  64 I19
stroke9  415  64 I19
stroke9  416  64 I19
stroke9  417  64 I19
stroke9  418  64 I19
stroke9  419  64 I19
stroke9  420  64 I19
stroke9  421  64 I19
stroke9  422  64 I19
stroke9  422  63 I19
stroke9  423  63 I19
stroke9  424  63 I19
stroke9  424  62 I19
stroke9  425  62 I19
stroke9  426  62 I19
stroke9  426  61 I19
stroke9  427  61 I19
stroke9  427  60 I19
stroke9  428  60 I19
stroke9  428  59 I19
stroke9  429  59 I19
stroke9  429  58 I19
stroke9  429  57 I19
stroke9  429  56 I19
stroke9  429  55 I19
stroke9  429  54 I19
stroke9  429  53 I19
stroke9  429  52 I19
stroke9  430  51 I19
stroke9  430  50 I19
stroke9  430  49 I19
stroke9  430  47 I19
stroke9  430  46 I19
stroke9  430  45 I19
stroke9  430  43 I19
stroke9  431  42 I19
stroke9  430  41 I19
stroke9  430  39 I19
stroke9  431  38 I19
stroke9  431  37 I19
stroke9  431  35 I19
stroke9  431  34 I19
stroke9  431  32 I19
stroke9  431  31 I19
stroke9  431  30 I19
stroke9  431  28 I19
stroke9  431  27 I19
stroke9  431  26 I19
stroke9  431  24 I19
stroke9  431  23 I19
stroke9  431  22 I19
stroke9  431  20 I19
stroke9  431  19 I19
stroke9  431  18 I19
stroke9  431  17 I19
stroke9  431  15 I19
stroke9  431  14 I19
stroke9  431  13 I19
stroke9  431  12 I19
stroke9  431  11 I19
stroke9  431  10 I19
stroke9  431  9 I19
stroke9  430  8 I19
stroke9  431  8 I19
stroke9  431  7 I19
stroke9  431  6 I19
stroke9  431  7 I19
stroke9  432  8 I19
stroke9  432  9 I19
stroke9  433  10 I19
stroke9  433  12 I19
stroke9  434  13 I19
stroke9  434  14 I19
stroke9  435  15 I19
stroke9  436  16 I19
stroke9  437  17 I19
stroke9  437  18 I19
stroke9  438  19 I19
stroke9  439  20 I19
stroke9  440  20 I19
stroke9  441  21 I19
stroke9  442  21 I19
stroke9  442  22 I19
stroke9  443  22 I19
stroke9  444  23 I19
stroke9  445  23 I19
stroke9  446  22 I19
stroke9  447  22 I19
stroke9  448  22 I19
stroke9  449  21 I19
stroke9  450  21 I19
stroke9  450  20 I19
stroke9  451  20 I19
stroke9  451  19 I19
stroke9  452  19 I19
stroke9  453  18 I19
stroke9  454  18 I19
stroke9  454  17 I19
stroke9  455  17 I19
stroke9  455  16 I19
stroke9  456  16 I19
stroke9  456  15 I19
stroke9  457  15 I19
stroke9  457  14 I19
stroke9  457  13 I19
stroke9  457  12 I19
stroke9  456  11 I19
stroke9  456  10 I19
stroke9  455  10 I19
stroke9  455  9 I19
stroke9  454  9 I19
stroke9  454  8 I19
stroke9  453  7 I19
stroke9  453  6 I19
stroke9  452  6 I19
stroke9  451  5 I19
stroke9  450  5 I19
stroke9  450  4 I19
stroke9  449  4 I19
stroke9  448  4 I19
stroke9  447  4 I19
stroke9  447  5 I19
stroke9  447  6 I19
stroke9  447  7 I19
stroke9  448  7 I19
stroke9  448  8 I19
stroke9  448  9 I19
stroke9  448  10 I19
stroke9  448  11 I19
stroke9  448  13 I19
stroke9  448  14 I19
stroke9  448  15 I19
stroke9  448  16 I19
stroke9  448  18 I19
stroke9  447  19 I19
stroke9  447  21 I19
stroke9  447  22 I19
stroke9  447  24 I19
stroke9  447  25 I19
stroke9  446  26 I19
stroke9  446  28 I19
stroke9  446  29 I19
stroke9  446  30 I19
stroke9  445  31 I19
stroke9  445  33 I19
stroke9  445  34 I19
stroke9  445  35 I19
stroke9  445  37 I19
stroke9  444  38 I19
stroke9  444  39 I19
stroke9  444  41 I19
stroke9  444  42 I19
stroke9  444  43 I19
stroke9  443  44 I19
stroke9  443  46 I19
stroke9  443  47 I19
stroke9  443  48 I19
stroke9  443  50 I19
stroke9  442  51 I19
stroke9  442  52 I19
stroke9  442  53 I19
stroke9  442  55 I19
stroke9  442  56 I19
stroke9  442  57 I19
stroke9  442  58 I19
stroke9  442  59 I19
stroke9  441  60 I19
stroke9  441  61 I19
stroke9  441  62 I19
stroke9  441  63 I19
stroke9  441  64 I19
stroke9  441  65 I19
stroke9  441  66 I19
stroke9  440  67 I19
stroke9  440  68 I19
stroke9  440  69 I19
stroke9  440  68 I19
stroke10  434  85 B49
stroke10  433  85 I49
stroke10  433  86 I49
stroke10  432  86 I49
stroke10  431  87 I49
stroke10  430  87 I49
stroke10  429  88 I49
stroke10  428  89 I49
stroke10  427  89 I49
stroke10  426  90 I49
stroke10  425  90 I49
stroke10  423  91 I49
stroke10  422  91 I49
stroke10  420  92 I49
stroke10  419  92 I49
stroke10  417  92 I49
stroke10  415  93 I49
stroke10  414  93 I49
stroke10  412  93 I49
stroke10  411  93 I49
stroke10  409  93 I49
stroke10  408  93 I49
stroke10  407  92 I49
stroke10  406  92 I49
stroke10  405  92 I49
stroke10  404  92 I49
stroke10  404  91 I49
stroke10  403  91 I49
stroke10  404  92 I49
stroke10  404  93 I49
stroke10  405  94 I49
stroke10  405  95 I49
stroke10  406  95 I49
stroke10  406  96 I49
stroke10  407  97 I49
stroke10  408  98 I49
stroke10  408  99 I49
stroke10  409  99 I49
stroke10  410  100 I49
stroke10  411  101 I49
stroke10  412  102 I49
stroke10  413  102 I49
stroke10  413  103 I49
stroke10  414  103 I49
stroke10  415  103 I49
stroke10  416  103 I49
stroke10  417  103 I49
stroke10  418  103 I49
stroke10  419  103 I49
stroke10  420  102 I49
stroke10  421  102 I49
stroke10  422  101 I49
stroke10  423  100 I49
stroke10  424  99 I49
stroke10  425  98 I49
stroke10  427  98 I49
stroke10  428  97 I49
stroke10  429  96 I49
stroke10  429  95 I49
stroke10  430  94 I49
stroke10  431  93 I49
stroke10  432  92 I49
stroke10  433  91 I49
stroke10  433  90 I49
stroke10  434  90 I49
stroke10  434  89 I49
stroke10  435  89 I49
stroke10  435  90 I49
stroke10  435  91 I49
stroke10  436  91 I49
stroke10  436  92 I49
stroke10  436  93 I49
stroke10  436  94 I49
stroke10  436  95 I49
stroke10  436  97 I49
stroke10  436  98 I49
stroke10  436  99 I49
stroke10  436  100 I49
stroke10  436  101 I49
stroke10  436  103 I49
stroke10  437  104 I49
stroke10  437  105 I49
stroke10  437  106 I49
stroke10  437  107 I49
stroke10  437  108 I49
stroke10  437  107 I49
stroke10  437  106 I49
stroke11  471  64 B34
stroke11  470  64 I34
stroke11  469  64 I34
stroke11  468  64 I34
stroke11  467  63 I34
stroke11  466  63 I34
stroke11  466  62 I34
stroke11  465  62 I34
stroke11  465  61 I34
stroke11  464  60 I34
stroke11  464  59 I34
stroke11  464  58 I34
stroke11  464  57 I34
stroke11  465  57 I34
stroke11  466  57 I34
stroke11  466  56 I34
stroke11  467  56 I34
stroke11  468  56 I34
stroke11  469  56 I34
stroke11  469  57 I34
stroke11  470  57 I34
stroke11  471  57 I34
stroke11  472  57 I34
stroke11  472  58 I34
stroke11  473  58 I34
stroke11  474  59 I34
stroke11  475  59 I34
stroke11  475  60 I34
stroke11  476  61 I34
stroke11  476  62 I34
stroke11  477  62 I34
stroke11  477  63 I34
stroke11  478  64 I34
stroke11  478  65 I34
stroke11  478  66 I34
stroke11  477  67 I34
stroke11  476  68 I34
stroke11  475  68 I34
stroke11  474  68 I34
stroke11  474  67 I34
stroke11  473  67 I34
stroke11  472  67 I34
stroke11  471  66 I34
stroke11  470  66 I34
stroke11  469  65 I34
stroke11  468  64 I34
stroke11  467  63 I34
stroke11  466  62 I34
stroke11  465  61 I34
stroke11  465  60 I34
stroke11  464  59 I34
stroke11  464  58 I34
stroke11  463  58 I34
stroke11  463  57 I34
stroke11  463  56 I34
stroke11  463  55 I34
stroke11  463  54 I34
stroke11  463  53 I34
stroke11  462  52 I34
stroke11  462  51 I34
stroke11  462  50 I34
stroke11  462  49 I34
stroke11  462  48 I34
stroke11  462  47 I34
stroke11  462  46 I34
stroke11  463  46 I34
stroke11  463  45 I34
stroke11  463  44 I34
stroke11  464  44 I34
stroke11  464  43 I34
stroke11  465  43 I34
stroke11  465  42 I34
stroke11  466  42 I34
stroke11  467  42 I34
stroke11  468  41 I34
stroke11  469  41 I34
stroke11  470  42 I34
stroke11  471  42 I34
stroke11  472  42 I34
stroke11  473  42 I34
stroke11  474  42 I34
stroke11  475  42 I34
stroke11  476  42 I34
stroke11  477  42 I34
stroke11  477  43 I34
stroke11  478  43 I34
stroke11  479  43 I34
stroke11  480  43 I34
stroke11  480  42 I34
stroke11  479  42 I34
stroke11  479  41 I34
stroke11  478  40 I34
stroke11  478  39 I34
stroke11  477  38 I34
stroke11  477  37 I34
stroke11  476  36 I34
stroke11  476  35 I34
stroke11  475  34 I34
stroke11  475  33 I34
stroke11  475  32 I34
stroke11  475  31 I34
stroke11  475  30 I34
stroke11  475  29 I34
stroke11  475  28 I34
stroke11  475  27 I34
stroke11  475  26 I34
stroke11  475  25 I34
stroke11  475  23 I34
stroke11  475  22 I34
stroke11  475  21 I34
stroke11  475  20 I34
stroke11  475  19 I34
stroke11  476  18 I34
stroke11  476  17 I34
stroke11  476  16 I34
stroke11  476  15 I34
stroke11  477  15 I34
stroke11  477  14 I34
stroke11  477  13 I34
stroke11  478  12 I34
stroke11  478  11 I34
stroke11  479  11 I34
stroke11  479  10 I34
stroke11  479  9 I34
stroke11  480  9 I34
stroke11  481  8 I34
stroke11  481  7 I34
stroke11  482  7 I34
stroke11  482  6 I34
stroke11  483  6 I34
stroke11  483  5 I34
stroke11  484  5 I34
stroke11  485  4 I34
stroke11  486  3 I34
stroke11  487  3 I34
stroke11  487  2 I34
stroke11  488  2 I34
stroke11  489  2 I34
stroke11  489  3 I34
stroke11  490  3 I34
stroke11  491  3 I34
stroke11  491  4 I34
stroke11  492  5 I34
stroke11  493  5 I34
stroke11  493  6 I34
stroke11  493  7 I34
stroke11  494  8 I34
stroke11  494  9 I34
stroke11  494  10 I34
stroke11  494  12 I34
stroke11  495  13 I34
stroke11  495  14 I34
stroke11  495  15 I34
stroke11  495  17 I34
stroke11  495  18 I34
stroke11  495  20 I34
stroke11  495  21 I34
stroke11  495  23 I34
stroke11  495  24 I34
stroke11  495  26 I34
stroke11  495  27 I34
stroke11  495  28 I34
stroke11  495  30 I34
stroke11  495  31 I34
stroke11  495  33 I34
stroke11  495  34 I34
stroke11  495  35 I34
stroke11  495  37 I34
stroke11  495  38 I34
stroke11  495  40 I34
stroke11  495  41 I34
stroke11  495  42 I34
stroke11  495  44 I34
stroke11  495  45 I34
stroke11  495  47 I34
stroke11  495  48 I34
stroke11  495  49 I34
stroke11  495  51 I34
stroke11  495  52 I34
stroke11  495  54 I34
stroke11  495  55 I34
stroke11  495  56 I34
stroke11  495  57 I34
stroke11  495  58 I34
stroke11  495  59 I34
stroke11  495  60 I34
stroke11  495  61 I34
stroke11  494  62 I34
stroke11  494  63 I34
stroke11  494  64 I34
stroke11  494  65 I34
stroke11  494  66 I34
stroke11  494  65 I34
stroke11  494  64 I34
stroke12  513  0 B1
stroke12  512  0 I1
stroke12  511  0 I1
stroke12  512  1 I1
stroke12  511  1 I1
stroke12  511  2 I1
stroke12  512  2 I1
stroke12  512  3 I1
stroke12  512  4 I1
stroke12  512  5 I1
stroke12  512  6 I1
stroke12  512  7 I1
stroke12  512  8 I1
stroke12  512  9 I1
stroke12  512  10 I1
stroke12  511  11 I1
stroke12  512  13 I1
stroke12  512  14 I1
stroke12  512  16 I1
stroke12  512  17 I1
stroke12  512  19 I1
stroke12  512  20 I1
stroke12  512  22 I1
stroke12  512  24 I1
stroke12  512  25 I1
stroke12  512  27 I1
stroke12  512  28 I1
stroke12  512  30 I1
stroke12  513  31 I1
stroke12  513  32 I1
stroke12  513  34 I1
stroke12  513  35 I1
stroke12  513  36 I1
stroke12  513  37 I1
stroke12  514  39 I1
stroke12  514  40 I1
stroke12  514  41 I1
stroke12  514  42 I1
stroke12  514  43 I1
stroke12  513  44 I1
stroke12  513  45 I1
stroke12  512  46 I1
stroke12  511  47 I1
stroke12  510  47 I1
stroke12  509  47 I1
stroke12  508  47 I1
stroke12  507  47 I1
stroke12  507  46 I1
stroke12  506  46 I1
stroke12  505  46 I1
stroke12  504  46 I1
stroke12  503  45 I1
stroke12  502  45 I1
stroke12  501  45 I1
stroke12  500  45 I1
stroke12  500  46 I1
stroke12  500  47 I1
stroke12  501  47 I1
stroke12  501  48 I1
stroke12  501  49 I1
stroke12  502  49 I1
stroke12  502  50 I1
stroke12  502  51 I1
stroke12  503  52 I1
stroke12  503  53 I1
stroke12  504  54 I1
stroke12  504  55 I1
stroke12  505  55 I1
stroke12  505  56 I1
stroke12  506  57 I1
stroke12  507  58 I1
stroke12  507  59 I1
stroke12  508  60 I1
stroke12  509  61 I1
stroke12  510  62 I1
stroke12  511  63 I1
stroke12  512  64 I1
stroke12  513  65 I1
stroke12  514  65 I1
stroke12  514  66 I1
stroke12  515  66 I1
stroke12  516  67 I1
stroke12  517  67 I1
stroke12  518  67 I1
stroke12  519  68 I1
stroke12  520  68 I1
stroke12  521  68 I1
stroke12  522  68 I1
stroke12  523  68 I1
stroke12  524  68 I1
stroke12  525  68 I1
stroke12  526  68 I1
stroke12  527  68 I1
stroke12  528  68 I1
stroke12  528  67 I1
stroke12  529  67 I1
stroke12  530  67 I1
stroke12  530  66 I1
stroke12  531  66 I1
stroke12  532  66 I1
stroke12  532  65 I1
stroke12  533  65 I1
stroke12  533  64 I1
stroke12  534  64 I1
stroke12  534  63 I1
stroke12  534  62 I1
stroke12  534  61 I1
stroke12  535  60 I1
stroke12  535  59 I1
stroke12  535  58 I1
stroke12  535  57 I1
stroke12  535  56 I1
stroke12  535  55 I1
stroke12  535  54 I1
stroke12  536  53 I1
stroke12  536  52 I1
stroke12  536  50 I1
stroke12  536  49 I1
stroke12  536  48 I1
stroke12  537  46 I1
stroke12  537  44 I1
stroke12  537  43 I1
stroke12  537  41 I1
stroke12  537  40 I1
stroke12  538  38 I1
stroke12  538  37 I1
stroke12  538  35 I1
stroke12  538  34 I1
stroke12  538  32 I1
stroke12  538  31 I1
stroke12  538  29 I1
stroke12  538  28 I1
stroke12  539  26 I1
stroke12  539  25 I1
stroke12  539  23 I1
stroke12  539  22 I1
stroke12  539  20 I1
stroke12  539  19 I1
stroke12  539  17 I1
stroke12  539  16 I1
stroke12  539  15 I1
stroke12  539  14 I1
stroke12  539  12 I1
stroke12  539  11 I1
stroke12  539  10 I1
stroke12  539  9 I1
stroke12  539  8 I1
stroke12  539  7 I1
stroke12  539  6 I1
stroke12  539  5 I1
stroke12  539  4 I1
stroke12  539  3 I1
stroke12  539  2 I1
stroke12  539  3 I1
stroke12  539  4 I1
stroke12  539  5 I1
stroke13  528  92 B48
stroke13  527  92 I48
stroke13  527  93 I48
stroke13  526  93 I48
stroke13  525  94 I48
stroke13  524  95 I48
stroke13  523  95 I48
stroke13  523  96 I48
stroke13  522  97 I48
stroke13  521  97 I48
stroke13  520  98 I48
stroke13  519  99 I48
stroke13  518  99 I48
stroke13  516  99 I48
stroke13  515  100 I48
stroke13  513  100 I48
stroke13  512  100 I48
stroke13  510  100 I48
stroke13  509  100 I48
stroke13  507  100 I48
stroke13  506  100 I48
stroke13  504  99 I48
stroke13  503  99 I48
stroke13  502  99 I48
stroke13  501  99 I48
stroke13  500  98 I48
stroke13  499  98 I48
stroke13  498  98 I48
stroke13  497  98 I48
stroke13  498  98 I48
stroke13  498  99 I48
stroke13  498  100 I48
stroke13  499  101 I48
stroke13  500  102 I48
stroke13  501  103 I48
stroke13  502  104 I48
stroke13  502  105 I48
stroke13  503  106 I48
stroke13  504  107 I48
stroke13  505  108 I48
stroke13  506  109 I48
stroke13  508  110 I48
stroke13  509  111 I48
stroke13  510  112 I48
stroke13  511  113 I48
stroke13  512  113 I48
stroke13  513  114 I48
stroke13  514  114 I48
stroke13  515  113 I48
stroke13  516  113 I48
stroke13  517  112 I48
stroke13  518  111 I48
stroke13  519  110 I48
stroke13  519  109 I48
stroke13  520  108 I48
stroke13  521  106 I48
stroke13  521  105 I48
stroke13  522  104 I48
stroke13  522  103 I48
stroke13  523  102 I48
stroke13  524  101 I48
stroke13  524  99 I48
stroke13  525  99 I48
stroke13  525  98 I48
stroke13  525  97 I48
stroke13  526  96 I48
stroke13  526  95 I48
stroke13  527  94 I48
stroke13  527  93 I48
stroke13  528  93 I48
stroke13  527  93 I48
stroke14  566  39 B8
stroke14  566  38 I8
stroke14  565  38 I8
stroke14  565  37 I8
stroke14  564  37 I8
stroke14  564  36 I8
stroke14  563  36 I8
stroke14  562  35 I8
stroke14  561  34 I8
stroke14  560  34 I8
stroke14  559  35 I8
stroke14  558  35 I8
stroke14  557  36 I8
stroke14  556  36 I8
stroke14  556  37 I8
stroke14  555  37 I8
stroke14  555  38 I8
stroke14  555  39 I8
stroke14  554  39 I8
stroke14  554  40 I8
stroke14  554  41 I8
stroke14  554  42 I8
stroke14  555  43 I8
stroke14  555  44 I8
stroke14  556  45 I8
stroke14  556  46 I8
stroke14  557  46 I8
stroke14  558  46 I8
stroke14  558  47 I8
stroke14  559  47 I8
stroke14  560  47 I8
stroke14  561  47 I8
stroke14  562  47 I8
stroke14  563  46 I8
stroke14  564  46 I8
stroke14  564  45 I8
stroke14  565  45 I8
stroke14  565  44 I8
stroke14  566  43 I8
stroke14  566  42 I8
stroke14  566  41 I8
stroke14  567  40 I8
stroke14  567  39 I8
stroke14  567  38 I8
stroke14  568  37 I8
stroke14  568  36 I8
stroke14  568  35 I8
stroke14  568  33 I8
stroke14  568  32 I8
stroke14  569  31 I8
stroke14  569  30 I8
stroke14  569  29 I8
stroke14  569  28 I8
stroke14  569  27 I8
stroke14  569  25 I8
stroke14  570  24 I8
stroke14  570  23 I8
stroke14  570  21 I8
stroke14  570  20 I8
stroke14  570  19 I8
stroke14  571  18 I8
stroke14  571  16 I8
stroke14  571  15 I8
stroke14  571  14 I8
stroke14  571  13 I8
stroke14  571  12 I8
stroke14  572  11 I8
stroke14  572  10 I8
stroke14  572  9 I8
stroke14  572  8 I8
stroke14  572  7 I8
stroke14  572  6 I8
stroke14  572  5 I8
stroke14  572  4 I8
stroke14  573  4 I8
stroke14  573  3 I8
stroke14  573  2 I8
stroke14  573  1 I8
stroke14  573  0 I8
stroke14  574  0 I8
stroke14  574  1 I8
stroke14  574  2 I8
stroke14  575  3 I8
stroke14  575  4 I8
stroke14  575  5 I8
stroke14  575  6 I8
stroke14  575  7 I8
stroke14  576  8 I8
stroke14  576  9 I8
stroke14  576  10 I8
stroke14  576  11 I8
stroke14  576  13 I8
stroke14  576  14 I8
stroke14  576  16 I8
stroke14  576  17 I8
stroke14  576  18 I8
stroke14  576  20 I8
stroke14  576  21 I8
stroke14  576  22 I8
stroke14  576  24 I8
stroke14  576  25 I8
stroke14  576  26 I8
stroke14  576  28 I8
stroke14  576  29 I8
stroke14  576  30 I8
stroke14  576  32 I8
stroke14  576  33 I8
stroke14  576  34 I8
stroke14  576  36 I8
stroke14  576  37 I8
stroke14  576  38 I8
stroke14  576  39 I8
stroke14  576  41 I8
stroke14  576  42 I8
stroke14  576  43 I8
stroke14  576  45 I8
stroke14  575  46 I8
stroke14  575  47 I8
stroke14  575  48 I8
stroke14  575  50 I8
stroke14  575  51 I8
stroke14  575  52 I8
stroke14  575  53 I8
stroke14  575  54 I8
stroke14  574  55 I8
stroke14  574  56 I8
stroke14  574  57 I8
stroke14  574  58 I8
stroke14  573  59 I8
stroke14  573  60 I8
stroke14  572  61 I8
stroke14  572  62 I8
stroke14  571  63 I8
stroke14  571  64 I8
stroke14  570  64 I8
stroke14  570  65 I8
stroke14  569  66 I8
stroke14  568  66 I8
stroke14  568  67 I8
stroke14  567  67 I8
stroke14  566  67 I8
stroke14  566  68 I8
stroke14  565  68 I8
stroke14  564  68 I8
stroke14  563  68 I8
stroke14  562  68 I8
stroke14  561  68 I8
stroke14  560  67 I8
stroke14  559  67 I8
stroke14  558  67 I8
stroke14  557  67 I8
stroke14  556  66 I8
stroke14  555  66 I8
stroke14  554  65 I8
stroke14  553  65 I8
stroke14  552  64 I8
stroke14  551  64 I8
stroke14  551  63 I8
stroke14  550  63 I8
stroke14  549  62 I8
stroke14  548  62 I8
stroke14  548  61 I8
stroke14  547  61 I8
stroke14  546  60 I8
stroke14  547  60 I8
stroke14  547  59 I8
stroke14  547  60 I8
stroke14  548  60 I8
stroke14  549  60 I8
