stroke1  147  12 B37
stroke1  148  11 I37
stroke1  147  12 I37
stroke1  146  12 I37
stroke1  146  13 I37
stroke1  145  13 I37
stroke1  145  14 I37
stroke1  144  14 I37
stroke1  144  15 I37
stroke1  143  15 I37
stroke1  142  16 I37
stroke1  141  16 I37
stroke1  140  16 I37
stroke1  139  17 I37
stroke1  138  17 I37
stroke1  137  17 I37
stroke1  136  17 I37
stroke1  135  16 I37
stroke1  134  16 I37
stroke1  134  16 I37
stroke1  134  15 I37
stroke1  133  15 I37
stroke1  133  14 I37
stroke1  133  13 I37
stroke1  132  12 I37
stroke1  132  11 I37
stroke1  131  11 I37
stroke1  131  10 I37
stroke1  131  9 I37
stroke1  132  8 I37
stroke1  132  7 I37
stroke1  132  6 I37
stroke1  132  5 I37
stroke1  133  5 I37
stroke1  133  4 I37
stroke1  134  3 I37
stroke1  134  2 I37
stroke1  135  2 I37
stroke1  136  1 I37
stroke1  137  1 I37
stroke1  137  0 I37
stroke1  138  0 I37
stroke1  139  0 I37
stroke1  140  0 I37
stroke1  141  0 I37
stroke1  142  0 I37
stroke1  142  1 I37
stroke1  143  1 I37
stroke1  144  2 I37
stroke1  145  2 I37
stroke1  145  3 I37
stroke1  145  4 I37
stroke1  146  4 I37
stroke1  146  5 I37
stroke1  147  6 I37
stroke1  147  7 I37
stroke1  147  8 I37
stroke1  147  9 I37
stroke1  148  10 I37
stroke1  148  11 I37
stroke1  148  12 I37
stroke1  148  13 I37
stroke1  148  14 I37
stroke1  148  15 I37
stroke1  148  16 I37
stroke1  148  17 I37
stroke1  148  18 I37
stroke1  148  19 I37
stroke1  148  20 I37
stroke1  148  21 I37
stroke1  148  23 I37
stroke1  148  24 I37
stroke1  148  25 I37
stroke1  148  26 I37
stroke1  148  27 I37
stroke1  148  29 I37
stroke1  148  30 I37
stroke1  148  31 I37
stroke1  148  33 I37
stroke1  148  34 I37
stroke1  148  36 I37
stroke1  148  37 I37
stroke1  148  39 I37
stroke1  148  40 I37
stroke1  148  42 I37
stroke1  148  43 I37
stroke1  148  44 I37
stroke1  148  46 I37
stroke1  148  47 I37
stroke1  148  48 I37
stroke1  148  49 I37
stroke1  148  50 I37
stroke1  147  51 I37
stroke1  147  52 I37
stroke1  147  53 I37
stroke1  147  54 I37
stroke1  147  55 I37
stroke1  146  56 I37
stroke1  146  57 I37
stroke1  145  58 I37
stroke1  145  59 I37
stroke1  144  60 I37
stroke1  144  61 I37
stroke1  143  61 I37
stroke1  143  62 I37
stroke1  142  62 I37
stroke1  142  63 I37
stroke1  141  63 I37
stroke1  140  64 I37
stroke1  139  64 I37
stroke1  138  65 I37
stroke1  137  65 I37
stroke1  136  65 I37
stroke1  135  65 I37
stroke1  134  65 I37
stroke1  133  66 I37
stroke1  131  66 I37
stroke1  130  66 I37
stroke1  129  65 I37
stroke1  127  65 I37
stroke1  126  65 I37
stroke1  124  65 I37
stroke1  123  64 I37
stroke1  121  64 I37
stroke1  120  63 I37
stroke1  118  63 I37
stroke1  117  62 I37
stroke1  116  61 I37
stroke1  115  60 I37
stroke1  114  60 I37
stroke1  112  59 I37
stroke1  111  58 I37
stroke1  110  57 I37
stroke1  109  56 I37
stroke1  108  55 I37
stroke1  108  54 I37
stroke1  107  54 I37
stroke1  106  53 I37
stroke1  105  52 I37
stroke1  105  51 I37
stroke1  104  51 I37
stroke1  104  50 I37
stroke1  103  50 I37
stroke1  103  49 I37
stroke1  103  50 I37
stroke1  104  50 I37
stroke1  104  51 I37
stroke1  104  52 I37
stroke2  142  82 B45
stroke2  142  81 I45
stroke2  141  81 I45
stroke2  142  81 I45
stroke2  143  81 I45
stroke2  144  81 I45
stroke2  144  82 I45
stroke2  145  83 I45
stroke2  146  84 I45
stroke2  146  85 I45
stroke2  147  86 I45
stroke2  147  87 I45
stroke2  146  88 I45
stroke2  146  89 I45
stroke2  146  90 I45
stroke2  145  91 I45
stroke2  144  92 I45
stroke2  143  92 I45
stroke2  142  92 I45
stroke2  141  92 I45
stroke2  140  92 I45
stroke2  139  92 I45
stroke2  138  92 I45
stroke2  138  91 I45
stroke2  137  91 I45
stroke2  136  90 I45
stroke2  136  89 I45
stroke2  135  89 I45
stroke2  135  88 I45
stroke2  134  87 I45
stroke2  134  86 I45
stroke2  134  85 I45
stroke2  133  84 I45
stroke2  134  83 I45
stroke2  134  82 I45
stroke2  134  81 I45
stroke2  135  80 I45
stroke2  136  79 I45
stroke2  137  79 I45
stroke2  138  79 I45
stroke2  139  79 I45
stroke2  140  79 I45
stroke2  141  79 I45
stroke2  143  79 I45
stroke2  144  80 I45
stroke2  146  80 I45
stroke2  147  81 I45
stroke2  149  82 I45
stroke2  150  82 I45
stroke2  152  83 I45
stroke2  153  84 I45
stroke2  155  85 I45
stroke2  156  86 I45
stroke2  157  87 I45
stroke2  159  88 I45
stroke2  160  89 I45
stroke2  161  90 I45
stroke2  162  92 I45
stroke2  163  93 I45
stroke2  164  94 I45
stroke2  164  96 I45
stroke2  165  97 I45
stroke2  166  98 I45
stroke2  166  99 I45
stroke2  167  100 I45
stroke2  167  101 I45
stroke2  167  102 I45
stroke2  167  103 I45
stroke2  168  103 I45
stroke2  168  104 I45
stroke2  168  103 I45
stroke2  167  103 I45
stroke2  167  102 I45
stroke3  178  46 B18
stroke3  179  46 I18
stroke3  179  45 I18
stroke3  179  44 I18
stroke3  179  43 I18
stroke3  179  42 I18
stroke3  178  42 I18
stroke3  178  41 I18
stroke3  178  40 I18
stroke3  177  39 I18
stroke3  177  38 I18
stroke3  176  38 I18
stroke3  175  37 I18
stroke3  174  37 I18
stroke3  173  36 I18
stroke3  172  36 I18
stroke3  171  36 I18
stroke3  171  37 I18
stroke3  170  37 I18
stroke3  169  37 I18
stroke3  168  38 I18
stroke3  168  39 I18
stroke3  167  39 I18
stroke3  167  40 I18
stroke3  167  41 I18
stroke3  167  42 I18
stroke3  167  43 I18
stroke3  168  44 I18
stroke3  168  45 I18
stroke3  169  46 I18
stroke3  170  47 I18
stroke3  171  47 I18
stroke3  172  48 I18
stroke3  173  48 I18
stroke3  174  48 I18
stroke3  175  48 I18
stroke3  176  48 I18
stroke3  177  48 I18
stroke3  178  48 I18
stroke3  179  48 I18
stroke3  179  47 I18
stroke3  180  47 I18
stroke3  180  46 I18
stroke3  180  45 I18
stroke3  180  44 I18
stroke3  180  43 I18
stroke3  180  42 I18
stroke3  180  41 I18
stroke3  180  40 I18
stroke3  180  39 I18
stroke3  180  38 I18
stroke3  180  37 I18
stroke3  180  36 I18
stroke3  180  35 I18
stroke3  180  34 I18
stroke3  180  33 I18
stroke3  180  32 I18
stroke3  180  31 I18
stroke3  180  30 I18
stroke3  180  29 I18
stroke3  180  28 I18
stroke3  180  26 I18
stroke3  180  25 I18
stroke3  180  24 I18
stroke3  180  23 I18
stroke3  180  22 I18
stroke3  179  21 I18
stroke3  179  20 I18
stroke3  179  18 I18
stroke3  179  17 I18
stroke3  179  16 I18
stroke3  179  15 I18
stroke3  179  14 I18
stroke3  179  13 I18
stroke3  179  12 I18
stroke3  178  11 I18
stroke3  178  10 I18
stroke3  178  9 I18
stroke3  178  8 I18
stroke3  177  8 I18
stroke3  177  7 I18
stroke3  176  7 I18
stroke3  176  8 I18
stroke3  175  8 I18
stroke3  174  9 I18
stroke3  174  10 I18
stroke3  173  10 I18
stroke3  172  11 I18
stroke3  171  12 I18
stroke3  171  13 I18
stroke3  170  13 I18
stroke3  169  14 I18
stroke3  168  15 I18
stroke3  168  16 I18
stroke3  167  17 I18
stroke3  166  18 I18
stroke3  165  18 I18
stroke3  165  19 I18
stroke3  164  20 I18
stroke3  163  21 I18
stroke3  163  22 I18
stroke3  162  23 I18
stroke3  161  24 I18
stroke3  161  25 I18
stroke3  161  26 I18
stroke3  160  27 I18
stroke3  160  28 I18
stroke3  160  29 I18
stroke3  159  30 I18
stroke3  159  31 I18
stroke3  159  32 I18
stroke3  159  33 I18
stroke3  159  34 I18
stroke3  159  36 I18
stroke3  159  37 I18
stroke3  159  38 I18
stroke3  159  39 I18
stroke3  159  40 I18
stroke3  159  41 I18
stroke3  159  42 I18
stroke3  159  43 I18
stroke3  159  44 I18
stroke3  160  45 I18
stroke3  160  47 I18
stroke3  160  48 I18
stroke3  160  49 I18
stroke3  161  50 I18
stroke3  161  52 I18
stroke3  162  53 I18
stroke3  162  54 I18
stroke3  163  55 I18
stroke3  164  56 I18
stroke3  164  58 I18
stroke3  165  59 I18
stroke3  166  60 I18
stroke3  167  60 I18
stroke3  168  61 I18
stroke3  168  62 I18
stroke3  169  62 I18
stroke3  170  63 I18
stroke3  171  64 I18
stroke3  172  64 I18
stroke3  173  65 I18
stroke3  174  65 I18
stroke3  175  65 I18
stroke3  176  65 I18
stroke3  177  64 I18
stroke3  178  64 I18
stroke3  178  63 I18
stroke3  179  62 I18
stroke3  180  62 I18
stroke3  180  61 I18
stroke3  180  60 I18
stroke3  181  59 I18
stroke3  181  58 I18
stroke3  182  57 I18
stroke3  182  56 I18
stroke3  182  55 I18
stroke3  183  55 I18
stroke3  183  54 I18
stroke3  183  53 I18
stroke3  184  53 I18
stroke3  184  52 I18
stroke3  184  53 I18
stroke3  185  54 I18
stroke3  185  55 I18
stroke3  186  56 I18
stroke3  186  57 I18
stroke3  186  58 I18
stroke3  187  59 I18
stroke3  187  60 I18
stroke3  188  61 I18
stroke3  188  62 I18
stroke3  189  63 I18
stroke3  189  64 I18
stroke3  190  64 I18
stroke3  190  65 I18
stroke3  191  66 I18
stroke3  191  67 I18
stroke3  192  67 I18
stroke3  193  68 I18
stroke3  194  68 I18
stroke3  195  68 I18
stroke3  196  68 I18
stroke3  197  67 I18
stroke3  198  67 I18
stroke3  198  66 I18
stroke3  199  66 I18
stroke3  200  65 I18
stroke3  200  64 I18
stroke3  201  64 I18
stroke3  201  63 I18
stroke3  201  62 I18
stroke3  202  61 I18
stroke3  202  60 I18
stroke3  202  59 I18
stroke3  202  58 I18
stroke3  202  57 I18
stroke3  202  56 I18
stroke3  202  55 I18
stroke3  202  54 I18
stroke3  202  53 I18
stroke3  202  52 I18
stroke3  202  50 I18
stroke3  202  49 I18
stroke3  202  48 I18
stroke3  202  46 I18
stroke3  202  45 I18
stroke3  202  44 I18
stroke3  202  42 I18
stroke3  202  41 I18
stroke3  202  40 I18
stroke3  202  38 I18
stroke3  202  37 I18
stroke3  202  35 I18
stroke3  202  34 I18
stroke3  202  33 I18
stroke3  202  31 I18
stroke3  202  30 I18
stroke3  202  29 I18
stroke3  202  27 I18
stroke3  202  26 I18
stroke3  202  25 I18
stroke3  202  23 I18
stroke3  202  22 I18
stroke3  202  21 I18
stroke3  202  20 I18
stroke3  202  19 I18
stroke3  202  17 I18
stroke3  202  16 I18
stroke3  202  15 I18
stroke3  202  14 I18
stroke3  202  13 I18
stroke3  202  12 I18
stroke3  201  11 I18
stroke3  201  10 I18
stroke3  201  9 I18
stroke3  201  8 I18
stroke3  201  7 I18
stroke3  201  6 I18
stroke3  201  5 I18
stroke3  200  5 I18
stroke3  200  4 I18
stroke3  199  3 I18
stroke3  198  3 I18
stroke3  197  3 I18
stroke3  197  4 I18
stroke3  196  4 I18
stroke3  195  4 I18
stroke3  194  5 I18
stroke3  194  6 I18
stroke3  193  6 I18
stroke3  192  7 I18
stroke3  192  8 I18
stroke3  191  9 I18
stroke3  191  10 I18
stroke3  190  11 I18
stroke3  190  12 I18
stroke3  190  13 I18
stroke3  190  14 I18
stroke3  190  15 I18
stroke3  190  17 I18
stroke3  191  18 I18
stroke3  191  19 I18
stroke3  192  20 I18
stroke3  192  21 I18
stroke3  193  22 I18
stroke3  194  22 I18
stroke3  194  23 I18
stroke3  195  24 I18
stroke3  196  24 I18
stroke3  197  25 I18
stroke3  198  25 I18
stroke3  199  25 I18
stroke3  200  25 I18
stroke3  201  25 I18
stroke3  202  25 I18
stroke3  203  24 I18
stroke3  204  24 I18
stroke3  205  23 I18
stroke3  206  23 I18
stroke3  207  22 I18
stroke3  208  21 I18
stroke3  209  20 I18
stroke3  210  19 I18
stroke3  211  18 I18
stroke3  212  18 I18
stroke3  213  17 I18
stroke3  214  16 I18
stroke3  215  15 I18
stroke3  215  14 I18
stroke3  216  13 I18
stroke3  217  12 I18
stroke3  218  11 I18
stroke3  219  10 I18
stroke3  219  9 I18
stroke3  220  8 I18
stroke3  220  7 I18
stroke3  221  7 I18
stroke3  221  6 I18
stroke3  222  6 I18
stroke3  222  5 I18
stroke3  223  5 I18
stroke3  223  6 I18
stroke3  223  7 I18
stroke3  223  8 I18
stroke3  223  9 I18
stroke3  223  10 I18
stroke3  223  11 I18
stroke3  223  12 I18
stroke3  223  14 I18
stroke3  223  15 I18
stroke3  223  17 I18
stroke3  223  19 I18
stroke3  223  20 I18
stroke3  223  22 I18
stroke3  223  23 I18
stroke3  222  25 I18
stroke3  222  26 I18
stroke3  222  28 I18
stroke3  222  29 I18
stroke3  222  31 I18
stroke3  222  32 I18
stroke3  222  34 I18
stroke3  222  35 I18
stroke3  222  37 I18
stroke3  222  38 I18
stroke3  222  39 I18
stroke3  222  41 I18
stroke3  222  42 I18
stroke3  222  43 I18
stroke3  222  45 I18
stroke3  221  46 I18
stroke3  221  47 I18
stroke3  221  48 I18
stroke3  221  49 I18
stroke3  221  50 I18
stroke3  221  51 I18
stroke3  221  52 I18
stroke3  221  53 I18
stroke3  221  54 I18
stroke3  221  55 I18
stroke3  221  56 I18
stroke3  221  57 I18
stroke3  221  58 I18
stroke3  221  59 I18
stroke3  220  59 I18
stroke3  220  60 I18
stroke3  220  61 I18
stroke3  220  62 I18
stroke3  219  62 I18
stroke3  219  63 I18
stroke3  219  64 I18
stroke3  218  64 I18
stroke3  218  63 I18
stroke3  217  62 I18
stroke4  243  63 B25
stroke4  243  62 I25
stroke4  243  61 I25
stroke4  243  60 I25
stroke4  242  59 I25
stroke4  242  58 I25
stroke4  242  57 I25
stroke4  241  57 I25
stroke4  241  56 I25
stroke4  240  56 I25
stroke4  240  55 I25
stroke4  239  55 I25
stroke4  238  54 I25
stroke4  237  54 I25
stroke4  236  53 I25
stroke4  235  53 I25
stroke4  234  53 I25
stroke4  233  54 I25
stroke4  232  54 I25
stroke4  232  55 I25
stroke4  231  55 I25
stroke4  231  56 I25
stroke4  231  57 I25
stroke4  230  58 I25
stroke4  230  59 I25
stroke4  231  60 I25
stroke4  231  61 I25
stroke4  231  62 I25
stroke4  231  63 I25
stroke4  232  63 I25
stroke4  232  64 I25
stroke4  233  65 I25
stroke4  234  66 I25
stroke4  234  67 I25
stroke4  235  67 I25
stroke4  236  67 I25
stroke4  237  68 I25
stroke4  238  68 I25
stroke4  239  68 I25
stroke4  240  68 I25
stroke4  240  67 I25
stroke4  241  67 I25
stroke4  242  66 I25
stroke4  242  65 I25
stroke4  243  64 I25
stroke4  243  63 I25
stroke4  243  62 I25
stroke4  243  61 I25
stroke4  243  60 I25
stroke4  243  59 I25
stroke4  243  58 I25
stroke4  243  57 I25
stroke4  243  56 I25
stroke4  243  54 I25
stroke4  243  53 I25
stroke4  243  52 I25
stroke4  243  51 I25
stroke4  243  49 I25
stroke4  243  48 I25
stroke4  243  47 I25
stroke4  243  45 I25
stroke4  242  44 I25
stroke4  242  42 I25
stroke4  242  41 I25
stroke4  242  40 I25
stroke4  242  38 I25
stroke4  242  37 I25
stroke4  242  35 I25
stroke4  242  34 I25
stroke4  241  32 I25
stroke4  241  31 I25
stroke4  241  29 I25
stroke4  241  28 I25
stroke4  241  26 I25
stroke4  240  25 I25
stroke4  240  23 I25
stroke4  240  22 I25
stroke4  240  21 I25
stroke4  240  20 I25
stroke4  239  18 I25
stroke4  239  17 I25
stroke4  239  16 I25
stroke4  239  15 I25
stroke4  239  14 I25
stroke4  239  13 I25
stroke4  239  12 I25
stroke4  238  11 I25
stroke4  238  10 I25
stroke4  238  9 I25
stroke4  238  8 I25
stroke4  238  7 I25
stroke4  238  6 I25
stroke4  238  7 I25
stroke4  239  8 I25
stroke4  239  9 I25
stroke4  239  10 I25
stroke4  240  11 I25
stroke4  240  12 I25
stroke4  241  13 I25
stroke4  242  14 I25
stroke4  242  15 I25
stroke4  243  16 I25
stroke4  244  18 I25
stroke4  245  19 I25
stroke4  246  20 I25
stroke4  248  21 I25
stroke4  249  23 I25
stroke4  250  24 I25
stroke4  251  24 I25
stroke4  252  25 I25
stroke4  253  26 I25
stroke4  254  26 I25
stroke4  255  27 I25
stroke4  257  27 I25
stroke4  258  27 I25
stroke4  259  28 I25
stroke4  260  28 I25
stroke4  261  28 I25
stroke4  262  28 I25
stroke4  263  28 I25
stroke4  264  28 I25
stroke4  265  28 I25
stroke4  266  28 I25
stroke4  266  27 I25
stroke4  267  27 I25
stroke4  268  27 I25
stroke4  269  26 I25
stroke4  270  26 I25
stroke4  270  25 I25
stroke4  271  25 I25
stroke4  271  24 I25
stroke4  272  24 I25
stroke4  272  23 I25
stroke4  273  22 I25
stroke4  273  21 I25
stroke4  274  20 I25
stroke4  274  19 I25
stroke4  274  18 I25
stroke4  274  17 I25
stroke4  274  16 I25
stroke4  274  15 I25
stroke4  273  15 I25
stroke4  273  14 I25
stroke4  273  13 I25
stroke4  273  12 I25
stroke4  272  12 I25
stroke4  272  11 I25
stroke4  272  10 I25
stroke4  271  9 I25
stroke4  270  8 I25
stroke4  269  7 I25
stroke4  269  6 I25
stroke4  268  6 I25
stroke4  267  5 I25
stroke4  266  5 I25
stroke4  265  5 I25
stroke4  265  6 I25
stroke4  265  7 I25
stroke4  265  8 I25
stroke4  264  9 I25
stroke4  264  11 I25
stroke4  264  12 I25
stroke4  264  13 I25
stroke4  264  15 I25
stroke4  264  16 I25
stroke4  264  18 I25
stroke4  264  19 I25
stroke4  264  21 I25
stroke4  264  22 I25
stroke4  264  24 I25
stroke4  264  26 I25
stroke4  264  27 I25
stroke4  264  29 I25
stroke4  264  31 I25
stroke4  264  32 I25
stroke4  264  34 I25
stroke4  264  36 I25
stroke4  264  37 I25
stroke4  264  39 I25
stroke4  264  41 I25
stroke4  264  42 I25
stroke4  263  44 I25
stroke4  263  46 I25
stroke4  263  47 I25
stroke4  263  49 I25
stroke4  263  50 I25
stroke4  263  52 I25
stroke4  263  53 I25
stroke4  263  54 I25
stroke4  263  55 I25
stroke4  262  56 I25
stroke4  262  57 I25
stroke4  262  58 I25
stroke4  262  59 I25
stroke4  262  60 I25
stroke4  262  61 I25
stroke4  262  62 I25
stroke4  262  63 I25
stroke4  261  63 I25
stroke4  261  64 I25
stroke4  261  65 I25
stroke4  261  64 I25
stroke4  260  64 I25
stroke4  260  63 I25
stroke5  295  37 B24
stroke5  295  38 I24
stroke5  295  39 I24
stroke5  294  39 I24
stroke5  295  39 I24
stroke5  295  40 I24
stroke5  294  41 I24
stroke5  294  40 I24
stroke5  294  39 I24
stroke5  294  38 I24
stroke5  294  37 I24
stroke5  294  35 I24
stroke5  294  34 I24
stroke5  294  33 I24
stroke5  293  31 I24
stroke5  293  30 I24
stroke5  293  28 I24
stroke5  293  27 I24
stroke5  293  25 I24
stroke5  293  24 I24
stroke5  292  22 I24
stroke5  292  20 I24
stroke5  292  19 I24
stroke5  292  18 I24
stroke5  292  17 I24
stroke5  292  15 I24
stroke5  292  14 I24
stroke5  291  13 I24
stroke5  291  12 I24
stroke5  291  11 I24
stroke5  291  10 I24
stroke5  292  10 I24
stroke5  292  9 I24
stroke5  293  9 I24
stroke5  293  8 I24
stroke5  294  8 I24
stroke5  295  8 I24
stroke5  296  8 I24
stroke5  297  8 I24
stroke5  298  8 I24
stroke5  299  7 I24
stroke5  300  7 I24
stroke5  301  7 I24
stroke5  302  7 I24
stroke5  303  7 I24
stroke5  304  7 I24
stroke5  305  7 I24
stroke5  305  8 I24
stroke5  306  8 I24
stroke5  307  8 I24
stroke5  308  8 I24
stroke5  309  8 I24
stroke5  310  9 I24
stroke5  311  9 I24
stroke5  311  10 I24
stroke5  311  11 I24
stroke5  312  12 I24
stroke5  312  13 I24
stroke5  312  14 I24
stroke5  312  15 I24
stroke5  312  17 I24
stroke5  312  18 I24
stroke5  312  19 I24
stroke5  312  20 I24
stroke5  312  22 I24
stroke5  312  23 I24
stroke5  312  24 I24
stroke5  312  26 I24
stroke5  312  27 I24
stroke5  312  28 I24
stroke5  311  30 I24
stroke5  311  31 I24
stroke5  311  32 I24
stroke5  311  34 I24
stroke5  311  35 I24
stroke5  311  36 I24
stroke5  311  37 I24
stroke5  310  38 I24
stroke5  310  39 I24
stroke5  310  40 I24
stroke5  310  41 I24
stroke5  309  41 I24
stroke5  309  42 I24
stroke5  309  43 I24
stroke5  308  43 I24
stroke5  308  44 I24
stroke5  307  44 I24
stroke5  307  45 I24
stroke5  306  45 I24
stroke5  305  46 I24
stroke5  304  46 I24
stroke5  304  47 I24
stroke5  303  47 I24
stroke5  302  47 I24
stroke5  301  48 I24
stroke5  300  48 I24
stroke5  299  48 I24
stroke5  297  48 I24
stroke5  296  48 I24
stroke5  295  48 I24
stroke5  293  48 I24
stroke5  292  48 I24
stroke5  290  47 I24
stroke5  289  47 I24
stroke5  288  47 I24
stroke5  286  47 I24
stroke5  285  47 I24
stroke5  284  47 I24
stroke5  282  47 I24
stroke5  281  47 I24
stroke5  280  47 I24
stroke5  279  47 I24
stroke5  278  47 I24
stroke5  278  48 I24
stroke5  278  49 I24
stroke5  278  50 I24
stroke5  279  51 I24
stroke5  279  52 I24
stroke5  280  53 I24
stroke5  280  55 I24
stroke5  281  56 I24
stroke5  281  57 I24
stroke5  282  58 I24
stroke5  283  59 I24
stroke5  284  60 I24
stroke5  284  61 I24
stroke5  285  61 I24
stroke5  286  62 I24
stroke5  287  63 I24
stroke5  288  63 I24
stroke5  289  64 I24
stroke5  290  64 I24
stroke5  291  64 I24
stroke5  292  64 I24
stroke5  293  64 I24
stroke5  294  64 I24
stroke5  295  63 I24
stroke5  296  62 I24
stroke5  297  62 I24
stroke5  298  62 I24
stroke5  299  61 I24
stroke5  300  61 I24
stroke5  301  61 I24
stroke5  302  60 I24
stroke5  303  60 I24
stroke5  304  60 I24
stroke5  304  61 I24
stroke5  305  61 I24
stroke5  306  61 I24
stroke5  307  62 I24
stroke5  308  62 I24
stroke5  308  63 I24
stroke5  309  64 I24
stroke5  308  63 I24
stroke6  331  9 B35
stroke6  331  8 I35
stroke6  331  7 I35
stroke6  332  7 I35
stroke6  333  6 I35
stroke6  333  7 I35
stroke6  334  7 I35
stroke6  335  7 I35
stroke6  336  7 I35
stroke6  337  8 I35
stroke6  338  9 I35
stroke6  338  10 I35
stroke6  339  10 I35
stroke6  339  11 I35
stroke6  339  12 I35
stroke6  339  13 I35
stroke6  339  14 I35
stroke6  338  15 I35
stroke6  338  16 I35
stroke6  337  16 I35
stroke6  337  17 I35
stroke6  336  17 I35
stroke6  335  17 I35
stroke6  335  18 I35
stroke6  334  18 I35
stroke6  333  17 I35
stroke6  332  17 I35
stroke6  331  16 I35
stroke6  330  15 I35
stroke6  329  14 I35
stroke6  329  13 I35
stroke6  328  12 I35
stroke6  328  11 I35
stroke6  328  10 I35
stroke6  328  9 I35
stroke6  328  8 I35
stroke6  329  8 I35
stroke6  329  7 I35
stroke6  330  7 I35
stroke6  331  7 I35
stroke6  332  7 I35
stroke6  333  7 I35
stroke6  334  7 I35
stroke6  335  7 I35
stroke6  336  7 I35
stroke6  337  8 I35
stroke6  338  8 I35
stroke6  339  9 I35
stroke6  340  9 I35
stroke6  340  10 I35
stroke6  341  11 I35
stroke6  342  12 I35
stroke6  342  13 I35
stroke6  343  14 I35
stroke6  343  15 I35
stroke6  344  16 I35
stroke6  344  17 I35
stroke6  344  18 I35
stroke6  345  19 I35
stroke6  345  21 I35
stroke6  345  22 I35
stroke6  345  24 I35
stroke6  345  26 I35
stroke6  345  27 I35
stroke6  345  29 I35
stroke6  345  31 I35
stroke6  345  32 I35
stroke6  345  34 I35
stroke6  345  35 I35
stroke6  345  37 I35
stroke6  345  38 I35
stroke6  345  40 I35
stroke6  345  41 I35
stroke6  345  42 I35
stroke6  345  44 I35
stroke6  345  45 I35
stroke6  345  46 I35
stroke6  345  47 I35
stroke6  345  48 I35
stroke6  344  48 I35
stroke6  343  48 I35
stroke6  343  49 I35
stroke6  342  49 I35
stroke6  341  49 I35
stroke6  340  49 I35
stroke6  339  49 I35
stroke6  338  49 I35
stroke6  337  49 I35
stroke6  335  49 I35
stroke6  334  49 I35
stroke6  333  49 I35
stroke6  331  49 I35
stroke6  330  48 I35
stroke6  328  48 I35
stroke6  327  48 I35
stroke6  326  48 I35
stroke6  324  48 I35
stroke6  323  48 I35
stroke6  322  48 I35
stroke6  321  49 I35
stroke6  320  49 I35
stroke6  319  49 I35
stroke6  318  50 I35
stroke6  319  51 I35
stroke6  319  52 I35
stroke6  320  53 I35
stroke6  320  54 I35
stroke6  321  55 I35
stroke6  322  56 I35
stroke6  323  57 I35
stroke6  323  58 I35
stroke6  324  59 I35
stroke6  325  59 I35
stroke6  326  60 I35
stroke6  327  60 I35
stroke6  328  61 I35
stroke6  329  62 I35
stroke6  330  62 I35
stroke6  331  62 I35
stroke6  332  62 I35
stroke6  333  62 I35
stroke6  334  62 I35
stroke6  335  61 I35
stroke6  336  61 I35
stroke6  336  60 I35
stroke6  337  59 I35
stroke6  338  59 I35
stroke6  339  58 I35
stroke6  340  58 I35
stroke6  341  58 I35
stroke6  342  58 I35
stroke6  343  58 I35
stroke6  344  58 I35
stroke6  345  58 I35
stroke6  346  59 I35
stroke6  347  59 I35
stroke6  347  60 I35
stroke6  348  60 I35
stroke6  348  61 I35
stroke6  349  62 I35
stroke6  349  63 I35
stroke6  350  63 I35
stroke6  349  63 I35
stroke6  349  62 I35
stroke7  364  3 B35
stroke7  365  3 I35
stroke7  366  3 I35
stroke7  367  3 I35
stroke7  368  3 I35
stroke7  369  3 I35
stroke7  369  4 I35
stroke7  370  4 I35
stroke7  371  5 I35
stroke7  372  6 I35
stroke7  373  6 I35
stroke7  373  7 I35
stroke7  373  8 I35
stroke7  374  8 I35
stroke7  374  9 I35
stroke7  374  10 I35
stroke7  373  11 I35
stroke7  373  12 I35
stroke7  372  13 I35
stroke7  371  13 I35
stroke7  371  14 I35
stroke7  370  14 I35
stroke7  369  14 I35
stroke7  368  14 I35
stroke7  368  13 I35
stroke7  367  13 I35
stroke7  366  12 I35
stroke7  365  11 I35
stroke7  365  10 I35
stroke7  364  9 I35
stroke7  364  8 I35
stroke7  364  7 I35
stroke7  364  6 I35
stroke7  365  5 I35
stroke7  365  4 I35
stroke7  366  4 I35
stroke7  367  4 I35
stroke7  368  4 I35
stroke7  369  4 I35
stroke7  370  4 I35
stroke7  371  4 I35
stroke7  371  5 I35
stroke7  372  5 I35
stroke7  373  5 I35
stroke7  374  6 I35
stroke7  375  7 I35
stroke7  376  8 I35
stroke7  377  9 I35
stroke7  377  10 I35
stroke7  378  10 I35
stroke7  378  11 I35
stroke7  378  12 I35
stroke7  379  13 I35
stroke7  379  14 I35
stroke7  379  15 I35
stroke7  380  16 I35
stroke7  380  18 I35
stroke7  380  19 I35
stroke7  380  21 I35
stroke7  380  22 I35
stroke7  380  24 I35
stroke7  380  25 I35
stroke7  380  27 I35
stroke7  380  29 I35
stroke7  380  31 I35
stroke7  380  33 I35
stroke7  380  34 I35
stroke7  380  36 I35
stroke7  380  38 I35
stroke7  379  39 I35
stroke7  379  41 I35
stroke7  379  42 I35
stroke7  379  43 I35
stroke7  379  44 I35
stroke7  379  45 I35
stroke7  379  46 I35
stroke7  379  47 I35
stroke7  378  48 I35
stroke7  378  49 I35
stroke7  377  49 I35
stroke7  376  49 I35
stroke7  375  49 I35
stroke7  374  49 I35
stroke7  373  49 I35
stroke7  372  49 I35
stroke7  371  49 I35
stroke7  370  50 I35
stroke7  369  49 I35
stroke7  368  50 I35
stroke7  367  50 I35
stroke7  366  50 I35
stroke7  365  50 I35
stroke7  364  50 I35
stroke7  363  50 I35
stroke7  362  50 I35
stroke7  361  50 I35
stroke7  360  50 I35
stroke7  360  49 I35
stroke7  359  49 I35
stroke7  358  49 I35
stroke7  357  49 I35
stroke7  357  50 I35
stroke7  357  51 I35
stroke7  358  51 I35
stroke7  358  52 I35
stroke7  359  53 I35
stroke7  360  54 I35
stroke7  361  55 I35
stroke7  361  56 I35
stroke7  362  57 I35
stroke7  363  58 I35
stroke7  364  58 I35
stroke7  364  59 I35
stroke7  365  60 I35
stroke7  366  61 I35
stroke7  367  61 I35
stroke7  367  62 I35
stroke7  368  62 I35
stroke7  369  63 I35
stroke7  370  63 I35
stroke7  371  63 I35
stroke7  372  62 I35
stroke7  373  62 I35
stroke7  374  61 I35
stroke7  375  60 I35
stroke7  376  60 I35
stroke7  377  60 I35
stroke7  378  59 I35
stroke7  379  59 I35
stroke7  380  58 I35
stroke7  381  58 I35
stroke7  382  58 I35
stroke7  383  57 I35
stroke7  384  58 I35
stroke7  385  58 I35
stroke7  386  58 I35
stroke7  387  59 I35
stroke7  387  60 I35
stroke7  388  60 I35
stroke7  388  61 I35
stroke7  389  61 I35
stroke7  389  62 I35
stroke7  389  63 I35
stroke7  390  63 I35
stroke7  389  63 I35
stroke7  389  62 I35
stroke8  409  65 B33
stroke8  408  65 I33
stroke8  408  64 I33
stroke8  408  63 I33
stroke8  408  62 I33
stroke8  407  61 I33
stroke8  407  60 I33
stroke8  407  59 I33
stroke8  406  58 I33
stroke8  406  57 I33
stroke8  405  57 I33
stroke8  405  56 I33
stroke8  404  55 I33
stroke8  403  55 I33
stroke8  402  55 I33
stroke8  402  54 I33
stroke8  401  54 I33
stroke8  400  54 I33
stroke8  400  55 I33
stroke8  399  55 I33
stroke8  398  56 I33
stroke8  398  57 I33
stroke8  398  58 I33
stroke8  398  59 I33
stroke8  399  60 I33
stroke8  399  61 I33
stroke8  400  62 I33
stroke8  400  63 I33
stroke8  401  64 I33
stroke8  401  65 I33
stroke8  402  65 I33
stroke8  402  66 I33
stroke8  403  67 I33
stroke8  404  67 I33
stroke8  404  68 I33
stroke8  405  68 I33
stroke8  406  69 I33
stroke8  407  69 I33
stroke8  408  69 I33
stroke8  409  68 I33
stroke8  410  68 I33
stroke8  411  68 I33
stroke8  411  67 I33
stroke8  412  67 I33
stroke8  413  67 I33
stroke8  413  66 I33
stroke8  413  65 I33
stroke8  413  64 I33
stroke8  413  63 I33
stroke8  413  62 I33
stroke8  413  61 I33
stroke8  413  60 I33
stroke8  413  59 I33
stroke8  413  58 I33
stroke8  413  57 I33
stroke8  413  56 I33
stroke8  412  54 I33
stroke8  412  53 I33
stroke8  412  52 I33
stroke8  412  50 I33
stroke8  412  49 I33
stroke8  412  47 I33
stroke8  412  46 I33
stroke8  412  45 I33
stroke8  412  43 I33
stroke8  412  42 I33
stroke8  412  41 I33
stroke8  412  39 I33
stroke8  412  38 I33
stroke8  412  36 I33
stroke8  412  35 I33
stroke8  412  34 I33
stroke8  412  32 I33
stroke8  412  31 I33
stroke8  412  30 I33
stroke8  412  29 I33
stroke8  412  28 I33
stroke8  412  26 I33
stroke8  411  25 I33
stroke8  411  24 I33
stroke8  412  23 I33
stroke8  411  22 I33
stroke8  411  21 I33
stroke8  411  20 I33
stroke8  411  19 I33
stroke8  411  18 I33
stroke8  411  17 I33
stroke8  412  16 I33
stroke8  412  15 I33
stroke8  412  14 I33
stroke8  412  13 I33
stroke8  412  12 I33
stroke8  412  11 I33
stroke8  412  10 I33
stroke8  412  9 I33
stroke8  412  8 I33
stroke8  412  7 I33
stroke8  412  6 I33
stroke8  412  5 I33
stroke8  412  4 I33
stroke8  412  3 I33
stroke8  411  3 I33
stroke8  411  2 I33
stroke8  410  2 I33
stroke8  409  2 I33
stroke8  409  3 I33
stroke8  408  3 I33
stroke8  407  4 I33
stroke8  406  5 I33
stroke8  406  6 I33
stroke8  405  7 I33
stroke8  405  8 I33
stroke8  404  9 I33
stroke8  404  10 I33
stroke8  404  11 I33
stroke8  404  12 I33
stroke8  404  14 I33
stroke8  404  15 I33
stroke8  404  16 I33
stroke8  404  17 I33
stroke8  405  18 I33
stroke8  405  19 I33
stroke8  406  20 I33
stroke8  406  21 I33
stroke8  407  22 I33
stroke8  407  23 I33
stroke8  408  24 I33
stroke8  409  24 I33
stroke8  410  25 I33
stroke8  411  25 I33
stroke8  411  26 I33
stroke8  412  26 I33
stroke8  413  26 I33
stroke8  414  26 I33
stroke8  416  27 I33
stroke8  417  27 I33
stroke8  418  27 I33
stroke8  419  26 I33
stroke8  420  26 I33
stroke8  421  26 I33
stroke8  423  26 I33
stroke8  424  25 I33
stroke8  425  25 I33
stroke8  425  24 I33
stroke8  426  23 I33
stroke8  427  22 I33
stroke8  428  22 I33
stroke8  428  21 I33
stroke8  429  20 I33
stroke8  429  19 I33
stroke8  430  18 I33
stroke8  431  17 I33
stroke8  431  16 I33
stroke8  432  16 I33
stroke8  432  15 I33
stroke8  433  14 I33
stroke8  433  13 I33
stroke8  434  12 I33
stroke8  434  11 I33
stroke8  435  11 I33
stroke8  435  10 I33
stroke8  436  10 I33
stroke8  436  9 I33
stroke8  436  8 I33
stroke8  437  8 I33
stroke8  437  7 I33
stroke8  437  6 I33
stroke8  438  5 I33
stroke8  438  6 I33
stroke8  438  7 I33
stroke8  438  8 I33
stroke8  438  9 I33
stroke8  438  10 I33
stroke8  438  12 I33
stroke8  438  13 I33
stroke8  438  15 I33
stroke8  438  16 I33
stroke8  439  17 I33
stroke8  439  19 I33
stroke8  439  21 I33
stroke8  439  22 I33
stroke8  439  24 I33
stroke8  439  25 I33
stroke8  439  27 I33
stroke8  439  29 I33
stroke8  439  31 I33
stroke8  439  32 I33
stroke8  440  34 I33
stroke8  440  36 I33
stroke8  440  38 I33
stroke8  440  40 I33
stroke8  440  42 I33
stroke8  441  44 I33
stroke8  441  46 I33
stroke8  441  48 I33
stroke8  441  50 I33
stroke8  441  51 I33
stroke8  441  53 I33
stroke8  441  54 I33
stroke8  441  56 I33
stroke8  441  57 I33
stroke8  441  58 I33
stroke8  441  59 I33
stroke8  441  61 I33
stroke8  441  62 I33
stroke8  441  63 I33
stroke8  441  64 I33
stroke8  441  65 I33
stroke8  441  66 I33
stroke8  441  67 I33
stroke8  440  68 I33
stroke8  440  69 I33
stroke8  440  70 I33
stroke8  440  71 I33
stroke8  439  71 I33
stroke8  439  70 I33
stroke8  438  70 I33
stroke8  438  69 I33
stroke8  437  69 I33
stroke8  437  68 I33
stroke8  436  67 I33
