stroke1  61  9 B40
stroke1  62  9 I40
stroke1  62  10 I40
stroke1  62  11 I40
stroke1  63  12 I40
stroke1  63  13 I40
stroke1  64  13 I40
stroke1  65  13 I40
stroke1  66  13 I40
stroke1  67  13 I40
stroke1  67  12 I40
stroke1  68  12 I40
stroke1  69  11 I40
stroke1  70  11 I40
stroke1  70  10 I40
stroke1  71  9 I40
stroke1  71  8 I40
stroke1  71  7 I40
stroke1  71  6 I40
stroke1  71  6 I40
stroke1  71  5 I40
stroke1  71  4 I40
stroke1  71  3 I40
stroke1  70  2 I40
stroke1  69  2 I40
stroke1  69  1 I40
stroke1  68  1 I40
stroke1  67  1 I40
stroke1  67  2 I40
stroke1  66  2 I40
stroke1  66  3 I40
stroke1  65  4 I40
stroke1  65  5 I40
stroke1  64  6 I40
stroke1  64  8 I40
stroke1  64  10 I40
stroke1  64  12 I40
stroke1  64  14 I40
stroke1  64  16 I40
stroke1  64  19 I40
stroke1  64  21 I40
stroke1  64  24 I40
stroke1  65  27 I40
stroke1  65  29 I40
stroke1  65  32 I40
stroke1  66  34 I40
stroke1  66  36 I40
stroke1  66  38 I40
stroke1  67  39 I40
stroke1  67  41 I40
stroke1  68  41 I40
stroke1  68  42 I40
stroke1  69  43 I40
stroke1  70  43 I40
stroke1  71  43 I40
stroke1  72  42 I40
stroke1  74  41 I40
stroke1  75  39 I40
stroke1  76  38 I40
stroke1  78  35 I40
stroke1  79  33 I40
stroke1  81  30 I40
stroke1  82  27 I40
stroke1  84  24 I40
stroke1  85  22 I40
stroke1  86  19 I40
stroke1  87  17 I40
stroke1  88  15 I40
stroke1  89  13 I40
stroke1  90  11 I40
stroke1  90  10 I40
stroke1  91  9 I40
stroke1  91  8 I40
stroke1  91  7 I40
stroke1  92  7 I40
stroke1  92  6 I40
stroke1  92  7 I40
stroke1  92  8 I40
stroke1  92  9 I40
stroke1  92  10 I40
stroke1  92  11 I40
stroke1  92  13 I40
stroke1  92  15 I40
stroke1  92  17 I40
stroke1  92  19 I40
stroke1  92  21 I40
stroke1  92  24 I40
stroke1  92  26 I40
stroke1  92  29 I40
stroke1  91  32 I40
stroke1  91  35 I40
stroke1  91  38 I40
stroke1  91  40 I40
stroke1  91  43 I40
stroke1  90  45 I40
stroke1  90  46 I40
stroke1  90  48 I40
stroke1  90  49 I40
stroke1  90  51 I40
stroke1  89  52 I40
stroke1  89  53 I40
stroke1  89  54 I40
stroke1  89  55 I40
stroke1  89  56 I40
stroke1  89  57 I40
stroke1  89  58 I40
stroke1  88  58 I40
stroke1  88  59 I40
stroke1  87  59 I40
stroke1  86  60 I40
stroke1  85  60 I40
stroke1  84  61 I40
stroke1  83  62 I40
stroke1  81  63 I40
stroke1  80  63 I40
stroke1  78  64 I40
stroke1  76  65 I40
stroke1  74  65 I40
stroke1  72  66 I40
stroke1  70  66 I40
stroke1  67  65 I40
stroke1  65  64 I40
stroke1  63  63 I40
stroke1  61  61 I40
stroke1  59  59 I40
stroke1  56  57 I40
stroke1  55  55 I40
stroke1  54  53 I40
stroke1  53  52 I40
stroke1  52  51 I40
stroke1  52  50 I40
stroke1  52  49 I40
stroke1  80  64 I40
stroke1  81  65 I40
stroke1  81  66 I40
stroke1  81  67 I40
stroke1  82  68 I40
stroke1  82  70 I40
stroke1  83  72 I40
stroke1  84  74 I40
stroke1  85  77 I40
stroke1  86  79 I40
stroke1  87  81 I40
stroke1  88  83 I40
stroke1  89  85 I40
stroke1  90  86 I40
stroke1  91  87 I40
stroke1  92  88 I40
stroke1  92  89 I40
stroke1  91  89 I40
stroke2  82  91 B56
stroke2  82  92 I56
stroke2  82  93 I56
stroke2  82  94 I56
stroke2  82  95 I56
stroke2  81  95 I56
stroke2  80  96 I56
stroke2  80  97 I56
stroke2  79  98 I56
stroke2  78  98 I56
stroke2  77  99 I56
stroke2  76  99 I56
stroke2  75  99 I56
stroke2  74  98 I56
stroke2  73  97 I56
stroke2  72  96 I56
stroke2  71  94 I56
stroke2  71  93 I56
stroke2  70  92 I56
stroke2  70  91 I56
stroke2  71  90 I56
stroke2  72  89 I56
stroke2  73  88 I56
stroke2  74  88 I56
stroke2  76  88 I56
stroke2  77  88 I56
stroke2  79  89 I56
stroke2  80  89 I56
stroke2  81  90 I56
stroke2  82  90 I56
stroke2  83  91 I56
stroke2  84  91 I56
stroke2  84  92 I56
stroke2  84  91 I56
stroke2  84  90 I56
stroke3  115  47 B47
stroke3  115  48 I47
stroke3  115  49 I47
stroke3  115  50 I47
stroke3  115  51 I47
stroke3  116  52 I47
stroke3  116  54 I47
stroke3  117  55 I47
stroke3  117  56 I47
stroke3  118  58 I47
stroke3  119  59 I47
stroke3  120  60 I47
stroke3  121  60 I47
stroke3  122  61 I47
stroke3  123  62 I47
stroke3  124  62 I47
stroke3  125  62 I47
stroke3  126  62 I47
stroke3  127  62 I47
stroke3  129  62 I47
stroke3  130  62 I47
stroke3  131  61 I47
stroke3  132  61 I47
stroke3  134  60 I47
stroke3  135  58 I47
stroke3  136  57 I47
stroke3  136  55 I47
stroke3  137  53 I47
stroke3  138  51 I47
stroke3  138  49 I47
stroke3  138  46 I47
stroke3  139  43 I47
stroke3  139  39 I47
stroke3  139  36 I47
stroke3  139  33 I47
stroke3  139  30 I47
stroke3  139  26 I47
stroke3  139  23 I47
stroke3  139  20 I47
stroke3  139  18 I47
stroke3  140  16 I47
stroke3  140  14 I47
stroke3  140  12 I47
stroke3  140  11 I47
stroke3  140  10 I47
stroke3  140  9 I47
stroke3  140  8 I47
stroke3  140  7 I47
stroke3  140  6 I47
stroke3  140  7 I47
stroke3  139  7 I47
stroke3  139  8 I47
stroke4  176  47 B41
stroke4  177  47 I41
stroke4  177  46 I41
stroke4  177  45 I41
stroke4  176  44 I41
stroke4  175  43 I41
stroke4  174  43 I41
stroke4  173  43 I41
stroke4  171  43 I41
stroke4  170  44 I41
stroke4  169  44 I41
stroke4  168  45 I41
stroke4  167  46 I41
stroke4  166  47 I41
stroke4  165  48 I41
stroke4  165  50 I41
stroke4  165  52 I41
stroke4  166  53 I41
stroke4  166  55 I41
stroke4  167  57 I41
stroke4  168  58 I41
stroke4  169  59 I41
stroke4  171  60 I41
stroke4  172  61 I41
stroke4  173  61 I41
stroke4  174  60 I41
stroke4  175  60 I41
stroke4  176  58 I41
stroke4  176  57 I41
stroke4  177  55 I41
stroke4  177  52 I41
stroke4  178  49 I41
stroke4  178  46 I41
stroke4  178  42 I41
stroke4  178  39 I41
stroke4  179  35 I41
stroke4  179  32 I41
stroke4  179  29 I41
stroke4  179  26 I41
stroke4  179  23 I41
stroke4  179  20 I41
stroke4  179  17 I41
stroke4  179  15 I41
stroke4  180  13 I41
stroke4  180  11 I41
stroke4  180  9 I41
stroke4  180  7 I41
stroke4  180  6 I41
stroke4  180  5 I41
stroke4  180  4 I41
stroke4  180  3 I41
stroke4  180  2 I41
stroke4  179  1 I41
stroke4  179  0 I41
stroke4  179  1 I41
stroke4  180  2 I41
stroke4  180  3 I41
stroke4  180  5 I41
stroke4  181  7 I41
stroke4  182  10 I41
stroke4  183  13 I41
stroke4  185  16 I41
stroke4  186  19 I41
stroke4  187  22 I41
stroke4  189  25 I41
stroke4  191  28 I41
stroke4  192  31 I41
stroke4  193  34 I41
stroke4  195  36 I41
stroke4  196  39 I41
stroke4  197  41 I41
stroke4  198  43 I41
stroke4  199  45 I41
stroke4  200  47 I41
stroke4  201  48 I41
stroke4  201  49 I41
stroke4  202  51 I41
stroke4  202  52 I41
stroke4  203  53 I41
stroke4  203  55 I41
stroke4  203  56 I41
stroke4  203  57 I41
stroke4  203  58 I41
stroke4  202  59 I41
stroke4  201  60 I41
stroke4  200  60 I41
stroke4  199  59 I41
stroke4  198  59 I41
stroke4  197  58 I41
stroke4  196  58 I41
stroke4  195  57 I41
stroke4  194  56 I41
stroke4  193  55 I41
stroke4  192  54 I41
stroke4  192  53 I41
stroke4  192  52 I41
stroke4  193  51 I41
stroke4  193  50 I41
stroke4  194  49 I41
stroke4  195  48 I41
stroke4  196  47 I41
stroke4  197  46 I41
stroke4  198  45 I41
stroke4  198  43 I41
stroke4  199  42 I41
stroke4  200  40 I41
stroke4  200  38 I41
stroke4  201  37 I41
stroke4  201  35 I41
stroke4  201  33 I41
stroke4  201  32 I41
stroke4  202  30 I41
stroke4  202  28 I41
stroke4  202  26 I41
stroke4  202  24 I41
stroke4  202  23 I41
stroke4  202  21 I41
stroke4  202  19 I41
stroke4  202  17 I41
stroke4  202  15 I41
stroke4  201  13 I41
stroke4  202  12 I41
stroke4  202  10 I41
stroke4  202  8 I41
stroke4  202  7 I41
stroke4  202  6 I41
stroke4  202  5 I41
stroke4  202  4 I41
stroke4  202  3 I41
stroke4  202  2 I41
stroke4  201  2 I41
stroke4  201  3 I41
stroke5  235  13 B35
stroke5  236  13 I35
stroke5  236  14 I35
stroke5  236  15 I35
stroke5  235  15 I35
stroke5  235  16 I35
stroke5  234  17 I35
stroke5  233  18 I35
stroke5  232  19 I35
stroke5  231  19 I35
stroke5  230  19 I35
stroke5  229  19 I35
stroke5  228  18 I35
stroke5  227  17 I35
stroke5  227  16 I35
stroke5  226  15 I35
stroke5  226  14 I35
stroke5  225  13 I35
stroke5  225  11 I35
stroke5  225  10 I35
stroke5  226  9 I35
stroke5  226  8 I35
stroke5  226  7 I35
stroke5  227  6 I35
stroke5  227  5 I35
stroke5  228  5 I35
stroke5  229  4 I35
stroke5  230  4 I35
stroke5  231  5 I35
stroke5  231  6 I35
stroke5  232  6 I35
stroke5  233  7 I35
stroke5  233  9 I35
stroke5  234  10 I35
stroke5  234  11 I35
stroke5  235  13 I35
stroke5  235  14 I35
stroke5  235  16 I35
stroke5  235  18 I35
stroke5  236  20 I35
stroke5  236  22 I35
stroke5  236  24 I35
stroke5  236  27 I35
stroke5  236  29 I35
stroke5  236  32 I35
stroke5  236  34 I35
stroke5  235  36 I35
stroke5  235  39 I35
stroke5  235  41 I35
stroke5  235  43 I35
stroke5  235  44 I35
stroke5  234  46 I35
stroke5  234  47 I35
stroke5  233  48 I35
stroke5  233  49 I35
stroke5  232  50 I35
stroke5  231  51 I35
stroke5  230  51 I35
stroke5  229  51 I35
stroke5  227  51 I35
stroke5  226  50 I35
stroke5  224  49 I35
stroke5  223  49 I35
stroke5  222  48 I35
stroke5  221  47 I35
stroke5  220  47 I35
stroke5  219  46 I35
stroke5  218  46 I35
stroke5  217  46 I35
stroke5  218  47 I35
stroke5  218  48 I35
stroke5  218  49 I35
stroke5  218  50 I35
stroke5  219  51 I35
stroke5  219  53 I35
stroke5  220  54 I35
stroke5  220  55 I35
stroke5  221  57 I35
stroke5  222  58 I35
stroke5  223  59 I35
stroke5  223  60 I35
stroke5  224  60 I35
stroke5  224  61 I35
stroke5  225  61 I35
stroke5  226  61 I35
stroke5  226  62 I35
stroke5  227  61 I35
stroke5  228  61 I35
stroke5  229  60 I35
stroke5  230  59 I35
stroke5  231  59 I35
stroke5  232  58 I35
stroke5  233  58 I35
stroke5  234  57 I35
stroke5  235  57 I35
stroke5  236  57 I35
stroke5  237  57 I35
stroke5  238  58 I35
stroke5  239  58 I35
stroke5  240  59 I35
stroke5  241  59 I35
stroke5  242  60 I35
stroke5  243  61 I35
stroke5  244  62 I35
stroke5  245  63 I35
stroke5  245  64 I35
stroke5  246  65 I35
stroke5  246  66 I35
stroke5  247  66 I35
stroke5  246  66 I35
stroke5  245  66 I35
stroke6  253  86 B45
stroke6  254  86 I45
stroke6  254  87 I45
stroke6  254  88 I45
stroke6  254  89 I45
stroke6  254  90 I45
stroke6  254  91 I45
stroke6  254  92 I45
stroke6  253  92 I45
stroke6  253  93 I45
stroke6  252  94 I45
stroke6  251  93 I45
stroke6  250  93 I45
stroke6  250  92 I45
stroke6  249  91 I45
stroke6  248  90 I45
stroke6  247  89 I45
stroke6  247  87 I45
stroke6  246  86 I45
stroke6  246  85 I45
stroke6  246  84 I45
stroke6  247  83 I45
stroke6  247  82 I45
stroke6  248  82 I45
stroke6  249  81 I45
stroke6  250  82 I45
stroke6  252  82 I45
stroke6  253  83 I45
stroke6  255  85 I45
stroke6  257  86 I45
stroke6  259  87 I45
stroke6  261  89 I45
stroke6  263  90 I45
stroke6  264  91 I45
stroke6  265  92 I45
stroke6  266  93 I45
stroke6  267  94 I45
stroke6  267  95 I45
stroke6  267  96 I45
stroke6  266  95 I45
stroke7  277  47 B26
stroke7  277  46 I26
stroke7  276  45 I26
stroke7  276  44 I26
stroke7  275  44 I26
stroke7  274  43 I26
stroke7  273  43 I26
stroke7  272  43 I26
stroke7  271  43 I26
stroke7  270  43 I26
stroke7  269  43 I26
stroke7  268  44 I26
stroke7  267  45 I26
stroke7  266  46 I26
stroke7  265  47 I26
stroke7  265  48 I26
stroke7  265  49 I26
stroke7  265  51 I26
stroke7  265  52 I26
stroke7  266  54 I26
stroke7  266  56 I26
stroke7  268  57 I26
stroke7  269  59 I26
stroke7  270  60 I26
stroke7  271  61 I26
stroke7  273  61 I26
stroke7  274  62 I26
stroke7  275  62 I26
stroke7  276  61 I26
stroke7  277  61 I26
stroke7  278  60 I26
stroke7  279  59 I26
stroke7  279  57 I26
stroke7  280  56 I26
stroke7  280  54 I26
stroke7  281  52 I26
stroke7  281  49 I26
stroke7  281  46 I26
stroke7  281  43 I26
stroke7  281  40 I26
stroke7  281  36 I26
stroke7  280  33 I26
stroke7  280  30 I26
stroke7  280  27 I26
stroke7  280  24 I26
stroke7  279  21 I26
stroke7  279  19 I26
stroke7  279  16 I26
stroke7  279  14 I26
stroke7  279  12 I26
stroke7  278  10 I26
stroke7  278  8 I26
stroke7  278  7 I26
stroke7  279  5 I26
stroke7  279  4 I26
stroke7  279  3 I26
stroke7  279  2 I26
stroke7  280  1 I26
stroke7  281  1 I26
stroke7  282  2 I26
stroke7  283  2 I26
stroke7  285  3 I26
stroke7  286  3 I26
stroke7  288  4 I26
stroke7  290  4 I26
stroke7  291  5 I26
stroke7  293  5 I26
stroke7  295  5 I26
stroke7  296  5 I26
stroke7  298  4 I26
stroke7  299  4 I26
stroke7  300  4 I26
stroke7  301  4 I26
stroke7  302  4 I26
stroke7  303  4 I26
stroke7  304  5 I26
stroke7  305  6 I26
stroke7  305  7 I26
stroke7  306  8 I26
stroke7  306  10 I26
stroke7  307  11 I26
stroke7  307  13 I26
stroke7  307  15 I26
stroke7  308  17 I26
stroke7  308  20 I26
stroke7  308  22 I26
stroke7  308  25 I26
stroke7  308  28 I26
stroke7  309  30 I26
stroke7  309  33 I26
stroke7  309  35 I26
stroke7  309  38 I26
stroke7  309  40 I26
stroke7  309  42 I26
stroke7  309  44 I26
stroke7  309  46 I26
stroke7  309  48 I26
stroke7  309  50 I26
stroke7  309  51 I26
stroke7  309  52 I26
stroke7  309  54 I26
stroke7  309  55 I26
stroke7  309  56 I26
stroke7  309  57 I26
stroke7  309  58 I26
stroke7  309  59 I26
stroke7  309  58 I26
stroke7  308  58 I26
