stroke1  59  72 B34
stroke1  59  71 I34
stroke1  60  70 I34
stroke1  61  70 I34
stroke1  62  70 I34
stroke1  63  71 I34
stroke1  65  72 I34
stroke1  66  72 I34
stroke1  67  73 I34
stroke1  68  74 I34
stroke1  69  75 I34
stroke1  70  76 I34
stroke1  71  77 I34
stroke1  72  78 I34
stroke1  72  79 I34
stroke1  73  80 I34
stroke1  73  81 I34
stroke1  73  82 I34
stroke1  72  83 I34
stroke1  72  83 I34
stroke1  72  84 I34
stroke1  71  85 I34
stroke1  70  86 I34
stroke1  69  86 I34
stroke1  68  87 I34
stroke1  67  87 I34
stroke1  66  87 I34
stroke1  64  86 I34
stroke1  63  85 I34
stroke1  62  84 I34
stroke1  61  82 I34
stroke1  60  80 I34
stroke1  59  77 I34
stroke1  58  75 I34
stroke1  58  72 I34
stroke1  58  70 I34
stroke1  58  67 I34
stroke1  58  64 I34
stroke1  58  62 I34
stroke1  59  60 I34
stroke1  60  58 I34
stroke1  61  56 I34
stroke1  62  55 I34
stroke1  63  54 I34
stroke1  64  53 I34
stroke1  66  53 I34
stroke1  67  53 I34
stroke1  68  53 I34
stroke1  70  53 I34
stroke1  71  53 I34
stroke1  72  53 I34
stroke1  73  54 I34
stroke1  72  54 I34
stroke1  72  53 I34
stroke1  71  53 I34
stroke1  70  52 I34
stroke1  68  51 I34
stroke1  67  50 I34
stroke1  66  49 I34
stroke1  65  47 I34
stroke1  64  46 I34
stroke1  63  44 I34
stroke1  62  43 I34
stroke1  62  41 I34
stroke1  61  40 I34
stroke1  61  39 I34
stroke1  61  38 I34
stroke1  61  36 I34
stroke1  61  35 I34
stroke1  62  35 I34
stroke1  62  34 I34
stroke1  62  33 I34
stroke1  63  33 I34
stroke1  64  33 I34
stroke1  65  33 I34
stroke1  66  32 I34
stroke1  67  32 I34
stroke1  69  32 I34
stroke1  71  32 I34
stroke1  73  31 I34
stroke1  75  31 I34
stroke1  77  31 I34
stroke1  79  30 I34
stroke1  80  30 I34
stroke1  82  30 I34
stroke1  84  30 I34
stroke1  85  30 I34
stroke1  86  30 I34
stroke1  87  30 I34
stroke1  88  30 I34
stroke1  89  31 I34
stroke1  90  32 I34
stroke1  90  34 I34
stroke1  90  36 I34
stroke1  91  38 I34
stroke1  91  40 I34
stroke1  92  43 I34
stroke1  92  46 I34
stroke1  93  49 I34
stroke1  93  53 I34
stroke1  94  56 I34
stroke1  94  60 I34
stroke1  95  63 I34
stroke1  95  67 I34
stroke1  95  70 I34
stroke1  95  73 I34
stroke1  95  75 I34
stroke1  95  77 I34
stroke1  95  79 I34
stroke1  95  81 I34
stroke1  95  82 I34
stroke1  95  84 I34
stroke1  95  85 I34
stroke1  95  86 I34
stroke1  94  86 I34
stroke2  100  102 B48
stroke2  99  103 I48
stroke2  98  103 I48
stroke2  97  104 I48
stroke2  96  104 I48
stroke2  95  105 I48
stroke2  93  106 I48
stroke2  91  106 I48
stroke2  89  106 I48
stroke2  87  107 I48
stroke2  85  107 I48
stroke2  83  107 I48
stroke2  82  108 I48
stroke2  80  108 I48
stroke2  79  109 I48
stroke2  77  110 I48
stroke2  76  111 I48
stroke2  76  112 I48
stroke2  75  113 I48
stroke2  76  115 I48
stroke2  76  116 I48
stroke2  77  117 I48
stroke2  78  118 I48
stroke2  79  119 I48
stroke2  81  119 I48
stroke2  83  119 I48
stroke2  85  118 I48
stroke2  87  117 I48
stroke2  89  115 I48
stroke2  91  113 I48
stroke2  93  111 I48
stroke2  95  110 I48
stroke2  96  108 I48
stroke2  98  107 I48
stroke2  99  105 I48
stroke2  99  104 I48
stroke2  100  103 I48
stroke2  99  102 I48
stroke3  99  127 B65
stroke3  100  129 I65
stroke3  100  131 I65
stroke3  101  133 I65
stroke3  101  134 I65
stroke3  101  135 I65
stroke3  101  136 I65
stroke3  102  136 I65
stroke3  102  135 I65
stroke3  102  134 I65
stroke3  102  133 I65
stroke3  103  131 I65
stroke3  103  129 I65
stroke3  104  127 I65
stroke3  104  124 I65
stroke3  104  121 I65
stroke4  144  65 B7
stroke4  144  64 I7
stroke4  144  63 I7
stroke4  143  63 I7
stroke4  142  64 I7
stroke4  141  64 I7
stroke4  139  64 I7
stroke4  138  65 I7
stroke4  137  66 I7
stroke4  136  67 I7
stroke4  135  68 I7
stroke4  134  69 I7
stroke4  134  70 I7
stroke4  133  72 I7
stroke4  134  74 I7
stroke4  134  76 I7
stroke4  135  77 I7
stroke4  135  79 I7
stroke4  136  80 I7
stroke4  138  81 I7
stroke4  139  82 I7
stroke4  140  82 I7
stroke4  141  82 I7
stroke4  142  81 I7
stroke4  142  80 I7
stroke4  143  78 I7
stroke4  144  76 I7
stroke4  144  73 I7
stroke4  144  70 I7
stroke4  144  67 I7
stroke4  145  63 I7
stroke4  145  59 I7
stroke4  144  54 I7
stroke4  144  51 I7
stroke4  144  47 I7
stroke4  144  43 I7
stroke4  144  41 I7
stroke4  144  38 I7
stroke4  144  35 I7
stroke4  144  33 I7
stroke4  144  31 I7
stroke4  144  29 I7
stroke4  144  28 I7
stroke4  144  27 I7
stroke4  144  26 I7
stroke4  144  25 I7
stroke4  144  24 I7
stroke4  143  25 I7
stroke4  142  26 I7
stroke4  141  26 I7
stroke4  140  27 I7
stroke4  138  28 I7
stroke4  136  29 I7
stroke4  134  30 I7
stroke4  132  31 I7
stroke4  131  32 I7
stroke4  129  33 I7
stroke4  127  33 I7
stroke4  126  34 I7
stroke4  125  34 I7
stroke5  176  35 B60
stroke5  177  36 I60
stroke5  178  37 I60
stroke5  179  37 I60
stroke5  180  37 I60
stroke5  181  37 I60
stroke5  182  37 I60
stroke5  183  36 I60
stroke5  184  35 I60
stroke5  184  34 I60
stroke5  184  33 I60
stroke5  184  32 I60
stroke5  184  31 I60
stroke5  184  30 I60
stroke5  183  29 I60
stroke5  183  28 I60
stroke5  182  28 I60
stroke5  181  28 I60
stroke5  180  28 I60
stroke5  179  28 I60
stroke5  178  29 I60
stroke5  178  30 I60
stroke5  177  32 I60
stroke5  177  34 I60
stroke5  176  36 I60
stroke5  176  39 I60
stroke5  176  42 I60
stroke5  176  45 I60
stroke5  177  49 I60
stroke5  177  53 I60
stroke5  177  57 I60
stroke5  177  61 I60
stroke5  178  66 I60
stroke5  178  70 I60
stroke5  178  74 I60
stroke5  178  79 I60
stroke5  179  83 I60
stroke5  179  87 I60
stroke5  179  91 I60
stroke5  179  95 I60
stroke5  179  99 I60
stroke5  180  103 I60
stroke5  180  106 I60
stroke5  180  109 I60
stroke5  180  112 I60
stroke5  180  114 I60
stroke5  180  116 I60
stroke5  179  117 I60
stroke5  179  118 I60
stroke5  179  119 I60
stroke5  179  120 I60
stroke5  179  121 I60
stroke5  179  122 I60
stroke5  178  123 I60
stroke5  178  124 I60
stroke5  177  125 I60
stroke5  176  126 I60
stroke5  174  127 I60
stroke5  173  127 I60
stroke5  171  127 I60
stroke5  169  127 I60
stroke5  167  127 I60
stroke5  165  126 I60
stroke5  163  125 I60
stroke5  161  123 I60
stroke5  159  121 I60
stroke5  158  120 I60
stroke5  156  117 I60
stroke5  156  115 I60
stroke5  155  113 I60
stroke5  155  111 I60
stroke5  156  109 I60
stroke5  157  107 I60
stroke5  159  106 I60
stroke5  161  106 I60
stroke5  163  106 I60
stroke5  166  106 I60
stroke5  168  106 I60
stroke5  169  106 I60
stroke5  170  107 I60
stroke5  171  108 I60
stroke5  170  108 I60
stroke5  170  109 I60
stroke5  169  109 I60
stroke5  167  109 I60
stroke5  166  108 I60
stroke5  165  108 I60
stroke5  165  106 I60
stroke5  165  105 I60
stroke5  165  102 I60
stroke6  218  65 B41
stroke6  218  64 I41
stroke6  217  63 I41
stroke6  215  63 I41
stroke6  214  63 I41
stroke6  213  63 I41
stroke6  211  64 I41
stroke6  210  64 I41
stroke6  209  65 I41
stroke6  208  66 I41
stroke6  207  68 I41
stroke6  206  69 I41
stroke6  205  71 I41
stroke6  205  73 I41
stroke6  205  75 I41
stroke6  206  76 I41
stroke6  207  78 I41
stroke6  208  80 I41
stroke6  209  81 I41
stroke6  210  82 I41
stroke6  211  82 I41
stroke6  212  83 I41
stroke6  213  82 I41
stroke6  214  81 I41
stroke6  215  80 I41
stroke6  216  78 I41
stroke6  216  75 I41
stroke6  217  72 I41
stroke6  217  68 I41
stroke6  218  65 I41
stroke6  218  61 I41
stroke6  218  57 I41
stroke6  218  53 I41
stroke6  218  50 I41
stroke6  219  46 I41
stroke6  219  43 I41
stroke6  219  40 I41
stroke6  219  38 I41
stroke6  219  35 I41
stroke6  219  33 I41
stroke6  219  32 I41
stroke6  219  30 I41
stroke6  219  29 I41
stroke6  219  28 I41
stroke6  219  27 I41
stroke6  219  26 I41
stroke6  219  27 I41
stroke6  219  28 I41
stroke6  219  29 I41
stroke6  220  30 I41
stroke6  221  32 I41
stroke6  222  34 I41
stroke6  223  36 I41
stroke6  225  39 I41
stroke6  227  42 I41
stroke6  229  44 I41
stroke6  230  47 I41
stroke6  232  50 I41
stroke6  234  53 I41
stroke6  236  55 I41
stroke6  237  58 I41
stroke6  238  60 I41
stroke6  239  63 I41
stroke6  240  65 I41
stroke6  241  67 I41
stroke6  242  70 I41
stroke6  242  72 I41
stroke6  242  74 I41
stroke6  243  76 I41
stroke6  242  77 I41
stroke6  242  79 I41
stroke6  241  80 I41
stroke6  240  81 I41
stroke6  239  81 I41
stroke6  238  81 I41
stroke6  237  80 I41
stroke6  235  79 I41
stroke6  234  78 I41
stroke6  233  76 I41
stroke6  232  74 I41
stroke6  231  73 I41
stroke6  231  71 I41
stroke6  231  69 I41
stroke6  232  68 I41
stroke6  233  67 I41
stroke6  234  66 I41
stroke6  236  65 I41
stroke6  237  64 I41
stroke6  239  63 I41
stroke6  241  61 I41
stroke6  242  60 I41
stroke6  243  59 I41
stroke6  244  57 I41
stroke6  244  55 I41
stroke6  245  54 I41
stroke6  245  52 I41
stroke6  245  50 I41
stroke6  245  47 I41
stroke6  245  45 I41
stroke6  246  43 I41
stroke6  245  41 I41
stroke6  245  39 I41
stroke6  245  37 I41
stroke6  245  35 I41
stroke6  245  33 I41
stroke6  245  31 I41
stroke6  245  30 I41
stroke6  245  29 I41
stroke6  245  28 I41
stroke6  245  27 I41
stroke7  268  36 B13
stroke7  267  36 I13
stroke7  267  37 I13
stroke7  268  37 I13
stroke7  268  38 I13
stroke7  269  38 I13
stroke7  270  39 I13
stroke7  271  39 I13
stroke7  272  40 I13
stroke7  273  40 I13
stroke7  275  40 I13
stroke7  276  40 I13
stroke7  277  39 I13
stroke7  278  38 I13
stroke7  278  37 I13
stroke7  278  36 I13
stroke7  278  34 I13
stroke7  278  33 I13
stroke7  278  32 I13
stroke7  277  31 I13
stroke7  276  30 I13
stroke7  275  29 I13
stroke7  274  28 I13
stroke7  274  27 I13
stroke7  273  27 I13
stroke7  272  27 I13
stroke7  271  27 I13
stroke7  271  28 I13
stroke7  270  29 I13
stroke7  270  30 I13
stroke7  270  32 I13
stroke7  270  34 I13
stroke7  270  36 I13
stroke7  270  38 I13
stroke7  270  40 I13
stroke7  270  43 I13
stroke7  271  46 I13
stroke7  271  49 I13
stroke7  271  52 I13
stroke7  271  56 I13
stroke7  270  59 I13
stroke7  270  61 I13
stroke7  270  64 I13
stroke7  270  66 I13
stroke7  269  67 I13
stroke7  269  68 I13
stroke7  268  69 I13
stroke7  267  69 I13
stroke7  266  68 I13
stroke7  265  67 I13
stroke7  264  66 I13
stroke7  263  66 I13
stroke7  263  65 I13
stroke7  262  65 I13
stroke7  261  65 I13
stroke7  262  66 I13
stroke7  262  67 I13
stroke7  262  68 I13
stroke7  263  70 I13
stroke7  264  71 I13
stroke7  265  73 I13
stroke7  266  75 I13
stroke7  267  76 I13
stroke7  268  78 I13
stroke7  269  79 I13
stroke7  270  80 I13
stroke7  271  81 I13
stroke7  272  82 I13
stroke7  273  82 I13
stroke7  274  83 I13
stroke7  276  83 I13
stroke7  277  83 I13
stroke7  279  84 I13
stroke7  280  83 I13
stroke7  282  83 I13
stroke7  284  83 I13
stroke7  285  82 I13
stroke7  287  81 I13
stroke7  289  80 I13
stroke7  290  79 I13
stroke7  291  77 I13
stroke7  293  75 I13
stroke7  294  72 I13
stroke7  295  69 I13
stroke7  295  66 I13
stroke7  296  62 I13
stroke7  296  59 I13
stroke7  296  55 I13
stroke7  297  52 I13
stroke7  296  48 I13
stroke7  296  44 I13
stroke7  296  41 I13
stroke7  296  38 I13
stroke7  295  35 I13
stroke7  295  33 I13
stroke7  295  31 I13
stroke7  294  29 I13
stroke7  294  27 I13
stroke7  294  26 I13
stroke7  294  25 I13
stroke7  294  24 I13
stroke7  295  24 I13
stroke7  295  23 I13
stroke7  296  23 I13
stroke7  297  23 I13
stroke7  298  24 I13
stroke7  299  24 I13
stroke7  300  24 I13
stroke7  301  24 I13
stroke7  302  24 I13
stroke7  303  24 I13
stroke7  304  24 I13
stroke7  305  24 I13
stroke7  306  25 I13
stroke7  307  25 I13
stroke7  308  25 I13
stroke7  309  25 I13
stroke7  310  25 I13
stroke7  311  25 I13
stroke7  311  26 I13
stroke7  311  27 I13
stroke7  312  28 I13
stroke7  312  29 I13
stroke7  312  31 I13
stroke7  312  33 I13
stroke7  313  36 I13
stroke7  313  39 I13
stroke7  313  42 I13
stroke7  313  45 I13
stroke7  314  48 I13
stroke7  314  52 I13
stroke7  314  56 I13
stroke7  315  60 I13
stroke7  316  64 I13
stroke7  316  67 I13
stroke7  317  71 I13
stroke7  318  74 I13
stroke7  318  76 I13
stroke7  319  78 I13
stroke7  319  79 I13
stroke7  320  80 I13
stroke7  319  81 I13
stroke7  318  80 I13
stroke7  317  79 I13
stroke7  316  78 I13
stroke8  291  2 B71
stroke8  291  1 I71
stroke8  290  2 I71
stroke8  290  3 I71
stroke8  289  4 I71
stroke8  289  5 I71
stroke8  288  5 I71
stroke8  288  6 I71
stroke8  287  6 I71
stroke8  286  6 I71
stroke8  285  5 I71
stroke8  285  4 I71
stroke8  285  3 I71
stroke8  285  2 I71
stroke8  285  1 I71
stroke8  286  0 I71
stroke8  287  0 I71
stroke8  289  0 I71
stroke8  290  0 I71
stroke8  292  1 I71
stroke8  294  2 I71
stroke8  296  4 I71
stroke8  298  6 I71
stroke8  300  8 I71
stroke8  302  10 I71
stroke8  303  12 I71
stroke8  305  14 I71
stroke8  306  15 I71
stroke8  307  17 I71
stroke8  307  18 I71
stroke8  308  19 I71
stroke8  307  20 I71
stroke9  313  122 B65
stroke9  313  124 I65
stroke9  313  126 I65
stroke9  313  128 I65
stroke9  313  129 I65
stroke9  314  130 I65
stroke9  314  131 I65
stroke9  314  130 I65
stroke9  315  129 I65
stroke9  315  127 I65
stroke9  316  125 I65
stroke9  316  123 I65
stroke9  316  120 I65
stroke9  317  118 I65
stroke9  317  116 I65
stroke9  317  114 I65
stroke9  317  112 I65
stroke9  316  111 I65
