stroke1  79  25 B38
stroke1  79  24 I38
stroke1  80  24 I38
stroke1  81  25 I38
stroke1  82  25 I38
stroke1  83  26 I38
stroke1  84  27 I38
stroke1  85  28 I38
stroke1  86  30 I38
stroke1  87  31 I38
stroke1  88  32 I38
stroke1  89  34 I38
stroke1  89  35 I38
stroke1  89  37 I38
stroke1  90  38 I38
stroke1  90  39 I38
stroke1  90  40 I38
stroke1  89  41 I38
stroke1  88  42 I38
stroke1  88  42 I38
stroke1  87  41 I38
stroke1  85  40 I38
stroke1  84  39 I38
stroke1  83  37 I38
stroke1  81  35 I38
stroke1  80  33 I38
stroke1  79  30 I38
stroke1  78  28 I38
stroke1  77  25 I38
stroke1  76  21 I38
stroke1  76  18 I38
stroke1  75  15 I38
stroke1  75  12 I38
stroke1  75  9 I38
stroke1  74  7 I38
stroke1  74  5 I38
stroke1  75  3 I38
stroke1  75  2 I38
stroke1  75  1 I38
stroke1  75  0 I38
stroke1  74  0 I38
stroke1  74  1 I38
stroke1  74  2 I38
stroke1  74  4 I38
stroke1  74  5 I38
stroke1  74  8 I38
stroke1  74  10 I38
stroke1  74  12 I38
stroke1  74  15 I38
stroke1  74  18 I38
stroke1  74  21 I38
stroke1  74  24 I38
stroke1  74  26 I38
stroke1  74  29 I38
stroke1  74  33 I38
stroke1  75  36 I38
stroke1  75  39 I38
stroke1  76  42 I38
stroke1  76  45 I38
stroke1  77  48 I38
stroke1  78  51 I38
stroke1  79  54 I38
stroke1  79  57 I38
stroke1  80  59 I38
stroke1  82  62 I38
stroke1  83  63 I38
stroke1  84  65 I38
stroke1  85  66 I38
stroke1  86  66 I38
stroke1  87  66 I38
stroke1  89  66 I38
stroke1  90  66 I38
stroke1  92  65 I38
stroke1  93  64 I38
stroke1  95  63 I38
stroke1  97  62 I38
stroke1  98  61 I38
stroke1  100  60 I38
stroke1  101  59 I38
stroke1  103  58 I38
stroke1  104  56 I38
stroke1  105  54 I38
stroke1  105  52 I38
stroke1  106  49 I38
stroke1  106  46 I38
stroke1  106  43 I38
stroke1  106  39 I38
stroke1  106  35 I38
stroke1  106  30 I38
stroke1  106  26 I38
stroke1  105  22 I38
stroke1  105  18 I38
stroke1  105  15 I38
stroke1  105  12 I38
stroke1  105  9 I38
stroke1  105  8 I38
stroke1  105  6 I38
stroke1  105  5 I38
stroke1  106  6 I38
stroke1  106  7 I38
stroke1  106  9 I38
stroke1  97  56 I38
stroke1  97  57 I38
stroke1  97  58 I38
stroke1  98  59 I38
stroke1  99  61 I38
stroke1  100  63 I38
stroke1  102  65 I38
stroke1  103  68 I38
stroke1  105  71 I38
stroke1  107  74 I38
stroke1  108  77 I38
stroke1  110  80 I38
stroke1  111  82 I38
stroke1  111  84 I38
stroke1  112  86 I38
stroke1  112  87 I38
stroke1  112  89 I38
stroke1  111  90 I38
stroke1  111  91 I38
stroke1  110  91 I38
stroke1  108  91 I38
stroke2  101  89 B45
stroke2  100  90 I45
stroke2  100  91 I45
stroke2  100  92 I45
stroke2  99  92 I45
stroke2  99  91 I45
stroke2  98  90 I45
stroke2  98  88 I45
stroke2  97  87 I45
stroke2  97  85 I45
stroke2  97  83 I45
stroke2  96  82 I45
stroke2  97  80 I45
stroke2  97  79 I45
stroke2  98  78 I45
stroke2  99  78 I45
stroke2  100  78 I45
stroke2  101  79 I45
stroke2  103  81 I45
stroke2  105  82 I45
stroke2  106  84 I45
stroke2  108  86 I45
stroke2  110  88 I45
stroke2  112  90 I45
stroke2  113  91 I45
stroke2  114  92 I45
stroke2  115  93 I45
stroke2  116  93 I45
stroke2  115  92 I45
stroke3  135  8 B1
stroke3  135  7 I1
stroke3  136  7 I1
stroke3  136  6 I1
stroke3  137  5 I1
stroke3  137  4 I1
stroke3  137  5 I1
stroke3  137  7 I1
stroke3  137  8 I1
stroke3  137  11 I1
stroke3  138  14 I1
stroke3  138  17 I1
stroke3  138  20 I1
stroke3  139  24 I1
stroke3  139  27 I1
stroke3  139  31 I1
stroke3  139  33 I1
stroke3  140  35 I1
stroke3  140  37 I1
stroke3  139  37 I1
stroke3  139  38 I1
stroke3  138  37 I1
stroke3  138  36 I1
stroke3  137  35 I1
stroke3  136  33 I1
stroke3  136  32 I1
stroke3  135  31 I1
stroke3  134  30 I1
stroke3  134  31 I1
stroke3  134  32 I1
stroke3  134  33 I1
stroke3  135  35 I1
stroke3  135  37 I1
stroke3  136  39 I1
stroke3  136  41 I1
stroke3  137  43 I1
stroke3  138  45 I1
stroke3  138  47 I1
stroke3  139  49 I1
stroke3  140  51 I1
stroke3  141  52 I1
stroke3  142  54 I1
stroke3  142  55 I1
stroke3  143  57 I1
stroke3  144  58 I1
stroke3  145  59 I1
stroke3  146  60 I1
stroke3  147  60 I1
stroke3  148  60 I1
stroke3  149  61 I1
stroke3  150  60 I1
stroke3  151  60 I1
stroke3  153  59 I1
stroke3  154  58 I1
stroke3  155  57 I1
stroke3  156  56 I1
stroke3  157  55 I1
stroke3  158  53 I1
stroke3  159  52 I1
stroke3  160  50 I1
stroke3  161  47 I1
stroke3  161  44 I1
stroke3  161  41 I1
stroke3  162  38 I1
stroke3  162  34 I1
stroke3  161  31 I1
stroke3  161  28 I1
stroke3  161  24 I1
stroke3  161  20 I1
stroke3  160  17 I1
stroke3  160  14 I1
stroke3  160  11 I1
stroke3  160  9 I1
stroke3  160  7 I1
stroke3  160  5 I1
stroke3  160  4 I1
stroke3  160  3 I1
stroke3  160  2 I1
stroke3  160  3 I1
stroke4  196  25 B20
stroke4  196  24 I20
stroke4  195  24 I20
stroke4  194  25 I20
stroke4  193  25 I20
stroke4  192  26 I20
stroke4  191  27 I20
stroke4  191  28 I20
stroke4  190  29 I20
stroke4  190  30 I20
stroke4  190  32 I20
stroke4  190  34 I20
stroke4  191  36 I20
stroke4  192  38 I20
stroke4  193  40 I20
stroke4  194  41 I20
stroke4  195  42 I20
stroke4  196  43 I20
stroke4  197  42 I20
stroke4  198  41 I20
stroke4  198  39 I20
stroke4  198  37 I20
stroke4  199  35 I20
stroke4  199  32 I20
stroke4  198  29 I20
stroke4  198  26 I20
stroke4  197  22 I20
stroke4  197  19 I20
stroke4  196  16 I20
stroke4  195  14 I20
stroke4  194  11 I20
stroke4  193  9 I20
stroke4  192  7 I20
stroke4  192  5 I20
stroke4  191  4 I20
stroke4  190  4 I20
stroke4  190  3 I20
stroke4  189  3 I20
stroke4  188  3 I20
stroke4  187  4 I20
stroke4  186  5 I20
stroke4  185  6 I20
stroke4  184  8 I20
stroke4  184  10 I20
stroke4  183  13 I20
stroke4  183  15 I20
stroke4  183  18 I20
stroke4  182  21 I20
stroke4  182  24 I20
stroke4  182  27 I20
stroke4  183  31 I20
stroke4  183  34 I20
stroke4  183  37 I20
stroke4  184  40 I20
stroke4  185  42 I20
stroke4  186  45 I20
stroke4  187  47 I20
stroke4  188  49 I20
stroke4  189  51 I20
stroke4  190  52 I20
stroke4  191  53 I20
stroke4  192  54 I20
stroke4  194  55 I20
stroke4  195  56 I20
stroke4  196  56 I20
stroke4  197  56 I20
stroke4  198  57 I20
stroke4  199  57 I20
stroke4  200  57 I20
stroke4  202  56 I20
stroke4  203  56 I20
stroke4  204  56 I20
stroke4  205  55 I20
stroke4  206  54 I20
stroke4  207  53 I20
stroke4  208  52 I20
stroke4  209  50 I20
stroke4  210  48 I20
stroke4  211  45 I20
stroke4  212  42 I20
stroke4  212  39 I20
stroke4  213  36 I20
stroke4  213  32 I20
stroke4  213  29 I20
stroke4  213  25 I20
stroke4  213  21 I20
stroke4  212  18 I20
stroke4  212  15 I20
stroke4  212  12 I20
stroke4  211  10 I20
stroke4  211  7 I20
stroke4  211  6 I20
stroke4  210  5 I20
stroke4  210  4 I20
stroke4  210  5 I20
stroke4  210  7 I20
stroke5  217  71 B48
stroke5  215  71 I48
stroke5  214  72 I48
stroke5  212  72 I48
stroke5  211  72 I48
stroke5  209  73 I48
stroke5  208  73 I48
stroke5  206  73 I48
stroke5  205  73 I48
stroke5  203  73 I48
stroke5  202  74 I48
stroke5  201  74 I48
stroke5  199  74 I48
stroke5  198  75 I48
stroke5  197  75 I48
stroke5  196  76 I48
stroke5  195  77 I48
stroke5  194  78 I48
stroke5  194  79 I48
stroke5  194  80 I48
stroke5  194  81 I48
stroke5  194  83 I48
stroke5  195  84 I48
stroke5  196  85 I48
stroke5  197  85 I48
stroke5  198  86 I48
stroke5  199  86 I48
stroke5  201  85 I48
stroke5  202  85 I48
stroke5  204  84 I48
stroke5  206  83 I48
stroke5  208  81 I48
stroke5  209  79 I48
stroke5  211  78 I48
stroke5  212  76 I48
stroke5  213  74 I48
stroke5  214  73 I48
stroke5  214  72 I48
stroke5  215  71 I48
stroke6  218  99 B64
stroke6  218  100 I64
stroke6  218  101 I64
stroke6  219  102 I64
stroke6  220  102 I64
stroke6  221  102 I64
stroke6  222  102 I64
stroke6  223  101 I64
stroke6  224  101 I64
stroke6  224  100 I64
stroke6  225  99 I64
stroke6  225  98 I64
stroke6  226  96 I64
stroke6  226  95 I64
stroke6  226  94 I64
stroke6  225  93 I64
stroke6  225  92 I64
stroke6  224  92 I64
stroke6  223  91 I64
stroke6  222  91 I64
stroke6  221  91 I64
stroke6  220  92 I64
stroke6  219  92 I64
stroke6  219  93 I64
stroke6  218  94 I64
stroke6  218  95 I64
stroke6  218  96 I64
stroke6  218  97 I64
stroke6  218  98 I64
stroke6  219  99 I64
stroke6  220  101 I64
stroke6  221  102 I64
stroke6  222  103 I64
stroke6  223  105 I64
stroke6  224  106 I64
stroke6  225  107 I64
stroke6  225  108 I64
stroke6  226  109 I64
stroke6  227  110 I64
stroke7  240  12 B40
stroke7  240  13 I40
stroke7  240  14 I40
stroke7  241  15 I40
stroke7  242  16 I40
stroke7  243  17 I40
stroke7  244  17 I40
stroke7  245  18 I40
stroke7  246  18 I40
stroke7  247  17 I40
stroke7  249  17 I40
stroke7  249  16 I40
stroke7  250  15 I40
stroke7  251  14 I40
stroke7  251  12 I40
stroke7  251  10 I40
stroke7  251  9 I40
stroke7  251  7 I40
stroke7  250  5 I40
stroke7  250  4 I40
stroke7  249  3 I40
stroke7  248  2 I40
stroke7  247  1 I40
stroke7  246  1 I40
stroke7  245  1 I40
stroke7  244  1 I40
stroke7  243  2 I40
stroke7  243  3 I40
stroke7  242  5 I40
stroke7  242  7 I40
stroke7  241  10 I40
stroke7  241  13 I40
stroke7  241  16 I40
stroke7  242  20 I40
stroke7  242  23 I40
stroke7  242  26 I40
stroke7  243  29 I40
stroke7  244  32 I40
stroke7  244  35 I40
stroke7  245  37 I40
stroke7  245  39 I40
stroke7  246  40 I40
stroke7  247  41 I40
stroke7  247  42 I40
stroke7  248  42 I40
stroke7  249  42 I40
stroke7  250  42 I40
stroke7  251  41 I40
stroke7  252  40 I40
stroke7  253  38 I40
stroke7  255  36 I40
stroke7  256  33 I40
stroke7  258  30 I40
stroke7  259  27 I40
stroke7  260  24 I40
stroke7  262  21 I40
stroke7  263  18 I40
stroke7  264  15 I40
stroke7  264  12 I40
stroke7  265  10 I40
stroke7  266  8 I40
stroke7  266  7 I40
stroke7  266  6 I40
stroke7  267  6 I40
stroke7  266  6 I40
stroke7  266  7 I40
stroke7  266  8 I40
stroke7  266  9 I40
stroke7  266  11 I40
stroke7  266  14 I40
stroke7  266  16 I40
stroke7  265  19 I40
stroke7  265  22 I40
stroke7  265  25 I40
stroke7  265  28 I40
stroke7  265  30 I40
stroke7  265  33 I40
stroke7  264  36 I40
stroke7  264  38 I40
stroke7  263  40 I40
stroke7  263  42 I40
stroke7  263  43 I40
stroke7  262  45 I40
stroke7  262  46 I40
stroke7  261  48 I40
stroke7  261  49 I40
stroke7  260  50 I40
stroke7  260  51 I40
stroke7  259  51 I40
stroke7  259  52 I40
stroke7  258  52 I40
stroke7  258  53 I40
stroke7  257  53 I40
stroke7  256  54 I40
stroke7  255  54 I40
stroke7  254  54 I40
stroke7  253  54 I40
stroke7  251  54 I40
stroke7  250  53 I40
stroke7  248  53 I40
stroke7  246  52 I40
stroke7  244  50 I40
stroke7  242  49 I40
stroke7  240  48 I40
stroke7  239  46 I40
stroke7  238  45 I40
stroke7  237  45 I40
stroke7  236  44 I40
stroke7  252  56 I40
stroke7  253  56 I40
stroke7  253  57 I40
stroke7  254  58 I40
stroke7  255  59 I40
stroke7  255  60 I40
stroke7  256  61 I40
stroke7  257  63 I40
stroke7  258  64 I40
stroke7  259  66 I40
stroke7  259  68 I40
stroke7  260  69 I40
stroke7  261  70 I40
stroke7  262  71 I40
stroke7  262  72 I40
stroke7  263  73 I40
stroke7  263  74 I40
stroke7  264  74 I40
stroke7  264  75 I40
stroke7  263  75 I40
stroke8  259  83 B48
stroke8  258  83 I48
stroke8  257  83 I48
stroke8  257  84 I48
stroke8  256  84 I48
stroke8  255  84 I48
stroke8  254  84 I48
stroke8  252  84 I48
stroke8  251  84 I48
stroke8  249  85 I48
stroke8  248  85 I48
stroke8  247  85 I48
stroke8  246  85 I48
stroke8  245  85 I48
stroke8  244  86 I48
stroke8  243  86 I48
stroke8  242  86 I48
stroke8  242  87 I48
stroke8  241  87 I48
stroke8  241  88 I48
stroke8  241  89 I48
stroke8  242  89 I48
stroke8  242  90 I48
stroke8  243  90 I48
stroke8  244  91 I48
stroke8  245  91 I48
stroke8  247  90 I48
stroke8  248  90 I48
stroke8  250  89 I48
stroke8  251  89 I48
stroke8  253  88 I48
stroke8  254  87 I48
stroke8  255  86 I48
stroke8  256  85 I48
stroke8  257  84 I48
stroke9  302  42 B23
stroke9  301  41 I23
stroke9  300  41 I23
stroke9  300  40 I23
stroke9  299  41 I23
stroke9  298  41 I23
stroke9  297  41 I23
stroke9  296  41 I23
stroke9  295  42 I23
stroke9  294  43 I23
stroke9  293  44 I23
stroke9  292  45 I23
stroke9  292  46 I23
stroke9  291  48 I23
stroke9  291  49 I23
stroke9  291  51 I23
stroke9  292  52 I23
stroke9  292  54 I23
stroke9  293  55 I23
stroke9  294  57 I23
stroke9  295  57 I23
stroke9  296  58 I23
stroke9  297  58 I23
stroke9  298  58 I23
stroke9  299  58 I23
stroke9  299  57 I23
stroke9  300  56 I23
stroke9  301  54 I23
stroke9  302  52 I23
stroke9  302  50 I23
stroke9  303  48 I23
stroke9  304  45 I23
stroke9  304  42 I23
stroke9  305  38 I23
stroke9  305  35 I23
stroke9  305  32 I23
stroke9  305  28 I23
stroke9  305  26 I23
stroke9  305  23 I23
stroke9  305  20 I23
stroke9  306  18 I23
stroke9  306  16 I23
stroke9  306  14 I23
stroke9  306  13 I23
stroke9  306  11 I23
stroke9  305  10 I23
stroke9  305  9 I23
stroke9  305  8 I23
stroke9  305  9 I23
stroke9  306  10 I23
stroke9  306  12 I23
stroke9  306  14 I23
stroke9  307  16 I23
stroke9  307  19 I23
stroke9  308  22 I23
stroke9  309  26 I23
stroke9  310  30 I23
stroke9  312  34 I23
stroke9  313  38 I23
stroke9  314  41 I23
stroke9  316  45 I23
stroke9  317  49 I23
stroke9  318  52 I23
stroke9  318  54 I23
stroke9  319  57 I23
stroke9  319  58 I23
stroke9  320  59 I23
stroke9  320  60 I23
stroke9  320  61 I23
stroke9  321  61 I23
stroke9  322  61 I23
stroke9  322  60 I23
stroke9  323  60 I23
stroke9  324  59 I23
stroke9  325  59 I23
stroke9  326  58 I23
stroke9  327  58 I23
stroke9  328  58 I23
stroke9  330  57 I23
stroke9  331  57 I23
stroke9  333  57 I23
stroke9  334  57 I23
stroke9  335  57 I23
stroke9  336  57 I23
stroke9  337  56 I23
stroke9  337  55 I23
stroke9  338  55 I23
stroke9  338  54 I23
stroke9  339  52 I23
stroke9  339  50 I23
stroke9  339  48 I23
stroke9  339  45 I23
stroke9  338  42 I23
stroke9  338  38 I23
stroke9  338  34 I23
stroke9  337  29 I23
stroke9  337  25 I23
stroke9  336  21 I23
stroke9  336  17 I23
stroke9  336  14 I23
stroke9  336  12 I23
stroke9  336  10 I23
stroke9  336  8 I23
stroke9  336  7 I23
stroke9  337  8 I23
stroke9  337  9 I23
stroke10  359  37 B24
stroke10  360  38 I24
stroke10  360  39 I24
stroke10  361  40 I24
stroke10  362  40 I24
stroke10  363  39 I24
stroke10  363  38 I24
stroke10  363  36 I24
stroke10  363  34 I24
stroke10  363  31 I24
stroke10  363  29 I24
stroke10  363  26 I24
stroke10  362  23 I24
stroke10  362  20 I24
stroke10  362  17 I24
stroke10  361  15 I24
stroke10  361  13 I24
stroke10  361  11 I24
stroke10  361  10 I24
stroke10  362  9 I24
stroke10  362  8 I24
stroke10  363  8 I24
stroke10  364  8 I24
stroke10  365  9 I24
stroke10  366  9 I24
stroke10  367  10 I24
stroke10  368  10 I24
stroke10  369  11 I24
stroke10  370  11 I24
stroke10  372  11 I24
stroke10  373  11 I24
stroke10  374  11 I24
stroke10  375  11 I24
stroke10  376  11 I24
stroke10  377  11 I24
stroke10  378  12 I24
stroke10  378  13 I24
stroke10  378  15 I24
stroke10  379  16 I24
stroke10  379  18 I24
stroke10  380  20 I24
stroke10  380  23 I24
stroke10  380  25 I24
stroke10  380  28 I24
stroke10  381  30 I24
stroke10  380  32 I24
stroke10  380  35 I24
stroke10  380  37 I24
stroke10  380  40 I24
stroke10  379  42 I24
stroke10  379  44 I24
stroke10  378  46 I24
stroke10  377  48 I24
stroke10  377  49 I24
stroke10  376  50 I24
stroke10  375  51 I24
stroke10  374  52 I24
stroke10  372  52 I24
stroke10  371  52 I24
stroke10  370  52 I24
stroke10  368  52 I24
stroke10  367  52 I24
stroke10  366  52 I24
stroke10  365  51 I24
stroke10  364  51 I24
stroke10  363  51 I24
stroke10  362  51 I24
stroke10  362  52 I24
stroke10  362  53 I24
stroke10  362  54 I24
stroke10  363  55 I24
stroke10  363  56 I24
stroke10  364  57 I24
stroke10  364  59 I24
stroke10  365  60 I24
stroke10  366  61 I24
stroke10  366  62 I24
stroke10  367  62 I24
stroke10  368  62 I24
stroke10  369  62 I24
stroke10  370  62 I24
stroke10  371  61 I24
stroke10  372  61 I24
stroke10  373  61 I24
stroke10  375  60 I24
stroke10  376  60 I24
stroke10  378  60 I24
stroke10  379  60 I24
stroke10  380  60 I24
stroke10  381  60 I24
stroke10  382  60 I24
stroke10  383  61 I24
stroke10  384  62 I24
stroke10  385  62 I24
stroke10  385  63 I24
stroke10  386  64 I24
stroke10  386  65 I24
stroke10  385  66 I24
stroke11  384  79 B48
stroke11  385  79 I48
stroke11  386  79 I48
stroke11  385  79 I48
stroke11  384  80 I48
stroke11  383  80 I48
stroke11  382  80 I48
stroke11  380  80 I48
stroke11  378  80 I48
stroke11  377  80 I48
stroke11  375  80 I48
stroke11  373  80 I48
stroke11  371  80 I48
stroke11  369  79 I48
stroke11  367  79 I48
stroke11  366  79 I48
stroke11  365  79 I48
stroke11  364  79 I48
stroke11  363  79 I48
stroke11  362  79 I48
stroke11  361  79 I48
stroke11  360  79 I48
stroke11  360  80 I48
stroke11  360  81 I48
stroke11  361  82 I48
stroke11  361  83 I48
stroke11  361  84 I48
stroke11  362  85 I48
stroke11  363  86 I48
stroke11  363  87 I48
stroke11  364  88 I48
stroke11  365  89 I48
stroke11  366  90 I48
stroke11  367  91 I48
stroke11  368  91 I48
stroke11  370  91 I48
stroke11  371  91 I48
stroke11  373  90 I48
stroke11  375  90 I48
stroke11  376  88 I48
stroke11  378  87 I48
stroke11  379  85 I48
stroke11  380  84 I48
stroke11  381  82 I48
stroke11  382  81 I48
stroke11  382  79 I48
stroke11  383  78 I48
stroke11  383  77 I48
stroke11  383  76 I48
stroke11  382  76 I48
stroke12  390  99 B64
stroke12  390  100 I64
stroke12  391  100 I64
stroke12  391  101 I64
stroke12  391  102 I64
stroke12  392  102 I64
stroke12  392  103 I64
stroke12  393  103 I64
stroke12  394  103 I64
stroke12  395  103 I64
stroke12  396  102 I64
stroke12  397  101 I64
stroke12  397  100 I64
stroke12  398  99 I64
stroke12  399  98 I64
stroke12  399  97 I64
stroke12  399  96 I64
stroke12  399  95 I64
stroke12  399  94 I64
stroke12  398  93 I64
stroke12  398  92 I64
stroke12  397  92 I64
stroke12  397  91 I64
stroke12  396  91 I64
stroke12  395  91 I64
stroke12  394  91 I64
stroke12  393  92 I64
stroke12  392  92 I64
stroke12  392  93 I64
stroke12  392  95 I64
stroke12  392  96 I64
stroke12  392  98 I64
stroke12  393  100 I64
stroke12  393  101 I64
stroke12  394  103 I64
stroke12  395  104 I64
stroke12  395  105 I64
stroke12  396  106 I64
stroke12  397  107 I64
stroke12  398  108 I64
stroke12  399  108 I64
stroke12  401  109 I64
stroke12  402  109 I64
stroke12  403  110 I64
stroke12  404  111 I64
stroke12  405  111 I64
stroke12  406  112 I64
stroke12  407  112 I64
stroke12  408  113 I64
stroke12  409  113 I64
stroke12  409  114 I64
stroke12  410  115 I64
stroke12  411  115 I64
stroke12  411  116 I64
stroke12  412  116 I64
stroke12  412  117 I64
stroke12  412  118 I64
stroke12  411  118 I64
