stroke1  95  53 B54
stroke1  96  53 I54
stroke1  96  54 I54
stroke1  96  55 I54
stroke1  97  55 I54
stroke1  97  56 I54
stroke1  97  57 I54
stroke1  96  58 I54
stroke1  97  59 I54
stroke1  96  59 I54
stroke1  96  60 I54
stroke1  96  61 I54
stroke1  97  62 I54
stroke1  97  63 I54
stroke1  97  62 I54
stroke1  97  61 I54
stroke1  97  59 I54
stroke1  97  56 I54
stroke1  97  53 I54
stroke1  97  49 I54
stroke1  96  45 I54
stroke1  96  40 I54
stroke1  95  35 I54
stroke1  94  30 I54
stroke1  93  26 I54
stroke1  92  22 I54
stroke1  92  18 I54
stroke1  91  14 I54
stroke1  91  12 I54
stroke1  92  9 I54
stroke1  92  7 I54
stroke1  93  6 I54
stroke1  94  5 I54
stroke1  95  5 I54
stroke1  97  5 I54
stroke1  98  6 I54
stroke1  99  7 I54
stroke1  101  9 I54
stroke1  102  11 I54
stroke1  103  13 I54
stroke1  105  14 I54
stroke1  105  16 I54
stroke1  106  18 I54
stroke1  106  19 I54
stroke1  105  20 I54
stroke1  103  20 I54
stroke1  101  19 I54
stroke1  99  18 I54
stroke1  97  17 I54
stroke1  95  15 I54
stroke1  94  13 I54
stroke1  93  10 I54
stroke1  94  10 I54
stroke1  95  10 I54
stroke2  152  41 B4
stroke2  151  40 I4
stroke2  150  39 I4
stroke2  150  38 I4
stroke2  150  37 I4
stroke2  150  36 I4
stroke2  151  35 I4
stroke2  152  35 I4
stroke2  153  35 I4
stroke2  154  36 I4
stroke2  156  37 I4
stroke2  157  38 I4
stroke2  159  39 I4
stroke2  160  41 I4
stroke2  160  42 I4
stroke2  161  43 I4
stroke2  161  44 I4
stroke2  160  45 I4
stroke2  160  46 I4
stroke2  159  46 I4
stroke2  158  46 I4
stroke2  157  46 I4
stroke2  156  45 I4
stroke2  154  44 I4
stroke2  153  43 I4
stroke2  153  42 I4
stroke2  152  41 I4
stroke2  151  40 I4
stroke2  150  38 I4
stroke2  150  37 I4
stroke2  150  35 I4
stroke2  149  34 I4
stroke2  149  32 I4
stroke2  149  30 I4
stroke2  148  27 I4
stroke2  148  25 I4
stroke2  148  22 I4
stroke2  147  20 I4
stroke2  147  17 I4
stroke2  146  15 I4
stroke2  145  13 I4
stroke2  145  11 I4
stroke2  144  10 I4
stroke2  143  9 I4
stroke2  142  8 I4
stroke2  141  7 I4
stroke2  140  7 I4
stroke2  139  7 I4
stroke2  138  7 I4
stroke2  137  7 I4
stroke2  136  8 I4
stroke2  135  9 I4
stroke2  134  10 I4
stroke2  133  11 I4
stroke2  132  13 I4
stroke2  131  15 I4
stroke2  130  17 I4
stroke2  130  20 I4
stroke2  129  24 I4
stroke2  129  27 I4
stroke2  129  31 I4
stroke2  129  36 I4
stroke2  130  40 I4
stroke2  131  44 I4
stroke2  133  47 I4
stroke2  135  50 I4
stroke2  137  52 I4
stroke2  139  54 I4
stroke2  141  56 I4
stroke2  144  57 I4
stroke2  147  58 I4
stroke2  149  59 I4
stroke2  152  60 I4
stroke2  155  60 I4
stroke2  158  60 I4
stroke2  161  60 I4
stroke2  164  60 I4
stroke2  167  59 I4
stroke2  170  59 I4
stroke2  172  59 I4
stroke2  174  58 I4
stroke2  175  58 I4
stroke2  177  58 I4
stroke2  178  57 I4
stroke2  179  57 I4
stroke2  179  56 I4
stroke2  180  55 I4
stroke2  180  54 I4
stroke2  180  52 I4
stroke2  179  49 I4
stroke2  179  46 I4
stroke2  179  42 I4
stroke2  179  38 I4
stroke2  178  33 I4
stroke2  178  28 I4
stroke2  177  23 I4
stroke2  177  18 I4
stroke2  177  14 I4
stroke2  178  10 I4
stroke2  178  8 I4
stroke2  179  5 I4
stroke2  179  4 I4
stroke2  180  3 I4
stroke2  180  4 I4
stroke3  228  11 B35
stroke3  229  12 I35
stroke3  230  13 I35
stroke3  230  14 I35
stroke3  230  15 I35
stroke3  229  15 I35
stroke3  229  16 I35
stroke3  228  16 I35
stroke3  227  17 I35
stroke3  226  17 I35
stroke3  224  17 I35
stroke3  223  17 I35
stroke3  222  17 I35
stroke3  220  16 I35
stroke3  219  16 I35
stroke3  217  15 I35
stroke3  216  13 I35
stroke3  216  12 I35
stroke3  216  11 I35
stroke3  217  9 I35
stroke3  218  8 I35
stroke3  219  7 I35
stroke3  220  6 I35
stroke3  222  6 I35
stroke3  223  5 I35
stroke3  225  5 I35
stroke3  226  6 I35
stroke3  227  7 I35
stroke3  227  8 I35
stroke3  228  10 I35
stroke3  229  12 I35
stroke3  229  14 I35
stroke3  230  16 I35
stroke3  230  18 I35
stroke3  230  20 I35
stroke3  231  22 I35
stroke3  231  24 I35
stroke3  231  26 I35
stroke3  231  28 I35
stroke3  231  30 I35
stroke3  232  32 I35
stroke3  232  34 I35
stroke3  232  36 I35
stroke3  232  37 I35
stroke3  232  39 I35
stroke3  233  40 I35
stroke3  233  41 I35
stroke3  233  42 I35
stroke3  232  43 I35
stroke3  232  44 I35
stroke3  232  45 I35
stroke3  231  45 I35
stroke3  231  46 I35
stroke3  230  47 I35
stroke3  229  47 I35
stroke3  228  48 I35
stroke3  226  48 I35
stroke3  225  49 I35
stroke3  223  49 I35
stroke3  221  50 I35
stroke3  218  50 I35
stroke3  214  51 I35
stroke3  211  51 I35
stroke3  207  51 I35
stroke3  204  51 I35
stroke3  201  51 I35
stroke3  198  51 I35
stroke3  196  51 I35
stroke3  195  51 I35
stroke3  194  51 I35
stroke3  193  52 I35
stroke3  194  53 I35
stroke3  195  55 I35
stroke3  197  56 I35
stroke3  199  58 I35
stroke3  201  60 I35
stroke3  204  61 I35
stroke3  207  62 I35
stroke3  210  62 I35
stroke3  213  62 I35
stroke3  216  61 I35
stroke3  219  61 I35
stroke3  222  60 I35
stroke3  224  59 I35
stroke3  227  59 I35
stroke3  229  59 I35
stroke3  230  59 I35
stroke3  231  60 I35
stroke3  232  60 I35
stroke3  233  61 I35
stroke3  233  62 I35
stroke4  228  83 B51
stroke4  227  83 I51
stroke4  225  84 I51
stroke4  223  85 I51
stroke4  220  86 I51
stroke4  216  88 I51
stroke4  212  89 I51
stroke4  208  91 I51
stroke4  204  92 I51
stroke4  200  93 I51
stroke4  197  94 I51
stroke4  194  94 I51
stroke4  192  95 I51
stroke4  190  95 I51
stroke4  189  95 I51
stroke4  187  95 I51
stroke4  186  95 I51
stroke4  186  96 I51
stroke4  187  96 I51
stroke4  188  96 I51
stroke4  190  96 I51
stroke4  192  96 I51
stroke4  196  95 I51
stroke4  199  94 I51
stroke4  203  92 I51
stroke4  207  91 I51
stroke4  211  89 I51
stroke4  215  88 I51
stroke4  218  86 I51
stroke4  220  85 I51
stroke4  222  85 I51
stroke4  223  85 I51
stroke4  224  85 I51
stroke4  224  87 I51
stroke4  225  88 I51
stroke4  225  91 I51
stroke4  225  94 I51
stroke4  225  96 I51
stroke4  225  99 I51
stroke4  225  100 I51
stroke4  225  101 I51
stroke4  225  102 I51
stroke4  226  102 I51
stroke4  226  101 I51
stroke4  227  100 I51
stroke4  228  99 I51
stroke4  229  99 I51
stroke4  230  98 I51
stroke4  231  98 I51
stroke4  232  99 I51
stroke4  233  99 I51
stroke4  233  100 I51
stroke4  234  100 I51
stroke4  234  101 I51
stroke4  235  101 I51
stroke4  236  102 I51
stroke4  237  102 I51
stroke4  237  101 I51
stroke4  238  100 I51
stroke4  238  99 I51
stroke4  238  97 I51
stroke4  238  95 I51
stroke4  238  93 I51
stroke4  238  90 I51
stroke4  238  88 I51
stroke4  238  86 I51
stroke4  237  85 I51
stroke5  242  127 B65
stroke5  242  131 I65
stroke5  242  134 I65
stroke5  242  137 I65
stroke5  242  140 I65
stroke5  242  141 I65
stroke5  242  142 I65
stroke5  242  141 I65
stroke5  241  139 I65
stroke5  241  136 I65
stroke5  241  133 I65
stroke5  241  129 I65
stroke5  241  125 I65
stroke5  240  122 I65
stroke6  260  37 B43
stroke6  259  36 I43
stroke6  259  35 I43
stroke6  258  34 I43
stroke6  258  33 I43
stroke6  259  32 I43
stroke6  260  32 I43
stroke6  261  33 I43
stroke6  263  34 I43
stroke6  265  35 I43
stroke6  267  37 I43
stroke6  269  38 I43
stroke6  270  40 I43
stroke6  271  41 I43
stroke6  271  42 I43
stroke6  271  43 I43
stroke6  271  44 I43
stroke6  270  45 I43
stroke6  269  46 I43
stroke6  268  46 I43
stroke6  267  46 I43
stroke6  265  46 I43
stroke6  264  46 I43
stroke6  263  45 I43
stroke6  262  43 I43
stroke6  261  42 I43
stroke6  260  40 I43
stroke6  259  38 I43
stroke6  259  35 I43
stroke6  258  32 I43
stroke6  257  29 I43
stroke6  257  25 I43
stroke6  256  21 I43
stroke6  255  18 I43
stroke6  255  15 I43
stroke6  254  12 I43
stroke6  253  10 I43
stroke6  253  8 I43
stroke6  252  7 I43
stroke6  251  6 I43
stroke6  251  5 I43
stroke6  250  5 I43
stroke6  250  6 I43
stroke6  250  7 I43
stroke6  252  8 I43
stroke6  253  8 I43
stroke6  256  8 I43
stroke6  259  8 I43
stroke6  262  8 I43
stroke6  265  7 I43
stroke6  268  6 I43
stroke6  271  6 I43
stroke6  274  5 I43
stroke6  277  4 I43
stroke6  279  3 I43
stroke6  280  3 I43
stroke6  282  3 I43
stroke6  283  3 I43
stroke6  284  4 I43
stroke6  285  5 I43
stroke6  285  6 I43
stroke6  286  8 I43
stroke6  287  10 I43
stroke6  287  13 I43
stroke6  288  16 I43
stroke6  289  21 I43
stroke6  289  26 I43
stroke6  290  31 I43
stroke6  291  35 I43
stroke6  291  40 I43
stroke6  292  43 I43
stroke6  292  46 I43
stroke6  292  48 I43
stroke6  292  49 I43
stroke6  292  51 I43
stroke6  291  52 I43
stroke6  290  53 I43
stroke6  289  54 I43
stroke6  288  55 I43
stroke6  286  56 I43
stroke6  284  57 I43
stroke6  282  58 I43
stroke6  280  59 I43
stroke6  277  59 I43
stroke6  274  59 I43
stroke6  271  59 I43
stroke6  267  58 I43
stroke6  263  57 I43
stroke6  260  56 I43
stroke6  256  54 I43
stroke6  253  51 I43
stroke6  251  49 I43
stroke6  249  46 I43
stroke6  247  43 I43
stroke6  247  41 I43
stroke6  246  39 I43
stroke7  337  54 B7
stroke7  336  54 I7
stroke7  335  53 I7
stroke7  334  52 I7
stroke7  333  52 I7
stroke7  332  51 I7
stroke7  330  50 I7
stroke7  328  50 I7
stroke7  326  49 I7
stroke7  324  48 I7
stroke7  322  47 I7
stroke7  320  46 I7
stroke7  318  45 I7
stroke7  316  44 I7
stroke7  314  43 I7
stroke7  313  43 I7
stroke7  312  43 I7
stroke7  312  44 I7
stroke7  312  45 I7
stroke7  313  47 I7
stroke7  315  49 I7
stroke7  317  51 I7
stroke7  319  53 I7
stroke7  321  55 I7
stroke7  323  56 I7
stroke7  325  57 I7
stroke7  327  58 I7
stroke7  329  58 I7
stroke7  330  58 I7
stroke7  332  58 I7
stroke7  333  58 I7
stroke7  334  57 I7
stroke7  335  56 I7
stroke7  335  55 I7
stroke7  335  54 I7
stroke7  335  52 I7
stroke7  334  49 I7
stroke7  334  46 I7
stroke7  334  43 I7
stroke7  333  39 I7
stroke7  333  34 I7
stroke7  332  30 I7
stroke7  331  25 I7
stroke7  331  21 I7
stroke7  330  17 I7
stroke7  330  13 I7
stroke7  329  9 I7
stroke7  329  7 I7
stroke7  329  5 I7
stroke7  328  4 I7
stroke7  328  3 I7
stroke7  327  4 I7
stroke7  326  5 I7
stroke7  324  7 I7
stroke7  322  9 I7
stroke7  319  10 I7
stroke7  316  12 I7
stroke7  313  13 I7
stroke7  310  14 I7
stroke7  308  14 I7
stroke7  306  15 I7
stroke7  304  15 I7
stroke7  303  15 I7
stroke7  302  16 I7
stroke8  388  50 B33
stroke8  388  49 I33
stroke8  387  49 I33
stroke8  386  48 I33
stroke8  385  48 I33
stroke8  383  47 I33
stroke8  380  46 I33
stroke8  378  45 I33
stroke8  375  45 I33
stroke8  373  45 I33
stroke8  371  45 I33
stroke8  369  45 I33
stroke8  368  46 I33
stroke8  367  46 I33
stroke8  367  48 I33
stroke8  367  49 I33
stroke8  368  50 I33
stroke8  369  52 I33
stroke8  371  54 I33
stroke8  373  55 I33
stroke8  375  57 I33
stroke8  377  58 I33
stroke8  380  60 I33
stroke8  382  60 I33
stroke8  385  61 I33
stroke8  387  61 I33
stroke8  388  60 I33
stroke8  389  60 I33
stroke8  390  59 I33
stroke8  391  59 I33
stroke8  391  58 I33
stroke8  391  57 I33
stroke8  390  57 I33
stroke8  390  56 I33
stroke8  389  55 I33
stroke8  389  54 I33
stroke8  388  53 I33
stroke8  387  52 I33
stroke8  386  51 I33
stroke8  386  49 I33
stroke8  385  46 I33
stroke8  384  43 I33
stroke8  383  40 I33
stroke8  382  36 I33
stroke8  381  31 I33
stroke8  380  27 I33
stroke8  379  22 I33
stroke8  377  18 I33
stroke8  376  14 I33
stroke8  375  11 I33
stroke8  374  9 I33
stroke8  373  7 I33
stroke8  371  6 I33
stroke8  370  6 I33
stroke8  368  6 I33
stroke8  367  7 I33
stroke8  366  8 I33
stroke8  365  10 I33
stroke8  365  12 I33
stroke8  365  14 I33
stroke8  366  15 I33
stroke8  367  17 I33
stroke8  369  18 I33
stroke8  372  18 I33
stroke8  374  18 I33
stroke8  378  17 I33
stroke8  381  16 I33
stroke8  385  14 I33
stroke8  388  12 I33
stroke8  392  10 I33
stroke8  395  8 I33
stroke8  397  6 I33
stroke8  399  5 I33
stroke8  401  3 I33
stroke8  402  3 I33
stroke8  403  2 I33
stroke8  404  2 I33
stroke8  404  3 I33
stroke8  405  4 I33
stroke8  405  6 I33
stroke8  406  8 I33
stroke8  407  10 I33
stroke8  407  14 I33
stroke8  408  18 I33
stroke8  409  22 I33
stroke8  410  27 I33
stroke8  411  33 I33
stroke8  412  38 I33
stroke8  413  43 I33
stroke8  413  47 I33
stroke8  414  50 I33
stroke8  414  53 I33
stroke8  414  55 I33
stroke8  414  56 I33
stroke8  414  57 I33
stroke8  415  58 I33
stroke8  416  57 I33
stroke8  415  57 I33
stroke9  406  80 B51
stroke9  403  84 I51
stroke9  400  87 I51
stroke9  396  89 I51
stroke9  391  92 I51
stroke9  386  94 I51
stroke9  381  96 I51
stroke9  376  97 I51
stroke9  371  98 I51
stroke9  367  99 I51
stroke9  364  99 I51
stroke9  362  100 I51
stroke9  360  100 I51
stroke9  358  100 I51
stroke9  357  100 I51
stroke9  358  100 I51
stroke9  358  99 I51
stroke9  359  99 I51
stroke9  361  99 I51
stroke9  363  99 I51
stroke9  366  99 I51
stroke9  370  99 I51
stroke9  374  98 I51
stroke9  378  97 I51
stroke9  382  95 I51
stroke9  386  93 I51
stroke9  390  90 I51
stroke9  393  87 I51
stroke9  396  84 I51
stroke9  398  82 I51
stroke9  400  80 I51
stroke9  402  79 I51
stroke9  403  78 I51
stroke9  404  79 I51
stroke9  405  80 I51
stroke9  406  82 I51
stroke9  407  84 I51
stroke9  408  87 I51
stroke9  408  89 I51
stroke9  408  92 I51
stroke9  409  95 I51
stroke9  409  97 I51
stroke9  409  99 I51
stroke9  409  100 I51
stroke9  409  101 I51
stroke9  410  101 I51
stroke9  411  101 I51
stroke9  412  100 I51
stroke9  413  100 I51
stroke9  414  100 I51
stroke9  415  100 I51
stroke9  416  100 I51
stroke9  417  100 I51
stroke9  417  101 I51
stroke9  418  101 I51
stroke9  419  101 I51
stroke9  420  102 I51
stroke9  421  102 I51
stroke9  422  103 I51
stroke9  424  103 I51
stroke9  425  103 I51
stroke9  426  104 I51
stroke9  427  104 I51
stroke9  427  105 I51
stroke9  428  105 I51
stroke9  428  104 I51
stroke9  427  103 I51
stroke9  427  101 I51
stroke9  427  99 I51
stroke9  426  96 I51
stroke9  425  93 I51
stroke9  425  90 I51
stroke9  424  86 I51
stroke9  423  83 I51
stroke9  422  79 I51
stroke9  421  76 I51
stroke10  439  36 B43
stroke10  438  35 I43
stroke10  437  33 I43
stroke10  437  32 I43
stroke10  437  31 I43
stroke10  438  30 I43
stroke10  439  29 I43
stroke10  440  29 I43
stroke10  442  29 I43
stroke10  444  30 I43
stroke10  447  31 I43
stroke10  449  33 I43
stroke10  452  35 I43
stroke10  454  36 I43
stroke10  455  38 I43
stroke10  456  40 I43
stroke10  456  41 I43
stroke10  456  42 I43
stroke10  455  43 I43
stroke10  454  43 I43
stroke10  452  43 I43
stroke10  450  43 I43
stroke10  449  42 I43
stroke10  447  41 I43
stroke10  445  40 I43
stroke10  443  38 I43
stroke10  441  36 I43
stroke10  440  34 I43
stroke10  439  31 I43
stroke10  437  28 I43
stroke10  436  25 I43
stroke10  435  22 I43
stroke10  433  18 I43
stroke10  432  15 I43
stroke10  431  12 I43
stroke10  430  9 I43
stroke10  430  7 I43
stroke10  429  5 I43
stroke10  428  4 I43
stroke10  428  3 I43
stroke10  427  2 I43
stroke10  426  2 I43
stroke10  426  3 I43
stroke10  426  4 I43
stroke10  426  5 I43
stroke10  427  6 I43
stroke10  428  6 I43
stroke10  430  7 I43
stroke10  432  7 I43
stroke10  434  7 I43
stroke10  437  6 I43
stroke10  440  6 I43
stroke10  442  5 I43
stroke10  445  4 I43
stroke10  448  3 I43
stroke10  450  2 I43
stroke10  452  1 I43
stroke10  453  1 I43
stroke10  455  0 I43
stroke10  456  0 I43
stroke10  457  0 I43
stroke10  458  0 I43
stroke10  459  1 I43
stroke10  460  2 I43
stroke10  460  3 I43
stroke10  461  5 I43
stroke10  462  7 I43
stroke10  462  10 I43
stroke10  463  13 I43
stroke10  464  16 I43
stroke10  465  20 I43
stroke10  466  23 I43
stroke10  467  27 I43
stroke10  468  30 I43
stroke10  469  34 I43
stroke10  470  37 I43
stroke10  470  40 I43
stroke10  470  43 I43
stroke10  471  46 I43
stroke10  470  49 I43
stroke10  470  51 I43
stroke10  469  53 I43
stroke10  468  54 I43
stroke10  467  56 I43
stroke10  466  57 I43
stroke10  463  58 I43
stroke10  461  59 I43
stroke10  458  60 I43
stroke10  455  60 I43
stroke10  452  60 I43
stroke10  449  60 I43
stroke10  445  59 I43
stroke10  440  57 I43
stroke10  436  54 I43
stroke10  431  50 I43
stroke10  428  45 I43
stroke10  422  34 I43
stroke10  421  28 I43
stroke10  420  23 I43
stroke10  421  18 I43
