stroke1  77  37 B43
stroke1  77  36 I43
stroke1  76  36 I43
stroke1  76  35 I43
stroke1  77  34 I43
stroke1  78  33 I43
stroke1  80  32 I43
stroke1  81  32 I43
stroke1  83  32 I43
stroke1  85  33 I43
stroke1  88  34 I43
stroke1  90  35 I43
stroke1  92  36 I43
stroke1  93  37 I43
stroke1  94  39 I43
stroke1  95  40 I43
stroke1  96  42 I43
stroke1  95  43 I43
stroke1  95  44 I43
stroke1  95  44 I43
stroke1  94  45 I43
stroke1  92  46 I43
stroke1  91  46 I43
stroke1  89  46 I43
stroke1  88  45 I43
stroke1  86  44 I43
stroke1  84  43 I43
stroke1  83  41 I43
stroke1  81  38 I43
stroke1  80  36 I43
stroke1  79  34 I43
stroke1  78  31 I43
stroke1  77  28 I43
stroke1  76  25 I43
stroke1  75  23 I43
stroke1  74  19 I43
stroke1  74  16 I43
stroke1  73  14 I43
stroke1  72  11 I43
stroke1  71  9 I43
stroke1  70  8 I43
stroke1  70  7 I43
stroke1  69  6 I43
stroke1  68  6 I43
stroke1  68  5 I43
stroke1  67  6 I43
stroke1  67  7 I43
stroke1  68  8 I43
stroke1  69  9 I43
stroke1  71  10 I43
stroke1  74  11 I43
stroke1  77  11 I43
stroke1  81  11 I43
stroke1  85  11 I43
stroke1  89  10 I43
stroke1  93  10 I43
stroke1  97  9 I43
stroke1  100  8 I43
stroke1  102  8 I43
stroke1  104  8 I43
stroke1  106  7 I43
stroke1  107  8 I43
stroke1  108  8 I43
stroke1  109  9 I43
stroke1  109  10 I43
stroke1  110  11 I43
stroke1  110  13 I43
stroke1  111  16 I43
stroke1  112  19 I43
stroke1  112  22 I43
stroke1  113  26 I43
stroke1  113  30 I43
stroke1  113  34 I43
stroke1  114  38 I43
stroke1  114  41 I43
stroke1  114  44 I43
stroke1  114  46 I43
stroke1  114  48 I43
stroke1  113  50 I43
stroke1  113  52 I43
stroke1  112  54 I43
stroke1  111  56 I43
stroke1  110  58 I43
stroke1  109  59 I43
stroke1  108  60 I43
stroke1  107  61 I43
stroke1  105  62 I43
stroke1  103  62 I43
stroke1  100  62 I43
stroke1  97  62 I43
stroke1  94  62 I43
stroke1  89  62 I43
stroke1  85  61 I43
stroke1  81  59 I43
stroke1  77  57 I43
stroke1  73  55 I43
stroke1  70  53 I43
stroke1  68  51 I43
stroke1  67  49 I43
stroke1  66  47 I43
stroke1  66  45 I43
stroke2  120  79 B48
stroke2  118  79 I48
stroke2  115  80 I48
stroke2  111  81 I48
stroke2  107  82 I48
stroke2  103  83 I48
stroke2  99  84 I48
stroke2  95  85 I48
stroke2  92  87 I48
stroke2  90  88 I48
stroke2  89  90 I48
stroke2  88  91 I48
stroke2  88  93 I48
stroke2  89  94 I48
stroke2  91  95 I48
stroke2  93  96 I48
stroke2  97  96 I48
stroke2  100  96 I48
stroke2  103  95 I48
stroke2  107  94 I48
stroke2  110  92 I48
stroke2  112  90 I48
stroke2  114  87 I48
stroke2  116  85 I48
stroke2  117  81 I48
stroke2  118  78 I48
stroke2  119  75 I48
stroke3  152  54 B25
stroke3  149  52 I25
stroke3  146  50 I25
stroke3  143  49 I25
stroke3  140  47 I25
stroke3  137  47 I25
stroke3  135  46 I25
stroke3  133  46 I25
stroke3  132  46 I25
stroke3  131  46 I25
stroke3  131  47 I25
stroke3  131  48 I25
stroke3  132  50 I25
stroke3  133  52 I25
stroke3  135  54 I25
stroke3  137  56 I25
stroke3  140  58 I25
stroke3  142  59 I25
stroke3  144  60 I25
stroke3  146  60 I25
stroke3  148  60 I25
stroke3  149  58 I25
stroke3  149  55 I25
stroke3  148  51 I25
stroke3  147  47 I25
stroke3  145  43 I25
stroke3  143  39 I25
stroke3  142  35 I25
stroke3  140  32 I25
stroke3  139  29 I25
stroke3  138  27 I25
stroke3  138  25 I25
stroke3  138  24 I25
stroke3  139  24 I25
stroke3  140  24 I25
stroke3  142  24 I25
stroke3  144  25 I25
stroke3  147  26 I25
stroke3  150  28 I25
stroke3  154  29 I25
stroke3  158  31 I25
stroke3  163  32 I25
stroke3  167  32 I25
stroke3  171  32 I25
stroke3  174  30 I25
stroke3  177  28 I25
stroke3  179  26 I25
stroke3  180  23 I25
stroke3  180  20 I25
stroke3  179  17 I25
stroke3  178  15 I25
stroke3  177  13 I25
stroke3  176  12 I25
stroke3  174  11 I25
stroke3  173  12 I25
stroke3  172  13 I25
stroke3  171  15 I25
stroke3  170  18 I25
stroke3  170  22 I25
stroke3  170  26 I25
stroke3  170  31 I25
stroke3  171  36 I25
stroke3  172  41 I25
stroke3  173  45 I25
stroke3  174  49 I25
stroke3  175  51 I25
stroke3  176  53 I25
stroke3  177  55 I25
stroke3  177  56 I25
stroke4  202  54 B54
stroke4  202  56 I54
stroke4  203  57 I54
stroke4  203  59 I54
stroke4  203  60 I54
stroke4  203  61 I54
stroke4  204  61 I54
stroke4  205  59 I54
stroke4  205  57 I54
stroke4  205  54 I54
stroke4  205  49 I54
stroke4  205  45 I54
stroke4  204  39 I54
stroke4  203  34 I54
stroke4  202  28 I54
stroke4  202  24 I54
stroke4  202  19 I54
stroke4  202  16 I54
stroke4  202  14 I54
stroke4  203  12 I54
stroke4  205  12 I54
stroke4  207  13 I54
stroke4  209  15 I54
stroke4  212  17 I54
stroke4  214  20 I54
stroke4  215  23 I54
stroke4  216  25 I54
stroke4  216  27 I54
stroke4  216  29 I54
stroke4  215  29 I54
stroke4  213  29 I54
stroke4  210  28 I54
stroke4  208  27 I54
stroke4  205  25 I54
stroke4  203  24 I54
stroke4  201  22 I54
stroke4  200  21 I54
stroke4  200  20 I54
stroke5  260  36 B21
stroke5  259  35 I21
stroke5  258  34 I21
stroke5  255  33 I21
stroke5  253  32 I21
stroke5  250  32 I21
stroke5  248  31 I21
stroke5  246  31 I21
stroke5  244  32 I21
stroke5  243  32 I21
stroke5  243  33 I21
stroke5  243  34 I21
stroke5  243  36 I21
stroke5  244  37 I21
stroke5  245  38 I21
stroke5  247  40 I21
stroke5  249  41 I21
stroke5  251  41 I21
stroke5  253  41 I21
stroke5  254  41 I21
stroke5  255  40 I21
stroke5  256  38 I21
stroke5  256  35 I21
stroke5  256  33 I21
stroke5  255  29 I21
stroke5  253  25 I21
stroke5  251  22 I21
stroke5  249  18 I21
stroke5  247  15 I21
stroke5  245  13 I21
stroke5  243  10 I21
stroke5  241  9 I21
stroke5  240  8 I21
stroke5  238  8 I21
stroke5  236  8 I21
stroke5  234  8 I21
stroke5  233  9 I21
stroke5  231  11 I21
stroke5  230  13 I21
stroke5  228  16 I21
stroke5  227  19 I21
stroke5  227  22 I21
stroke5  226  26 I21
stroke5  227  30 I21
stroke5  227  33 I21
stroke5  228  37 I21
stroke5  229  40 I21
stroke5  230  44 I21
stroke5  232  47 I21
stroke5  233  49 I21
stroke5  235  51 I21
stroke5  237  53 I21
stroke5  238  54 I21
stroke5  240  54 I21
stroke5  242  55 I21
stroke5  244  55 I21
stroke5  246  55 I21
stroke5  248  55 I21
stroke5  250  54 I21
stroke5  252  54 I21
stroke5  254  53 I21
stroke5  255  51 I21
stroke5  257  50 I21
stroke5  258  48 I21
stroke5  259  46 I21
stroke5  259  44 I21
stroke5  260  43 I21
stroke5  260  42 I21
stroke5  261  41 I21
stroke5  262  42 I21
stroke5  262  43 I21
stroke5  263  44 I21
stroke5  264  46 I21
stroke5  266  48 I21
stroke5  267  50 I21
stroke5  269  51 I21
stroke5  271  52 I21
stroke5  272  53 I21
stroke5  274  54 I21
stroke5  276  55 I21
stroke5  278  55 I21
stroke5  279  56 I21
stroke5  281  56 I21
stroke5  282  56 I21
stroke5  283  56 I21
stroke5  284  56 I21
stroke5  285  55 I21
stroke5  286  55 I21
stroke5  287  54 I21
stroke5  287  53 I21
stroke5  287  52 I21
stroke5  287  51 I21
stroke5  286  49 I21
stroke5  286  46 I21
stroke5  285  43 I21
stroke5  284  40 I21
stroke5  283  36 I21
stroke5  282  32 I21
stroke5  281  28 I21
stroke5  280  24 I21
stroke5  279  21 I21
stroke5  278  18 I21
stroke5  278  15 I21
stroke5  277  13 I21
stroke5  277  12 I21
stroke5  277  11 I21
stroke5  276  11 I21
stroke6  317  32 B43
stroke6  317  31 I43
stroke6  316  31 I43
stroke6  316  30 I43
stroke6  317  29 I43
stroke6  318  29 I43
stroke6  319  30 I43
stroke6  320  31 I43
stroke6  323  33 I43
stroke6  325  35 I43
stroke6  327  37 I43
stroke6  329  38 I43
stroke6  331  40 I43
stroke6  332  42 I43
stroke6  333  43 I43
stroke6  332  43 I43
stroke6  330  43 I43
stroke6  328  42 I43
stroke6  326  40 I43
stroke6  323  38 I43
stroke6  320  36 I43
stroke6  316  33 I43
stroke6  313  30 I43
stroke6  310  27 I43
stroke6  307  25 I43
stroke6  305  22 I43
stroke6  303  20 I43
stroke6  301  18 I43
stroke6  300  16 I43
stroke6  299  15 I43
stroke6  299  14 I43
stroke6  298  14 I43
stroke6  299  14 I43
stroke6  300  14 I43
stroke6  301  14 I43
stroke6  304  14 I43
stroke6  306  14 I43
stroke6  310  14 I43
stroke6  313  13 I43
stroke6  317  12 I43
stroke6  321  11 I43
stroke6  324  11 I43
stroke6  327  10 I43
stroke6  330  9 I43
stroke6  333  9 I43
stroke6  335  9 I43
stroke6  336  10 I43
stroke6  337  10 I43
stroke6  338  12 I43
stroke6  339  13 I43
stroke6  340  15 I43
stroke6  342  18 I43
stroke6  343  21 I43
stroke6  344  25 I43
stroke6  344  29 I43
stroke6  345  33 I43
stroke6  345  38 I43
stroke6  345  42 I43
stroke6  344  45 I43
stroke6  343  49 I43
stroke6  341  51 I43
stroke6  338  53 I43
stroke6  335  55 I43
stroke6  331  56 I43
stroke6  327  55 I43
stroke6  322  55 I43
stroke6  318  53 I43
stroke6  313  51 I43
stroke6  308  48 I43
stroke6  303  44 I43
stroke6  300  40 I43
stroke6  296  36 I43
stroke6  294  32 I43
stroke6  294  28 I43
stroke6  294  24 I43
stroke6  295  21 I43
stroke6  297  18 I43
stroke6  299  16 I43
stroke7  374  17 B35
stroke7  374  18 I35
stroke7  373  19 I35
stroke7  373  20 I35
stroke7  371  20 I35
stroke7  370  21 I35
stroke7  369  21 I35
stroke7  368  22 I35
stroke7  367  22 I35
stroke7  366  22 I35
stroke7  365  21 I35
stroke7  365  20 I35
stroke7  366  19 I35
stroke7  366  17 I35
stroke7  367  16 I35
stroke7  368  14 I35
stroke7  369  13 I35
stroke7  370  12 I35
stroke7  372  11 I35
stroke7  373  10 I35
stroke7  373  9 I35
stroke7  374  8 I35
stroke7  375  8 I35
stroke7  375  7 I35
stroke7  376  8 I35
stroke7  376  9 I35
stroke7  376  11 I35
stroke7  377  13 I35
stroke7  377  15 I35
stroke7  378  18 I35
stroke7  378  21 I35
stroke7  378  25 I35
stroke7  379  28 I35
stroke7  379  32 I35
stroke7  380  35 I35
stroke7  380  38 I35
stroke7  380  40 I35
stroke7  380  42 I35
stroke7  379  44 I35
stroke7  378  46 I35
stroke7  377  47 I35
stroke7  375  48 I35
stroke7  372  49 I35
stroke7  369  49 I35
stroke7  366  50 I35
stroke7  363  50 I35
stroke7  360  50 I35
stroke7  356  50 I35
stroke7  354  50 I35
stroke7  351  50 I35
stroke7  349  50 I35
stroke7  347  50 I35
stroke7  345  50 I35
stroke7  344  51 I35
stroke7  344  52 I35
stroke7  344  53 I35
stroke7  345  54 I35
stroke7  347  55 I35
stroke7  349  56 I35
stroke7  351  57 I35
stroke7  354  57 I35
stroke7  357  57 I35
stroke7  361  57 I35
stroke7  365  57 I35
stroke7  368  57 I35
stroke7  371  56 I35
stroke7  374  55 I35
stroke7  377  55 I35
stroke7  379  54 I35
stroke7  380  54 I35
stroke7  382  55 I35
stroke7  383  55 I35
stroke7  384  56 I35
stroke7  384  57 I35
stroke7  385  58 I35
stroke8  380  80 B64
stroke8  381  81 I64
stroke8  380  81 I64
stroke8  379  80 I64
stroke8  377  80 I64
stroke8  375  80 I64
stroke8  372  80 I64
stroke8  369  79 I64
stroke8  366  80 I64
stroke8  363  80 I64
stroke8  360  81 I64
stroke8  359  82 I64
stroke8  358  83 I64
stroke8  357  85 I64
stroke8  358  87 I64
stroke8  360  89 I64
stroke8  363  91 I64
stroke8  366  93 I64
stroke8  371  96 I64
stroke8  375  98 I64
stroke8  380  100 I64
stroke8  384  102 I64
stroke8  388  103 I64
stroke8  392  104 I64
stroke8  395  104 I64
stroke9  413  44 B54
stroke9  415  46 I54
stroke9  416  49 I54
stroke9  417  51 I54
stroke9  418  53 I54
stroke9  418  55 I54
stroke9  418  56 I54
stroke9  417  57 I54
stroke9  417  56 I54
stroke9  416  56 I54
stroke9  415  54 I54
stroke9  415  51 I54
stroke9  414  46 I54
stroke9  412  42 I54
stroke9  411  37 I54
stroke9  410  31 I54
stroke9  408  26 I54
stroke9  407  21 I54
stroke9  406  16 I54
stroke9  405  12 I54
stroke9  405  9 I54
stroke9  405  7 I54
stroke9  406  5 I54
stroke9  407  5 I54
stroke9  409  6 I54
stroke9  411  7 I54
stroke9  414  9 I54
stroke9  417  12 I54
stroke9  420  15 I54
stroke9  422  17 I54
stroke9  423  20 I54
stroke9  424  22 I54
stroke9  424  23 I54
stroke9  423  24 I54
stroke9  421  24 I54
stroke9  418  23 I54
stroke9  415  22 I54
stroke9  412  20 I54
stroke9  409  18 I54
stroke9  406  17 I54
stroke9  404  15 I54
stroke9  404  14 I54
stroke9  403  13 I54
stroke9  404  13 I54
stroke9  406  14 I54
stroke9  408  15 I54
stroke10  461  44 B25
stroke10  459  44 I25
stroke10  456  43 I25
stroke10  454  42 I25
stroke10  450  42 I25
stroke10  447  41 I25
stroke10  444  42 I25
stroke10  442  42 I25
stroke10  440  42 I25
stroke10  439  43 I25
stroke10  438  44 I25
stroke10  438  46 I25
stroke10  438  47 I25
stroke10  439  49 I25
stroke10  440  51 I25
stroke10  442  52 I25
stroke10  444  54 I25
stroke10  446  55 I25
stroke10  449  56 I25
stroke10  454  58 I25
stroke10  456  58 I25
stroke10  458  58 I25
stroke10  461  57 I25
stroke10  461  56 I25
stroke10  461  55 I25
stroke10  461  53 I25
stroke10  460  51 I25
stroke10  459  49 I25
stroke10  457  47 I25
stroke10  455  44 I25
stroke10  453  41 I25
stroke10  451  38 I25
stroke10  449  34 I25
stroke10  447  31 I25
stroke10  445  27 I25
stroke10  443  24 I25
stroke10  442  20 I25
stroke10  442  17 I25
stroke10  441  15 I25
stroke10  441  12 I25
stroke10  441  11 I25
stroke10  441  9 I25
stroke10  441  8 I25
stroke10  442  8 I25
stroke10  443  9 I25
stroke10  444  10 I25
stroke10  446  11 I25
stroke10  449  13 I25
stroke10  452  15 I25
stroke10  456  17 I25
stroke10  460  19 I25
stroke10  465  21 I25
stroke10  470  23 I25
stroke10  474  24 I25
stroke10  478  25 I25
stroke10  482  25 I25
stroke10  485  24 I25
stroke10  487  23 I25
stroke10  488  21 I25
stroke10  489  19 I25
stroke10  490  17 I25
stroke10  489  15 I25
stroke10  489  13 I25
stroke10  488  11 I25
stroke10  487  10 I25
stroke10  485  9 I25
stroke10  484  9 I25
stroke10  482  10 I25
stroke10  481  11 I25
stroke10  479  13 I25
stroke10  478  15 I25
stroke10  478  17 I25
stroke10  477  20 I25
stroke10  477  23 I25
stroke10  476  26 I25
stroke10  477  30 I25
stroke10  477  34 I25
stroke10  478  38 I25
stroke10  479  41 I25
stroke10  479  45 I25
stroke10  480  48 I25
stroke10  481  50 I25
stroke10  482  52 I25
stroke10  483  54 I25
stroke10  483  55 I25
stroke10  484  56 I25
stroke10  484  57 I25
stroke10  485  58 I25
stroke11  469  86 B63
stroke11  470  87 I63
stroke11  471  87 I63
stroke11  472  88 I63
stroke11  473  88 I63
stroke11  474  88 I63
stroke11  475  88 I63
stroke11  475  87 I63
stroke11  476  87 I63
stroke11  477  86 I63
stroke11  478  85 I63
stroke11  479  84 I63
stroke11  480  83 I63
stroke11  480  82 I63
stroke11  480  81 I63
stroke11  479  80 I63
stroke11  478  80 I63
stroke11  477  79 I63
stroke11  476  79 I63
stroke11  474  79 I63
stroke11  473  79 I63
stroke11  472  79 I63
stroke11  470  80 I63
stroke11  469  80 I63
stroke11  468  81 I63
stroke11  468  82 I63
stroke11  467  83 I63
stroke11  467  84 I63
stroke11  466  85 I63
stroke11  466  86 I63
stroke11  466  87 I63
stroke11  465  87 I63
stroke11  464  87 I63
stroke11  462  87 I63
stroke11  461  87 I63
stroke11  459  86 I63
stroke11  457  85 I63
stroke11  455  85 I63
stroke11  453  84 I63
stroke11  452  84 I63
stroke11  450  84 I63
stroke11  449  83 I63
stroke11  448  83 I63
stroke11  447  84 I63
stroke11  446  84 I63
stroke11  446  85 I63
stroke11  446  86 I63
stroke11  447  86 I63
stroke11  448  87 I63
stroke11  449  87 I63
stroke11  450  88 I63
stroke11  452  89 I63
stroke11  454  90 I63
stroke11  456  90 I63
stroke11  458  91 I63
stroke11  461  92 I63
stroke11  463  92 I63
stroke11  466  93 I63
stroke11  468  93 I63
stroke11  470  93 I63
stroke11  472  93 I63
stroke11  474  92 I63
stroke11  476  92 I63
stroke11  478  92 I63
stroke11  480  93 I63
stroke11  482  93 I63
stroke11  484  95 I63
stroke11  486  96 I63
stroke11  487  98 I63
stroke11  489  100 I63
stroke11  490  102 I63
stroke11  491  104 I63
stroke11  492  106 I63
stroke11  493  108 I63
stroke11  493  109 I63
stroke11  494  110 I63
stroke11  494  109 I63
stroke11  494  108 I63
stroke12  520  37 B21
stroke12  518  35 I21
stroke12  516  34 I21
stroke12  514  33 I21
stroke12  511  33 I21
stroke12  508  32 I21
stroke12  505  32 I21
stroke12  503  32 I21
stroke12  502  32 I21
stroke12  501  32 I21
stroke12  500  33 I21
stroke12  501  34 I21
stroke12  501  35 I21
stroke12  502  36 I21
stroke12  504  37 I21
stroke12  505  38 I21
stroke12  507  38 I21
stroke12  509  38 I21
stroke12  510  38 I21
stroke12  512  36 I21
stroke12  513  35 I21
stroke12  514  32 I21
stroke12  514  29 I21
stroke12  514  26 I21
stroke12  514  23 I21
stroke12  513  20 I21
stroke12  512  17 I21
stroke12  510  14 I21
stroke12  509  11 I21
stroke12  507  9 I21
stroke12  506  7 I21
stroke12  504  6 I21
stroke12  502  5 I21
stroke12  501  4 I21
stroke12  499  4 I21
stroke12  498  4 I21
stroke12  496  5 I21
stroke12  495  7 I21
stroke12  493  8 I21
stroke12  491  11 I21
stroke12  490  13 I21
stroke12  488  16 I21
stroke12  487  19 I21
stroke12  486  22 I21
stroke12  485  26 I21
stroke12  485  29 I21
stroke12  484  33 I21
stroke12  485  37 I21
stroke12  485  41 I21
stroke12  486  45 I21
stroke12  487  48 I21
stroke12  489  51 I21
stroke12  490  53 I21
stroke12  492  55 I21
stroke12  493  56 I21
stroke12  495  57 I21
stroke12  497  58 I21
stroke12  499  58 I21
stroke12  501  59 I21
stroke12  504  58 I21
stroke12  506  58 I21
stroke12  509  56 I21
stroke12  511  55 I21
stroke12  513  53 I21
stroke12  515  51 I21
stroke12  517  49 I21
stroke12  518  47 I21
stroke12  519  45 I21
stroke12  520  44 I21
stroke12  521  43 I21
stroke12  522  43 I21
stroke12  523  44 I21
stroke12  524  46 I21
stroke12  525  47 I21
stroke12  526  49 I21
stroke12  528  51 I21
stroke12  530  53 I21
stroke12  531  55 I21
stroke12  533  56 I21
stroke12  535  57 I21
stroke12  536  58 I21
stroke12  537  58 I21
stroke12  539  58 I21
stroke12  540  58 I21
stroke12  542  58 I21
stroke12  543  58 I21
stroke12  545  57 I21
stroke12  546  57 I21
stroke12  547  56 I21
stroke12  548  56 I21
stroke12  549  56 I21
stroke12  550  55 I21
stroke12  551  55 I21
stroke12  551  54 I21
stroke12  550  54 I21
stroke12  550  53 I21
stroke12  550  52 I21
stroke12  550  50 I21
stroke12  550  47 I21
stroke12  549  44 I21
stroke12  549  41 I21
stroke12  548  37 I21
stroke12  548  32 I21
stroke12  547  28 I21
stroke12  546  24 I21
stroke12  545  19 I21
stroke12  544  15 I21
stroke12  543  12 I21
stroke12  543  8 I21
stroke12  542  6 I21
stroke12  541  4 I21
stroke12  540  2 I21
stroke12  540  1 I21
stroke12  540  0 I21
stroke12  539  0 I21
stroke12  539  1 I21
stroke12  539  2 I21
stroke12  539  3 I21
stroke12  540  4 I21
stroke12  540  5 I21
stroke12  540  6 I21
stroke12  541  8 I21
stroke12  540  9 I21
