stroke1  76  53 B54
stroke1  77  54 I54
stroke1  78  55 I54
stroke1  78  56 I54
stroke1  79  57 I54
stroke1  79  58 I54
stroke1  80  59 I54
stroke1  80  61 I54
stroke1  80  62 I54
stroke1  81  62 I54
stroke1  81  63 I54
stroke1  80  63 I54
stroke1  80  62 I54
stroke1  80  60 I54
stroke1  79  57 I54
stroke1  78  54 I54
stroke1  77  50 I54
stroke1  76  46 I54
stroke1  75  42 I54
stroke1  74  37 I54
stroke1  73  32 I54
stroke1  72  28 I54
stroke1  72  24 I54
stroke1  71  21 I54
stroke1  71  18 I54
stroke1  71  16 I54
stroke1  71  14 I54
stroke1  72  12 I54
stroke1  73  11 I54
stroke1  74  11 I54
stroke1  75  11 I54
stroke1  76  11 I54
stroke1  78  12 I54
stroke1  80  13 I54
stroke1  82  15 I54
stroke1  85  17 I54
stroke1  87  20 I54
stroke1  88  22 I54
stroke1  90  24 I54
stroke1  90  25 I54
stroke1  90  27 I54
stroke1  90  28 I54
stroke1  89  28 I54
stroke1  87  28 I54
stroke1  85  27 I54
stroke1  82  26 I54
stroke1  79  24 I54
stroke1  76  22 I54
stroke1  73  20 I54
stroke1  71  18 I54
stroke1  70  16 I54
stroke1  69  14 I54
stroke1  69  13 I54
stroke1  69  12 I54
stroke1  70  12 I54
stroke1  71  12 I54
stroke1  73  12 I54
stroke1  75  13 I54
stroke2  128  61 B27
stroke2  127  59 I27
stroke2  125  58 I27
stroke2  123  57 I27
stroke2  121  55 I27
stroke2  118  54 I27
stroke2  115  52 I27
stroke2  113  51 I27
stroke2  111  51 I27
stroke2  109  50 I27
stroke2  107  50 I27
stroke2  106  50 I27
stroke2  105  50 I27
stroke2  105  51 I27
stroke2  105  52 I27
stroke2  106  53 I27
stroke2  107  55 I27
stroke2  108  56 I27
stroke2  110  58 I27
stroke2  112  59 I27
stroke2  114  61 I27
stroke2  116  62 I27
stroke2  118  63 I27
stroke2  120  64 I27
stroke2  122  64 I27
stroke2  123  65 I27
stroke2  124  65 I27
stroke2  125  65 I27
stroke2  126  65 I27
stroke2  126  64 I27
stroke2  126  63 I27
stroke2  126  62 I27
stroke2  125  61 I27
stroke2  124  59 I27
stroke2  124  57 I27
stroke2  123  54 I27
stroke2  122  51 I27
stroke2  121  48 I27
stroke2  120  45 I27
stroke2  119  41 I27
stroke2  118  37 I27
stroke2  117  33 I27
stroke2  115  29 I27
stroke2  114  25 I27
stroke2  113  21 I27
stroke2  113  18 I27
stroke2  112  15 I27
stroke2  111  13 I27
stroke2  111  11 I27
stroke2  110  10 I27
stroke2  110  9 I27
stroke2  110  8 I27
stroke2  109  8 I27
stroke2  109  7 I27
stroke2  108  7 I27
stroke2  107  7 I27
stroke2  107  8 I27
stroke2  107  9 I27
stroke2  108  10 I27
stroke2  109  10 I27
stroke2  110  11 I27
stroke2  112  12 I27
stroke2  114  13 I27
stroke2  116  13 I27
stroke2  119  13 I27
stroke2  123  13 I27
stroke2  126  12 I27
stroke2  129  11 I27
stroke2  133  10 I27
stroke2  136  8 I27
stroke2  138  7 I27
stroke2  140  6 I27
stroke2  142  5 I27
stroke2  143  4 I27
stroke2  144  4 I27
stroke2  145  5 I27
stroke2  146  7 I27
stroke2  146  10 I27
stroke2  147  13 I27
stroke2  148  18 I27
stroke2  148  24 I27
stroke2  149  30 I27
stroke2  150  36 I27
stroke2  151  42 I27
stroke2  152  48 I27
stroke2  153  54 I27
stroke2  154  60 I27
stroke2  155  66 I27
stroke2  156  72 I27
stroke2  158  77 I27
stroke2  159  82 I27
stroke2  160  86 I27
stroke2  162  90 I27
stroke2  163  93 I27
stroke2  164  95 I27
stroke2  165  97 I27
stroke2  166  98 I27
stroke2  167  98 I27
stroke2  168  98 I27
stroke2  169  97 I27
stroke2  169  95 I27
stroke2  170  93 I27
stroke2  170  91 I27
stroke3  186  38 B43
stroke3  187  38 I43
stroke3  188  37 I43
stroke3  189  37 I43
stroke3  190  36 I43
stroke3  191  35 I43
stroke3  192  35 I43
stroke3  193  35 I43
stroke3  194  35 I43
stroke3  195  35 I43
stroke3  197  36 I43
stroke3  198  38 I43
stroke3  199  40 I43
stroke3  201  41 I43
stroke3  202  43 I43
stroke3  202  45 I43
stroke3  203  47 I43
stroke3  203  48 I43
stroke3  202  49 I43
stroke3  201  50 I43
stroke3  200  50 I43
stroke3  199  49 I43
stroke3  197  48 I43
stroke3  195  47 I43
stroke3  193  46 I43
stroke3  191  44 I43
stroke3  189  41 I43
stroke3  187  39 I43
stroke3  185  36 I43
stroke3  184  33 I43
stroke3  182  29 I43
stroke3  181  26 I43
stroke3  180  22 I43
stroke3  180  19 I43
stroke3  179  16 I43
stroke3  178  13 I43
stroke3  178  11 I43
stroke3  178  10 I43
stroke3  177  9 I43
stroke3  177  8 I43
stroke3  177  9 I43
stroke3  178  10 I43
stroke3  179  11 I43
stroke3  180  12 I43
stroke3  182  13 I43
stroke3  185  14 I43
stroke3  187  15 I43
stroke3  190  15 I43
stroke3  194  15 I43
stroke3  197  15 I43
stroke3  200  14 I43
stroke3  203  14 I43
stroke3  206  13 I43
stroke3  208  12 I43
stroke3  210  12 I43
stroke3  211  12 I43
stroke3  212  11 I43
stroke3  213  12 I43
stroke3  214  13 I43
stroke3  214  14 I43
stroke3  215  15 I43
stroke3  216  17 I43
stroke3  216  19 I43
stroke3  217  22 I43
stroke3  217  24 I43
stroke3  217  27 I43
stroke3  218  31 I43
stroke3  218  34 I43
stroke3  219  37 I43
stroke3  219  40 I43
stroke3  220  43 I43
stroke3  220  46 I43
stroke3  220  49 I43
stroke3  221  51 I43
stroke3  221  53 I43
stroke3  221  55 I43
stroke3  221  57 I43
stroke3  220  58 I43
stroke3  220  59 I43
stroke3  219  60 I43
stroke3  218  61 I43
stroke3  217  62 I43
stroke3  215  63 I43
stroke3  213  63 I43
stroke3  210  64 I43
stroke3  207  64 I43
stroke3  204  63 I43
stroke3  200  62 I43
stroke3  196  61 I43
stroke3  192  59 I43
stroke3  188  57 I43
stroke3  184  55 I43
stroke3  181  52 I43
stroke3  178  50 I43
stroke3  176  48 I43
stroke3  175  45 I43
stroke3  174  42 I43
stroke3  174  39 I43
stroke3  174  37 I43
stroke3  174  34 I43
stroke4  263  18 B35
stroke4  262  18 I35
stroke4  262  19 I35
stroke4  261  19 I35
stroke4  261  20 I35
stroke4  260  20 I35
stroke4  260  21 I35
stroke4  259  21 I35
stroke4  258  22 I35
stroke4  257  22 I35
stroke4  256  22 I35
stroke4  255  22 I35
stroke4  254  22 I35
stroke4  253  21 I35
stroke4  252  20 I35
stroke4  251  19 I35
stroke4  251  18 I35
stroke4  251  16 I35
stroke4  252  14 I35
stroke4  253  13 I35
stroke4  254  11 I35
stroke4  255  10 I35
stroke4  256  8 I35
stroke4  258  7 I35
stroke4  259  7 I35
stroke4  260  6 I35
stroke4  261  6 I35
stroke4  262  5 I35
stroke4  263  5 I35
stroke4  264  5 I35
stroke4  264  6 I35
stroke4  264  7 I35
stroke4  265  8 I35
stroke4  265  9 I35
stroke4  265  10 I35
stroke4  265  11 I35
stroke4  265  13 I35
stroke4  266  15 I35
stroke4  266  17 I35
stroke4  266  20 I35
stroke4  266  22 I35
stroke4  266  25 I35
stroke4  267  28 I35
stroke4  267  31 I35
stroke4  267  33 I35
stroke4  267  35 I35
stroke4  267  36 I35
stroke4  267  38 I35
stroke4  267  39 I35
stroke4  268  39 I35
stroke4  268  40 I35
stroke4  268  41 I35
stroke4  267  41 I35
stroke4  267  42 I35
stroke4  267  43 I35
stroke4  267  44 I35
stroke4  266  45 I35
stroke4  265  46 I35
stroke4  264  47 I35
stroke4  262  48 I35
stroke4  261  49 I35
stroke4  259  49 I35
stroke4  256  50 I35
stroke4  254  51 I35
stroke4  251  51 I35
stroke4  248  51 I35
stroke4  245  51 I35
stroke4  242  51 I35
stroke4  238  50 I35
stroke4  236  50 I35
stroke4  233  49 I35
stroke4  230  49 I35
stroke4  229  49 I35
stroke4  227  48 I35
stroke4  226  48 I35
stroke4  225  49 I35
stroke4  226  50 I35
stroke4  227  51 I35
stroke4  229  52 I35
stroke4  231  53 I35
stroke4  234  55 I35
stroke4  237  56 I35
stroke4  240  57 I35
stroke4  243  57 I35
stroke4  246  58 I35
stroke4  249  58 I35
stroke4  252  58 I35
stroke4  254  57 I35
stroke4  257  57 I35
stroke4  259  56 I35
stroke4  260  56 I35
stroke4  262  55 I35
stroke4  264  55 I35
stroke4  265  55 I35
stroke4  267  55 I35
stroke4  268  56 I35
stroke4  270  56 I35
stroke4  271  57 I35
stroke4  272  58 I35
stroke4  273  59 I35
stroke4  274  59 I35
stroke4  275  60 I35
stroke4  276  60 I35
stroke5  268  86 B64
stroke5  269  86 I64
stroke5  271  86 I64
stroke5  272  85 I64
stroke5  273  85 I64
stroke5  274  84 I64
stroke5  275  83 I64
stroke5  275  82 I64
stroke5  274  82 I64
stroke5  273  82 I64
stroke5  272  82 I64
stroke5  271  82 I64
stroke5  270  82 I64
stroke5  269  82 I64
stroke5  268  83 I64
stroke5  267  83 I64
stroke5  266  83 I64
stroke5  265  84 I64
stroke5  264  84 I64
stroke5  263  85 I64
stroke5  262  85 I64
stroke5  261  86 I64
stroke5  260  87 I64
stroke5  259  87 I64
stroke5  259  88 I64
stroke5  259  89 I64
stroke5  260  90 I64
stroke5  261  91 I64
stroke5  262  93 I64
stroke5  265  94 I64
stroke5  269  96 I64
stroke5  273  98 I64
stroke5  277  100 I64
stroke5  282  102 I64
stroke5  287  104 I64
stroke5  292  106 I64
stroke5  296  108 I64
stroke5  300  109 I64
stroke5  303  110 I64
stroke5  305  110 I64
stroke5  307  110 I64
stroke6  306  52 B54
stroke6  306  53 I54
stroke6  306  54 I54
stroke6  307  55 I54
stroke6  307  56 I54
stroke6  307  57 I54
stroke6  307  58 I54
stroke6  308  59 I54
stroke6  308  60 I54
stroke6  309  60 I54
stroke6  309  59 I54
stroke6  309  57 I54
stroke6  309  55 I54
stroke6  309  51 I54
stroke6  308  47 I54
stroke6  308  43 I54
stroke6  307  38 I54
stroke6  306  33 I54
stroke6  305  28 I54
stroke6  304  23 I54
stroke6  304  19 I54
stroke6  303  15 I54
stroke6  303  12 I54
stroke6  304  10 I54
stroke6  305  8 I54
stroke6  306  8 I54
stroke6  308  8 I54
stroke6  310  9 I54
stroke6  312  11 I54
stroke6  314  14 I54
stroke6  315  16 I54
stroke6  316  19 I54
stroke6  317  21 I54
stroke6  317  23 I54
stroke6  317  24 I54
stroke6  316  25 I54
stroke6  314  25 I54
stroke6  312  25 I54
stroke6  309  24 I54
stroke6  307  23 I54
stroke6  305  22 I54
stroke6  303  21 I54
stroke6  302  20 I54
stroke6  301  19 I54
stroke6  301  18 I54
stroke6  302  18 I54
stroke6  304  18 I54
stroke7  346  53 B11
stroke7  345  53 I11
stroke7  344  53 I11
stroke7  343  53 I11
stroke7  342  52 I11
stroke7  341  52 I11
stroke7  341  51 I11
stroke7  340  49 I11
stroke7  340  47 I11
stroke7  339  45 I11
stroke7  339  44 I11
stroke7  338  42 I11
stroke7  337  40 I11
stroke7  336  39 I11
stroke7  335  39 I11
stroke7  334  39 I11
stroke7  333  40 I11
stroke7  332  41 I11
stroke7  332  43 I11
stroke7  332  45 I11
stroke7  332  47 I11
stroke7  333  49 I11
stroke7  333  51 I11
stroke7  334  52 I11
stroke7  336  54 I11
stroke7  337  55 I11
stroke7  338  56 I11
stroke7  340  57 I11
stroke7  341  57 I11
stroke7  343  58 I11
stroke7  344  58 I11
stroke7  345  58 I11
stroke7  346  58 I11
stroke7  347  57 I11
stroke7  348  56 I11
stroke7  348  55 I11
stroke7  349  54 I11
stroke7  349  52 I11
stroke7  349  51 I11
stroke7  349  50 I11
stroke7  350  49 I11
stroke7  351  50 I11
stroke7  351  51 I11
stroke7  352  52 I11
stroke7  353  53 I11
stroke7  354  54 I11
stroke7  355  56 I11
stroke7  357  57 I11
stroke7  358  58 I11
stroke7  359  59 I11
stroke7  360  59 I11
stroke7  361  60 I11
stroke7  362  60 I11
stroke7  363  60 I11
stroke7  364  60 I11
stroke7  364  59 I11
stroke7  365  59 I11
stroke7  366  58 I11
stroke7  366  57 I11
stroke7  367  55 I11
stroke7  366  53 I11
stroke7  366  50 I11
stroke7  365  47 I11
stroke7  364  43 I11
stroke7  363  40 I11
stroke7  361  37 I11
stroke7  359  34 I11
stroke7  356  30 I11
stroke7  354  28 I11
stroke7  352  25 I11
stroke7  349  23 I11
stroke7  347  21 I11
stroke7  345  19 I11
stroke7  344  18 I11
stroke7  343  17 I11
stroke7  342  16 I11
stroke7  341  15 I11
stroke7  341  16 I11
stroke7  342  17 I11
stroke7  343  17 I11
stroke7  344  18 I11
stroke7  345  18 I11
stroke7  347  19 I11
stroke7  349  19 I11
stroke7  351  20 I11
stroke7  354  20 I11
stroke7  356  20 I11
stroke7  358  20 I11
stroke7  360  20 I11
stroke7  363  19 I11
stroke7  365  19 I11
stroke7  367  17 I11
stroke7  369  16 I11
stroke7  370  15 I11
stroke7  372  13 I11
stroke7  374  12 I11
stroke7  375  11 I11
stroke7  377  10 I11
stroke7  378  9 I11
stroke7  379  9 I11
stroke7  380  8 I11
stroke7  381  8 I11
stroke7  381  7 I11
stroke7  381  8 I11
stroke7  382  8 I11
stroke7  382  9 I11
stroke7  382  10 I11
stroke7  382  11 I11
stroke7  382  12 I11
stroke7  382  13 I11
stroke7  382  14 I11
stroke7  382  15 I11
stroke7  382  17 I11
stroke7  382  18 I11
stroke7  382  20 I11
stroke7  383  23 I11
stroke7  383  25 I11
stroke7  384  28 I11
stroke7  384  31 I11
stroke7  385  35 I11
stroke7  386  38 I11
stroke7  387  40 I11
stroke7  388  43 I11
stroke7  388  45 I11
stroke7  388  47 I11
stroke7  389  48 I11
stroke7  389  50 I11
stroke7  388  51 I11
stroke7  388  52 I11
stroke7  387  53 I11
stroke7  386  54 I11
stroke7  385  54 I11
stroke7  383  54 I11
stroke7  382  55 I11
stroke7  380  54 I11
stroke7  378  54 I11
stroke7  375  54 I11
stroke7  373  53 I11
stroke7  371  53 I11
stroke7  370  53 I11
stroke7  368  53 I11
stroke7  367  53 I11
stroke7  368  53 I11
stroke7  370  54 I11
stroke7  372  55 I11
stroke7  375  56 I11
stroke7  378  58 I11
stroke7  382  60 I11
stroke7  385  61 I11
stroke7  389  63 I11
stroke7  392  64 I11
stroke7  396  66 I11
stroke7  400  67 I11
stroke7  403  68 I11
stroke7  407  69 I11
stroke7  409  70 I11
stroke7  412  71 I11
stroke8  365  90 B63
stroke8  366  90 I63
stroke8  367  91 I63
stroke8  368  92 I63
stroke8  369  93 I63
stroke8  370  93 I63
stroke8  371  94 I63
stroke8  372  94 I63
stroke8  373  94 I63
stroke8  374  94 I63
stroke8  376  93 I63
stroke8  377  93 I63
stroke8  378  92 I63
stroke8  379  91 I63
stroke8  379  89 I63
stroke8  380  88 I63
stroke8  380  87 I63
stroke8  379  86 I63
stroke8  378  86 I63
stroke8  377  85 I63
stroke8  377  86 I63
stroke8  376  86 I63
stroke8  375  86 I63
stroke8  375  87 I63
stroke8  374  88 I63
stroke8  373  88 I63
stroke8  372  89 I63
stroke8  371  89 I63
stroke8  370  90 I63
stroke8  369  90 I63
stroke8  367  91 I63
stroke8  365  91 I63
stroke8  362  91 I63
stroke8  360  91 I63
stroke8  357  91 I63
stroke8  354  90 I63
stroke8  351  90 I63
stroke8  349  89 I63
stroke8  347  89 I63
stroke8  346  89 I63
stroke8  345  89 I63
stroke8  344  89 I63
stroke8  345  89 I63
stroke8  346  90 I63
stroke8  347  91 I63
stroke8  349  93 I63
stroke8  351  95 I63
stroke8  354  97 I63
stroke8  357  99 I63
stroke8  361  101 I63
stroke8  364  102 I63
stroke8  367  103 I63
stroke8  370  104 I63
stroke8  372  104 I63
stroke8  375  104 I63
stroke8  377  104 I63
stroke8  380  103 I63
stroke8  382  103 I63
stroke8  384  104 I63
stroke8  387  104 I63
stroke8  389  106 I63
stroke8  392  107 I63
stroke8  394  109 I63
stroke8  397  111 I63
stroke8  399  113 I63
stroke8  401  114 I63
stroke8  403  115 I63
stroke8  405  116 I63
stroke8  406  117 I63
stroke8  407  117 I63
stroke8  407  116 I63
stroke8  407  115 I63
stroke9  419  48 B25
stroke9  417  46 I25
stroke9  414  45 I25
stroke9  411  44 I25
stroke9  409  44 I25
stroke9  406  43 I25
stroke9  404  43 I25
stroke9  402  44 I25
stroke9  401  44 I25
stroke9  400  45 I25
stroke9  400  46 I25
stroke9  400  47 I25
stroke9  400  48 I25
stroke9  401  49 I25
stroke9  403  51 I25
stroke9  405  53 I25
stroke9  408  54 I25
stroke9  411  56 I25
stroke9  415  57 I25
stroke9  418  58 I25
stroke9  421  59 I25
stroke9  423  60 I25
stroke9  425  60 I25
stroke9  426  60 I25
stroke9  427  61 I25
stroke9  428  60 I25
stroke9  427  59 I25
stroke9  426  59 I25
stroke9  426  58 I25
stroke9  425  57 I25
stroke9  424  55 I25
stroke9  423  53 I25
stroke9  422  51 I25
stroke9  421  49 I25
stroke9  419  46 I25
stroke9  418  42 I25
stroke9  417  39 I25
stroke9  415  35 I25
stroke9  413  31 I25
stroke9  412  26 I25
stroke9  410  22 I25
stroke9  408  17 I25
stroke9  407  13 I25
stroke9  406  9 I25
stroke9  405  7 I25
stroke9  404  5 I25
stroke9  403  3 I25
stroke9  404  3 I25
stroke9  404  4 I25
stroke9  406  6 I25
stroke9  407  8 I25
stroke9  410  10 I25
stroke9  412  13 I25
stroke9  416  15 I25
stroke9  420  18 I25
stroke9  424  20 I25
stroke9  428  23 I25
stroke9  432  24 I25
stroke9  436  25 I25
stroke9  440  26 I25
stroke9  443  26 I25
stroke9  446  26 I25
stroke9  449  25 I25
stroke9  451  24 I25
stroke9  452  22 I25
stroke9  452  21 I25
stroke9  452  18 I25
stroke9  451  16 I25
stroke9  451  14 I25
stroke9  449  12 I25
stroke9  448  10 I25
stroke9  446  9 I25
stroke9  445  9 I25
stroke9  443  9 I25
stroke9  441  10 I25
stroke9  440  11 I25
stroke9  439  13 I25
stroke9  438  15 I25
stroke9  437  18 I25
stroke9  437  20 I25
stroke9  437  24 I25
stroke9  438  27 I25
stroke9  439  31 I25
stroke9  440  35 I25
stroke9  442  39 I25
stroke9  444  43 I25
stroke9  446  46 I25
stroke9  448  49 I25
stroke9  450  51 I25
stroke9  451  53 I25
stroke9  453  54 I25
stroke9  454  55 I25
stroke9  454  56 I25
stroke9  455  56 I25
stroke9  455  57 I25
stroke9  456  57 I25
stroke9  456  56 I25
stroke9  457  56 I25
stroke9  456  55 I25
stroke9  456  54 I25
stroke10  507  36 B21
stroke10  506  35 I21
stroke10  505  35 I21
stroke10  504  34 I21
stroke10  502  34 I21
stroke10  500  33 I21
stroke10  498  33 I21
stroke10  495  32 I21
stroke10  492  31 I21
stroke10  490  31 I21
stroke10  487  30 I21
stroke10  485  30 I21
stroke10  483  30 I21
stroke10  482  31 I21
stroke10  481  32 I21
stroke10  482  33 I21
stroke10  483  35 I21
stroke10  484  37 I21
stroke10  487  38 I21
stroke10  489  40 I21
stroke10  492  41 I21
stroke10  495  43 I21
stroke10  497  44 I21
stroke10  499  44 I21
stroke10  501  45 I21
stroke10  502  45 I21
stroke10  503  45 I21
stroke10  503  44 I21
stroke10  503  43 I21
stroke10  502  41 I21
stroke10  501  40 I21
stroke10  501  38 I21
stroke10  500  35 I21
stroke10  499  33 I21
stroke10  498  30 I21
stroke10  497  28 I21
stroke10  497  25 I21
stroke10  496  22 I21
stroke10  495  19 I21
stroke10  494  16 I21
stroke10  493  13 I21
stroke10  491  10 I21
stroke10  490  7 I21
stroke10  488  5 I21
stroke10  487  3 I21
stroke10  486  1 I21
stroke10  485  0 I21
stroke10  484  0 I21
stroke10  484  2 I21
stroke10  484  3 I21
stroke10  484  4 I21
stroke10  484  6 I21
stroke10  484  8 I21
stroke10  483  9 I21
stroke10  482  10 I21
stroke10  480  11 I21
stroke10  478  12 I21
stroke10  476  13 I21
stroke10  473  15 I21
stroke10  470  16 I21
stroke10  466  18 I21
stroke10  463  19 I21
stroke10  461  21 I21
stroke10  459  23 I21
stroke10  457  25 I21
stroke10  456  27 I21
stroke10  456  30 I21
stroke10  456  33 I21
stroke10  457  36 I21
stroke10  459  39 I21
stroke10  462  43 I21
stroke10  466  46 I21
stroke10  470  50 I21
stroke10  473  53 I21
stroke10  477  55 I21
stroke10  481  57 I21
stroke10  483  59 I21
stroke10  486  60 I21
stroke10  488  60 I21
stroke10  489  60 I21
stroke10  490  59 I21
stroke10  491  58 I21
stroke10  492  56 I21
stroke10  493  55 I21
stroke10  493  53 I21
stroke10  493  52 I21
stroke10  494  50 I21
stroke10  494  49 I21
stroke10  494  48 I21
stroke10  494  47 I21
stroke10  495  47 I21
stroke10  495  46 I21
stroke10  495  47 I21
stroke10  496  47 I21
stroke10  497  48 I21
stroke10  498  48 I21
stroke10  500  50 I21
stroke10  501  51 I21
stroke10  503  52 I21
stroke10  505  53 I21
stroke10  507  55 I21
stroke10  509  56 I21
stroke10  511  57 I21
stroke10  513  57 I21
stroke10  514  58 I21
stroke10  516  57 I21
stroke10  517  57 I21
stroke10  518  57 I21
stroke10  520  56 I21
stroke10  521  56 I21
stroke10  522  55 I21
stroke10  523  55 I21
stroke10  523  54 I21
stroke10  524  54 I21
stroke10  525  54 I21
stroke10  525  53 I21
stroke10  525  52 I21
stroke10  524  51 I21
stroke10  524  49 I21
stroke10  524  47 I21
stroke10  524  45 I21
stroke10  524  42 I21
stroke10  523  38 I21
stroke10  523  35 I21
stroke10  523  31 I21
stroke10  522  27 I21
stroke10  522  24 I21
stroke10  521  20 I21
stroke10  521  16 I21
stroke10  520  13 I21
stroke10  520  10 I21
stroke10  519  8 I21
stroke10  519  6 I21
stroke10  519  5 I21
stroke10  520  6 I21
stroke10  520  8 I21
stroke10  520  9 I21
stroke10  520  11 I21
stroke10  521  13 I21
stroke10  521  16 I21
stroke11  518  77 B64
stroke11  518  79 I64
stroke11  518  80 I64
stroke11  517  81 I64
stroke11  517  82 I64
stroke11  518  82 I64
stroke11  519  81 I64
stroke11  519  80 I64
stroke11  520  79 I64
stroke11  520  78 I64
stroke11  520  77 I64
stroke11  521  77 I64
stroke11  520  76 I64
stroke11  519  76 I64
stroke11  517  76 I64
stroke11  516  77 I64
stroke11  512  78 I64
stroke11  510  79 I64
stroke11  508  79 I64
stroke11  507  80 I64
stroke11  505  81 I64
stroke11  504  82 I64
stroke11  503  82 I64
stroke11  502  83 I64
stroke11  501  84 I64
stroke11  501  85 I64
stroke11  502  86 I64
stroke11  504  87 I64
stroke11  506  88 I64
stroke11  509  89 I64
stroke11  513  90 I64
stroke11  518  92 I64
stroke11  523  94 I64
stroke11  530  97 I64
stroke11  536  99 I64
stroke11  543  102 I64
stroke11  549  104 I64
stroke11  554  107 I64
stroke11  559  109 I64
stroke11  562  110 I64
stroke11  565  111 I64
stroke11  567  112 I64
stroke11  568  112 I64
stroke11  567  111 I64
stroke11  566  111 I64
stroke11  565  110 I64
stroke11  564  110 I64
stroke11  563  109 I64
stroke11  562  109 I64
stroke11  561  108 I64
stroke11  560  108 I64
