stroke1  212  9 B1
stroke1  212  8 I1
stroke1  211  7 I1
stroke1  210  6 I1
stroke1  209  5 I1
stroke1  209  4 I1
stroke1  208  3 I1
stroke1  208  2 I1
stroke1  207  2 I1
stroke1  208  3 I1
stroke1  208  4 I1
stroke1  208  6 I1
stroke1  208  8 I1
stroke1  209  10 I1
stroke1  209  12 I1
stroke1  209  15 I1
stroke1  210  18 I1
stroke1  210  21 I1
stroke1  211  25 I1
stroke1  212  28 I1
stroke1  213  32 I1
stroke1  215  35 I1
stroke1  216  38 I1
stroke1  218  41 I1
stroke1  219  43 I1
stroke1  220  45 I1
stroke1  222  46 I1
stroke1  223  47 I1
stroke1  224  48 I1
stroke1  225  49 I1
stroke1  226  49 I1
stroke1  227  49 I1
stroke1  228  50 I1
stroke1  228  49 I1
stroke1  228  50 I1
stroke1  227  50 I1
stroke1  226  50 I1
stroke1  224  51 I1
stroke1  223  51 I1
stroke1  221  50 I1
stroke1  218  50 I1
stroke1  216  50 I1
stroke1  214  49 I1
stroke1  212  49 I1
stroke1  210  48 I1
stroke1  209  48 I1
stroke1  208  47 I1
stroke1  207  47 I1
stroke1  206  47 I1
stroke1  207  47 I1
stroke1  207  48 I1
stroke1  208  49 I1
stroke1  209  50 I1
stroke1  210  52 I1
stroke1  211  54 I1
stroke1  213  56 I1
stroke1  215  58 I1
stroke1  217  60 I1
stroke1  220  61 I1
stroke1  222  63 I1
stroke1  224  64 I1
stroke1  227  64 I1
stroke1  231  65 I1
stroke1  234  65 I1
stroke1  236  65 I1
stroke1  238  65 I1
stroke1  240  64 I1
stroke1  242  64 I1
stroke1  243  64 I1
stroke1  245  64 I1
stroke1  246  63 I1
stroke1  247  63 I1
stroke1  248  63 I1
stroke1  249  63 I1
stroke1  249  62 I1
stroke1  250  61 I1
stroke1  251  60 I1
stroke1  251  59 I1
stroke1  251  57 I1
stroke1  252  55 I1
stroke1  252  53 I1
stroke1  251  50 I1
stroke1  251  46 I1
stroke1  251  42 I1
stroke1  251  37 I1
stroke1  250  33 I1
stroke1  250  28 I1
stroke1  250  24 I1
stroke1  249  21 I1
stroke1  249  18 I1
stroke1  249  15 I1
stroke1  249  13 I1
stroke1  249  12 I1
stroke1  249  11 I1
stroke1  249  10 I1
stroke1  249  9 I1
stroke1  249  8 I1
stroke1  249  9 I1
stroke1  250  9 I1
stroke1  250  10 I1
stroke2  302  19 B35
stroke2  302  18 I35
stroke2  302  19 I35
stroke2  301  19 I35
stroke2  301  20 I35
stroke2  300  21 I35
stroke2  299  21 I35
stroke2  298  22 I35
stroke2  297  22 I35
stroke2  295  22 I35
stroke2  294  21 I35
stroke2  293  21 I35
stroke2  291  20 I35
stroke2  290  19 I35
stroke2  289  18 I35
stroke2  289  17 I35
stroke2  289  16 I35
stroke2  289  14 I35
stroke2  290  13 I35
stroke2  291  11 I35
stroke2  292  9 I35
stroke2  293  8 I35
stroke2  295  7 I35
stroke2  296  6 I35
stroke2  297  6 I35
stroke2  298  6 I35
stroke2  299  6 I35
stroke2  299  8 I35
stroke2  300  9 I35
stroke2  300  11 I35
stroke2  301  13 I35
stroke2  301  16 I35
stroke2  302  18 I35
stroke2  302  21 I35
stroke2  303  24 I35
stroke2  303  27 I35
stroke2  303  30 I35
stroke2  304  33 I35
stroke2  304  36 I35
stroke2  304  39 I35
stroke2  304  41 I35
stroke2  305  43 I35
stroke2  305  45 I35
stroke2  305  46 I35
stroke2  305  47 I35
stroke2  304  48 I35
stroke2  304  49 I35
stroke2  304  50 I35
stroke2  303  50 I35
stroke2  302  51 I35
stroke2  301  51 I35
stroke2  299  52 I35
stroke2  297  52 I35
stroke2  295  53 I35
stroke2  292  53 I35
stroke2  289  54 I35
stroke2  287  54 I35
stroke2  284  54 I35
stroke2  281  54 I35
stroke2  279  54 I35
stroke2  277  54 I35
stroke2  275  54 I35
stroke2  274  55 I35
stroke2  273  56 I35
stroke2  272  57 I35
stroke2  272  58 I35
stroke2  273  59 I35
stroke2  274  60 I35
stroke2  276  61 I35
stroke2  278  63 I35
stroke2  280  63 I35
stroke2  283  64 I35
stroke2  286  64 I35
stroke2  289  65 I35
stroke2  292  65 I35
stroke2  295  64 I35
stroke2  298  64 I35
stroke2  301  64 I35
stroke2  303  63 I35
stroke2  305  63 I35
stroke2  306  63 I35
stroke2  307  62 I35
stroke2  308  62 I35
stroke2  309  62 I35
stroke2  309  61 I35
stroke2  308  61 I35
stroke3  312  83 B49
stroke3  309  84 I49
stroke3  306  87 I49
stroke3  302  89 I49
stroke3  297  92 I49
stroke3  293  94 I49
stroke3  289  96 I49
stroke3  286  98 I49
stroke3  282  99 I49
stroke3  279  100 I49
stroke3  277  101 I49
stroke3  275  101 I49
stroke3  273  101 I49
stroke3  272  102 I49
stroke3  271  102 I49
stroke3  272  102 I49
stroke3  273  103 I49
stroke3  274  103 I49
stroke3  276  103 I49
stroke3  279  102 I49
stroke3  282  101 I49
stroke3  285  100 I49
stroke3  289  98 I49
stroke3  292  96 I49
stroke3  296  93 I49
stroke3  300  91 I49
stroke3  304  88 I49
stroke3  307  86 I49
stroke3  309  83 I49
stroke3  311  82 I49
stroke3  312  80 I49
stroke3  313  79 I49
stroke3  314  78 I49
stroke3  315  77 I49
stroke3  315  76 I49
stroke3  315  77 I49
stroke3  315  78 I49
stroke3  314  79 I49
stroke3  314  80 I49
stroke3  314  82 I49
stroke3  314  84 I49
stroke3  315  87 I49
stroke3  315  89 I49
stroke3  315  92 I49
stroke3  316  95 I49
stroke3  316  98 I49
stroke3  316  101 I49
stroke3  317  103 I49
stroke3  317  106 I49
stroke3  317  108 I49
stroke3  317  111 I49
stroke3  318  113 I49
stroke3  318  114 I49
stroke3  318  115 I49
stroke3  318  113 I49
stroke3  318  112 I49
stroke3  318  109 I49
stroke3  318  107 I49
stroke3  318  104 I49
stroke3  317  101 I49
stroke3  317  98 I49
stroke3  317  95 I49
stroke3  317  92 I49
stroke3  317  89 I49
stroke3  317  87 I49
stroke3  317  85 I49
stroke3  317  83 I49
stroke4  328  131 B67
stroke4  327  131 I67
stroke4  326  131 I67
stroke4  325  131 I67
stroke4  324  131 I67
stroke4  323  130 I67
stroke4  322  130 I67
stroke4  321  130 I67
stroke4  320  130 I67
stroke4  319  130 I67
stroke4  318  130 I67
stroke4  318  131 I67
stroke4  317  131 I67
stroke4  317  132 I67
stroke4  317  133 I67
stroke4  318  134 I67
stroke4  319  135 I67
stroke4  320  135 I67
stroke4  321  135 I67
stroke4  322  135 I67
stroke4  323  135 I67
stroke4  324  134 I67
stroke4  325  133 I67
stroke4  326  132 I67
stroke4  326  131 I67
stroke4  327  130 I67
stroke4  328  129 I67
stroke4  328  130 I67
stroke4  329  130 I67
stroke4  330  131 I67
stroke4  331  132 I67
stroke4  332  133 I67
stroke4  333  134 I67
stroke4  334  135 I67
stroke4  335  135 I67
stroke4  335  136 I67
stroke4  337  136 I67
stroke4  338  136 I67
stroke4  339  135 I67
stroke4  340  134 I67
stroke4  340  133 I67
stroke4  341  132 I67
stroke4  342  130 I67
stroke4  342  129 I67
stroke4  342  128 I67
stroke4  343  127 I67
stroke4  343  126 I67
stroke4  344  126 I67
stroke4  345  126 I67
stroke4  347  128 I67
stroke4  348  129 I67
stroke4  351  131 I67
stroke4  353  134 I67
stroke4  355  136 I67
stroke4  358  139 I67
stroke4  360  141 I67
stroke4  361  143 I67
stroke4  363  144 I67
stroke4  364  145 I67
stroke4  364  146 I67
stroke4  365  145 I67
stroke4  364  143 I67
stroke5  358  46 B20
stroke5  358  45 I20
stroke5  358  44 I20
stroke5  358  43 I20
stroke5  358  42 I20
stroke5  357  41 I20
stroke5  355  40 I20
stroke5  353  39 I20
stroke5  351  38 I20
stroke5  348  38 I20
stroke5  346  37 I20
stroke5  343  36 I20
stroke5  341  36 I20
stroke5  339  36 I20
stroke5  337  37 I20
stroke5  336  37 I20
stroke5  336  38 I20
stroke5  336  39 I20
stroke5  337  41 I20
stroke5  338  42 I20
stroke5  339  44 I20
stroke5  340  45 I20
stroke5  342  45 I20
stroke5  344  46 I20
stroke5  346  45 I20
stroke5  347  45 I20
stroke5  349  44 I20
stroke5  351  43 I20
stroke5  352  42 I20
stroke5  353  41 I20
stroke5  354  40 I20
stroke5  354  38 I20
stroke5  354  36 I20
stroke5  353  34 I20
stroke5  352  31 I20
stroke5  351  28 I20
stroke5  350  26 I20
stroke5  348  23 I20
stroke5  346  20 I20
stroke5  344  17 I20
stroke5  342  15 I20
stroke5  340  13 I20
stroke5  338  12 I20
stroke5  336  11 I20
stroke5  334  10 I20
stroke5  332  9 I20
stroke5  331  9 I20
stroke5  329  9 I20
stroke5  327  8 I20
stroke5  326  9 I20
stroke5  324  9 I20
stroke5  323  10 I20
stroke5  321  12 I20
stroke5  320  14 I20
stroke5  319  16 I20
stroke5  318  19 I20
stroke5  318  22 I20
stroke5  317  25 I20
stroke5  317  29 I20
stroke5  318  32 I20
stroke5  319  36 I20
stroke5  320  40 I20
stroke5  322  44 I20
stroke5  324  48 I20
stroke5  326  51 I20
stroke5  329  55 I20
stroke5  331  58 I20
stroke5  334  61 I20
stroke5  337  63 I20
stroke5  340  65 I20
stroke5  343  66 I20
stroke5  346  67 I20
stroke5  348  68 I20
stroke5  351  68 I20
stroke5  354  68 I20
stroke5  357  67 I20
stroke5  360  67 I20
stroke5  363  66 I20
stroke5  366  66 I20
stroke5  368  65 I20
stroke5  370  64 I20
stroke5  373  63 I20
stroke5  375  62 I20
stroke5  376  61 I20
stroke5  378  61 I20
stroke5  379  60 I20
stroke5  380  59 I20
stroke5  381  58 I20
stroke5  382  57 I20
stroke5  381  56 I20
stroke5  381  55 I20
stroke5  381  54 I20
stroke5  381  53 I20
stroke5  380  52 I20
stroke5  380  51 I20
stroke5  380  49 I20
stroke5  379  47 I20
stroke5  379  44 I20
stroke5  379  41 I20
stroke5  378  38 I20
stroke5  377  35 I20
stroke5  377  31 I20
stroke5  376  27 I20
stroke5  375  24 I20
stroke5  375  20 I20
stroke5  374  17 I20
stroke5  374  13 I20
stroke5  373  11 I20
stroke5  373  8 I20
stroke5  372  6 I20
stroke5  372  5 I20
stroke5  372  3 I20
stroke5  371  2 I20
stroke5  371  1 I20
stroke5  371  0 I20
stroke5  370  0 I20
stroke5  370  1 I20
stroke5  370  2 I20
stroke5  370  3 I20
stroke5  371  5 I20
stroke5  370  6 I20
