stroke1  202  71 B54
stroke1  202  72 I54
stroke1  203  72 I54
stroke1  203  71 I54
stroke1  202  71 I54
stroke1  202  70 I54
stroke1  202  69 I54
stroke1  202  68 I54
stroke1  202  67 I54
stroke1  201  67 I54
stroke1  201  66 I54
stroke1  201  65 I54
stroke1  201  64 I54
stroke1  201  63 I54
stroke1  201  62 I54
stroke1  201  61 I54
stroke1  201  59 I54
stroke1  200  57 I54
stroke1  200  56 I54
stroke1  200  54 I54
stroke1  200  52 I54
stroke1  200  50 I54
stroke1  200  49 I54
stroke1  199  47 I54
stroke1  200  45 I54
stroke1  200  44 I54
stroke1  200  42 I54
stroke1  200  41 I54
stroke1  200  39 I54
stroke1  200  38 I54
stroke1  200  36 I54
stroke1  200  35 I54
stroke1  200  34 I54
stroke1  200  33 I54
stroke1  200  31 I54
stroke1  200  30 I54
stroke1  200  29 I54
stroke1  200  28 I54
stroke1  200  27 I54
stroke1  200  25 I54
stroke1  200  24 I54
stroke1  200  23 I54
stroke1  200  22 I54
stroke1  200  21 I54
stroke1  200  20 I54
stroke1  200  19 I54
stroke1  200  18 I54
stroke1  200  17 I54
stroke1  201  16 I54
stroke1  201  15 I54
stroke1  201  14 I54
stroke1  201  13 I54
stroke1  202  12 I54
stroke1  202  11 I54
stroke1  202  10 I54
stroke1  203  10 I54
stroke1  203  9 I54
stroke1  204  9 I54
stroke1  204  8 I54
stroke1  205  8 I54
stroke1  205  7 I54
stroke1  206  7 I54
stroke1  207  7 I54
stroke1  208  7 I54
stroke1  209  7 I54
stroke1  210  7 I54
stroke1  211  8 I54
stroke1  212  8 I54
stroke1  212  9 I54
stroke1  213  10 I54
stroke1  214  12 I54
stroke1  215  13 I54
stroke1  215  14 I54
stroke1  215  15 I54
stroke1  216  16 I54
stroke1  215  18 I54
stroke1  215  19 I54
stroke1  215  20 I54
stroke1  214  21 I54
stroke1  214  22 I54
stroke1  213  22 I54
stroke1  212  23 I54
stroke1  211  23 I54
stroke1  209  23 I54
stroke1  208  22 I54
stroke1  206  22 I54
stroke1  204  21 I54
stroke1  203  19 I54
stroke1  201  18 I54
stroke1  200  17 I54
stroke1  199  16 I54
stroke1  198  15 I54
stroke1  197  14 I54
stroke2  241  42 B43
stroke2  241  41 I43
stroke2  242  41 I43
stroke2  243  41 I43
stroke2  244  41 I43
stroke2  245  41 I43
stroke2  246  41 I43
stroke2  247  41 I43
stroke2  248  41 I43
stroke2  249  42 I43
stroke2  250  42 I43
stroke2  251  43 I43
stroke2  251  44 I43
stroke2  252  44 I43
stroke2  253  45 I43
stroke2  253  46 I43
stroke2  253  47 I43
stroke2  253  48 I43
stroke2  253  49 I43
stroke2  253  50 I43
stroke2  252  50 I43
stroke2  251  51 I43
stroke2  251  52 I43
stroke2  250  52 I43
stroke2  249  52 I43
stroke2  249  53 I43
stroke2  248  52 I43
stroke2  247  52 I43
stroke2  246  52 I43
stroke2  246  51 I43
stroke2  245  50 I43
stroke2  245  49 I43
stroke2  244  49 I43
stroke2  244  48 I43
stroke2  244  46 I43
stroke2  243  45 I43
stroke2  243  44 I43
stroke2  243  43 I43
stroke2  243  42 I43
stroke2  242  41 I43
stroke2  242  40 I43
stroke2  242  38 I43
stroke2  242  37 I43
stroke2  242  36 I43
stroke2  242  35 I43
stroke2  242  34 I43
stroke2  242  33 I43
stroke2  242  32 I43
stroke2  241  31 I43
stroke2  241  30 I43
stroke2  241  29 I43
stroke2  241  28 I43
stroke2  241  27 I43
stroke2  241  26 I43
stroke2  240  25 I43
stroke2  240  24 I43
stroke2  240  22 I43
stroke2  240  21 I43
stroke2  240  20 I43
stroke2  240  19 I43
stroke2  240  18 I43
stroke2  240  17 I43
stroke2  240  16 I43
stroke2  240  14 I43
stroke2  240  13 I43
stroke2  240  12 I43
stroke2  240  11 I43
stroke2  240  10 I43
stroke2  240  9 I43
stroke2  240  8 I43
stroke2  240  7 I43
stroke2  241  7 I43
stroke2  241  6 I43
stroke2  241  5 I43
stroke2  242  5 I43
stroke2  243  5 I43
stroke2  244  5 I43
stroke2  245  6 I43
stroke2  246  6 I43
stroke2  247  6 I43
stroke2  248  7 I43
stroke2  249  7 I43
stroke2  250  7 I43
stroke2  251  7 I43
stroke2  253  7 I43
stroke2  254  7 I43
stroke2  255  6 I43
stroke2  256  6 I43
stroke2  257  6 I43
stroke2  258  5 I43
stroke2  259  5 I43
stroke2  260  5 I43
stroke2  261  5 I43
stroke2  262  4 I43
stroke2  263  4 I43
stroke2  264  4 I43
stroke2  265  5 I43
stroke2  265  6 I43
stroke2  265  7 I43
stroke2  265  8 I43
stroke2  265  9 I43
stroke2  265  11 I43
stroke2  265  12 I43
stroke2  265  14 I43
stroke2  264  16 I43
stroke2  264  18 I43
stroke2  264  20 I43
stroke2  263  22 I43
stroke2  263  24 I43
stroke2  263  26 I43
stroke2  263  27 I43
stroke2  262  29 I43
stroke2  262  31 I43
stroke2  262  32 I43
stroke2  262  34 I43
stroke2  262  35 I43
stroke2  262  36 I43
stroke2  262  38 I43
stroke2  262  39 I43
stroke2  262  40 I43
stroke2  261  42 I43
stroke2  261  43 I43
stroke2  261  44 I43
stroke2  261  45 I43
stroke2  260  46 I43
stroke2  260  47 I43
stroke2  260  49 I43
stroke2  260  50 I43
stroke2  259  51 I43
stroke2  259  52 I43
stroke2  259  53 I43
stroke2  259  54 I43
stroke2  259  55 I43
stroke2  258  56 I43
stroke2  258  57 I43
stroke2  258  58 I43
stroke2  258  59 I43
stroke2  258  60 I43
stroke2  258  61 I43
stroke2  257  62 I43
stroke2  257  63 I43
stroke2  257  64 I43
stroke2  256  64 I43
stroke2  256  65 I43
stroke2  255  65 I43
stroke2  255  66 I43
stroke2  254  66 I43
stroke2  253  67 I43
stroke2  252  68 I43
stroke2  251  68 I43
stroke2  250  68 I43
stroke2  248  69 I43
stroke2  247  68 I43
stroke2  244  67 I43
stroke2  242  66 I43
stroke2  239  65 I43
stroke2  237  63 I43
stroke2  233  61 I43
stroke2  230  58 I43
stroke2  227  56 I43
stroke2  224  54 I43
stroke2  221  52 I43
stroke2  219  50 I43
stroke2  217  48 I43
stroke2  215  46 I43
stroke2  215  44 I43
stroke3  272  57 B47
stroke3  271  57 I47
stroke3  271  58 I47
stroke3  270  58 I47
stroke3  270  59 I47
stroke3  270  60 I47
stroke3  271  61 I47
stroke3  271  62 I47
stroke3  271  63 I47
stroke3  272  64 I47
stroke3  272  65 I47
stroke3  273  66 I47
stroke3  273  67 I47
stroke3  274  67 I47
stroke3  274  68 I47
stroke3  275  69 I47
stroke3  276  69 I47
stroke3  277  69 I47
stroke3  278  69 I47
stroke3  279  68 I47
stroke3  279  69 I47
stroke3  280  69 I47
stroke3  281  69 I47
stroke3  282  69 I47
stroke3  283  69 I47
stroke3  284  69 I47
stroke3  285  69 I47
stroke3  285  68 I47
stroke3  286  68 I47
stroke3  287  68 I47
stroke3  287  67 I47
stroke3  288  67 I47
stroke3  288  66 I47
stroke3  289  65 I47
stroke3  289  64 I47
stroke3  290  63 I47
stroke3  290  62 I47
stroke3  291  61 I47
stroke3  291  59 I47
stroke3  292  58 I47
stroke3  292  57 I47
stroke3  293  56 I47
stroke3  293  55 I47
stroke3  293  53 I47
stroke3  294  52 I47
stroke3  294  50 I47
stroke3  294  49 I47
stroke3  295  48 I47
stroke3  295  46 I47
stroke3  295  45 I47
stroke3  296  44 I47
stroke3  296  42 I47
stroke3  296  41 I47
stroke3  297  40 I47
stroke3  297  38 I47
stroke3  297  37 I47
stroke3  297  36 I47
stroke3  298  35 I47
stroke3  298  33 I47
stroke3  298  32 I47
stroke3  298  31 I47
stroke3  298  30 I47
stroke3  298  28 I47
stroke3  299  27 I47
stroke3  299  26 I47
stroke3  299  25 I47
stroke3  299  23 I47
stroke3  299  22 I47
stroke3  299  21 I47
stroke3  299  20 I47
stroke3  299  18 I47
stroke3  299  17 I47
stroke3  300  16 I47
stroke3  300  14 I47
stroke3  300  13 I47
stroke3  300  12 I47
stroke3  300  11 I47
stroke3  300  10 I47
stroke3  300  9 I47
stroke3  300  8 I47
stroke3  300  7 I47
stroke3  301  6 I47
stroke3  301  5 I47
stroke3  301  4 I47
stroke3  301  3 I47
stroke3  302  2 I47
stroke3  302  1 I47
stroke3  302  0 I47
stroke3  303  0 I47
stroke3  303  1 I47
stroke3  302  2 I47
stroke3  302  4 I47
stroke4  332  16 B60
stroke4  331  16 I60
stroke4  330  16 I60
stroke4  329  16 I60
stroke4  329  17 I60
stroke4  328  17 I60
stroke4  327  17 I60
stroke4  327  18 I60
stroke4  327  19 I60
stroke4  326  20 I60
stroke4  326  21 I60
stroke4  326  22 I60
stroke4  327  23 I60
stroke4  327  24 I60
stroke4  328  25 I60
stroke4  328  26 I60
stroke4  329  26 I60
stroke4  330  27 I60
stroke4  331  27 I60
stroke4  332  27 I60
stroke4  334  27 I60
stroke4  335  26 I60
stroke4  336  26 I60
stroke4  337  25 I60
stroke4  338  24 I60
stroke4  339  23 I60
stroke4  339  22 I60
stroke4  340  21 I60
stroke4  340  19 I60
stroke4  340  18 I60
stroke4  340  17 I60
stroke4  340  16 I60
stroke4  340  15 I60
stroke4  340  13 I60
stroke4  339  12 I60
stroke4  339  11 I60
stroke4  338  9 I60
stroke4  338  8 I60
stroke4  337  7 I60
stroke4  336  6 I60
stroke4  336  5 I60
stroke4  335  5 I60
stroke4  335  4 I60
stroke4  334  4 I60
stroke4  334  3 I60
stroke4  333  3 I60
stroke4  333  4 I60
stroke4  332  4 I60
stroke4  332  5 I60
stroke4  332  6 I60
stroke4  331  7 I60
stroke4  331  8 I60
stroke4  331  10 I60
stroke4  331  12 I60
stroke4  330  14 I60
stroke4  330  16 I60
stroke4  330  17 I60
stroke4  330  19 I60
stroke4  330  21 I60
stroke4  330  23 I60
stroke4  330  25 I60
stroke4  330  27 I60
stroke4  330  29 I60
stroke4  330  31 I60
stroke4  331  33 I60
stroke4  331  35 I60
stroke4  331  37 I60
stroke4  331  39 I60
stroke4  331  41 I60
stroke4  331  43 I60
stroke4  331  44 I60
stroke4  331  46 I60
stroke4  331  48 I60
stroke4  330  50 I60
stroke4  330  52 I60
stroke4  330  54 I60
stroke4  330  56 I60
stroke4  330  58 I60
stroke4  330  60 I60
stroke4  330  62 I60
stroke4  330  64 I60
stroke4  330  66 I60
stroke4  330  67 I60
stroke4  330  69 I60
stroke4  330  71 I60
stroke4  330  73 I60
stroke4  330  75 I60
stroke4  331  77 I60
stroke4  331  79 I60
stroke4  331  81 I60
stroke4  331  83 I60
stroke4  331  85 I60
stroke4  331  87 I60
stroke4  331  89 I60
stroke4  331  90 I60
stroke4  331  92 I60
stroke4  331  94 I60
stroke4  331  96 I60
stroke4  331  97 I60
stroke4  330  99 I60
stroke4  331  101 I60
stroke4  330  102 I60
stroke4  330  104 I60
stroke4  330  105 I60
stroke4  330  106 I60
stroke4  330  108 I60
stroke4  329  109 I60
stroke4  329  110 I60
stroke4  329  112 I60
stroke4  329  113 I60
stroke4  329  115 I60
stroke4  328  116 I60
stroke4  328  117 I60
stroke4  328  119 I60
stroke4  328  120 I60
stroke4  328  121 I60
stroke4  327  123 I60
stroke4  327  124 I60
stroke4  327  126 I60
stroke4  326  127 I60
stroke4  326  128 I60
stroke4  325  130 I60
stroke4  324  131 I60
stroke4  324  132 I60
stroke4  323  133 I60
stroke4  322  133 I60
stroke4  321  134 I60
stroke4  320  134 I60
stroke4  319  135 I60
stroke4  318  135 I60
stroke4  316  135 I60
stroke4  315  135 I60
stroke4  313  135 I60
stroke4  311  135 I60
stroke4  309  134 I60
stroke4  307  134 I60
stroke4  305  133 I60
stroke4  303  133 I60
stroke4  301  132 I60
stroke4  298  130 I60
stroke4  295  129 I60
stroke4  293  127 I60
stroke4  291  125 I60
stroke4  289  122 I60
stroke4  287  120 I60
stroke4  285  117 I60
stroke4  284  115 I60
stroke4  283  112 I60
stroke4  283  110 I60
stroke4  283  109 I60
stroke4  283  107 I60
stroke4  284  105 I60
stroke4  285  104 I60
stroke4  286  102 I60
stroke4  288  101 I60
stroke4  290  100 I60
stroke4  292  99 I60
stroke4  294  99 I60
stroke4  296  98 I60
stroke4  298  99 I60
stroke4  300  99 I60
stroke4  301  99 I60
stroke4  303  100 I60
stroke4  304  101 I60
stroke4  304  102 I60
stroke4  304  103 I60
stroke4  304  104 I60
stroke4  303  104 I60
stroke4  302  104 I60
stroke4  301  104 I60
stroke4  300  103 I60
stroke4  299  102 I60
stroke4  298  101 I60
stroke4  298  100 I60
stroke4  298  98 I60
stroke5  367  45 B8
stroke5  367  44 I8
stroke5  366  44 I8
stroke5  365  44 I8
stroke5  364  44 I8
stroke5  363  44 I8
stroke5  362  44 I8
stroke5  361  44 I8
stroke5  360  44 I8
stroke5  359  45 I8
stroke5  358  45 I8
stroke5  357  46 I8
stroke5  356  47 I8
stroke5  356  48 I8
stroke5  356  49 I8
stroke5  356  50 I8
stroke5  356  51 I8
stroke5  357  52 I8
stroke5  357  53 I8
stroke5  357  54 I8
stroke5  358  54 I8
stroke5  358  55 I8
stroke5  359  55 I8
stroke5  360  54 I8
stroke5  360  53 I8
stroke5  361  52 I8
stroke5  361  51 I8
stroke5  362  49 I8
stroke5  362  48 I8
stroke5  363  46 I8
stroke5  364  45 I8
stroke5  364  44 I8
stroke5  364  42 I8
stroke5  365  41 I8
stroke5  365  40 I8
stroke5  366  38 I8
stroke5  366  37 I8
stroke5  366  36 I8
stroke5  367  35 I8
stroke5  367  33 I8
stroke5  368  32 I8
stroke5  368  31 I8
stroke5  368  30 I8
stroke5  368  29 I8
stroke5  369  28 I8
stroke5  369  27 I8
stroke5  369  26 I8
stroke5  370  25 I8
stroke5  370  24 I8
stroke5  370  23 I8
stroke5  370  22 I8
stroke5  371  21 I8
stroke5  371  20 I8
stroke5  371  18 I8
stroke5  371  17 I8
stroke5  371  16 I8
stroke5  371  15 I8
stroke5  372  14 I8
stroke5  372  13 I8
stroke5  372  12 I8
stroke5  372  11 I8
stroke5  372  10 I8
stroke5  373  10 I8
stroke5  373  9 I8
stroke5  373  8 I8
stroke5  373  7 I8
stroke5  373  6 I8
stroke5  372  6 I8
stroke5  373  6 I8
stroke5  372  6 I8
stroke5  372  7 I8
stroke5  372  8 I8
stroke5  372  9 I8
stroke5  372  10 I8
stroke5  372  12 I8
stroke5  372  13 I8
stroke5  372  15 I8
stroke5  373  17 I8
stroke5  373  19 I8
stroke5  373  21 I8
stroke5  374  23 I8
stroke5  374  25 I8
stroke5  374  27 I8
stroke5  374  28 I8
stroke5  374  30 I8
stroke5  374  31 I8
stroke5  374  33 I8
stroke5  374  34 I8
stroke5  373  36 I8
stroke5  373  37 I8
stroke5  373  38 I8
stroke5  373  40 I8
stroke5  373  41 I8
stroke5  374  42 I8
stroke5  374  43 I8
stroke5  374  44 I8
stroke5  374  46 I8
stroke5  374  47 I8
stroke5  374  48 I8
stroke5  373  50 I8
stroke5  373  51 I8
stroke5  373  52 I8
stroke5  373  53 I8
stroke5  373  55 I8
stroke5  373  56 I8
stroke5  373  57 I8
stroke5  373  58 I8
stroke5  373  59 I8
stroke5  373  60 I8
stroke5  373  61 I8
stroke5  372  62 I8
stroke5  372  63 I8
stroke5  372  64 I8
stroke5  372  65 I8
stroke5  371  66 I8
stroke5  371  67 I8
stroke5  370  68 I8
stroke5  370  69 I8
stroke5  369  70 I8
stroke5  368  70 I8
stroke5  367  71 I8
stroke5  366  71 I8
stroke5  366  72 I8
stroke5  365  72 I8
stroke5  364  72 I8
stroke5  363  73 I8
stroke5  362  73 I8
stroke5  361  73 I8
stroke5  360  73 I8
stroke5  358  72 I8
stroke5  356  71 I8
stroke5  354  69 I8
stroke5  351  67 I8
stroke5  348  64 I8
stroke5  344  61 I8
stroke5  341  59 I8
stroke5  338  56 I8
stroke5  336  54 I8
stroke5  334  52 I8
stroke5  333  49 I8
stroke5  333  47 I8
stroke6  402  18 B60
stroke6  401  18 I60
stroke6  401  19 I60
stroke6  401  20 I60
stroke6  402  21 I60
stroke6  402  22 I60
stroke6  402  23 I60
stroke6  402  24 I60
stroke6  402  25 I60
stroke6  403  25 I60
stroke6  403  26 I60
stroke6  403  27 I60
stroke6  404  27 I60
stroke6  404  28 I60
stroke6  405  28 I60
stroke6  406  28 I60
stroke6  407  28 I60
stroke6  408  28 I60
stroke6  409  28 I60
stroke6  409  27 I60
stroke6  410  26 I60
stroke6  411  25 I60
stroke6  411  24 I60
stroke6  411  23 I60
stroke6  412  23 I60
stroke6  412  22 I60
stroke6  412  21 I60
stroke6  412  20 I60
stroke6  412  19 I60
stroke6  412  18 I60
stroke6  413  17 I60
stroke6  413  16 I60
stroke6  412  15 I60
stroke6  412  14 I60
stroke6  412  13 I60
stroke6  411  12 I60
stroke6  411  11 I60
stroke6  411  10 I60
stroke6  410  10 I60
stroke6  410  9 I60
stroke6  409  8 I60
stroke6  409  7 I60
stroke6  408  7 I60
stroke6  408  6 I60
stroke6  407  6 I60
stroke6  406  6 I60
stroke6  405  6 I60
stroke6  405  7 I60
stroke6  404  8 I60
stroke6  404  9 I60
stroke6  403  10 I60
stroke6  403  11 I60
stroke6  403  12 I60
stroke6  404  13 I60
stroke6  404  14 I60
stroke6  404  15 I60
stroke6  404  17 I60
stroke6  405  19 I60
stroke6  405  21 I60
stroke6  405  23 I60
stroke6  406  24 I60
stroke6  406  26 I60
stroke6  406  28 I60
stroke6  407  30 I60
stroke6  407  31 I60
stroke6  407  33 I60
stroke6  407  34 I60
stroke6  408  36 I60
stroke6  408  37 I60
stroke6  408  39 I60
stroke6  408  41 I60
stroke6  409  43 I60
stroke6  409  44 I60
stroke6  409  46 I60
stroke6  410  48 I60
stroke6  410  50 I60
stroke6  410  52 I60
stroke6  410  53 I60
stroke6  411  55 I60
stroke6  411  56 I60
stroke6  411  58 I60
stroke6  411  59 I60
stroke6  411  61 I60
stroke6  411  62 I60
stroke6  412  63 I60
stroke6  412  65 I60
stroke6  412  66 I60
stroke6  412  67 I60
stroke6  412  68 I60
stroke6  413  70 I60
stroke6  413  71 I60
stroke6  413  73 I60
stroke6  413  74 I60
stroke6  413  75 I60
stroke6  413  77 I60
stroke6  413  78 I60
stroke6  413  79 I60
stroke6  413  80 I60
stroke6  413  82 I60
stroke6  414  83 I60
stroke6  414  84 I60
stroke6  414  85 I60
stroke6  414  87 I60
stroke6  414  88 I60
stroke6  414  90 I60
stroke6  414  91 I60
stroke6  414  93 I60
stroke6  414  94 I60
stroke6  414  96 I60
stroke6  414  97 I60
stroke6  414  98 I60
stroke6  414  99 I60
stroke6  414  101 I60
stroke6  414  102 I60
stroke6  413  103 I60
stroke6  413  104 I60
stroke6  413  105 I60
stroke6  413  107 I60
stroke6  412  108 I60
stroke6  412  109 I60
stroke6  412  111 I60
stroke6  412  112 I60
stroke6  412  113 I60
stroke6  411  115 I60
stroke6  411  116 I60
stroke6  410  117 I60
stroke6  410  118 I60
stroke6  410  119 I60
stroke6  409  120 I60
stroke6  409  121 I60
stroke6  409  122 I60
stroke6  408  123 I60
stroke6  408  124 I60
stroke6  408  125 I60
stroke6  408  126 I60
stroke6  408  127 I60
stroke6  407  128 I60
stroke6  407  129 I60
stroke6  407  130 I60
stroke6  406  130 I60
stroke6  406  131 I60
stroke6  406  132 I60
stroke6  405  132 I60
stroke6  405  133 I60
stroke6  404  134 I60
stroke6  403  135 I60
stroke6  403  136 I60
stroke6  402  136 I60
stroke6  402  137 I60
stroke6  401  137 I60
stroke6  400  138 I60
stroke6  399  139 I60
stroke6  398  139 I60
stroke6  397  139 I60
stroke6  396  140 I60
stroke6  395  140 I60
stroke6  394  140 I60
stroke6  393  140 I60
stroke6  392  139 I60
stroke6  390  139 I60
stroke6  389  138 I60
stroke6  387  138 I60
stroke6  386  137 I60
stroke6  385  137 I60
stroke6  383  136 I60
stroke6  382  135 I60
stroke6  381  135 I60
stroke6  380  134 I60
stroke6  379  133 I60
stroke6  378  132 I60
stroke6  377  130 I60
stroke6  376  129 I60
stroke6  375  127 I60
stroke6  375  126 I60
stroke6  374  124 I60
stroke6  374  122 I60
stroke6  374  120 I60
stroke6  374  119 I60
stroke6  374  117 I60
stroke6  375  115 I60
stroke6  376  113 I60
stroke6  377  112 I60
stroke6  379  111 I60
stroke6  381  109 I60
stroke6  383  109 I60
stroke6  385  109 I60
stroke6  387  109 I60
stroke6  390  110 I60
stroke6  392  111 I60
stroke6  394  112 I60
stroke6  395  113 I60
stroke6  396  114 I60
stroke6  397  115 I60
stroke6  397  116 I60
stroke6  397  117 I60
stroke6  396  117 I60
stroke6  395  118 I60
stroke6  393  118 I60
stroke6  391  117 I60
stroke6  390  117 I60
stroke6  388  117 I60
stroke6  387  116 I60
stroke6  386  116 I60
stroke6  385  115 I60
stroke6  385  114 I60
stroke6  385  113 I60
stroke6  386  112 I60
stroke6  387  111 I60
stroke6  387  109 I60
stroke7  441  18 B40
stroke7  440  18 I40
stroke7  439  18 I40
stroke7  439  19 I40
stroke7  439  20 I40
stroke7  439  21 I40
stroke7  440  22 I40
stroke7  440  23 I40
stroke7  440  24 I40
stroke7  441  25 I40
stroke7  441  26 I40
stroke7  441  27 I40
stroke7  442  27 I40
stroke7  442  28 I40
stroke7  443  28 I40
stroke7  444  28 I40
stroke7  445  27 I40
stroke7  445  26 I40
stroke7  445  25 I40
stroke7  445  24 I40
stroke7  445  23 I40
stroke7  444  22 I40
stroke7  444  21 I40
stroke7  444  20 I40
stroke7  443  19 I40
stroke7  443  18 I40
stroke7  442  17 I40
stroke7  442  15 I40
stroke7  442  14 I40
stroke7  441  13 I40
stroke7  440  12 I40
stroke7  440  11 I40
stroke7  439  10 I40
stroke7  439  9 I40
stroke7  438  8 I40
stroke7  437  7 I40
stroke7  437  6 I40
stroke7  437  5 I40
stroke7  436  5 I40
stroke7  437  6 I40
stroke7  437  7 I40
stroke7  437  8 I40
stroke7  437  9 I40
stroke7  437  11 I40
stroke7  437  12 I40
stroke7  438  14 I40
stroke7  438  16 I40
stroke7  438  17 I40
stroke7  438  19 I40
stroke7  439  21 I40
stroke7  439  23 I40
stroke7  440  26 I40
stroke7  440  28 I40
stroke7  441  30 I40
stroke7  442  32 I40
stroke7  442  34 I40
stroke7  442  36 I40
stroke7  443  38 I40
stroke7  443  39 I40
stroke7  443  41 I40
stroke7  443  42 I40
stroke7  443  44 I40
stroke7  443  45 I40
stroke7  443  46 I40
stroke7  443  47 I40
stroke7  443  48 I40
stroke7  443  49 I40
stroke7  444  49 I40
stroke7  444  48 I40
stroke7  445  48 I40
stroke7  445  47 I40
stroke7  446  46 I40
stroke7  446  45 I40
stroke7  447  44 I40
stroke7  447  43 I40
stroke7  448  41 I40
stroke7  449  40 I40
stroke7  449  38 I40
stroke7  449  37 I40
stroke7  450  35 I40
stroke7  450  33 I40
stroke7  451  32 I40
stroke7  451  30 I40
stroke7  451  29 I40
stroke7  452  27 I40
stroke7  452  26 I40
stroke7  452  24 I40
stroke7  452  23 I40
stroke7  453  21 I40
stroke7  453  20 I40
stroke7  453  18 I40
stroke7  453  17 I40
stroke7  453  15 I40
stroke7  453  14 I40
stroke7  454  12 I40
stroke7  454  11 I40
stroke7  454  10 I40
stroke7  454  9 I40
stroke7  455  8 I40
stroke7  455  7 I40
stroke7  455  6 I40
stroke7  455  5 I40
stroke7  455  6 I40
stroke7  455  7 I40
stroke7  455  8 I40
stroke7  455  9 I40
stroke7  456  11 I40
stroke7  456  12 I40
stroke7  456  15 I40
stroke7  456  17 I40
stroke7  457  19 I40
stroke7  457  22 I40
stroke7  457  24 I40
stroke7  457  26 I40
stroke7  458  29 I40
stroke7  458  31 I40
stroke7  458  32 I40
stroke7  458  34 I40
stroke7  458  36 I40
stroke7  458  38 I40
stroke7  457  40 I40
stroke7  458  42 I40
stroke7  458  44 I40
stroke7  458  45 I40
stroke7  458  47 I40
stroke7  458  49 I40
stroke7  458  50 I40
stroke7  458  52 I40
stroke7  458  53 I40
stroke7  458  55 I40
stroke7  458  56 I40
stroke7  459  58 I40
stroke7  459  59 I40
stroke7  459  60 I40
stroke7  459  61 I40
stroke7  459  62 I40
stroke7  459  63 I40
stroke7  458  63 I40
stroke7  458  64 I40
stroke7  458  65 I40
stroke7  457  66 I40
stroke7  457  67 I40
stroke7  457  68 I40
stroke7  456  68 I40
stroke7  456  69 I40
stroke7  456  70 I40
stroke7  455  70 I40
stroke7  455  71 I40
stroke7  454  71 I40
stroke7  453  72 I40
stroke7  452  72 I40
stroke7  451  71 I40
stroke7  450  71 I40
stroke7  448  71 I40
stroke7  446  70 I40
stroke7  444  69 I40
stroke7  441  68 I40
stroke7  439  67 I40
stroke7  436  66 I40
stroke7  434  64 I40
stroke7  432  63 I40
stroke7  430  61 I40
stroke7  428  59 I40
stroke7  426  58 I40
stroke7  425  56 I40
stroke7  424  55 I40
stroke7  423  53 I40
stroke7  457  68 I40
stroke7  458  67 I40
stroke7  458  68 I40
stroke7  459  68 I40
stroke7  460  68 I40
stroke7  461  69 I40
stroke7  462  70 I40
stroke7  462  71 I40
stroke7  463  71 I40
stroke7  464  72 I40
stroke7  465  73 I40
stroke7  466  74 I40
stroke7  467  76 I40
stroke7  469  77 I40
stroke7  471  79 I40
stroke7  473  82 I40
stroke7  476  84 I40
stroke7  478  86 I40
stroke7  479  88 I40
stroke7  481  90 I40
stroke7  483  91 I40
stroke7  484  93 I40
stroke7  485  94 I40
stroke7  486  95 I40
stroke7  486  96 I40
stroke7  486  97 I40
stroke7  487  98 I40
stroke7  486  99 I40
stroke7  485  99 I40
stroke8  454  104 B65
stroke8  454  105 I65
stroke8  455  106 I65
stroke8  455  107 I65
stroke8  456  108 I65
stroke8  455  109 I65
stroke8  455  110 I65
stroke8  455  111 I65
stroke8  454  110 I65
stroke8  454  108 I65
stroke8  454  107 I65
stroke8  454  105 I65
stroke8  453  103 I65
stroke8  453  101 I65
stroke8  452  98 I65
stroke8  452  96 I65
stroke8  451  94 I65
stroke8  451  91 I65
stroke8  450  90 I65
stroke8  450  89 I65
stroke8  450  88 I65
stroke8  450  87 I65
