stroke1  231  17 B37
stroke1  231  18 I37
stroke1  231  19 I37
stroke1  230  19 I37
stroke1  229  20 I37
stroke1  228  20 I37
stroke1  227  20 I37
stroke1  226  20 I37
stroke1  225  20 I37
stroke1  224  19 I37
stroke1  223  19 I37
stroke1  222  18 I37
stroke1  222  17 I37
stroke1  221  16 I37
stroke1  220  15 I37
stroke1  219  14 I37
stroke1  218  13 I37
stroke1  218  12 I37
stroke1  217  11 I37
stroke1  217  10 I37
stroke1  216  9 I37
stroke1  216  8 I37
stroke1  217  8 I37
stroke1  217  7 I37
stroke1  217  6 I37
stroke1  218  6 I37
stroke1  219  6 I37
stroke1  220  6 I37
stroke1  221  6 I37
stroke1  222  6 I37
stroke1  223  6 I37
stroke1  224  6 I37
stroke1  225  6 I37
stroke1  226  6 I37
stroke1  227  6 I37
stroke1  228  6 I37
stroke1  229  6 I37
stroke1  229  7 I37
stroke1  229  8 I37
stroke1  229  9 I37
stroke1  229  10 I37
stroke1  230  11 I37
stroke1  230  12 I37
stroke1  230  14 I37
stroke1  230  15 I37
stroke1  230  17 I37
stroke1  231  18 I37
stroke1  231  20 I37
stroke1  231  21 I37
stroke1  231  23 I37
stroke1  231  24 I37
stroke1  231  26 I37
stroke1  231  27 I37
stroke1  231  28 I37
stroke1  231  30 I37
stroke1  231  31 I37
stroke1  231  32 I37
stroke1  231  33 I37
stroke1  231  34 I37
stroke1  231  35 I37
stroke1  231  36 I37
stroke1  231  38 I37
stroke1  231  39 I37
stroke1  231  40 I37
stroke1  231  41 I37
stroke1  231  42 I37
stroke1  231  43 I37
stroke1  231  44 I37
stroke1  231  45 I37
stroke1  231  47 I37
stroke1  231  48 I37
stroke1  230  49 I37
stroke1  230  50 I37
stroke1  230  51 I37
stroke1  230  52 I37
stroke1  230  53 I37
stroke1  230  54 I37
stroke1  230  55 I37
stroke1  230  56 I37
stroke1  230  57 I37
stroke1  230  58 I37
stroke1  230  59 I37
stroke1  230  60 I37
stroke1  229  61 I37
stroke1  229  62 I37
stroke1  229  63 I37
stroke1  229  64 I37
stroke1  229  65 I37
stroke1  228  65 I37
stroke1  228  66 I37
stroke1  228  67 I37
stroke1  227  68 I37
stroke1  226  69 I37
stroke1  225  69 I37
stroke1  225  70 I37
stroke1  224  70 I37
stroke1  223  70 I37
stroke1  222  70 I37
stroke1  220  69 I37
stroke1  219  69 I37
stroke1  216  68 I37
stroke1  214  67 I37
stroke1  211  65 I37
stroke1  208  64 I37
stroke1  204  62 I37
stroke1  201  60 I37
stroke1  198  58 I37
stroke1  195  55 I37
stroke1  192  53 I37
stroke1  190  50 I37
stroke2  221  93 B45
stroke2  222  93 I45
stroke2  221  94 I45
stroke2  220  95 I45
stroke2  219  95 I45
stroke2  218  95 I45
stroke2  217  95 I45
stroke2  216  95 I45
stroke2  215  95 I45
stroke2  215  94 I45
stroke2  214  94 I45
stroke2  213  94 I45
stroke2  213  93 I45
stroke2  214  92 I45
stroke2  215  93 I45
stroke2  216  93 I45
stroke2  218  93 I45
stroke2  220  93 I45
stroke2  223  94 I45
stroke2  225  94 I45
stroke2  228  95 I45
stroke2  231  95 I45
stroke2  233  96 I45
stroke2  236  98 I45
stroke2  239  99 I45
stroke2  242  100 I45
stroke2  244  101 I45
stroke2  247  102 I45
stroke2  248  103 I45
stroke2  250  104 I45
stroke2  251  104 I45
stroke2  251  105 I45
stroke2  252  105 I45
stroke3  267  50 B18
stroke3  267  49 I18
stroke3  267  48 I18
stroke3  266  48 I18
stroke3  265  48 I18
stroke3  264  48 I18
stroke3  264  49 I18
stroke3  263  49 I18
stroke3  263  50 I18
stroke3  262  51 I18
stroke3  262  52 I18
stroke3  261  52 I18
stroke3  261  53 I18
stroke3  261  54 I18
stroke3  262  54 I18
stroke3  262  55 I18
stroke3  263  55 I18
stroke3  264  55 I18
stroke3  265  54 I18
stroke3  265  53 I18
stroke3  265  52 I18
stroke3  265  51 I18
stroke3  265  50 I18
stroke3  265  49 I18
stroke3  265  48 I18
stroke3  264  47 I18
stroke3  264  46 I18
stroke3  264  45 I18
stroke3  264  44 I18
stroke3  263  43 I18
stroke3  262  42 I18
stroke3  262  41 I18
stroke3  261  40 I18
stroke3  260  39 I18
stroke3  260  38 I18
stroke3  259  37 I18
stroke3  258  35 I18
stroke3  258  34 I18
stroke3  257  33 I18
stroke3  257  31 I18
stroke3  256  30 I18
stroke3  255  29 I18
stroke3  255  27 I18
stroke3  254  26 I18
stroke3  254  25 I18
stroke3  254  24 I18
stroke3  253  22 I18
stroke3  253  21 I18
stroke3  253  20 I18
stroke3  252  19 I18
stroke3  252  18 I18
stroke3  252  17 I18
stroke3  251  15 I18
stroke3  251  14 I18
stroke3  251  13 I18
stroke3  251  12 I18
stroke3  250  11 I18
stroke3  250  10 I18
stroke3  250  9 I18
stroke3  249  9 I18
stroke3  249  8 I18
stroke3  249  7 I18
stroke3  249  6 I18
stroke3  248  5 I18
stroke3  248  4 I18
stroke3  248  3 I18
stroke3  247  3 I18
stroke3  247  4 I18
stroke3  247  5 I18
stroke3  247  6 I18
stroke3  247  7 I18
stroke3  247  8 I18
stroke3  247  9 I18
stroke3  247  11 I18
stroke3  247  13 I18
stroke3  247  15 I18
stroke3  247  17 I18
stroke3  248  20 I18
stroke3  248  22 I18
stroke3  249  25 I18
stroke3  249  27 I18
stroke3  249  30 I18
stroke3  250  33 I18
stroke3  250  35 I18
stroke3  250  37 I18
stroke3  250  40 I18
stroke3  250  42 I18
stroke3  251  44 I18
stroke3  251  46 I18
stroke3  250  48 I18
stroke3  250  50 I18
stroke3  250  52 I18
stroke3  250  53 I18
stroke3  249  55 I18
stroke3  249  57 I18
stroke3  249  58 I18
stroke3  249  60 I18
stroke3  249  62 I18
stroke3  249  63 I18
stroke3  249  65 I18
stroke3  249  66 I18
stroke3  249  67 I18
stroke3  250  68 I18
stroke3  250  69 I18
stroke3  250  70 I18
stroke3  250  71 I18
stroke3  250  72 I18
stroke3  251  72 I18
stroke3  251  73 I18
stroke3  252  74 I18
stroke3  252  75 I18
stroke3  253  75 I18
stroke3  254  76 I18
stroke3  254  77 I18
stroke3  255  77 I18
stroke3  256  77 I18
stroke3  256  78 I18
stroke3  257  78 I18
stroke3  258  78 I18
stroke3  259  78 I18
stroke3  260  77 I18
stroke3  261  77 I18
stroke3  262  76 I18
stroke3  262  75 I18
stroke3  263  74 I18
stroke3  264  72 I18
stroke3  264  71 I18
stroke3  265  69 I18
stroke3  265  68 I18
stroke3  266  67 I18
stroke3  266  66 I18
stroke3  266  65 I18
stroke3  267  65 I18
stroke3  267  64 I18
stroke3  268  64 I18
stroke3  268  65 I18
stroke3  269  66 I18
stroke3  269  67 I18
stroke3  270  68 I18
stroke3  270  69 I18
stroke3  271  70 I18
stroke3  271  71 I18
stroke3  272  72 I18
stroke3  272  73 I18
stroke3  273  74 I18
stroke3  274  75 I18
stroke3  275  76 I18
stroke3  276  76 I18
stroke3  277  76 I18
stroke3  278  76 I18
stroke3  279  76 I18
stroke3  280  75 I18
stroke3  281  75 I18
stroke3  282  75 I18
stroke3  283  75 I18
stroke3  284  74 I18
stroke3  285  74 I18
stroke3  286  73 I18
stroke3  287  72 I18
stroke3  288  71 I18
stroke3  288  70 I18
stroke3  289  69 I18
stroke3  289  68 I18
stroke3  290  66 I18
stroke3  290  65 I18
stroke3  289  64 I18
stroke3  289  63 I18
stroke3  289  61 I18
stroke3  289  60 I18
stroke3  288  58 I18
stroke3  288  56 I18
stroke3  288  55 I18
stroke3  287  53 I18
stroke3  287  51 I18
stroke3  287  49 I18
stroke3  287  48 I18
stroke3  286  46 I18
stroke3  286  44 I18
stroke3  286  43 I18
stroke3  285  41 I18
stroke3  285  40 I18
stroke3  285  38 I18
stroke3  285  36 I18
stroke3  285  34 I18
stroke3  284  33 I18
stroke3  284  31 I18
stroke3  284  29 I18
stroke3  284  27 I18
stroke3  284  26 I18
stroke3  284  24 I18
stroke3  283  22 I18
stroke3  283  21 I18
stroke3  283  20 I18
stroke3  283  18 I18
stroke3  283  17 I18
stroke3  284  16 I18
stroke3  284  15 I18
stroke3  283  14 I18
stroke3  283  13 I18
stroke3  282  12 I18
stroke3  282  11 I18
stroke3  281  11 I18
stroke3  281  10 I18
stroke3  280  10 I18
stroke3  279  9 I18
stroke3  278  9 I18
stroke3  277  8 I18
stroke3  276  8 I18
stroke3  276  9 I18
stroke3  276  10 I18
stroke3  276  11 I18
stroke3  276  12 I18
stroke3  276  13 I18
stroke3  275  15 I18
stroke3  276  16 I18
stroke3  276  18 I18
stroke3  276  20 I18
stroke3  276  21 I18
stroke3  276  22 I18
stroke3  277  23 I18
stroke3  277  24 I18
stroke3  277  25 I18
stroke3  278  26 I18
stroke3  279  26 I18
stroke3  280  27 I18
stroke3  281  27 I18
stroke3  282  26 I18
stroke3  283  26 I18
stroke3  284  25 I18
stroke3  285  24 I18
stroke3  286  23 I18
stroke3  288  22 I18
stroke3  289  21 I18
stroke3  290  19 I18
stroke3  292  18 I18
stroke3  293  16 I18
stroke3  295  15 I18
stroke3  296  14 I18
stroke3  297  13 I18
stroke3  298  12 I18
stroke3  299  11 I18
stroke3  299  10 I18
stroke3  300  10 I18
stroke3  300  9 I18
stroke3  301  9 I18
stroke3  301  8 I18
stroke3  302  8 I18
stroke3  303  9 I18
stroke3  303  10 I18
stroke3  303  11 I18
stroke3  303  12 I18
stroke3  304  13 I18
stroke3  304  14 I18
stroke3  304  16 I18
stroke3  304  17 I18
stroke3  304  19 I18
stroke3  305  21 I18
stroke3  305  24 I18
stroke3  305  27 I18
stroke3  305  29 I18
stroke3  306  32 I18
stroke3  306  36 I18
stroke3  306  39 I18
stroke3  307  42 I18
stroke3  307  44 I18
stroke3  307  47 I18
stroke3  307  50 I18
stroke3  307  53 I18
stroke3  307  56 I18
stroke3  307  59 I18
stroke3  307  62 I18
stroke3  307  64 I18
stroke3  307  66 I18
stroke3  307  68 I18
stroke3  307  69 I18
stroke3  308  70 I18
stroke3  308  71 I18
stroke3  308  72 I18
stroke3  308  73 I18
stroke3  308  74 I18
stroke3  308  75 I18
stroke3  308  76 I18
stroke3  308  75 I18
stroke3  307  74 I18
stroke3  306  73 I18
stroke4  334  60 B25
stroke4  333  60 I25
stroke4  332  60 I25
stroke4  331  60 I25
stroke4  330  60 I25
stroke4  329  60 I25
stroke4  328  60 I25
stroke4  327  60 I25
stroke4  326  61 I25
stroke4  325  61 I25
stroke4  324  61 I25
stroke4  324  62 I25
stroke4  323  63 I25
stroke4  323  64 I25
stroke4  322  65 I25
stroke4  322  66 I25
stroke4  322  67 I25
stroke4  322  68 I25
stroke4  323  68 I25
stroke4  323  69 I25
stroke4  323  70 I25
stroke4  324  70 I25
stroke4  325  70 I25
stroke4  326  69 I25
stroke4  327  69 I25
stroke4  327  68 I25
stroke4  328  67 I25
stroke4  329  66 I25
stroke4  329  65 I25
stroke4  330  64 I25
stroke4  330  63 I25
stroke4  331  61 I25
stroke4  331  60 I25
stroke4  331  59 I25
stroke4  331  58 I25
stroke4  332  57 I25
stroke4  332  56 I25
stroke4  332  54 I25
stroke4  332  53 I25
stroke4  333  52 I25
stroke4  333  50 I25
stroke4  333  48 I25
stroke4  332  47 I25
stroke4  332  45 I25
stroke4  332  44 I25
stroke4  332  42 I25
stroke4  332  41 I25
stroke4  332  39 I25
stroke4  332  38 I25
stroke4  332  37 I25
stroke4  332  35 I25
stroke4  332  34 I25
stroke4  331  33 I25
stroke4  331  31 I25
stroke4  331  30 I25
stroke4  331  29 I25
stroke4  331  28 I25
stroke4  330  27 I25
stroke4  330  26 I25
stroke4  330  25 I25
stroke4  330  23 I25
stroke4  330  22 I25
stroke4  330  21 I25
stroke4  330  20 I25
stroke4  330  19 I25
stroke4  329  18 I25
stroke4  329  17 I25
stroke4  329  16 I25
stroke4  329  15 I25
stroke4  329  14 I25
stroke4  329  13 I25
stroke4  328  12 I25
stroke4  328  11 I25
stroke4  328  10 I25
stroke4  328  9 I25
stroke4  328  8 I25
stroke4  328  7 I25
stroke4  328  6 I25
stroke4  328  5 I25
stroke4  328  6 I25
stroke4  329  6 I25
stroke4  329  7 I25
stroke4  329  8 I25
stroke4  330  9 I25
stroke4  331  10 I25
stroke4  332  11 I25
stroke4  333  13 I25
stroke4  335  15 I25
stroke4  336  16 I25
stroke4  338  18 I25
stroke4  340  20 I25
stroke4  341  21 I25
stroke4  342  22 I25
stroke4  343  23 I25
stroke4  344  23 I25
stroke4  345  24 I25
stroke4  346  24 I25
stroke4  347  24 I25
stroke4  348  24 I25
stroke4  349  24 I25
stroke4  350  24 I25
stroke4  351  23 I25
stroke4  352  23 I25
stroke4  353  22 I25
stroke4  354  22 I25
stroke4  355  21 I25
stroke4  356  20 I25
stroke4  357  20 I25
stroke4  357  19 I25
stroke4  357  18 I25
stroke4  358  18 I25
stroke4  358  17 I25
stroke4  358  16 I25
stroke4  358  15 I25
stroke4  358  14 I25
stroke4  357  14 I25
stroke4  357  13 I25
stroke4  356  12 I25
stroke4  356  11 I25
stroke4  355  10 I25
stroke4  354  10 I25
stroke4  354  9 I25
stroke4  353  9 I25
stroke4  352  8 I25
stroke4  351  8 I25
stroke4  351  7 I25
stroke4  350  7 I25
stroke4  350  6 I25
stroke4  349  7 I25
stroke4  349  8 I25
stroke4  349  9 I25
stroke4  349  10 I25
stroke4  350  11 I25
stroke4  350  13 I25
stroke4  350  15 I25
stroke4  351  18 I25
stroke4  351  20 I25
stroke4  352  23 I25
stroke4  352  25 I25
stroke4  353  27 I25
stroke4  353  29 I25
stroke4  354  31 I25
stroke4  354  33 I25
stroke4  354  35 I25
stroke4  354  37 I25
stroke4  354  39 I25
stroke4  354  41 I25
stroke4  354  43 I25
stroke4  355  45 I25
stroke4  355  47 I25
stroke4  355  49 I25
stroke4  356  51 I25
stroke4  356  54 I25
stroke4  356  56 I25
stroke4  357  58 I25
stroke4  357  60 I25
stroke4  357  61 I25
stroke4  358  63 I25
stroke4  358  65 I25
stroke4  358  66 I25
stroke4  358  68 I25
stroke4  359  69 I25
stroke4  359  70 I25
stroke4  359  71 I25
stroke4  360  71 I25
stroke4  359  71 I25
stroke4  359  70 I25
stroke5  387  44 B24
stroke5  387  45 I24
stroke5  388  45 I24
stroke5  387  44 I24
stroke5  387  43 I24
stroke5  387  42 I24
stroke5  386  41 I24
stroke5  386  39 I24
stroke5  386  38 I24
stroke5  386  36 I24
stroke5  385  35 I24
stroke5  385  34 I24
stroke5  385  32 I24
stroke5  385  31 I24
stroke5  385  29 I24
stroke5  385  28 I24
stroke5  385  26 I24
stroke5  384  25 I24
stroke5  384  23 I24
stroke5  384  22 I24
stroke5  384  21 I24
stroke5  383  20 I24
stroke5  383  19 I24
stroke5  383  18 I24
stroke5  383  17 I24
stroke5  382  16 I24
stroke5  382  15 I24
stroke5  382  14 I24
stroke5  382  13 I24
stroke5  382  12 I24
stroke5  382  11 I24
stroke5  383  11 I24
stroke5  383  10 I24
stroke5  384  10 I24
stroke5  384  9 I24
stroke5  385  9 I24
stroke5  386  9 I24
stroke5  387  9 I24
stroke5  387  10 I24
stroke5  388  10 I24
stroke5  389  9 I24
stroke5  390  9 I24
stroke5  391  9 I24
stroke5  392  9 I24
stroke5  393  9 I24
stroke5  393  10 I24
stroke5  394  10 I24
stroke5  394  11 I24
stroke5  394  12 I24
stroke5  394  13 I24
stroke5  394  14 I24
stroke5  395  15 I24
stroke5  395  17 I24
stroke5  395  18 I24
stroke5  396  20 I24
stroke5  396  22 I24
stroke5  397  24 I24
stroke5  397  27 I24
stroke5  398  29 I24
stroke5  399  31 I24
stroke5  399  33 I24
stroke5  400  35 I24
stroke5  400  37 I24
stroke5  400  38 I24
stroke5  400  40 I24
stroke5  400  41 I24
stroke5  400  42 I24
stroke5  400  43 I24
stroke5  400  44 I24
stroke5  400  45 I24
stroke5  400  46 I24
stroke5  400  47 I24
stroke5  401  48 I24
stroke5  401  49 I24
stroke5  401  50 I24
stroke5  401  51 I24
stroke5  401  52 I24
stroke5  401  53 I24
stroke5  401  54 I24
stroke5  401  55 I24
stroke5  400  56 I24
stroke5  400  57 I24
stroke5  400  58 I24
stroke5  400  59 I24
stroke5  399  59 I24
stroke5  399  60 I24
stroke5  398  60 I24
stroke5  397  60 I24
stroke5  396  60 I24
stroke5  395  60 I24
stroke5  394  60 I24
stroke5  393  60 I24
stroke5  391  60 I24
stroke5  390  60 I24
stroke5  388  59 I24
stroke5  386  59 I24
stroke5  383  58 I24
stroke5  381  58 I24
stroke5  379  57 I24
stroke5  377  57 I24
stroke5  375  57 I24
stroke5  373  56 I24
stroke5  371  56 I24
stroke5  370  56 I24
stroke5  369  56 I24
stroke5  368  56 I24
stroke5  367  56 I24
stroke5  366  56 I24
stroke5  365  56 I24
stroke5  364  56 I24
stroke5  364  57 I24
stroke5  365  57 I24
stroke5  365  58 I24
stroke5  366  58 I24
stroke5  367  59 I24
stroke5  368  60 I24
stroke5  369  61 I24
stroke5  371  62 I24
stroke5  373  63 I24
stroke5  375  64 I24
stroke5  377  65 I24
stroke5  379  66 I24
stroke5  380  67 I24
stroke5  382  67 I24
stroke5  384  67 I24
stroke5  385  68 I24
stroke5  387  68 I24
stroke5  388  68 I24
stroke5  390  67 I24
stroke5  391  67 I24
stroke5  393  67 I24
stroke5  394  67 I24
stroke5  396  67 I24
stroke5  397  67 I24
stroke5  399  67 I24
stroke5  400  68 I24
stroke5  402  67 I24
stroke5  403  67 I24
stroke5  405  67 I24
stroke5  406  67 I24
stroke5  407  67 I24
stroke5  408  67 I24
stroke5  409  67 I24
stroke5  410  67 I24
stroke5  412  68 I24
stroke5  413  69 I24
stroke5  415  70 I24
stroke5  417  71 I24
stroke5  419  73 I24
stroke5  421  74 I24
stroke5  422  76 I24
stroke5  424  77 I24
stroke5  425  78 I24
stroke5  426  79 I24
stroke5  427  80 I24
stroke5  428  80 I24
stroke5  428  81 I24
stroke5  428  80 I24
stroke5  428  79 I24
stroke5  427  79 I24
stroke5  426  78 I24
stroke6  424  13 B35
stroke6  424  12 I35
stroke6  425  12 I35
stroke6  425  13 I35
stroke6  424  14 I35
stroke6  423  14 I35
stroke6  422  14 I35
stroke6  421  14 I35
stroke6  420  13 I35
stroke6  419  13 I35
stroke6  418  12 I35
stroke6  417  11 I35
stroke6  417  10 I35
stroke6  416  9 I35
stroke6  416  8 I35
stroke6  416  7 I35
stroke6  416  6 I35
stroke6  417  6 I35
stroke6  417  5 I35
stroke6  418  5 I35
stroke6  419  5 I35
stroke6  420  5 I35
stroke6  421  5 I35
stroke6  422  5 I35
stroke6  423  6 I35
stroke6  425  6 I35
stroke6  426  6 I35
stroke6  427  6 I35
stroke6  428  6 I35
stroke6  429  6 I35
stroke6  430  6 I35
stroke6  431  7 I35
stroke6  432  7 I35
stroke6  432  8 I35
stroke6  433  9 I35
stroke6  433  10 I35
stroke6  434  11 I35
stroke6  434  12 I35
stroke6  435  13 I35
stroke6  435  14 I35
stroke6  435  16 I35
stroke6  436  18 I35
stroke6  436  19 I35
stroke6  437  21 I35
stroke6  437  23 I35
stroke6  438  25 I35
stroke6  438  27 I35
stroke6  438  29 I35
stroke6  439  30 I35
stroke6  439  31 I35
stroke6  439  33 I35
stroke6  439  34 I35
stroke6  439  35 I35
stroke6  440  36 I35
stroke6  440  38 I35
stroke6  440  39 I35
stroke6  440  41 I35
stroke6  441  42 I35
stroke6  441  44 I35
stroke6  441  45 I35
stroke6  442  47 I35
stroke6  442  48 I35
stroke6  442  49 I35
stroke6  442  50 I35
stroke6  443  51 I35
stroke6  443  52 I35
stroke6  442  53 I35
stroke6  442  54 I35
stroke6  442  55 I35
stroke6  442  56 I35
stroke6  441  56 I35
stroke6  441  57 I35
stroke6  441  58 I35
stroke6  440  58 I35
stroke6  439  58 I35
stroke6  438  58 I35
stroke6  437  58 I35
stroke6  435  58 I35
stroke6  434  57 I35
stroke6  432  56 I35
stroke6  430  56 I35
stroke6  428  55 I35
stroke6  426  54 I35
stroke6  425  54 I35
stroke6  423  53 I35
stroke6  422  52 I35
stroke6  421  52 I35
stroke6  420  52 I35
stroke6  420  51 I35
stroke6  419  51 I35
stroke6  419  52 I35
stroke6  418  52 I35
stroke6  418  53 I35
stroke6  419  54 I35
stroke6  420  55 I35
stroke6  420  56 I35
stroke6  421  57 I35
stroke6  422  58 I35
stroke6  423  58 I35
stroke6  425  59 I35
stroke6  426  60 I35
stroke6  428  60 I35
stroke6  429  60 I35
stroke6  431  61 I35
stroke6  433  61 I35
stroke6  434  61 I35
stroke6  436  60 I35
stroke6  437  60 I35
stroke6  439  60 I35
stroke6  440  60 I35
stroke6  441  60 I35
stroke6  442  60 I35
stroke6  444  60 I35
stroke6  445  60 I35
stroke6  446  60 I35
stroke6  448  61 I35
stroke6  449  61 I35
stroke6  450  62 I35
stroke6  452  63 I35
stroke6  453  64 I35
stroke6  454  65 I35
stroke6  455  65 I35
stroke6  456  66 I35
stroke6  457  66 I35
stroke6  457  67 I35
stroke6  458  67 I35
stroke6  458  66 I35
stroke6  457  66 I35
stroke7  463  14 B35
stroke7  464  14 I35
stroke7  464  15 I35
stroke7  463  15 I35
stroke7  462  15 I35
stroke7  461  15 I35
stroke7  460  15 I35
stroke7  459  14 I35
stroke7  458  13 I35
stroke7  458  12 I35
stroke7  457  11 I35
stroke7  457  10 I35
stroke7  457  9 I35
stroke7  457  8 I35
stroke7  458  7 I35
stroke7  459  7 I35
stroke7  460  7 I35
stroke7  461  7 I35
stroke7  462  7 I35
stroke7  463  7 I35
stroke7  464  7 I35
stroke7  466  8 I35
stroke7  467  8 I35
stroke7  468  8 I35
stroke7  469  8 I35
stroke7  470  9 I35
stroke7  471  9 I35
stroke7  472  9 I35
stroke7  473  9 I35
stroke7  474  9 I35
stroke7  474  10 I35
stroke7  475  11 I35
stroke7  475  12 I35
stroke7  475  14 I35
stroke7  476  15 I35
stroke7  476  17 I35
stroke7  477  19 I35
stroke7  477  21 I35
stroke7  478  23 I35
stroke7  478  26 I35
stroke7  479  28 I35
stroke7  479  30 I35
stroke7  479  32 I35
stroke7  480  34 I35
stroke7  480  36 I35
stroke7  480  38 I35
stroke7  481  39 I35
stroke7  481  40 I35
stroke7  481  42 I35
stroke7  482  43 I35
stroke7  482  44 I35
stroke7  482  45 I35
stroke7  482  46 I35
stroke7  482  47 I35
stroke7  482  48 I35
stroke7  482  49 I35
stroke7  482  50 I35
stroke7  482  51 I35
stroke7  481  51 I35
stroke7  481  52 I35
stroke7  481  53 I35
stroke7  480  54 I35
stroke7  480  55 I35
stroke7  479  55 I35
stroke7  479  56 I35
stroke7  478  55 I35
stroke7  477  55 I35
stroke7  476  55 I35
stroke7  475  55 I35
stroke7  473  55 I35
stroke7  472  54 I35
stroke7  471  54 I35
stroke7  469  54 I35
stroke7  468  53 I35
stroke7  466  53 I35
stroke7  465  53 I35
stroke7  464  53 I35
stroke7  463  53 I35
stroke7  464  54 I35
stroke7  465  55 I35
stroke7  466  55 I35
stroke7  468  56 I35
stroke7  469  57 I35
stroke7  470  58 I35
stroke7  472  59 I35
stroke7  473  59 I35
stroke7  475  60 I35
stroke7  476  60 I35
stroke7  477  61 I35
stroke7  478  61 I35
stroke7  479  61 I35
stroke7  480  61 I35
stroke7  481  61 I35
stroke7  482  61 I35
stroke7  483  60 I35
stroke7  484  60 I35
stroke7  485  59 I35
stroke7  486  59 I35
stroke7  487  58 I35
stroke7  488  58 I35
stroke7  489  58 I35
stroke7  490  58 I35
stroke7  491  58 I35
stroke7  492  59 I35
stroke7  493  60 I35
stroke7  494  61 I35
stroke7  496  62 I35
stroke7  497  63 I35
stroke7  499  65 I35
stroke7  500  67 I35
stroke7  502  68 I35
stroke7  504  70 I35
stroke7  505  71 I35
stroke7  507  72 I35
stroke7  508  73 I35
stroke7  509  74 I35
stroke7  510  74 I35
stroke7  510  73 I35
stroke7  509  73 I35
stroke7  509  72 I35
stroke7  508  72 I35
stroke7  507  71 I35
stroke8  533  64 B33
stroke8  533  63 I33
stroke8  533  62 I33
stroke8  533  61 I33
stroke8  532  60 I33
stroke8  531  59 I33
stroke8  530  59 I33
stroke8  529  59 I33
stroke8  528  60 I33
stroke8  527  61 I33
stroke8  527  62 I33
stroke8  526  62 I33
stroke8  525  63 I33
stroke8  524  64 I33
stroke8  524  65 I33
stroke8  523  66 I33
stroke8  523  67 I33
stroke8  523  68 I33
stroke8  523  69 I33
stroke8  523  70 I33
stroke8  524  71 I33
stroke8  525  72 I33
stroke8  526  73 I33
stroke8  527  73 I33
stroke8  528  73 I33
stroke8  529  72 I33
stroke8  530  72 I33
stroke8  531  72 I33
stroke8  532  72 I33
stroke8  533  71 I33
stroke8  534  71 I33
stroke8  534  70 I33
stroke8  535  70 I33
stroke8  535  69 I33
stroke8  536  68 I33
stroke8  536  67 I33
stroke8  536  65 I33
stroke8  536  64 I33
stroke8  536  62 I33
stroke8  536  61 I33
stroke8  536  59 I33
stroke8  536  57 I33
stroke8  536  56 I33
stroke8  536  54 I33
stroke8  536  53 I33
stroke8  537  51 I33
stroke8  537  50 I33
stroke8  536  48 I33
stroke8  536  47 I33
stroke8  536  45 I33
stroke8  536  44 I33
stroke8  536  42 I33
stroke8  536  41 I33
stroke8  535  40 I33
stroke8  535  38 I33
stroke8  535  37 I33
stroke8  535  36 I33
stroke8  535  35 I33
stroke8  535  33 I33
stroke8  535  32 I33
stroke8  535  31 I33
stroke8  535  30 I33
stroke8  535  29 I33
stroke8  534  27 I33
stroke8  534  26 I33
stroke8  534  25 I33
stroke8  534  24 I33
stroke8  534  23 I33
stroke8  534  22 I33
stroke8  534  21 I33
stroke8  534  20 I33
stroke8  534  19 I33
stroke8  533  18 I33
stroke8  533  17 I33
stroke8  533  16 I33
stroke8  533  15 I33
stroke8  533  14 I33
stroke8  532  14 I33
stroke8  532  13 I33
stroke8  532  12 I33
stroke8  532  11 I33
stroke8  532  10 I33
stroke8  531  10 I33
stroke8  530  10 I33
stroke8  529  10 I33
stroke8  529  11 I33
stroke8  528  11 I33
stroke8  527  12 I33
stroke8  526  13 I33
stroke8  525  14 I33
stroke8  525  15 I33
stroke8  524  16 I33
stroke8  523  16 I33
stroke8  523  17 I33
stroke8  523  18 I33
stroke8  523  19 I33
stroke8  523  20 I33
stroke8  523  21 I33
stroke8  523  22 I33
stroke8  524  23 I33
stroke8  524  24 I33
stroke8  525  25 I33
stroke8  526  26 I33
stroke8  527  27 I33
stroke8  528  27 I33
stroke8  529  27 I33
stroke8  530  27 I33
stroke8  531  27 I33
stroke8  532  27 I33
stroke8  533  27 I33
stroke8  534  26 I33
stroke8  535  25 I33
stroke8  536  24 I33
stroke8  537  23 I33
stroke8  538  22 I33
stroke8  539  21 I33
stroke8  539  20 I33
stroke8  540  19 I33
stroke8  541  17 I33
stroke8  542  16 I33
stroke8  543  15 I33
stroke8  544  14 I33
stroke8  544  12 I33
stroke8  545  11 I33
stroke8  546  9 I33
stroke8  546  8 I33
stroke8  547  7 I33
stroke8  548  6 I33
stroke8  548  5 I33
stroke8  549  4 I33
stroke8  550  3 I33
stroke8  550  2 I33
stroke8  551  2 I33
stroke8  551  1 I33
stroke8  552  1 I33
stroke8  552  0 I33
stroke8  553  0 I33
stroke8  554  0 I33
stroke8  554  1 I33
stroke8  555  2 I33
stroke8  555  4 I33
stroke8  555  5 I33
stroke8  555  7 I33
stroke8  556  9 I33
stroke8  556  11 I33
stroke8  556  13 I33
stroke8  556  15 I33
stroke8  556  18 I33
stroke8  556  20 I33
stroke8  556  23 I33
stroke8  556  26 I33
stroke8  556  28 I33
stroke8  556  31 I33
stroke8  556  34 I33
stroke8  556  36 I33
stroke8  556  39 I33
stroke8  556  41 I33
stroke8  556  44 I33
stroke8  557  46 I33
stroke8  557  48 I33
stroke8  557  51 I33
stroke8  557  54 I33
stroke8  558  56 I33
stroke8  558  59 I33
stroke8  558  61 I33
stroke8  558  63 I33
stroke8  559  65 I33
stroke8  559  67 I33
stroke8  559  69 I33
stroke8  559  70 I33
stroke8  558  71 I33
stroke8  558  72 I33
stroke8  558  73 I33
stroke8  558  74 I33
stroke8  558  75 I33
stroke8  558  74 I33
stroke8  557  74 I33
stroke8  556  73 I33
