stroke1  170  106 B30
stroke1  169  106 I30
stroke1  169  105 I30
stroke1  168  105 I30
stroke1  167  105 I30
stroke1  167  104 I30
stroke1  166  104 I30
stroke1  165  104 I30
stroke1  165  103 I30
stroke1  164  103 I30
stroke1  163  103 I30
stroke1  162  103 I30
stroke1  162  104 I30
stroke1  161  104 I30
stroke1  160  105 I30
stroke1  159  105 I30
stroke1  159  106 I30
stroke1  158  107 I30
stroke1  158  108 I30
stroke1  158  108 I30
stroke1  157  110 I30
stroke1  157  111 I30
stroke1  157  112 I30
stroke1  157  113 I30
stroke1  157  114 I30
stroke1  157  115 I30
stroke1  158  116 I30
stroke1  158  117 I30
stroke1  158  118 I30
stroke1  159  118 I30
stroke1  159  119 I30
stroke1  160  119 I30
stroke1  161  119 I30
stroke1  162  119 I30
stroke1  163  119 I30
stroke1  164  119 I30
stroke1  164  118 I30
stroke1  165  117 I30
stroke1  166  116 I30
stroke1  166  115 I30
stroke1  167  114 I30
stroke1  168  113 I30
stroke1  168  112 I30
stroke1  169  111 I30
stroke1  170  109 I30
stroke1  170  108 I30
stroke1  171  107 I30
stroke1  171  106 I30
stroke1  172  105 I30
stroke1  172  103 I30
stroke1  172  102 I30
stroke1  173  101 I30
stroke1  173  100 I30
stroke1  174  99 I30
stroke1  174  98 I30
stroke1  174  96 I30
stroke1  175  95 I30
stroke1  175  94 I30
stroke1  175  93 I30
stroke1  175  91 I30
stroke1  175  90 I30
stroke1  175  89 I30
stroke1  175  88 I30
stroke1  175  87 I30
stroke1  175  85 I30
stroke1  175  84 I30
stroke1  175  83 I30
stroke1  175  82 I30
stroke1  175  81 I30
stroke1  175  80 I30
stroke1  175  78 I30
stroke1  175  77 I30
stroke1  175  76 I30
stroke1  175  74 I30
stroke1  175  73 I30
stroke1  175  72 I30
stroke1  175  71 I30
stroke1  175  70 I30
stroke1  175  69 I30
stroke1  175  68 I30
stroke1  175  67 I30
stroke1  175  66 I30
stroke1  175  65 I30
stroke1  175  64 I30
stroke1  175  63 I30
stroke1  175  62 I30
stroke1  175  61 I30
stroke1  175  60 I30
stroke1  175  59 I30
stroke1  175  58 I30
stroke1  175  59 I30
stroke1  175  60 I30
stroke1  175  61 I30
stroke1  176  63 I30
stroke1  176  64 I30
stroke1  176  67 I30
stroke1  176  69 I30
stroke1  176  72 I30
stroke1  176  75 I30
stroke1  177  77 I30
stroke1  177  79 I30
stroke1  177  81 I30
stroke1  178  83 I30
stroke1  178  84 I30
stroke1  178  85 I30
stroke1  179  86 I30
stroke1  179  87 I30
stroke1  179  88 I30
stroke1  179  89 I30
stroke1  180  89 I30
stroke1  180  90 I30
stroke1  181  89 I30
stroke1  182  88 I30
stroke1  182  87 I30
stroke1  183  86 I30
stroke1  183  85 I30
stroke1  183  84 I30
stroke1  183  83 I30
stroke1  184  81 I30
stroke1  184  80 I30
stroke1  184  79 I30
stroke1  184  77 I30
stroke1  184  76 I30
stroke1  185  74 I30
stroke1  185  73 I30
stroke1  185  72 I30
stroke1  185  70 I30
stroke1  186  69 I30
stroke1  186  68 I30
stroke1  186  67 I30
stroke1  187  66 I30
stroke1  187  65 I30
stroke1  188  64 I30
stroke1  188  63 I30
stroke1  189  62 I30
stroke1  189  61 I30
stroke1  190  60 I30
stroke1  191  59 I30
stroke1  191  58 I30
stroke1  192  57 I30
stroke1  193  56 I30
stroke1  194  55 I30
stroke1  195  54 I30
stroke1  195  55 I30
stroke1  195  56 I30
stroke1  195  57 I30
stroke1  194  58 I30
stroke1  194  59 I30
stroke1  194  61 I30
stroke1  194  62 I30
stroke1  194  64 I30
stroke1  194  66 I30
stroke1  194  68 I30
stroke1  194  70 I30
stroke1  194  72 I30
stroke1  194  74 I30
stroke1  194  76 I30
stroke1  193  78 I30
stroke1  193  81 I30
stroke1  193  83 I30
stroke1  193  85 I30
stroke1  192  87 I30
stroke1  192  89 I30
stroke1  192  91 I30
stroke1  191  93 I30
stroke1  191  95 I30
stroke1  191  96 I30
stroke1  190  98 I30
stroke1  190  100 I30
stroke1  190  101 I30
stroke1  189  103 I30
stroke1  189  105 I30
stroke1  189  107 I30
stroke1  188  109 I30
stroke1  188  111 I30
stroke1  188  112 I30
stroke1  188  113 I30
stroke1  188  114 I30
stroke1  188  115 I30
stroke1  188  116 I30
stroke1  188  117 I30
stroke1  188  118 I30
stroke1  188  119 I30
stroke1  188  120 I30
stroke1  188  121 I30
stroke1  188  120 I30
stroke2  227  65 B35
stroke2  228  66 I35
stroke2  228  67 I35
stroke2  227  67 I35
stroke2  226  67 I35
stroke2  225  67 I35
stroke2  224  67 I35
stroke2  223  66 I35
stroke2  222  65 I35
stroke2  221  64 I35
stroke2  220  63 I35
stroke2  220  62 I35
stroke2  219  61 I35
stroke2  218  60 I35
stroke2  218  59 I35
stroke2  218  58 I35
stroke2  218  57 I35
stroke2  218  56 I35
stroke2  219  55 I35
stroke2  219  54 I35
stroke2  220  54 I35
stroke2  221  54 I35
stroke2  222  53 I35
stroke2  223  54 I35
stroke2  224  54 I35
stroke2  225  54 I35
stroke2  226  54 I35
stroke2  227  54 I35
stroke2  227  55 I35
stroke2  228  55 I35
stroke2  228  56 I35
stroke2  228  57 I35
stroke2  228  58 I35
stroke2  228  59 I35
stroke2  228  60 I35
stroke2  228  61 I35
stroke2  229  63 I35
stroke2  229  64 I35
stroke2  229  66 I35
stroke2  229  67 I35
stroke2  228  69 I35
stroke2  228  71 I35
stroke2  228  72 I35
stroke2  228  74 I35
stroke2  228  75 I35
stroke2  228  76 I35
stroke2  227  78 I35
stroke2  227  79 I35
stroke2  227  80 I35
stroke2  226  81 I35
stroke2  226  82 I35
stroke2  226  83 I35
stroke2  225  84 I35
stroke2  225  85 I35
stroke2  224  86 I35
stroke2  224  88 I35
stroke2  224  89 I35
stroke2  224  90 I35
stroke2  223  91 I35
stroke2  223  92 I35
stroke2  223  93 I35
stroke2  223  94 I35
stroke2  223  95 I35
stroke2  223  96 I35
stroke2  222  97 I35
stroke2  222  98 I35
stroke2  222  99 I35
stroke2  222  100 I35
stroke2  222  101 I35
stroke2  222  102 I35
stroke2  222  103 I35
stroke2  221  103 I35
stroke2  221  104 I35
stroke2  220  104 I35
stroke2  219  104 I35
stroke2  219  103 I35
stroke2  218  103 I35
stroke2  217  103 I35
stroke2  216  102 I35
stroke2  214  102 I35
stroke2  212  101 I35
stroke2  211  101 I35
stroke2  209  101 I35
stroke2  207  100 I35
stroke2  205  100 I35
stroke2  204  99 I35
stroke2  202  99 I35
stroke2  201  99 I35
stroke2  200  99 I35
stroke2  199  99 I35
stroke2  199  98 I35
stroke2  198  98 I35
stroke2  198  99 I35
stroke2  198  100 I35
stroke2  198  101 I35
stroke2  199  102 I35
stroke2  199  103 I35
stroke2  200  104 I35
stroke2  200  105 I35
stroke2  201  106 I35
stroke2  201  107 I35
stroke2  202  108 I35
stroke2  202  109 I35
stroke2  203  110 I35
stroke2  203  111 I35
stroke2  204  112 I35
stroke2  205  113 I35
stroke2  206  114 I35
stroke2  207  114 I35
stroke2  207  115 I35
stroke2  208  116 I35
stroke2  209  116 I35
stroke2  210  116 I35
stroke2  211  117 I35
stroke2  212  117 I35
stroke2  213  117 I35
stroke2  215  118 I35
stroke2  216  118 I35
stroke2  218  118 I35
stroke2  219  117 I35
stroke2  221  117 I35
stroke2  222  117 I35
stroke2  224  117 I35
stroke2  225  116 I35
stroke2  226  116 I35
stroke2  228  115 I35
stroke2  229  115 I35
stroke2  230  115 I35
stroke2  231  115 I35
stroke2  233  116 I35
stroke2  234  117 I35
stroke2  235  118 I35
stroke2  236  119 I35
stroke2  238  120 I35
stroke2  239  122 I35
stroke2  240  123 I35
stroke2  241  124 I35
stroke2  241  125 I35
stroke2  242  126 I35
stroke2  243  127 I35
stroke2  243  128 I35
stroke2  243  127 I35
stroke2  242  126 I35
stroke2  241  125 I35
stroke3  253  99 B46
stroke3  252  99 I46
stroke3  251  99 I46
stroke3  250  99 I46
stroke3  249  99 I46
stroke3  248  99 I46
stroke3  247  98 I46
stroke3  246  98 I46
stroke3  245  97 I46
stroke3  245  96 I46
stroke3  244  95 I46
stroke3  243  94 I46
stroke3  244  94 I46
stroke3  244  93 I46
stroke3  245  93 I46
stroke3  246  93 I46
stroke3  247  94 I46
stroke3  249  94 I46
stroke3  250  95 I46
stroke3  252  96 I46
stroke3  254  97 I46
stroke3  256  99 I46
stroke3  258  100 I46
stroke3  260  102 I46
stroke3  262  103 I46
stroke3  264  105 I46
stroke3  265  106 I46
stroke3  266  107 I46
stroke3  267  108 I46
stroke3  267  109 I46
stroke3  268  109 I46
stroke3  268  110 I46
stroke3  268  109 I46
stroke3  267  109 I46
stroke3  267  108 I46
stroke3  266  107 I46
stroke3  250  83 I46
stroke3  249  83 I46
stroke3  249  82 I46
stroke3  248  82 I46
stroke3  247  81 I46
stroke3  246  80 I46
stroke3  245  79 I46
stroke3  244  78 I46
stroke3  243  77 I46
stroke3  243  76 I46
stroke3  243  75 I46
stroke3  244  74 I46
stroke3  246  74 I46
stroke3  247  75 I46
stroke3  249  75 I46
stroke3  250  76 I46
stroke3  252  76 I46
stroke3  254  77 I46
stroke3  257  79 I46
stroke3  259  81 I46
stroke3  261  82 I46
stroke3  263  84 I46
stroke3  265  86 I46
stroke3  267  88 I46
stroke3  269  89 I46
stroke3  270  91 I46
stroke3  271  92 I46
stroke3  272  92 I46
stroke3  271  92 I46
stroke4  299  65 B35
stroke4  300  65 I35
stroke4  300  66 I35
stroke4  299  66 I35
stroke4  299  65 I35
stroke4  298  65 I35
stroke4  297  65 I35
stroke4  296  65 I35
stroke4  295  65 I35
stroke4  294  65 I35
stroke4  294  64 I35
stroke4  293  64 I35
stroke4  292  63 I35
stroke4  291  62 I35
stroke4  291  61 I35
stroke4  291  60 I35
stroke4  291  59 I35
stroke4  291  58 I35
stroke4  292  57 I35
stroke4  293  56 I35
stroke4  294  56 I35
stroke4  295  56 I35
stroke4  296  55 I35
stroke4  297  55 I35
stroke4  298  55 I35
stroke4  299  55 I35
stroke4  300  55 I35
stroke4  301  55 I35
stroke4  301  56 I35
stroke4  302  56 I35
stroke4  303  56 I35
stroke4  304  56 I35
stroke4  304  57 I35
stroke4  305  58 I35
stroke4  305  59 I35
stroke4  305  60 I35
stroke4  306  61 I35
stroke4  306  62 I35
stroke4  306  63 I35
stroke4  306  64 I35
stroke4  307  66 I35
stroke4  307  67 I35
stroke4  307  69 I35
stroke4  307  70 I35
stroke4  307  72 I35
stroke4  308  73 I35
stroke4  308  74 I35
stroke4  308  76 I35
stroke4  308  77 I35
stroke4  307  79 I35
stroke4  307  81 I35
stroke4  307  82 I35
stroke4  307  83 I35
stroke4  307  85 I35
stroke4  307  86 I35
stroke4  307  88 I35
stroke4  307  89 I35
stroke4  307  90 I35
stroke4  307  91 I35
stroke4  307  93 I35
stroke4  307  94 I35
stroke4  307  95 I35
stroke4  307  96 I35
stroke4  307  97 I35
stroke4  306  98 I35
stroke4  306  99 I35
stroke4  306  100 I35
stroke4  306  101 I35
stroke4  306  102 I35
stroke4  305  103 I35
stroke4  305  104 I35
stroke4  305  105 I35
stroke4  304  106 I35
stroke4  303  107 I35
stroke4  302  107 I35
stroke4  301  107 I35
stroke4  300  107 I35
stroke4  299  107 I35
stroke4  298  106 I35
stroke4  296  106 I35
stroke4  295  105 I35
stroke4  293  105 I35
stroke4  292  104 I35
stroke4  290  103 I35
stroke4  288  102 I35
stroke4  287  101 I35
stroke4  285  100 I35
stroke4  284  100 I35
stroke4  282  99 I35
stroke4  281  98 I35
stroke4  280  98 I35
stroke4  279  97 I35
stroke4  280  97 I35
stroke4  280  98 I35
stroke4  281  99 I35
stroke4  281  100 I35
stroke4  282  101 I35
stroke4  282  102 I35
stroke4  283  103 I35
stroke4  283  105 I35
stroke4  284  106 I35
stroke4  284  107 I35
stroke4  285  108 I35
stroke4  285  109 I35
stroke4  286  110 I35
stroke4  287  111 I35
stroke4  288  112 I35
stroke4  289  113 I35
stroke4  289  114 I35
stroke4  290  114 I35
stroke4  291  115 I35
stroke4  292  116 I35
stroke4  293  117 I35
stroke4  294  117 I35
stroke4  296  118 I35
stroke4  297  118 I35
stroke4  299  119 I35
stroke4  300  119 I35
stroke4  301  119 I35
stroke4  303  119 I35
stroke4  304  118 I35
stroke4  305  118 I35
stroke4  306  118 I35
stroke4  307  118 I35
stroke4  309  118 I35
stroke4  310  118 I35
stroke4  311  118 I35
stroke4  312  118 I35
stroke4  314  119 I35
stroke4  315  120 I35
stroke4  316  120 I35
stroke4  317  121 I35
stroke4  318  122 I35
stroke4  319  123 I35
stroke4  320  123 I35
stroke4  320  124 I35
stroke4  321  125 I35
stroke4  321  126 I35
stroke4  321  127 I35
stroke4  320  126 I35
stroke5  327  101 B47
stroke5  326  102 I47
stroke5  326  103 I47
stroke5  326  104 I47
stroke5  325  105 I47
stroke5  325  106 I47
stroke5  325  107 I47
stroke5  325  108 I47
stroke5  325  109 I47
stroke5  325  110 I47
stroke5  326  111 I47
stroke5  326  112 I47
stroke5  326  113 I47
stroke5  326  114 I47
stroke5  327  114 I47
stroke5  327  115 I47
stroke5  328  116 I47
stroke5  329  116 I47
stroke5  329  117 I47
stroke5  330  117 I47
stroke5  331  117 I47
stroke5  332  117 I47
stroke5  333  117 I47
stroke5  335  117 I47
stroke5  336  117 I47
stroke5  337  116 I47
stroke5  338  116 I47
stroke5  339  115 I47
stroke5  340  114 I47
stroke5  341  112 I47
stroke5  341  111 I47
stroke5  341  110 I47
stroke5  342  109 I47
stroke5  342  108 I47
stroke5  342  107 I47
stroke5  343  105 I47
stroke5  343  104 I47
stroke5  343  103 I47
stroke5  343  102 I47
stroke5  343  100 I47
stroke5  343  99 I47
stroke5  343  98 I47
stroke5  343  96 I47
stroke5  343  95 I47
stroke5  343  94 I47
stroke5  343  93 I47
stroke5  343  92 I47
stroke5  343  91 I47
stroke5  343  90 I47
stroke5  343  89 I47
stroke5  343  87 I47
stroke5  342  86 I47
stroke5  342  85 I47
stroke5  342  83 I47
stroke5  342  82 I47
stroke5  342  81 I47
stroke5  342  80 I47
stroke5  342  78 I47
stroke5  341  77 I47
stroke5  341  75 I47
stroke5  341  74 I47
stroke5  341  73 I47
stroke5  340  71 I47
stroke5  340  70 I47
stroke5  340  69 I47
stroke5  339  67 I47
stroke5  339  66 I47
stroke5  339  65 I47
stroke5  339  64 I47
stroke5  338  63 I47
stroke5  338  62 I47
stroke5  338  61 I47
stroke5  338  60 I47
stroke5  338  59 I47
stroke5  338  57 I47
stroke5  338  56 I47
stroke5  338  55 I47
stroke5  338  54 I47
stroke5  338  53 I47
stroke5  338  52 I47
stroke5  338  51 I47
stroke5  339  51 I47
stroke5  339  52 I47
stroke5  338  52 I47
stroke5  338  54 I47
stroke5  338  55 I47
stroke6  363  110 B10
stroke6  364  109 I10
stroke6  363  109 I10
stroke6  363  108 I10
stroke6  362  107 I10
stroke6  362  106 I10
stroke6  361  106 I10
stroke6  360  105 I10
stroke6  359  105 I10
stroke6  359  104 I10
stroke6  358  104 I10
stroke6  358  105 I10
stroke6  357  105 I10
stroke6  357  106 I10
stroke6  356  106 I10
stroke6  355  108 I10
stroke6  355  109 I10
stroke6  354  110 I10
stroke6  354  111 I10
stroke6  353  112 I10
stroke6  353  113 I10
stroke6  353  114 I10
stroke6  353  115 I10
stroke6  353  116 I10
stroke6  353  117 I10
stroke6  354  118 I10
stroke6  354  119 I10
stroke6  355  120 I10
stroke6  356  121 I10
stroke6  357  121 I10
stroke6  358  121 I10
stroke6  358  120 I10
stroke6  359  120 I10
stroke6  360  119 I10
stroke6  360  118 I10
stroke6  361  118 I10
stroke6  361  117 I10
stroke6  362  116 I10
stroke6  362  115 I10
stroke6  363  114 I10
stroke6  363  113 I10
stroke6  364  112 I10
stroke6  364  111 I10
stroke6  364  109 I10
stroke6  364  108 I10
stroke6  365  107 I10
stroke6  365  106 I10
stroke6  365  104 I10
stroke6  365  103 I10
stroke6  365  102 I10
stroke6  366  101 I10
stroke6  366  99 I10
stroke6  366  98 I10
stroke6  365  97 I10
stroke6  365  96 I10
stroke6  365  95 I10
stroke6  365  94 I10
stroke6  365  93 I10
stroke6  365  92 I10
stroke6  365  91 I10
stroke6  365  90 I10
stroke6  365  89 I10
stroke6  365  88 I10
stroke6  365  87 I10
stroke6  365  86 I10
stroke6  365  85 I10
stroke6  365  84 I10
stroke6  365  83 I10
stroke6  365  82 I10
stroke6  365  81 I10
stroke6  365  80 I10
stroke6  365  79 I10
stroke6  365  78 I10
stroke6  365  77 I10
stroke6  365  76 I10
stroke6  365  75 I10
stroke6  364  74 I10
stroke6  364  73 I10
stroke6  364  72 I10
stroke6  364  71 I10
stroke6  364  70 I10
stroke6  364  69 I10
stroke6  364  68 I10
stroke6  364  67 I10
stroke6  364  66 I10
stroke6  364  65 I10
stroke6  363  64 I10
stroke6  363  63 I10
stroke6  363  62 I10
stroke6  363  61 I10
stroke6  363  60 I10
stroke6  364  60 I10
stroke6  364  59 I10
stroke6  364  58 I10
stroke6  364  57 I10
stroke6  364  56 I10
stroke6  365  56 I10
stroke6  365  57 I10
stroke6  366  57 I10
stroke6  367  57 I10
stroke6  368  57 I10
stroke6  369  57 I10
stroke6  370  58 I10
stroke6  371  58 I10
stroke6  372  58 I10
stroke6  373  58 I10
stroke6  374  58 I10
stroke6  374  59 I10
stroke6  375  60 I10
stroke6  375  61 I10
stroke6  376  61 I10
stroke6  376  62 I10
stroke6  376  63 I10
stroke6  376  64 I10
stroke6  376  65 I10
stroke6  376  67 I10
stroke6  376  68 I10
stroke6  376  69 I10
stroke6  376  70 I10
stroke6  376  72 I10
stroke6  376  73 I10
stroke6  377  74 I10
stroke6  377  75 I10
stroke6  377  76 I10
stroke6  377  78 I10
stroke6  377  79 I10
stroke6  377  81 I10
stroke6  377  82 I10
stroke6  377  84 I10
stroke6  378  85 I10
stroke6  378  87 I10
stroke6  378  88 I10
stroke6  378  89 I10
stroke6  378  90 I10
stroke6  378  91 I10
stroke6  378  92 I10
stroke6  378  94 I10
stroke6  378  95 I10
stroke6  378  96 I10
stroke6  378  97 I10
stroke6  378  98 I10
stroke6  377  99 I10
stroke6  377  100 I10
stroke6  377  101 I10
stroke6  377  102 I10
stroke6  377  103 I10
stroke6  377  104 I10
stroke6  377  105 I10
stroke6  377  106 I10
stroke6  377  107 I10
stroke6  377  108 I10
stroke6  376  108 I10
stroke6  376  109 I10
stroke6  376  110 I10
stroke6  376  111 I10
stroke6  375  112 I10
stroke6  374  112 I10
stroke6  374  113 I10
stroke6  373  113 I10
stroke6  372  113 I10
stroke6  371  113 I10
stroke6  370  112 I10
stroke6  369  112 I10
stroke6  368  112 I10
stroke6  367  112 I10
stroke6  366  111 I10
stroke6  367  112 I10
stroke6  368  112 I10
stroke6  369  113 I10
stroke6  371  113 I10
stroke6  372  115 I10
stroke6  374  116 I10
stroke6  376  117 I10
stroke6  379  119 I10
stroke6  381  121 I10
stroke6  383  123 I10
stroke6  385  126 I10
stroke6  388  129 I10
stroke6  390  132 I10
stroke6  392  135 I10
stroke6  394  138 I10
stroke6  396  141 I10
stroke6  398  143 I10
stroke6  399  145 I10
stroke6  400  146 I10
stroke6  401  147 I10
stroke6  401  148 I10
stroke6  401  147 I10
stroke6  400  147 I10
stroke7  404  57 B1
stroke7  404  58 I1
stroke7  404  59 I1
stroke7  404  60 I1
stroke7  404  61 I1
stroke7  403  62 I1
stroke7  403  63 I1
stroke7  403  64 I1
stroke7  403  65 I1
stroke7  403  66 I1
stroke7  403  67 I1
stroke7  403  69 I1
stroke7  403  70 I1
stroke7  404  71 I1
stroke7  404  73 I1
stroke7  404  74 I1
stroke7  404  75 I1
stroke7  405  77 I1
stroke7  405  78 I1
stroke7  405  79 I1
stroke7  405  80 I1
stroke7  405  82 I1
stroke7  406  83 I1
stroke7  406  84 I1
stroke7  406  85 I1
stroke7  406  86 I1
stroke7  406  87 I1
stroke7  406  88 I1
stroke7  406  89 I1
stroke7  407  90 I1
stroke7  407  91 I1
stroke7  407  92 I1
stroke7  407  93 I1
stroke7  408  94 I1
stroke7  408  95 I1
stroke7  408  96 I1
stroke7  408  97 I1
stroke7  408  96 I1
stroke7  407  96 I1
stroke7  406  96 I1
stroke7  406  95 I1
stroke7  405  95 I1
stroke7  404  94 I1
stroke7  403  94 I1
stroke7  402  94 I1
stroke7  401  93 I1
stroke7  400  93 I1
stroke7  399  93 I1
stroke7  398  93 I1
stroke7  397  93 I1
stroke7  396  93 I1
stroke7  395  93 I1
stroke7  395  94 I1
stroke7  395  95 I1
stroke7  396  96 I1
stroke7  396  97 I1
stroke7  397  98 I1
stroke7  397  99 I1
stroke7  397  100 I1
stroke7  398  101 I1
stroke7  398  102 I1
stroke7  398  103 I1
stroke7  398  105 I1
stroke7  398  106 I1
stroke7  398  107 I1
stroke7  398  108 I1
stroke7  399  109 I1
stroke7  399  110 I1
stroke7  399  111 I1
stroke7  400  112 I1
stroke7  401  113 I1
stroke7  401  114 I1
stroke7  402  114 I1
stroke7  403  115 I1
stroke7  404  116 I1
stroke7  405  116 I1
stroke7  406  117 I1
stroke7  407  117 I1
stroke7  408  117 I1
stroke7  409  118 I1
stroke7  410  118 I1
stroke7  411  118 I1
stroke7  412  118 I1
stroke7  413  118 I1
stroke7  414  118 I1
stroke7  415  118 I1
stroke7  416  117 I1
stroke7  417  116 I1
stroke7  418  116 I1
stroke7  419  115 I1
stroke7  419  114 I1
stroke7  420  113 I1
stroke7  421  112 I1
stroke7  422  111 I1
stroke7  423  111 I1
stroke7  423  110 I1
stroke7  424  108 I1
stroke7  424  107 I1
stroke7  425  106 I1
stroke7  425  105 I1
stroke7  426  104 I1
stroke7  426  102 I1
stroke7  426  101 I1
stroke7  426  99 I1
stroke7  426  98 I1
stroke7  426  97 I1
stroke7  426  95 I1
stroke7  426  94 I1
stroke7  426  92 I1
stroke7  426  91 I1
stroke7  425  89 I1
stroke7  425  88 I1
stroke7  425  86 I1
stroke7  425  85 I1
stroke7  425  83 I1
stroke7  425  82 I1
stroke7  425  81 I1
stroke7  425  80 I1
stroke7  425  79 I1
stroke7  424  78 I1
stroke7  424  76 I1
stroke7  424  75 I1
stroke7  424  74 I1
stroke7  423  72 I1
stroke7  423  71 I1
stroke7  423  69 I1
stroke7  422  68 I1
stroke7  422  66 I1
stroke7  422  65 I1
stroke7  421  64 I1
stroke7  421  62 I1
stroke7  421  61 I1
stroke7  420  60 I1
stroke7  420  59 I1
stroke7  420  58 I1
stroke7  420  57 I1
stroke7  419  57 I1
stroke7  419  56 I1
stroke7  420  56 I1
stroke7  420  55 I1
stroke7  420  56 I1
stroke7  420  57 I1
stroke7  420  58 I1
stroke7  420  59 I1
stroke7  420  60 I1
stroke8  444  68 B61
stroke8  444  67 I61
stroke8  444  68 I61
stroke8  443  68 I61
stroke8  443  69 I61
stroke8  443  70 I61
stroke8  443  71 I61
stroke8  444  71 I61
stroke8  444  72 I61
stroke8  444  73 I61
stroke8  444  74 I61
stroke8  445  74 I61
stroke8  445  75 I61
stroke8  445  76 I61
stroke8  446  76 I61
stroke8  447  77 I61
stroke8  448  77 I61
stroke8  449  77 I61
stroke8  450  77 I61
stroke8  450  76 I61
stroke8  451  76 I61
stroke8  451  75 I61
stroke8  451  74 I61
stroke8  452  73 I61
stroke8  452  72 I61
stroke8  452  71 I61
stroke8  452  70 I61
stroke8  452  69 I61
stroke8  452  68 I61
stroke8  452  67 I61
stroke8  452  66 I61
stroke8  452  65 I61
stroke8  452  64 I61
stroke8  451  63 I61
stroke8  451  62 I61
stroke8  451  61 I61
stroke8  450  61 I61
stroke8  450  60 I61
stroke8  449  59 I61
stroke8  449  58 I61
stroke8  448  58 I61
stroke8  448  57 I61
stroke8  447  57 I61
stroke8  447  58 I61
stroke8  446  58 I61
stroke8  446  59 I61
stroke8  446  60 I61
stroke8  446  61 I61
stroke8  446  63 I61
stroke8  446  64 I61
stroke8  446  65 I61
stroke8  447  67 I61
stroke8  447  68 I61
stroke8  447  70 I61
stroke8  447  71 I61
stroke8  448  73 I61
stroke8  448  74 I61
stroke8  448  75 I61
stroke8  448  77 I61
stroke8  448  78 I61
stroke8  449  79 I61
stroke8  449  80 I61
stroke8  449  82 I61
stroke8  449  83 I61
stroke8  449  84 I61
stroke8  449  85 I61
stroke8  449  86 I61
stroke8  450  88 I61
stroke8  450  89 I61
stroke8  450  90 I61
stroke8  450  91 I61
stroke8  451  93 I61
stroke8  451  94 I61
stroke8  451  95 I61
stroke8  451  96 I61
stroke8  450  97 I61
stroke8  450  98 I61
stroke8  450  99 I61
stroke8  450  100 I61
stroke8  451  100 I61
stroke8  451  101 I61
stroke8  451  102 I61
stroke8  451  103 I61
stroke8  451  104 I61
stroke8  451  105 I61
stroke8  451  106 I61
stroke8  451  107 I61
stroke8  451  108 I61
stroke8  451  109 I61
stroke8  451  110 I61
stroke8  451  111 I61
stroke8  451  110 I61
stroke8  450  110 I61
stroke8  449  110 I61
stroke8  448  109 I61
stroke8  447  109 I61
stroke8  446  108 I61
stroke8  445  108 I61
stroke8  443  108 I61
stroke8  442  107 I61
stroke8  441  107 I61
stroke8  440  107 I61
stroke8  439  107 I61
stroke8  439  108 I61
stroke8  440  109 I61
stroke8  440  110 I61
stroke8  441  111 I61
stroke8  441  112 I61
stroke8  442  112 I61
stroke8  442  113 I61
stroke8  443  114 I61
stroke8  444  115 I61
stroke8  445  116 I61
stroke8  445  117 I61
stroke8  446  118 I61
stroke8  447  118 I61
stroke8  447  119 I61
stroke8  448  120 I61
stroke8  449  121 I61
stroke8  450  121 I61
stroke8  450  122 I61
stroke8  451  122 I61
stroke8  452  123 I61
stroke8  453  123 I61
stroke8  454  124 I61
stroke8  455  124 I61
stroke8  457  125 I61
stroke8  458  125 I61
stroke8  459  125 I61
stroke8  460  125 I61
stroke8  461  125 I61
stroke8  462  125 I61
stroke8  463  125 I61
stroke8  464  124 I61
stroke8  465  124 I61
stroke8  466  123 I61
stroke8  467  123 I61
stroke8  468  122 I61
stroke8  469  122 I61
stroke8  470  121 I61
stroke8  470  120 I61
stroke8  471  120 I61
stroke8  471  119 I61
stroke8  472  118 I61
stroke8  472  117 I61
stroke8  473  116 I61
stroke8  473  115 I61
stroke8  473  114 I61
stroke8  474  113 I61
stroke8  474  112 I61
stroke8  474  111 I61
stroke8  474  109 I61
stroke8  474  108 I61
stroke8  474  106 I61
stroke8  474  105 I61
stroke8  473  103 I61
stroke8  473  102 I61
stroke8  473  100 I61
stroke8  473  99 I61
stroke8  473  97 I61
stroke8  473  96 I61
stroke8  473  94 I61
stroke8  473  93 I61
stroke8  473  91 I61
stroke8  473  90 I61
stroke8  473  88 I61
stroke8  473  87 I61
stroke8  473  86 I61
stroke8  472  84 I61
stroke8  472  83 I61
stroke8  472  81 I61
stroke8  472  79 I61
stroke8  472  78 I61
stroke8  471  77 I61
stroke8  471  75 I61
stroke8  471  74 I61
stroke8  470  72 I61
stroke8  470  71 I61
stroke8  470  70 I61
stroke8  470  68 I61
stroke8  469  67 I61
stroke8  469  66 I61
stroke8  469  65 I61
stroke8  468  63 I61
stroke8  468  62 I61
stroke8  468  61 I61
stroke8  468  60 I61
stroke8  467  59 I61
stroke8  467  58 I61
stroke8  467  57 I61
stroke8  467  56 I61
stroke8  466  55 I61
stroke8  466  53 I61
stroke8  466  52 I61
stroke8  466  51 I61
stroke8  465  50 I61
stroke8  465  48 I61
stroke8  464  47 I61
stroke8  464  46 I61
stroke8  463  44 I61
stroke8  463  43 I61
stroke8  463  42 I61
stroke8  463  41 I61
stroke8  463  39 I61
stroke8  462  38 I61
stroke8  462  37 I61
stroke8  462  36 I61
stroke8  462  35 I61
stroke8  462  34 I61
stroke8  461  33 I61
stroke8  461  32 I61
stroke8  461  31 I61
stroke8  460  29 I61
stroke8  460  28 I61
stroke8  460  27 I61
stroke8  460  25 I61
stroke8  460  24 I61
stroke8  459  22 I61
stroke8  459  20 I61
stroke8  459  19 I61
stroke8  458  17 I61
stroke8  458  15 I61
stroke8  458  13 I61
stroke8  458  11 I61
stroke8  458  9 I61
stroke8  458  7 I61
stroke8  458  6 I61
stroke8  459  4 I61
stroke8  459  3 I61
stroke8  459  2 I61
stroke8  459  1 I61
stroke8  459  0 I61
stroke8  459  1 I61
stroke8  459  2 I61
stroke9  490  113 B39
stroke9  491  113 I39
stroke9  491  112 I39
stroke9  492  112 I39
stroke9  491  111 I39
stroke9  491  110 I39
stroke9  490  109 I39
stroke9  489  109 I39
stroke9  488  109 I39
stroke9  487  110 I39
stroke9  486  110 I39
stroke9  485  111 I39
stroke9  484  112 I39
stroke9  483  113 I39
stroke9  483  114 I39
stroke9  482  115 I39
stroke9  482  116 I39
stroke9  481  117 I39
stroke9  482  118 I39
stroke9  482  119 I39
stroke9  483  120 I39
stroke9  484  121 I39
stroke9  484  122 I39
stroke9  485  122 I39
stroke9  486  122 I39
stroke9  487  122 I39
stroke9  488  121 I39
stroke9  489  120 I39
stroke9  490  119 I39
stroke9  490  118 I39
stroke9  490  116 I39
stroke9  491  115 I39
stroke9  491  113 I39
stroke9  491  112 I39
stroke9  491  110 I39
stroke9  491  108 I39
stroke9  491  107 I39
stroke9  492  105 I39
stroke9  492  103 I39
stroke9  492  101 I39
stroke9  492  100 I39
stroke9  492  98 I39
stroke9  492  97 I39
stroke9  492  95 I39
stroke9  492  94 I39
stroke9  491  93 I39
stroke9  491  91 I39
stroke9  491  90 I39
stroke9  491  89 I39
stroke9  491  88 I39
stroke9  491  87 I39
stroke9  491  85 I39
stroke9  491  84 I39
stroke9  491  83 I39
stroke9  491  82 I39
stroke9  491  81 I39
stroke9  491  80 I39
stroke9  490  79 I39
stroke9  490  78 I39
stroke9  490  76 I39
stroke9  490  75 I39
stroke9  490  74 I39
stroke9  490  73 I39
stroke9  490  72 I39
stroke9  490  71 I39
stroke9  490  70 I39
stroke9  489  69 I39
stroke9  489  68 I39
stroke9  489  67 I39
stroke9  489  66 I39
stroke9  488  65 I39
stroke9  488  64 I39
stroke9  488  63 I39
stroke9  487  62 I39
stroke9  487  61 I39
stroke9  487  60 I39
stroke9  487  59 I39
stroke9  486  59 I39
stroke9  486  58 I39
stroke9  486  57 I39
stroke9  486  56 I39
stroke9  485  56 I39
stroke9  485  55 I39
stroke9  486  56 I39
stroke9  487  57 I39
stroke9  488  57 I39
stroke9  488  58 I39
stroke9  489  58 I39
stroke9  490  58 I39
stroke9  490  59 I39
stroke9  491  59 I39
stroke9  492  59 I39
stroke9  493  59 I39
stroke9  495  59 I39
stroke9  496  59 I39
stroke9  497  58 I39
stroke9  498  58 I39
stroke9  500  58 I39
stroke9  501  58 I39
stroke9  502  57 I39
stroke9  503  57 I39
stroke9  504  57 I39
stroke9  506  57 I39
stroke9  507  56 I39
stroke9  508  56 I39
stroke9  509  56 I39
stroke9  510  56 I39
stroke9  511  55 I39
stroke9  512  55 I39
stroke9  513  55 I39
stroke9  514  56 I39
stroke9  515  56 I39
stroke9  515  57 I39
stroke9  516  58 I39
stroke9  517  58 I39
stroke9  517  59 I39
stroke9  517  60 I39
stroke9  518  60 I39
stroke9  518  61 I39
stroke9  518  62 I39
stroke9  518  63 I39
stroke9  518  64 I39
stroke9  518  65 I39
stroke9  518  67 I39
stroke9  519  68 I39
stroke9  519  70 I39
stroke9  519  72 I39
stroke9  519  74 I39
stroke9  520  76 I39
stroke9  520  78 I39
stroke9  520  81 I39
stroke9  520  83 I39
stroke9  520  85 I39
stroke9  520  87 I39
stroke9  520  89 I39
stroke9  519  92 I39
stroke9  519  94 I39
stroke9  519  97 I39
stroke9  519  99 I39
stroke9  520  102 I39
stroke9  520  104 I39
stroke9  520  106 I39
stroke9  520  108 I39
stroke9  520  110 I39
stroke9  520  111 I39
stroke9  520  112 I39
stroke9  520  114 I39
stroke9  520  115 I39
stroke9  520  116 I39
stroke9  520  117 I39
stroke9  520  118 I39
stroke9  520  119 I39
stroke9  520  120 I39
stroke9  519  119 I39
stroke9  519  118 I39
stroke9  519  117 I39
stroke9  518  116 I39
stroke9  517  115 I39
stroke9  516  113 I39
stroke9  511  90 I39
stroke9  510  90 I39
stroke9  509  89 I39
stroke9  508  89 I39
stroke9  507  89 I39
stroke9  507  88 I39
stroke9  506  88 I39
stroke9  506  87 I39
stroke9  507  86 I39
stroke9  508  85 I39
stroke9  509  85 I39
stroke9  510  84 I39
stroke9  512  84 I39
stroke9  515  85 I39
stroke9  517  85 I39
stroke9  520  86 I39
stroke9  523  87 I39
stroke9  525  89 I39
stroke9  528  90 I39
stroke9  530  91 I39
stroke9  531  92 I39
stroke9  532  93 I39
stroke9  533  94 I39
stroke9  534  95 I39
stroke9  534  96 I39
stroke9  534  95 I39
stroke9  533  95 I39
stroke10  551  66 B14
stroke10  551  67 I14
stroke10  550  68 I14
stroke10  549  68 I14
stroke10  549  69 I14
stroke10  548  69 I14
stroke10  547  69 I14
stroke10  546  68 I14
stroke10  545  68 I14
stroke10  544  67 I14
stroke10  544  66 I14
stroke10  543  66 I14
stroke10  542  65 I14
stroke10  541  64 I14
stroke10  541  63 I14
stroke10  541  62 I14
stroke10  541  61 I14
stroke10  541  60 I14
stroke10  541  59 I14
stroke10  542  59 I14
stroke10  542  58 I14
stroke10  543  58 I14
stroke10  544  57 I14
stroke10  545  57 I14
stroke10  546  57 I14
stroke10  547  57 I14
stroke10  548  57 I14
stroke10  549  57 I14
stroke10  550  58 I14
stroke10  551  58 I14
stroke10  552  59 I14
stroke10  552  60 I14
stroke10  553  60 I14
stroke10  553  61 I14
stroke10  553  62 I14
stroke10  553  63 I14
stroke10  553  64 I14
stroke10  554  65 I14
stroke10  554  66 I14
stroke10  554  67 I14
stroke10  554  69 I14
stroke10  554  70 I14
stroke10  555  71 I14
stroke10  555  73 I14
stroke10  555  74 I14
stroke10  555  75 I14
stroke10  555  76 I14
stroke10  555  78 I14
stroke10  555  79 I14
stroke10  555  80 I14
stroke10  555  81 I14
stroke10  555  82 I14
stroke10  555  83 I14
stroke10  555  84 I14
stroke10  555  85 I14
stroke10  556  86 I14
stroke10  556  87 I14
stroke10  556  88 I14
stroke10  556  89 I14
stroke10  557  90 I14
stroke10  557  91 I14
stroke10  557  92 I14
stroke10  557  93 I14
stroke10  557  94 I14
stroke10  557  95 I14
stroke10  557  96 I14
stroke10  557  97 I14
stroke10  558  97 I14
stroke10  558  98 I14
stroke10  558  99 I14
stroke10  558  100 I14
stroke10  559  101 I14
stroke10  559  102 I14
stroke10  559  103 I14
stroke10  558  103 I14
stroke10  557  103 I14
stroke10  556  103 I14
stroke10  555  103 I14
stroke10  554  103 I14
stroke10  553  103 I14
stroke10  552  103 I14
stroke10  551  102 I14
stroke10  550  102 I14
stroke10  549  102 I14
stroke10  548  102 I14
stroke10  547  102 I14
stroke10  546  103 I14
stroke10  547  104 I14
stroke10  547  105 I14
stroke10  547  106 I14
stroke10  548  107 I14
stroke10  548  108 I14
stroke10  549  109 I14
stroke10  549  110 I14
stroke10  549  111 I14
stroke10  548  112 I14
stroke10  548  113 I14
stroke10  548  114 I14
stroke10  547  115 I14
stroke10  547  116 I14
stroke10  546  116 I14
stroke10  546  117 I14
stroke10  545  117 I14
stroke10  545  118 I14
stroke10  544  118 I14
stroke10  545  118 I14
stroke10  545  119 I14
stroke10  546  120 I14
stroke10  547  120 I14
stroke10  548  121 I14
stroke10  549  121 I14
stroke10  550  121 I14
stroke10  552  122 I14
stroke10  553  122 I14
stroke10  555  122 I14
stroke10  556  123 I14
stroke10  557  123 I14
stroke10  559  123 I14
stroke10  560  123 I14
stroke10  561  123 I14
stroke10  563  123 I14
stroke10  564  123 I14
stroke10  565  122 I14
stroke10  566  122 I14
stroke10  567  122 I14
stroke10  569  121 I14
stroke10  570  121 I14
stroke10  571  121 I14
stroke10  572  121 I14
stroke10  573  121 I14
stroke10  574  120 I14
stroke10  575  120 I14
stroke10  576  120 I14
stroke10  577  119 I14
stroke10  578  119 I14
stroke10  578  118 I14
stroke10  579  117 I14
stroke10  579  116 I14
stroke10  579  115 I14
stroke10  580  114 I14
stroke10  580  113 I14
stroke10  580  112 I14
stroke10  581  111 I14
stroke10  581  110 I14
stroke10  581  109 I14
stroke10  581  108 I14
stroke10  581  107 I14
stroke10  580  106 I14
stroke10  580  104 I14
stroke10  580  102 I14
stroke10  580  100 I14
stroke10  579  99 I14
stroke10  579  97 I14
stroke10  579  95 I14
stroke10  579  94 I14
stroke10  578  92 I14
stroke10  578  91 I14
stroke10  578  89 I14
stroke10  579  88 I14
stroke10  579  87 I14
stroke10  579  86 I14
stroke10  579  85 I14
stroke10  579  83 I14
stroke10  579  82 I14
stroke10  579  81 I14
stroke10  578  80 I14
stroke10  578  79 I14
stroke10  578  78 I14
stroke10  578  77 I14
stroke10  578  76 I14
stroke10  578  75 I14
stroke10  578  74 I14
stroke10  578  73 I14
stroke10  577  72 I14
stroke10  577  71 I14
stroke10  577  70 I14
stroke10  577  69 I14
stroke10  576  68 I14
stroke10  576  67 I14
stroke10  576  66 I14
stroke10  576  65 I14
stroke10  575  64 I14
stroke10  575  63 I14
stroke10  575  62 I14
stroke10  575  61 I14
stroke10  575  60 I14
stroke10  575  59 I14
stroke10  574  59 I14
stroke10  574  58 I14
stroke10  574  57 I14
stroke10  574  56 I14
stroke10  573  55 I14
stroke10  573  54 I14
stroke10  573  53 I14
stroke10  573  52 I14
stroke10  573  51 I14
stroke10  572  50 I14
stroke10  572  49 I14
stroke10  572  48 I14
stroke10  572  47 I14
stroke10  572  46 I14
stroke10  572  45 I14
stroke10  572  44 I14
stroke10  571  44 I14
stroke10  571  43 I14
stroke10  571  42 I14
stroke10  571  41 I14
stroke10  570  41 I14
stroke10  570  40 I14
stroke10  569  39 I14
stroke10  569  38 I14
stroke10  569  37 I14
stroke10  569  36 I14
stroke10  568  36 I14
stroke10  568  35 I14
stroke10  568  34 I14
stroke10  567  34 I14
stroke10  567  33 I14
stroke10  567  32 I14
stroke10  566  31 I14
stroke10  566  30 I14
stroke10  566  29 I14
stroke10  566  28 I14
stroke10  565  28 I14
stroke10  565  29 I14
stroke10  565  30 I14
stroke10  565  31 I14
stroke10  565  32 I14
stroke10  564  33 I14
stroke10  563  35 I14
stroke10  563  37 I14
stroke10  562  38 I14
stroke10  561  39 I14
stroke10  560  40 I14
stroke10  558  41 I14
stroke10  557  41 I14
stroke10  555  41 I14
stroke10  553  41 I14
stroke10  551  41 I14
stroke10  549  41 I14
stroke10  547  41 I14
stroke10  545  41 I14
stroke10  543  41 I14
stroke10  541  40 I14
stroke10  539  40 I14
stroke10  538  40 I14
stroke10  537  39 I14
stroke10  536  39 I14
stroke10  536  38 I14
stroke10  535  37 I14
stroke10  536  37 I14
stroke10  536  36 I14
stroke10  537  36 I14
stroke10  539  36 I14
stroke10  541  36 I14
stroke10  543  37 I14
stroke10  546  38 I14
stroke10  549  39 I14
stroke10  553  40 I14
stroke10  556  41 I14
stroke10  558  42 I14
stroke10  561  44 I14
stroke10  563  45 I14
stroke10  565  46 I14
stroke10  567  48 I14
stroke10  569  49 I14
stroke10  570  50 I14
stroke10  571  52 I14
stroke10  572  53 I14
stroke10  573  54 I14
stroke10  573  55 I14
stroke10  574  57 I14
stroke11  577  128 B49
stroke11  577  129 I49
stroke11  576  129 I49
stroke11  575  129 I49
stroke11  574  130 I49
stroke11  573  130 I49
stroke11  572  130 I49
stroke11  571  131 I49
stroke11  569  131 I49
stroke11  567  132 I49
stroke11  565  132 I49
stroke11  563  132 I49
stroke11  561  133 I49
stroke11  558  133 I49
stroke11  555  133 I49
stroke11  552  133 I49
stroke11  550  132 I49
stroke11  547  132 I49
stroke11  544  132 I49
stroke11  541  131 I49
stroke11  539  131 I49
stroke11  536  130 I49
stroke11  534  130 I49
stroke11  531  129 I49
stroke11  529  129 I49
stroke11  528  129 I49
stroke11  526  128 I49
stroke11  525  128 I49
stroke11  524  128 I49
stroke11  523  127 I49
stroke11  522  127 I49
stroke11  522  128 I49
stroke11  522  129 I49
stroke11  523  130 I49
stroke11  523  131 I49
stroke11  525  132 I49
stroke11  526  134 I49
stroke11  528  135 I49
stroke11  529  137 I49
stroke11  531  138 I49
stroke11  533  140 I49
stroke11  535  141 I49
stroke11  538  142 I49
stroke11  541  143 I49
stroke11  544  144 I49
stroke11  547  145 I49
stroke11  550  145 I49
stroke11  553  144 I49
stroke11  556  143 I49
stroke11  559  142 I49
stroke11  561  140 I49
stroke11  563  139 I49
stroke11  565  137 I49
stroke11  567  136 I49
stroke11  569  134 I49
stroke11  570  133 I49
stroke11  572  132 I49
stroke11  573  132 I49
stroke11  575  132 I49
stroke11  576  132 I49
stroke11  578  133 I49
stroke11  580  134 I49
stroke11  581  135 I49
stroke11  583  136 I49
stroke11  584  138 I49
stroke11  586  140 I49
stroke11  587  142 I49
stroke11  588  144 I49
stroke11  589  146 I49
stroke11  590  149 I49
stroke11  591  150 I49
stroke11  592  152 I49
stroke11  593  154 I49
stroke11  593  155 I49
stroke11  594  156 I49
stroke11  595  157 I49
stroke11  594  157 I49
stroke11  593  156 I49
stroke11  592  155 I49
stroke12  605  55 B1
stroke12  604  54 I1
stroke12  604  53 I1
stroke12  603  53 I1
stroke12  603  54 I1
stroke12  603  55 I1
stroke12  603  56 I1
stroke12  604  56 I1
stroke12  604  57 I1
stroke12  604  59 I1
stroke12  604  60 I1
stroke12  605  62 I1
stroke12  605  64 I1
stroke12  606  67 I1
stroke12  606  69 I1
stroke12  607  71 I1
stroke12  607  73 I1
stroke12  608  75 I1
stroke12  608  76 I1
stroke12  608  78 I1
stroke12  609  79 I1
stroke12  609  81 I1
stroke12  609  82 I1
stroke12  610  83 I1
stroke12  610  84 I1
stroke12  610  86 I1
stroke12  611  87 I1
stroke12  611  88 I1
stroke12  612  89 I1
stroke12  612  90 I1
stroke12  613  91 I1
stroke12  613  92 I1
stroke12  614  93 I1
stroke12  614  94 I1
stroke12  614  95 I1
stroke12  615  96 I1
stroke12  616  97 I1
stroke12  616  98 I1
stroke12  617  99 I1
stroke12  617  100 I1
stroke12  618  100 I1
stroke12  617  100 I1
stroke12  616  99 I1
stroke12  615  99 I1
stroke12  614  99 I1
stroke12  613  98 I1
stroke12  612  98 I1
stroke12  611  98 I1
stroke12  609  98 I1
stroke12  608  97 I1
stroke12  607  97 I1
stroke12  606  97 I1
stroke12  605  97 I1
stroke12  604  97 I1
stroke12  603  97 I1
stroke12  603  98 I1
stroke12  603  99 I1
stroke12  603  100 I1
stroke12  603  101 I1
stroke12  604  102 I1
stroke12  604  103 I1
stroke12  604  104 I1
stroke12  605  105 I1
stroke12  605  106 I1
stroke12  605  107 I1
stroke12  606  108 I1
stroke12  606  109 I1
stroke12  607  110 I1
stroke12  607  111 I1
stroke12  607  112 I1
stroke12  608  113 I1
stroke12  608  114 I1
stroke12  608  115 I1
stroke12  609  115 I1
stroke12  609  116 I1
stroke12  609  117 I1
stroke12  610  118 I1
stroke12  611  119 I1
stroke12  612  120 I1
stroke12  613  120 I1
stroke12  613  121 I1
stroke12  614  121 I1
stroke12  615  122 I1
stroke12  616  122 I1
stroke12  617  122 I1
stroke12  618  123 I1
stroke12  619  123 I1
stroke12  620  123 I1
stroke12  622  122 I1
stroke12  623  122 I1
stroke12  624  122 I1
stroke12  625  121 I1
stroke12  626  121 I1
stroke12  628  120 I1
stroke12  629  119 I1
stroke12  630  118 I1
stroke12  631  118 I1
stroke12  632  117 I1
stroke12  632  115 I1
stroke12  633  114 I1
stroke12  634  113 I1
stroke12  634  111 I1
stroke12  634  110 I1
stroke12  635  108 I1
stroke12  635  106 I1
stroke12  634  105 I1
stroke12  634  103 I1
stroke12  634  101 I1
stroke12  634  99 I1
stroke12  633  97 I1
stroke12  633  95 I1
stroke12  633  93 I1
stroke12  632  91 I1
stroke12  632  89 I1
stroke12  631  88 I1
stroke12  631  86 I1
stroke12  630  84 I1
stroke12  630  82 I1
stroke12  629  80 I1
stroke12  629  78 I1
stroke12  628  76 I1
stroke12  628  74 I1
stroke12  627  72 I1
stroke12  627  69 I1
stroke12  626  67 I1
stroke12  626  65 I1
stroke12  625  63 I1
stroke12  625  61 I1
stroke12  625  59 I1
stroke12  625  57 I1
stroke12  624  56 I1
stroke12  624  54 I1
stroke12  624  53 I1
stroke12  625  53 I1
stroke12  625  52 I1
stroke12  625  53 I1
stroke12  625  54 I1
stroke12  625  55 I1
stroke13  650  106 B47
stroke13  649  106 I47
stroke13  648  106 I47
stroke13  647  107 I47
stroke13  646  108 I47
stroke13  645  109 I47
stroke13  645  110 I47
stroke13  645  111 I47
stroke13  645  112 I47
stroke13  645  113 I47
stroke13  646  114 I47
stroke13  647  115 I47
stroke13  648  116 I47
stroke13  649  117 I47
stroke13  650  118 I47
stroke13  650  119 I47
stroke13  651  120 I47
stroke13  652  121 I47
stroke13  653  122 I47
stroke13  654  123 I47
stroke13  655  123 I47
stroke13  655  124 I47
stroke13  656  124 I47
stroke13  657  124 I47
stroke13  658  124 I47
stroke13  658  125 I47
stroke13  659  125 I47
stroke13  660  125 I47
stroke13  660  124 I47
stroke13  661  124 I47
stroke13  661  123 I47
stroke13  662  122 I47
stroke13  663  121 I47
stroke13  663  120 I47
stroke13  663  119 I47
stroke13  663  118 I47
stroke13  664  116 I47
stroke13  664  114 I47
stroke13  664  113 I47
stroke13  664  111 I47
stroke13  663  109 I47
stroke13  663  107 I47
stroke13  663  105 I47
stroke13  663  103 I47
stroke13  662  101 I47
stroke13  662  99 I47
stroke13  662  97 I47
stroke13  662  96 I47
stroke13  661  94 I47
stroke13  661  92 I47
stroke13  661  91 I47
stroke13  660  89 I47
stroke13  660  87 I47
stroke13  660  86 I47
stroke13  660  84 I47
stroke13  659  82 I47
stroke13  659  80 I47
stroke13  659  78 I47
stroke13  659  76 I47
stroke13  658  75 I47
stroke13  658  73 I47
stroke13  658  71 I47
stroke13  658  70 I47
stroke13  658  68 I47
stroke13  657  67 I47
stroke13  657  65 I47
stroke13  657  64 I47
stroke13  657  62 I47
stroke13  657  61 I47
stroke13  657  59 I47
stroke13  656  58 I47
stroke13  656  57 I47
stroke13  656  56 I47
stroke13  656  55 I47
stroke13  656  54 I47
stroke13  656  53 I47
stroke13  656  52 I47
stroke13  656  51 I47
stroke13  656  50 I47
stroke13  655  50 I47
stroke13  655  51 I47
stroke13  655  52 I47
stroke13  655  53 I47
