stroke1  207  60 B54
stroke1  208  61 I54
stroke1  208  62 I54
stroke1  209  63 I54
stroke1  210  64 I54
stroke1  210  65 I54
stroke1  210  66 I54
stroke1  211  66 I54
stroke1  210  67 I54
stroke1  210  66 I54
stroke1  209  66 I54
stroke1  209  65 I54
stroke1  209  64 I54
stroke1  209  63 I54
stroke1  208  62 I54
stroke1  208  61 I54
stroke1  207  59 I54
stroke1  207  57 I54
stroke1  206  56 I54
stroke1  205  54 I54
stroke1  204  52 I54
stroke1  204  50 I54
stroke1  203  48 I54
stroke1  203  46 I54
stroke1  202  45 I54
stroke1  202  43 I54
stroke1  202  41 I54
stroke1  201  40 I54
stroke1  201  38 I54
stroke1  201  36 I54
stroke1  201  35 I54
stroke1  200  33 I54
stroke1  200  31 I54
stroke1  199  29 I54
stroke1  199  27 I54
stroke1  199  26 I54
stroke1  198  24 I54
stroke1  198  22 I54
stroke1  198  21 I54
stroke1  198  20 I54
stroke1  197  19 I54
stroke1  197  17 I54
stroke1  197  16 I54
stroke1  197  15 I54
stroke1  197  14 I54
stroke1  197  13 I54
stroke1  197  12 I54
stroke1  197  11 I54
stroke1  197  10 I54
stroke1  197  9 I54
stroke1  197  8 I54
stroke1  197  7 I54
stroke1  198  6 I54
stroke1  198  5 I54
stroke1  199  5 I54
stroke1  199  4 I54
stroke1  200  4 I54
stroke1  201  3 I54
stroke1  202  3 I54
stroke1  203  3 I54
stroke1  204  3 I54
stroke1  205  4 I54
stroke1  206  5 I54
stroke1  207  5 I54
stroke1  208  6 I54
stroke1  208  8 I54
stroke1  209  9 I54
stroke1  209  11 I54
stroke1  210  12 I54
stroke1  210  14 I54
stroke1  209  15 I54
stroke1  209  16 I54
stroke1  208  17 I54
stroke1  207  18 I54
stroke1  206  18 I54
stroke1  205  18 I54
stroke1  203  18 I54
stroke1  202  17 I54
stroke1  200  16 I54
stroke1  199  15 I54
stroke1  197  14 I54
stroke1  196  13 I54
stroke1  195  12 I54
stroke2  229  35 B4
stroke2  228  35 I4
stroke2  228  34 I4
stroke2  229  35 I4
stroke2  230  35 I4
stroke2  231  36 I4
stroke2  232  36 I4
stroke2  233  37 I4
stroke2  234  38 I4
stroke2  236  39 I4
stroke2  237  40 I4
stroke2  238  41 I4
stroke2  238  42 I4
stroke2  239  43 I4
stroke2  239  44 I4
stroke2  239  45 I4
stroke2  239  46 I4
stroke2  238  46 I4
stroke2  238  47 I4
stroke2  237  47 I4
stroke2  236  47 I4
stroke2  236  48 I4
stroke2  235  48 I4
stroke2  234  47 I4
stroke2  233  47 I4
stroke2  232  47 I4
stroke2  231  46 I4
stroke2  230  45 I4
stroke2  229  45 I4
stroke2  229  44 I4
stroke2  228  42 I4
stroke2  228  41 I4
stroke2  227  40 I4
stroke2  227  38 I4
stroke2  227  37 I4
stroke2  227  35 I4
stroke2  227  34 I4
stroke2  226  32 I4
stroke2  226  31 I4
stroke2  226  30 I4
stroke2  226  28 I4
stroke2  226  27 I4
stroke2  226  26 I4
stroke2  226  24 I4
stroke2  226  23 I4
stroke2  226  22 I4
stroke2  226  21 I4
stroke2  226  19 I4
stroke2  225  18 I4
stroke2  226  17 I4
stroke2  225  16 I4
stroke2  225  15 I4
stroke2  225  14 I4
stroke2  225  13 I4
stroke2  225  12 I4
stroke2  225  11 I4
stroke2  225  10 I4
stroke2  225  9 I4
stroke2  225  8 I4
stroke2  225  7 I4
stroke2  225  6 I4
stroke2  225  5 I4
stroke2  225  4 I4
stroke2  224  3 I4
stroke2  225  2 I4
stroke2  224  2 I4
stroke2  224  3 I4
stroke2  225  4 I4
stroke2  224  4 I4
stroke2  224  5 I4
stroke2  224  6 I4
stroke2  224  7 I4
stroke2  224  8 I4
stroke2  224  10 I4
stroke2  224  11 I4
stroke2  224  14 I4
stroke2  224  16 I4
stroke2  223  19 I4
stroke2  223  22 I4
stroke2  223  25 I4
stroke2  222  28 I4
stroke2  222  30 I4
stroke2  221  33 I4
stroke2  221  35 I4
stroke2  220  37 I4
stroke2  220  39 I4
stroke2  219  40 I4
stroke2  219  42 I4
stroke2  218  44 I4
stroke2  218  46 I4
stroke2  218  48 I4
stroke2  218  50 I4
stroke2  218  52 I4
stroke2  218  54 I4
stroke2  219  56 I4
stroke2  219  57 I4
stroke2  219  59 I4
stroke2  220  60 I4
stroke2  220  61 I4
stroke2  221  62 I4
stroke2  221  63 I4
stroke2  221  64 I4
stroke2  222  65 I4
stroke2  223  66 I4
stroke2  224  67 I4
stroke2  224  68 I4
stroke2  225  68 I4
stroke2  226  69 I4
stroke2  227  69 I4
stroke2  227  70 I4
stroke2  228  70 I4
stroke2  229  70 I4
stroke2  229  71 I4
stroke2  230  71 I4
stroke2  231  71 I4
stroke2  232  70 I4
stroke2  233  70 I4
stroke2  234  70 I4
stroke2  235  69 I4
stroke2  236  69 I4
stroke2  237  68 I4
stroke2  238  67 I4
stroke2  239  66 I4
stroke2  240  65 I4
stroke2  241  64 I4
stroke2  242  63 I4
stroke2  242  62 I4
stroke2  243  60 I4
stroke2  244  59 I4
stroke2  245  58 I4
stroke2  245  57 I4
stroke2  246  55 I4
stroke2  246  54 I4
stroke2  247  52 I4
stroke2  247  50 I4
stroke2  247  49 I4
stroke2  247  47 I4
stroke2  247  46 I4
stroke2  247  44 I4
stroke2  247  43 I4
stroke2  247  41 I4
stroke2  247  40 I4
stroke2  247  38 I4
stroke2  247  36 I4
stroke2  247  35 I4
stroke2  247  33 I4
stroke2  248  32 I4
stroke2  248  30 I4
stroke2  248  28 I4
stroke2  248  26 I4
stroke2  248  24 I4
stroke2  248  22 I4
stroke2  249  20 I4
stroke2  249  19 I4
stroke2  249  17 I4
stroke2  249  15 I4
stroke2  250  13 I4
stroke2  250  11 I4
stroke2  250  10 I4
stroke2  250  8 I4
stroke2  251  7 I4
stroke2  251  6 I4
stroke2  251  5 I4
stroke2  251  4 I4
stroke2  252  4 I4
stroke2  252  5 I4
stroke2  252  6 I4
stroke2  252  7 I4
stroke2  251  8 I4
stroke2  251  10 I4
stroke3  268  18 B36
stroke3  268  17 I36
stroke3  268  16 I36
stroke3  267  16 I36
stroke3  267  17 I36
stroke3  267  18 I36
stroke3  268  19 I36
stroke3  268  20 I36
stroke3  268  21 I36
stroke3  269  21 I36
stroke3  269  22 I36
stroke3  270  23 I36
stroke3  271  23 I36
stroke3  272  24 I36
stroke3  273  24 I36
stroke3  274  23 I36
stroke3  274  22 I36
stroke3  274  21 I36
stroke3  274  20 I36
stroke3  274  19 I36
stroke3  273  18 I36
stroke3  273  17 I36
stroke3  273  16 I36
stroke3  272  15 I36
stroke3  272  14 I36
stroke3  272  13 I36
stroke3  272  12 I36
stroke3  271  12 I36
stroke3  271  11 I36
stroke3  271  10 I36
stroke3  270  9 I36
stroke3  270  8 I36
stroke3  269  7 I36
stroke3  268  6 I36
stroke3  268  5 I36
stroke3  268  4 I36
stroke3  267  4 I36
stroke3  267  3 I36
stroke3  266  3 I36
stroke3  265  3 I36
stroke3  265  4 I36
stroke3  265  5 I36
stroke3  265  6 I36
stroke3  265  7 I36
stroke3  265  8 I36
stroke3  266  10 I36
stroke3  266  11 I36
stroke3  266  13 I36
stroke3  266  15 I36
stroke3  267  17 I36
stroke3  267  20 I36
stroke3  267  22 I36
stroke3  267  23 I36
stroke3  268  25 I36
stroke3  268  27 I36
stroke3  268  28 I36
stroke3  268  29 I36
stroke3  268  31 I36
stroke3  269  32 I36
stroke3  269  33 I36
stroke3  269  34 I36
stroke3  270  35 I36
stroke3  270  36 I36
stroke3  270  37 I36
stroke3  271  37 I36
stroke3  271  38 I36
stroke3  271  39 I36
stroke3  272  39 I36
stroke3  272  40 I36
stroke3  273  40 I36
stroke3  273  39 I36
stroke3  274  38 I36
stroke3  275  37 I36
stroke3  275  36 I36
stroke3  276  35 I36
stroke3  276  34 I36
stroke3  277  33 I36
stroke3  277  32 I36
stroke3  278  30 I36
stroke3  278  29 I36
stroke3  279  28 I36
stroke3  279  26 I36
stroke3  280  25 I36
stroke3  280  23 I36
stroke3  281  22 I36
stroke3  281  21 I36
stroke3  282  19 I36
stroke3  283  17 I36
stroke3  283  16 I36
stroke3  284  14 I36
stroke3  284  13 I36
stroke3  285  12 I36
stroke3  286  10 I36
stroke3  286  9 I36
stroke3  287  8 I36
stroke3  287  7 I36
stroke3  288  6 I36
stroke3  289  5 I36
stroke3  289  4 I36
stroke3  289  3 I36
stroke3  290  2 I36
stroke3  290  1 I36
stroke3  291  1 I36
stroke3  291  0 I36
stroke3  291  1 I36
stroke3  291  2 I36
stroke3  291  3 I36
stroke3  291  4 I36
stroke3  291  6 I36
stroke3  290  8 I36
stroke3  290  10 I36
stroke3  290  12 I36
stroke3  290  14 I36
stroke3  289  17 I36
stroke3  289  19 I36
stroke3  289  21 I36
stroke3  288  24 I36
stroke3  288  26 I36
stroke3  287  28 I36
stroke3  286  30 I36
stroke3  286  32 I36
stroke3  285  34 I36
stroke3  285  36 I36
stroke3  284  38 I36
stroke3  284  40 I36
stroke3  284  42 I36
stroke3  284  43 I36
stroke3  284  45 I36
stroke3  283  47 I36
stroke3  283  48 I36
stroke3  283  50 I36
stroke3  283  51 I36
stroke3  283  53 I36
stroke3  283  54 I36
stroke3  283  56 I36
stroke3  282  57 I36
stroke3  282  58 I36
stroke3  282  59 I36
stroke3  282  60 I36
stroke3  282  61 I36
stroke3  282  62 I36
stroke3  282  63 I36
stroke3  282  64 I36
stroke3  281  65 I36
stroke3  281  66 I36
stroke3  281  67 I36
stroke3  281  68 I36
stroke3  281  69 I36
stroke3  281  70 I36
stroke3  281  71 I36
stroke3  281  72 I36
stroke3  281  73 I36
stroke3  281  74 I36
stroke3  280  74 I36
stroke3  279  74 I36
stroke3  277  74 I36
stroke3  275  72 I36
stroke3  273  71 I36
stroke3  271  70 I36
stroke3  267  68 I36
stroke3  264  66 I36
stroke3  261  64 I36
stroke3  258  62 I36
stroke3  256  61 I36
stroke3  254  59 I36
stroke3  252  58 I36
stroke3  251  57 I36
stroke4  276  91 B51
stroke4  277  91 I51
stroke4  276  91 I51
stroke4  275  91 I51
stroke4  274  91 I51
stroke4  273  91 I51
stroke4  272  91 I51
stroke4  271  91 I51
stroke4  270  91 I51
stroke4  268  91 I51
stroke4  267  91 I51
stroke4  265  91 I51
stroke4  264  91 I51
stroke4  262  91 I51
stroke4  259  91 I51
stroke4  257  90 I51
stroke4  254  90 I51
stroke4  251  90 I51
stroke4  249  89 I51
stroke4  246  89 I51
stroke4  244  88 I51
stroke4  242  88 I51
stroke4  240  87 I51
stroke4  238  87 I51
stroke4  237  87 I51
stroke4  236  87 I51
stroke4  235  87 I51
stroke4  236  87 I51
stroke4  236  88 I51
stroke4  237  89 I51
stroke4  238  90 I51
stroke4  240  91 I51
stroke4  241  92 I51
stroke4  243  93 I51
stroke4  245  94 I51
stroke4  248  95 I51
stroke4  250  96 I51
stroke4  253  97 I51
stroke4  255  97 I51
stroke4  257  97 I51
stroke4  258  97 I51
stroke4  260  97 I51
stroke4  262  97 I51
stroke4  263  96 I51
stroke4  265  96 I51
stroke4  266  95 I51
stroke4  267  94 I51
stroke4  269  94 I51
stroke4  270  93 I51
stroke4  271  93 I51
stroke4  272  93 I51
stroke4  273  92 I51
stroke4  274  92 I51
stroke4  275  92 I51
stroke4  275  93 I51
stroke4  276  93 I51
stroke4  277  94 I51
stroke4  277  95 I51
stroke4  277  96 I51
stroke4  277  97 I51
stroke4  277  98 I51
stroke4  277  100 I51
stroke4  277  101 I51
stroke4  277  103 I51
stroke4  277  105 I51
stroke4  278  106 I51
stroke4  278  107 I51
stroke4  278  108 I51
stroke4  277  108 I51
stroke4  277  107 I51
stroke4  276  107 I51
stroke4  276  106 I51
stroke4  275  105 I51
stroke4  288  109 I51
stroke4  289  109 I51
stroke4  289  110 I51
stroke4  290  110 I51
stroke4  289  110 I51
stroke4  289  109 I51
stroke4  289  108 I51
stroke4  288  106 I51
stroke4  288  105 I51
stroke4  287  103 I51
stroke4  287  100 I51
stroke4  286  98 I51
stroke4  285  96 I51
stroke4  285  95 I51
stroke4  284  93 I51
stroke4  284  92 I51
stroke4  283  91 I51
stroke4  283  92 I51
stroke4  284  93 I51
stroke5  285  129 B65
stroke5  285  130 I65
stroke5  285  131 I65
stroke5  284  132 I65
stroke5  284  131 I65
stroke5  283  131 I65
stroke5  283  129 I65
stroke5  283  128 I65
stroke5  283  127 I65
stroke5  283  125 I65
stroke5  283  124 I65
stroke5  284  123 I65
stroke6  315  45 B43
stroke6  314  45 I43
stroke6  315  44 I43
stroke6  315  45 I43
stroke6  316  45 I43
stroke6  317  45 I43
stroke6  318  45 I43
stroke6  319  46 I43
stroke6  320  47 I43
stroke6  321  48 I43
stroke6  321  49 I43
stroke6  322  50 I43
stroke6  322  51 I43
stroke6  322  52 I43
stroke6  322  53 I43
stroke6  322  54 I43
stroke6  321  54 I43
stroke6  321  55 I43
stroke6  320  56 I43
stroke6  319  56 I43
stroke6  318  56 I43
stroke6  317  56 I43
stroke6  316  55 I43
stroke6  315  54 I43
stroke6  315  53 I43
stroke6  314  52 I43
stroke6  313  50 I43
stroke6  313  49 I43
stroke6  312  47 I43
stroke6  312  46 I43
stroke6  312  44 I43
stroke6  312  42 I43
stroke6  312  41 I43
stroke6  312  39 I43
stroke6  312  37 I43
stroke6  312  36 I43
stroke6  312  34 I43
stroke6  311  33 I43
stroke6  311  31 I43
stroke6  311  30 I43
stroke6  311  29 I43
stroke6  310  28 I43
stroke6  310  26 I43
stroke6  310  25 I43
stroke6  310  24 I43
stroke6  309  23 I43
stroke6  309  22 I43
stroke6  309  21 I43
stroke6  309  20 I43
stroke6  309  19 I43
stroke6  309  18 I43
stroke6  309  17 I43
stroke6  309  16 I43
stroke6  309  15 I43
stroke6  309  14 I43
stroke6  309  13 I43
stroke6  309  12 I43
stroke6  309  11 I43
stroke6  310  10 I43
stroke6  310  9 I43
stroke6  310  8 I43
stroke6  311  8 I43
stroke6  311  7 I43
stroke6  312  7 I43
stroke6  313  7 I43
stroke6  314  6 I43
stroke6  315  6 I43
stroke6  316  6 I43
stroke6  317  6 I43
stroke6  318  6 I43
stroke6  319  6 I43
stroke6  320  6 I43
stroke6  321  6 I43
stroke6  323  7 I43
stroke6  324  6 I43
stroke6  325  6 I43
stroke6  326  6 I43
stroke6  327  6 I43
stroke6  328  6 I43
stroke6  329  6 I43
stroke6  330  6 I43
stroke6  331  6 I43
stroke6  331  7 I43
stroke6  332  8 I43
stroke6  332  9 I43
stroke6  332  10 I43
stroke6  332  11 I43
stroke6  333  12 I43
stroke6  333  14 I43
stroke6  333  16 I43
stroke6  333  17 I43
stroke6  333  19 I43
stroke6  333  20 I43
stroke6  333  22 I43
stroke6  333  24 I43
stroke6  333  26 I43
stroke6  333  27 I43
stroke6  333  29 I43
stroke6  333  31 I43
stroke6  333  32 I43
stroke6  333  34 I43
stroke6  333  35 I43
stroke6  334  37 I43
stroke6  334  38 I43
stroke6  333  40 I43
stroke6  333  41 I43
stroke6  333  42 I43
stroke6  333  43 I43
stroke6  333  45 I43
stroke6  332  46 I43
stroke6  332  48 I43
stroke6  332  49 I43
stroke6  333  50 I43
stroke6  333  52 I43
stroke6  333  53 I43
stroke6  333  54 I43
stroke6  333  56 I43
stroke6  333  57 I43
stroke6  333  58 I43
stroke6  333  59 I43
stroke6  333  60 I43
stroke6  332  61 I43
stroke6  332  62 I43
stroke6  332  63 I43
stroke6  331  63 I43
stroke6  331  64 I43
stroke6  331  65 I43
stroke6  330  65 I43
stroke6  330  66 I43
stroke6  329  67 I43
stroke6  328  68 I43
stroke6  327  69 I43
stroke6  326  69 I43
stroke6  325  70 I43
stroke6  323  70 I43
stroke6  322  70 I43
stroke6  320  70 I43
stroke6  318  69 I43
stroke6  315  68 I43
stroke6  312  67 I43
stroke6  309  66 I43
stroke6  306  64 I43
stroke6  303  63 I43
stroke6  301  61 I43
stroke6  299  59 I43
stroke6  297  57 I43
stroke6  296  56 I43
stroke6  296  54 I43
stroke7  359  53 B25
stroke7  358  52 I25
stroke7  357  52 I25
stroke7  356  52 I25
stroke7  355  53 I25
stroke7  354  53 I25
stroke7  352  54 I25
stroke7  351  55 I25
stroke7  350  56 I25
stroke7  349  57 I25
stroke7  348  58 I25
stroke7  347  59 I25
stroke7  346  60 I25
stroke7  345  61 I25
stroke7  345  62 I25
stroke7  345  63 I25
stroke7  346  64 I25
stroke7  346  65 I25
stroke7  347  66 I25
stroke7  347  67 I25
stroke7  348  67 I25
stroke7  349  67 I25
stroke7  350  67 I25
stroke7  350  66 I25
stroke7  351  66 I25
stroke7  351  65 I25
stroke7  352  64 I25
stroke7  353  63 I25
stroke7  353  62 I25
stroke7  354  61 I25
stroke7  354  60 I25
stroke7  354  59 I25
stroke7  354  57 I25
stroke7  355  56 I25
stroke7  355  54 I25
stroke7  355  53 I25
stroke7  355  52 I25
stroke7  355  50 I25
stroke7  355  49 I25
stroke7  354  48 I25
stroke7  354  46 I25
stroke7  354  45 I25
stroke7  354  44 I25
stroke7  354  43 I25
stroke7  354  41 I25
stroke7  355  40 I25
stroke7  355  39 I25
stroke7  354  37 I25
stroke7  355  36 I25
stroke7  355  35 I25
stroke7  355  33 I25
stroke7  354  32 I25
stroke7  354  31 I25
stroke7  354  29 I25
stroke7  354  28 I25
stroke7  354  27 I25
stroke7  354  26 I25
stroke7  354  24 I25
stroke7  354  23 I25
stroke7  354  22 I25
stroke7  354  21 I25
stroke7  354  20 I25
stroke7  354  19 I25
stroke7  353  18 I25
stroke7  353  17 I25
stroke7  353  16 I25
stroke7  353  15 I25
stroke7  353  14 I25
stroke7  353  13 I25
stroke7  353  12 I25
stroke7  353  11 I25
stroke7  353  10 I25
stroke7  352  9 I25
stroke7  352  8 I25
stroke7  352  7 I25
stroke7  352  6 I25
stroke7  352  5 I25
stroke7  352  4 I25
stroke7  352  3 I25
stroke7  351  3 I25
stroke7  351  2 I25
stroke7  351  1 I25
stroke7  352  1 I25
stroke7  352  2 I25
stroke7  353  2 I25
stroke7  353  4 I25
stroke7  354  5 I25
stroke7  355  6 I25
stroke7  357  8 I25
stroke7  358  10 I25
stroke7  359  12 I25
stroke7  361  14 I25
stroke7  362  15 I25
stroke7  363  17 I25
stroke7  364  18 I25
stroke7  365  19 I25
stroke7  366  19 I25
stroke7  367  20 I25
stroke7  368  20 I25
stroke7  369  21 I25
stroke7  370  21 I25
stroke7  371  20 I25
stroke7  372  20 I25
stroke7  374  20 I25
stroke7  375  20 I25
stroke7  377  20 I25
stroke7  378  19 I25
stroke7  379  19 I25
stroke7  381  18 I25
stroke7  382  17 I25
stroke7  383  17 I25
stroke7  383  16 I25
stroke7  384  15 I25
stroke7  385  14 I25
stroke7  384  13 I25
stroke7  384  12 I25
stroke7  384  11 I25
stroke7  383  10 I25
stroke7  383  9 I25
stroke7  382  8 I25
stroke7  381  7 I25
stroke7  380  6 I25
stroke7  379  5 I25
stroke7  378  4 I25
stroke7  378  3 I25
stroke7  377  2 I25
stroke7  376  2 I25
stroke7  376  3 I25
stroke7  376  4 I25
stroke7  376  5 I25
stroke7  376  6 I25
stroke7  376  7 I25
stroke7  376  8 I25
stroke7  376  10 I25
stroke7  377  12 I25
stroke7  377  14 I25
stroke7  378  17 I25
stroke7  378  19 I25
stroke7  378  22 I25
stroke7  379  24 I25
stroke7  379  27 I25
stroke7  380  29 I25
stroke7  380  32 I25
stroke7  380  34 I25
stroke7  381  36 I25
stroke7  381  38 I25
stroke7  382  40 I25
stroke7  382  43 I25
stroke7  381  45 I25
stroke7  381  47 I25
stroke7  381  50 I25
stroke7  381  52 I25
stroke7  381  54 I25
stroke7  381  57 I25
stroke7  381  59 I25
stroke7  380  61 I25
stroke7  380  63 I25
stroke7  380  65 I25
stroke7  380  67 I25
stroke7  380  68 I25
stroke7  380  70 I25
stroke7  380  72 I25
stroke7  380  73 I25
stroke7  380  74 I25
stroke7  381  75 I25
stroke7  381  76 I25
stroke7  381  77 I25
stroke7  382  77 I25
stroke7  381  76 I25
stroke7  381  75 I25
stroke7  381  74 I25
stroke7  380  73 I25
stroke8  409  16 B59
stroke8  408  16 I59
stroke8  407  16 I59
stroke8  407  17 I59
stroke8  408  18 I59
stroke8  408  19 I59
stroke8  408  20 I59
stroke8  409  21 I59
stroke8  409  22 I59
stroke8  409  23 I59
stroke8  410  24 I59
stroke8  411  24 I59
stroke8  412  24 I59
stroke8  413  23 I59
stroke8  414  23 I59
stroke8  415  22 I59
stroke8  415  21 I59
stroke8  416  20 I59
stroke8  416  19 I59
stroke8  416  18 I59
stroke8  416  17 I59
stroke8  416  16 I59
stroke8  416  15 I59
stroke8  415  14 I59
stroke8  415  12 I59
stroke8  415  11 I59
stroke8  414  10 I59
stroke8  413  9 I59
stroke8  413  8 I59
stroke8  412  7 I59
stroke8  411  6 I59
stroke8  410  6 I59
stroke8  410  5 I59
stroke8  409  5 I59
stroke8  408  5 I59
stroke8  408  6 I59
stroke8  408  7 I59
stroke8  408  8 I59
stroke8  408  9 I59
stroke8  408  11 I59
stroke8  408  12 I59
stroke8  408  14 I59
stroke8  409  16 I59
stroke8  409  18 I59
stroke8  409  19 I59
stroke8  409  21 I59
stroke8  409  23 I59
stroke8  410  25 I59
stroke8  409  26 I59
stroke8  409  28 I59
stroke8  409  29 I59
stroke8  409  30 I59
stroke8  409  32 I59
stroke8  409  34 I59
stroke8  410  35 I59
stroke8  410  37 I59
stroke8  410  39 I59
stroke8  410  41 I59
stroke8  411  43 I59
stroke8  411  45 I59
stroke8  411  47 I59
stroke8  411  49 I59
stroke8  411  52 I59
stroke8  412  54 I59
stroke8  412  56 I59
stroke8  412  58 I59
stroke8  412  60 I59
stroke8  413  61 I59
stroke8  412  63 I59
stroke8  413  65 I59
stroke8  413  66 I59
stroke8  413  68 I59
stroke8  413  69 I59
stroke8  413  71 I59
stroke8  413  72 I59
stroke8  413  74 I59
stroke8  414  75 I59
stroke8  414  76 I59
stroke8  414  78 I59
stroke8  415  79 I59
stroke8  415  80 I59
stroke8  415  82 I59
stroke8  415  83 I59
stroke8  416  85 I59
stroke8  416  86 I59
stroke8  416  88 I59
stroke8  416  89 I59
stroke8  416  91 I59
stroke8  417  92 I59
stroke8  417  94 I59
stroke8  417  95 I59
stroke8  417  97 I59
stroke8  418  99 I59
stroke8  418  100 I59
stroke8  419  102 I59
stroke8  419  104 I59
stroke8  420  105 I59
stroke8  420  107 I59
stroke8  421  109 I59
stroke8  421  110 I59
stroke8  422  112 I59
stroke8  422  113 I59
stroke8  423  114 I59
stroke8  423  115 I59
stroke8  424  116 I59
stroke8  424  118 I59
stroke8  424  119 I59
stroke8  425  120 I59
stroke8  425  121 I59
stroke8  426  122 I59
stroke8  426  124 I59
stroke8  426  125 I59
stroke8  426  126 I59
stroke8  427  127 I59
stroke8  427  128 I59
stroke8  428  129 I59
stroke8  428  130 I59
stroke8  428  131 I59
stroke8  428  132 I59
stroke8  429  133 I59
stroke8  429  134 I59
stroke8  429  135 I59
stroke8  429  136 I59
stroke8  430  136 I59
stroke8  430  137 I59
stroke8  429  136 I59
stroke8  429  135 I59
stroke8  428  134 I59
stroke8  426  133 I59
stroke8  425  131 I59
stroke8  423  129 I59
stroke8  421  127 I59
stroke8  419  124 I59
stroke8  416  121 I59
stroke8  414  118 I59
stroke8  412  115 I59
stroke8  409  113 I59
stroke8  408  110 I59
stroke8  406  109 I59
stroke8  405  107 I59
stroke8  404  106 I59
stroke8  403  106 I59
stroke8  402  105 I59
stroke8  401  105 I59
stroke8  401  106 I59
stroke8  400  107 I59
stroke8  399  108 I59
stroke8  397  110 I59
stroke8  395  111 I59
stroke8  393  113 I59
stroke8  390  116 I59
stroke8  387  118 I59
stroke8  384  120 I59
stroke8  381  122 I59
stroke8  378  125 I59
stroke8  376  127 I59
stroke8  374  129 I59
stroke8  372  131 I59
stroke8  371  132 I59
stroke8  370  133 I59
stroke8  371  132 I59
stroke8  373  131 I59
stroke9  445  59 B41
stroke9  446  59 I41
stroke9  446  58 I41
stroke9  445  58 I41
stroke9  445  57 I41
stroke9  444  56 I41
stroke9  443  55 I41
stroke9  442  54 I41
stroke9  441  54 I41
stroke9  440  54 I41
stroke9  439  53 I41
stroke9  439  54 I41
stroke9  438  54 I41
stroke9  437  54 I41
stroke9  436  55 I41
stroke9  435  55 I41
stroke9  434  57 I41
stroke9  433  58 I41
stroke9  433  59 I41
stroke9  432  61 I41
stroke9  432  62 I41
stroke9  431  63 I41
stroke9  432  65 I41
stroke9  432  66 I41
stroke9  433  68 I41
stroke9  433  69 I41
stroke9  434  70 I41
stroke9  434  71 I41
stroke9  435  72 I41
stroke9  436  73 I41
stroke9  437  73 I41
stroke9  438  72 I41
stroke9  439  71 I41
stroke9  440  70 I41
stroke9  440  69 I41
stroke9  441  68 I41
stroke9  441  67 I41
stroke9  441  66 I41
stroke9  442  64 I41
stroke9  442  63 I41
stroke9  442  62 I41
stroke9  442  60 I41
stroke9  442  59 I41
stroke9  443  58 I41
stroke9  443  57 I41
stroke9  443  55 I41
stroke9  443  54 I41
stroke9  443  53 I41
stroke9  443  51 I41
stroke9  443  50 I41
stroke9  443  49 I41
stroke9  443  48 I41
stroke9  443  47 I41
stroke9  443  46 I41
stroke9  442  45 I41
stroke9  442  43 I41
stroke9  442  42 I41
stroke9  442  41 I41
stroke9  442  40 I41
stroke9  442  39 I41
stroke9  442  38 I41
stroke9  442  37 I41
stroke9  441  36 I41
stroke9  441  35 I41
stroke9  441  33 I41
stroke9  441  32 I41
stroke9  441  31 I41
stroke9  441  30 I41
stroke9  441  29 I41
stroke9  441  28 I41
stroke9  441  27 I41
stroke9  441  26 I41
stroke9  441  25 I41
stroke9  440  23 I41
stroke9  440  22 I41
stroke9  440  21 I41
stroke9  440  20 I41
stroke9  440  19 I41
stroke9  440  17 I41
stroke9  440  16 I41
stroke9  440  15 I41
stroke9  440  14 I41
stroke9  440  13 I41
stroke9  440  12 I41
stroke9  439  12 I41
stroke9  439  11 I41
stroke9  439  10 I41
stroke9  439  9 I41
stroke9  439  8 I41
stroke9  440  7 I41
stroke9  440  8 I41
stroke9  440  9 I41
stroke9  441  9 I41
stroke9  441  10 I41
stroke9  442  11 I41
stroke9  442  12 I41
stroke9  442  13 I41
stroke9  443  14 I41
stroke9  444  15 I41
stroke9  445  17 I41
stroke9  446  19 I41
stroke9  447  21 I41
stroke9  448  23 I41
stroke9  449  25 I41
stroke9  450  26 I41
stroke9  452  28 I41
stroke9  453  30 I41
stroke9  453  31 I41
stroke9  454  33 I41
stroke9  455  34 I41
stroke9  455  35 I41
stroke9  456  37 I41
stroke9  456  38 I41
stroke9  457  39 I41
stroke9  457  41 I41
stroke9  458  42 I41
stroke9  459  43 I41
stroke9  459  44 I41
stroke9  460  45 I41
stroke9  460  47 I41
stroke9  461  48 I41
stroke9  461  49 I41
stroke9  462  50 I41
stroke9  463  51 I41
stroke9  463  53 I41
stroke9  464  54 I41
stroke9  464  55 I41
stroke9  465  56 I41
stroke9  465  57 I41
stroke9  466  58 I41
stroke9  467  59 I41
stroke9  467  60 I41
stroke9  468  61 I41
stroke9  468  62 I41
stroke9  468  63 I41
stroke9  468  64 I41
stroke9  469  65 I41
stroke9  469  66 I41
stroke9  469  67 I41
stroke9  469  68 I41
stroke9  470  69 I41
stroke9  469  69 I41
stroke9  469  70 I41
stroke9  469  71 I41
stroke9  468  71 I41
stroke9  467  71 I41
stroke9  467  72 I41
stroke9  466  71 I41
stroke9  465  71 I41
stroke9  464  70 I41
stroke9  463  69 I41
stroke9  462  68 I41
stroke9  462  67 I41
stroke9  461  66 I41
stroke9  461  65 I41
stroke9  460  64 I41
stroke9  460  62 I41
stroke9  459  61 I41
stroke9  459  59 I41
stroke9  459  57 I41
stroke9  458  55 I41
stroke9  458  53 I41
stroke9  458  51 I41
stroke9  458  49 I41
stroke9  459  47 I41
stroke9  459  46 I41
stroke9  459  44 I41
stroke9  459  42 I41
stroke9  460  40 I41
stroke9  460  39 I41
stroke9  460  37 I41
stroke9  460  36 I41
stroke9  460  35 I41
stroke9  460  33 I41
stroke9  460  32 I41
stroke9  460  31 I41
stroke9  461  29 I41
stroke9  461  28 I41
stroke9  461  27 I41
stroke9  461  26 I41
stroke9  461  25 I41
stroke9  461  23 I41
stroke9  462  22 I41
stroke9  461  21 I41
stroke9  461  20 I41
stroke9  461  18 I41
stroke9  461  17 I41
stroke9  461  16 I41
stroke9  461  14 I41
stroke9  461  13 I41
stroke9  461  12 I41
stroke9  461  10 I41
stroke9  461  9 I41
stroke9  461  8 I41
stroke9  461  7 I41
stroke9  462  6 I41
stroke9  462  5 I41
stroke9  462  4 I41
stroke9  462  3 I41
stroke9  463  2 I41
stroke9  464  2 I41
stroke9  464  3 I41
stroke9  464  4 I41
stroke9  464  5 I41
stroke9  464  6 I41
stroke9  464  7 I41
stroke10  503  14 B37
stroke10  504  15 I37
stroke10  504  16 I37
stroke10  503  16 I37
stroke10  502  16 I37
stroke10  502  17 I37
stroke10  501  17 I37
stroke10  500  17 I37
stroke10  499  17 I37
stroke10  498  17 I37
stroke10  497  16 I37
stroke10  496  15 I37
stroke10  495  15 I37
stroke10  494  14 I37
stroke10  493  13 I37
stroke10  493  12 I37
stroke10  492  11 I37
stroke10  491  10 I37
stroke10  491  9 I37
stroke10  491  8 I37
stroke10  491  7 I37
stroke10  492  6 I37
stroke10  492  5 I37
stroke10  493  5 I37
stroke10  494  4 I37
stroke10  495  4 I37
stroke10  496  4 I37
stroke10  497  4 I37
stroke10  498  4 I37
stroke10  499  4 I37
stroke10  500  4 I37
stroke10  501  5 I37
stroke10  502  5 I37
stroke10  502  6 I37
stroke10  503  6 I37
stroke10  503  7 I37
stroke10  504  7 I37
stroke10  504  8 I37
stroke10  505  9 I37
stroke10  505  10 I37
stroke10  506  11 I37
stroke10  506  12 I37
stroke10  506  13 I37
stroke10  507  14 I37
stroke10  507  15 I37
stroke10  507  17 I37
stroke10  508  18 I37
stroke10  508  19 I37
stroke10  508  21 I37
stroke10  508  22 I37
stroke10  508  24 I37
stroke10  509  25 I37
stroke10  509  27 I37
stroke10  509  28 I37
stroke10  509  30 I37
stroke10  509  31 I37
stroke10  510  33 I37
stroke10  510  34 I37
stroke10  510  35 I37
stroke10  510  36 I37
stroke10  510  38 I37
stroke10  510  39 I37
stroke10  510  40 I37
stroke10  511  41 I37
stroke10  511  42 I37
stroke10  511  43 I37
stroke10  511  44 I37
stroke10  511  46 I37
stroke10  512  47 I37
stroke10  512  48 I37
stroke10  512  50 I37
stroke10  513  51 I37
stroke10  513  52 I37
stroke10  513  53 I37
stroke10  513  54 I37
stroke10  513  55 I37
stroke10  513  56 I37
stroke10  513  57 I37
stroke10  513  58 I37
stroke10  513  59 I37
stroke10  514  59 I37
stroke10  514  60 I37
stroke10  514  61 I37
stroke10  514  62 I37
stroke10  514  63 I37
stroke10  514  64 I37
stroke10  515  64 I37
stroke10  515  65 I37
stroke10  515  66 I37
stroke10  515  67 I37
stroke10  515  68 I37
stroke10  515  69 I37
stroke10  515  70 I37
stroke10  515  71 I37
stroke10  514  71 I37
stroke10  514  72 I37
stroke10  513  72 I37
stroke10  512  71 I37
stroke10  510  71 I37
stroke10  508  71 I37
stroke10  506  70 I37
stroke10  503  69 I37
stroke10  500  68 I37
stroke10  497  68 I37
stroke10  494  67 I37
stroke10  491  66 I37
stroke10  489  65 I37
stroke10  486  63 I37
stroke10  483  62 I37
stroke10  481  59 I37
stroke10  478  56 I37
stroke10  476  52 I37
