stroke1  211  101 B4
stroke1  210  100 I4
stroke1  211  100 I4
stroke1  212  100 I4
stroke1  213  100 I4
stroke1  214  100 I4
stroke1  215  101 I4
stroke1  216  101 I4
stroke1  218  102 I4
stroke1  219  102 I4
stroke1  219  103 I4
stroke1  220  103 I4
stroke1  221  104 I4
stroke1  221  105 I4
stroke1  222  105 I4
stroke1  222  106 I4
stroke1  221  106 I4
stroke1  220  107 I4
stroke1  219  107 I4
stroke1  219  107 I4
stroke1  218  107 I4
stroke1  217  107 I4
stroke1  216  107 I4
stroke1  215  107 I4
stroke1  214  106 I4
stroke1  213  106 I4
stroke1  212  105 I4
stroke1  211  104 I4
stroke1  211  103 I4
stroke1  210  102 I4
stroke1  209  101 I4
stroke1  208  100 I4
stroke1  207  98 I4
stroke1  206  96 I4
stroke1  205  95 I4
stroke1  205  93 I4
stroke1  205  91 I4
stroke1  204  89 I4
stroke1  204  88 I4
stroke1  203  86 I4
stroke1  203  84 I4
stroke1  203  82 I4
stroke1  202  80 I4
stroke1  202  79 I4
stroke1  202  77 I4
stroke1  202  75 I4
stroke1  202  74 I4
stroke1  201  72 I4
stroke1  201  71 I4
stroke1  201  69 I4
stroke1  201  68 I4
stroke1  200  67 I4
stroke1  200  66 I4
stroke1  200  65 I4
stroke1  200  64 I4
stroke1  200  63 I4
stroke1  200  62 I4
stroke1  200  61 I4
stroke1  200  62 I4
stroke1  200  63 I4
stroke1  200  64 I4
stroke1  200  65 I4
stroke1  200  66 I4
stroke1  200  68 I4
stroke1  200  70 I4
stroke1  200  73 I4
stroke1  200  76 I4
stroke1  199  78 I4
stroke1  199  81 I4
stroke1  199  84 I4
stroke1  198  87 I4
stroke1  198  89 I4
stroke1  197  91 I4
stroke1  197  93 I4
stroke1  197  95 I4
stroke1  196  96 I4
stroke1  196  98 I4
stroke1  196  100 I4
stroke1  195  101 I4
stroke1  195  103 I4
stroke1  194  104 I4
stroke1  194  106 I4
stroke1  193  108 I4
stroke1  193  109 I4
stroke1  193  110 I4
stroke1  192  112 I4
stroke1  192  113 I4
stroke1  192  114 I4
stroke1  192  116 I4
stroke1  193  117 I4
stroke1  193  118 I4
stroke1  193  119 I4
stroke1  193  120 I4
stroke1  193  121 I4
stroke1  194  122 I4
stroke1  194  123 I4
stroke1  195  123 I4
stroke1  195  124 I4
stroke1  196  125 I4
stroke1  197  125 I4
stroke1  198  126 I4
stroke1  199  126 I4
stroke1  200  127 I4
stroke1  201  127 I4
stroke1  202  128 I4
stroke1  203  128 I4
stroke1  204  128 I4
stroke1  205  129 I4
stroke1  206  129 I4
stroke1  207  129 I4
stroke1  209  129 I4
stroke1  210  129 I4
stroke1  211  129 I4
stroke1  212  129 I4
stroke1  214  128 I4
stroke1  215  128 I4
stroke1  216  127 I4
stroke1  217  127 I4
stroke1  219  126 I4
stroke1  220  125 I4
stroke1  221  124 I4
stroke1  222  123 I4
stroke1  223  121 I4
stroke1  223  120 I4
stroke1  224  118 I4
stroke1  224  116 I4
stroke1  225  114 I4
stroke1  226  113 I4
stroke1  226  111 I4
stroke1  227  109 I4
stroke1  227  108 I4
stroke1  228  106 I4
stroke1  228  104 I4
stroke1  228  103 I4
stroke1  229  101 I4
stroke1  229  99 I4
stroke1  229  97 I4
stroke1  229  95 I4
stroke1  229  93 I4
stroke1  229  91 I4
stroke1  228  89 I4
stroke1  228  87 I4
stroke1  228  84 I4
stroke1  227  82 I4
stroke1  227  80 I4
stroke1  227  78 I4
stroke1  227  75 I4
stroke1  226  73 I4
stroke1  226  71 I4
stroke1  226  69 I4
stroke1  226  67 I4
stroke1  226  66 I4
stroke1  226  64 I4
stroke1  226  63 I4
stroke1  227  62 I4
stroke1  227  61 I4
stroke1  227  62 I4
stroke1  227  63 I4
stroke1  227  64 I4
stroke2  259  71 B35
stroke2  259  72 I35
stroke2  258  73 I35
stroke2  258  74 I35
stroke2  257  74 I35
stroke2  256  75 I35
stroke2  255  75 I35
stroke2  254  75 I35
stroke2  253  75 I35
stroke2  251  75 I35
stroke2  250  74 I35
stroke2  249  73 I35
stroke2  248  72 I35
stroke2  247  71 I35
stroke2  247  70 I35
stroke2  246  69 I35
stroke2  246  68 I35
stroke2  246  67 I35
stroke2  247  66 I35
stroke2  247  65 I35
stroke2  248  65 I35
stroke2  249  65 I35
stroke2  250  64 I35
stroke2  251  64 I35
stroke2  252  64 I35
stroke2  253  64 I35
stroke2  254  64 I35
stroke2  255  64 I35
stroke2  256  64 I35
stroke2  257  64 I35
stroke2  258  64 I35
stroke2  258  65 I35
stroke2  259  66 I35
stroke2  259  67 I35
stroke2  259  68 I35
stroke2  260  69 I35
stroke2  260  70 I35
stroke2  260  71 I35
stroke2  260  73 I35
stroke2  260  74 I35
stroke2  260  76 I35
stroke2  260  77 I35
stroke2  260  79 I35
stroke2  260  81 I35
stroke2  261  83 I35
stroke2  260  85 I35
stroke2  261  86 I35
stroke2  261  88 I35
stroke2  260  89 I35
stroke2  260  91 I35
stroke2  260  92 I35
stroke2  260  94 I35
stroke2  260  95 I35
stroke2  260  96 I35
stroke2  260  97 I35
stroke2  259  99 I35
stroke2  259  100 I35
stroke2  259  101 I35
stroke2  259  102 I35
stroke2  259  103 I35
stroke2  259  105 I35
stroke2  259  106 I35
stroke2  259  107 I35
stroke2  259  108 I35
stroke2  259  109 I35
stroke2  259  110 I35
stroke2  258  111 I35
stroke2  258  112 I35
stroke2  258  113 I35
stroke2  258  114 I35
stroke2  258  115 I35
stroke2  258  116 I35
stroke2  258  117 I35
stroke2  257  117 I35
stroke2  257  118 I35
stroke2  257  119 I35
stroke2  256  119 I35
stroke2  255  119 I35
stroke2  254  119 I35
stroke2  253  118 I35
stroke2  252  118 I35
stroke2  251  117 I35
stroke2  250  117 I35
stroke2  249  117 I35
stroke2  247  116 I35
stroke2  246  116 I35
stroke2  245  115 I35
stroke2  244  115 I35
stroke2  243  115 I35
stroke2  242  115 I35
stroke2  241  115 I35
stroke2  240  116 I35
stroke2  239  116 I35
stroke2  238  116 I35
stroke2  237  116 I35
stroke2  236  116 I35
stroke2  235  117 I35
stroke2  234  117 I35
stroke2  233  117 I35
stroke2  233  118 I35
stroke2  232  118 I35
stroke2  232  119 I35
stroke2  233  120 I35
stroke2  233  121 I35
stroke2  234  122 I35
stroke2  234  123 I35
stroke2  235  124 I35
stroke2  236  125 I35
stroke2  237  127 I35
stroke2  238  128 I35
stroke2  239  129 I35
stroke2  240  129 I35
stroke2  242  130 I35
stroke2  243  131 I35
stroke2  244  131 I35
stroke2  245  131 I35
stroke2  247  132 I35
stroke2  248  132 I35
stroke2  250  131 I35
stroke2  251  131 I35
stroke2  253  131 I35
stroke2  254  130 I35
stroke2  256  130 I35
stroke2  258  130 I35
stroke2  259  129 I35
stroke2  261  129 I35
stroke2  262  130 I35
stroke2  264  130 I35
stroke2  266  130 I35
stroke2  268  131 I35
stroke2  270  131 I35
stroke2  272  132 I35
stroke2  274  133 I35
stroke2  276  133 I35
stroke2  278  134 I35
stroke2  279  135 I35
stroke2  281  135 I35
stroke2  282  136 I35
stroke2  283  137 I35
stroke2  284  138 I35
stroke2  284  139 I35
stroke2  285  140 I35
stroke2  284  140 I35
stroke2  284  141 I35
stroke2  283  141 I35
stroke2  282  141 I35
stroke2  281  141 I35
stroke2  279  140 I35
stroke3  254  144 B50
stroke3  254  143 I50
stroke3  253  143 I50
stroke3  253  144 I50
stroke3  252  144 I50
stroke3  251  144 I50
stroke3  250  144 I50
stroke3  249  145 I50
stroke3  248  145 I50
stroke3  247  145 I50
stroke3  245  145 I50
stroke3  243  145 I50
stroke3  241  145 I50
stroke3  238  145 I50
stroke3  235  145 I50
stroke3  231  146 I50
stroke3  228  146 I50
stroke3  224  146 I50
stroke3  220  145 I50
stroke3  217  145 I50
stroke3  213  145 I50
stroke3  210  145 I50
stroke3  208  145 I50
stroke3  205  144 I50
stroke3  204  144 I50
stroke3  202  144 I50
stroke3  201  144 I50
stroke3  202  145 I50
stroke3  203  146 I50
stroke3  204  146 I50
stroke3  207  148 I50
stroke3  209  149 I50
stroke3  212  150 I50
stroke3  216  151 I50
stroke3  219  152 I50
stroke3  224  152 I50
stroke3  227  153 I50
stroke3  231  153 I50
stroke3  235  152 I50
stroke3  238  152 I50
stroke3  241  151 I50
stroke3  244  150 I50
stroke3  246  149 I50
stroke3  247  149 I50
stroke3  249  148 I50
stroke3  250  148 I50
stroke3  251  147 I50
stroke3  252  147 I50
stroke3  267  154 I50
stroke3  267  155 I50
stroke3  267  156 I50
stroke3  266  156 I50
stroke3  265  156 I50
stroke3  264  156 I50
stroke3  263  156 I50
stroke3  262  156 I50
stroke3  260  155 I50
stroke3  259  154 I50
stroke3  258  153 I50
stroke3  258  152 I50
stroke3  257  150 I50
stroke3  257  149 I50
stroke3  256  148 I50
stroke3  257  146 I50
stroke3  257  145 I50
stroke3  258  145 I50
stroke3  259  145 I50
stroke3  260  145 I50
stroke3  261  145 I50
stroke3  262  146 I50
stroke3  263  147 I50
stroke3  264  149 I50
stroke3  265  150 I50
stroke3  266  151 I50
stroke3  267  152 I50
stroke3  267  153 I50
stroke3  266  154 I50
stroke3  265  155 I50
stroke3  264  155 I50
stroke3  263  156 I50
stroke3  261  157 I50
stroke3  259  157 I50
stroke3  257  157 I50
stroke3  256  157 I50
stroke3  254  156 I50
stroke3  253  156 I50
stroke3  252  155 I50
stroke3  251  154 I50
stroke4  273  186 B65
stroke4  273  187 I65
stroke4  272  188 I65
stroke4  272  189 I65
stroke4  271  190 I65
stroke4  270  191 I65
stroke4  270  190 I65
stroke4  269  190 I65
stroke4  268  189 I65
stroke4  268  188 I65
stroke4  267  186 I65
stroke4  267  183 I65
stroke4  266  181 I65
stroke4  266  177 I65
stroke4  265  174 I65
stroke4  265  171 I65
stroke4  266  168 I65
stroke4  266  166 I65
stroke4  266  164 I65
stroke5  296  122 B7
stroke5  297  122 I7
stroke5  297  121 I7
stroke5  296  120 I7
stroke5  295  120 I7
stroke5  294  119 I7
stroke5  293  119 I7
stroke5  292  119 I7
stroke5  290  119 I7
stroke5  289  119 I7
stroke5  288  120 I7
stroke5  287  120 I7
stroke5  286  121 I7
stroke5  284  122 I7
stroke5  284  123 I7
stroke5  283  124 I7
stroke5  283  125 I7
stroke5  282  126 I7
stroke5  283  127 I7
stroke5  284  128 I7
stroke5  285  129 I7
stroke5  286  130 I7
stroke5  287  130 I7
stroke5  288  130 I7
stroke5  289  130 I7
stroke5  291  130 I7
stroke5  292  130 I7
stroke5  293  130 I7
stroke5  294  130 I7
stroke5  295  129 I7
stroke5  296  129 I7
stroke5  297  128 I7
stroke5  297  127 I7
stroke5  298  126 I7
stroke5  298  124 I7
stroke5  298  122 I7
stroke5  298  120 I7
stroke5  298  118 I7
stroke5  297  116 I7
stroke5  297  115 I7
stroke5  297  113 I7
stroke5  298  111 I7
stroke5  298  109 I7
stroke5  298  107 I7
stroke5  298  106 I7
stroke5  299  104 I7
stroke5  299  102 I7
stroke5  299  100 I7
stroke5  299  99 I7
stroke5  299  97 I7
stroke5  299  95 I7
stroke5  299  93 I7
stroke5  299  92 I7
stroke5  299  90 I7
stroke5  299  88 I7
stroke5  299  87 I7
stroke5  300  85 I7
stroke5  300  83 I7
stroke5  300  82 I7
stroke5  300  80 I7
stroke5  301  79 I7
stroke5  301  78 I7
stroke5  301  76 I7
stroke5  301  75 I7
stroke5  302  74 I7
stroke5  302  72 I7
stroke5  302  71 I7
stroke5  302  70 I7
stroke5  302  68 I7
stroke5  303  67 I7
stroke5  303  66 I7
stroke5  303  65 I7
stroke5  303  64 I7
stroke5  303  63 I7
stroke5  303  62 I7
stroke5  304  62 I7
stroke5  303  62 I7
stroke5  303  63 I7
stroke5  302  63 I7
stroke5  301  65 I7
stroke5  300  66 I7
stroke5  298  68 I7
stroke5  296  70 I7
stroke5  294  72 I7
stroke5  291  74 I7
stroke5  289  76 I7
stroke5  287  77 I7
stroke5  284  78 I7
stroke5  282  78 I7
stroke5  280  79 I7
stroke5  279  79 I7
stroke6  334  99 B70
stroke6  335  99 I70
stroke6  335  100 I70
stroke6  335  101 I70
stroke6  336  101 I70
stroke6  336  102 I70
stroke6  337  102 I70
stroke6  337  101 I70
stroke6  338  100 I70
stroke6  338  99 I70
stroke6  338  98 I70
stroke6  338  97 I70
stroke6  338  96 I70
stroke6  338  95 I70
stroke6  338  94 I70
stroke6  338  93 I70
stroke6  337  93 I70
stroke6  337  92 I70
stroke6  336  92 I70
stroke6  335  92 I70
stroke6  334  92 I70
stroke6  333  92 I70
stroke6  333  93 I70
stroke6  332  93 I70
stroke6  331  94 I70
stroke6  330  95 I70
stroke6  329  96 I70
stroke6  329  97 I70
stroke6  329  98 I70
stroke6  329  99 I70
stroke6  329  100 I70
stroke6  329  101 I70
stroke6  329  102 I70
stroke6  329  103 I70
stroke6  329  104 I70
stroke6  329  105 I70
stroke6  330  106 I70
stroke6  330  107 I70
stroke6  330  108 I70
stroke6  331  108 I70
stroke6  331  109 I70
stroke6  332  110 I70
stroke6  333  111 I70
stroke6  334  111 I70
stroke6  335  111 I70
stroke6  335  112 I70
stroke6  336  112 I70
stroke6  337  112 I70
stroke6  339  112 I70
stroke6  340  112 I70
stroke6  341  112 I70
stroke6  342  112 I70
stroke6  343  112 I70
stroke6  344  112 I70
stroke6  344  111 I70
stroke6  345  111 I70
stroke6  346  111 I70
stroke6  346  110 I70
stroke6  347  109 I70
stroke6  347  108 I70
stroke6  348  107 I70
stroke6  348  106 I70
stroke6  348  105 I70
stroke6  349  104 I70
stroke6  349  103 I70
stroke6  350  102 I70
stroke6  350  101 I70
stroke6  350  100 I70
stroke6  350  101 I70
stroke6  350  102 I70
stroke6  351  103 I70
stroke6  351  104 I70
stroke6  351  105 I70
stroke6  352  106 I70
stroke6  352  107 I70
stroke6  353  108 I70
stroke6  353  109 I70
stroke6  354  109 I70
stroke6  354  110 I70
stroke6  355  111 I70
stroke6  355  112 I70
stroke6  356  113 I70
stroke6  357  114 I70
stroke6  358  114 I70
stroke6  359  114 I70
stroke6  360  114 I70
stroke6  361  114 I70
stroke6  362  114 I70
stroke6  362  113 I70
stroke6  363  113 I70
stroke6  364  112 I70
stroke6  365  111 I70
stroke6  365  110 I70
stroke6  365  109 I70
stroke6  366  108 I70
stroke6  366  107 I70
stroke6  366  106 I70
stroke6  366  105 I70
stroke6  366  104 I70
stroke6  366  103 I70
stroke6  366  102 I70
stroke6  366  100 I70
stroke6  365  99 I70
stroke6  365  98 I70
stroke6  365  96 I70
stroke6  365  95 I70
stroke6  365  94 I70
stroke6  365  92 I70
stroke6  365  91 I70
stroke6  365  89 I70
stroke6  365  87 I70
stroke6  365  85 I70
stroke6  365  84 I70
stroke6  364  82 I70
stroke6  364  80 I70
stroke6  364  78 I70
stroke6  364  76 I70
stroke6  364  74 I70
stroke6  364  73 I70
stroke6  364  71 I70
stroke6  363  69 I70
stroke6  363  67 I70
stroke6  363  65 I70
stroke6  363  63 I70
stroke6  362  61 I70
stroke6  362  59 I70
stroke6  362  57 I70
stroke6  361  55 I70
stroke6  361  54 I70
stroke6  360  52 I70
stroke6  360  50 I70
stroke6  360  49 I70
stroke6  359  47 I70
stroke6  358  45 I70
stroke6  358  43 I70
stroke6  357  40 I70
stroke6  356  38 I70
stroke6  355  35 I70
stroke6  355  32 I70
stroke6  354  29 I70
stroke6  354  27 I70
stroke6  353  24 I70
stroke6  353  22 I70
stroke6  352  19 I70
stroke6  352  17 I70
stroke6  352  15 I70
stroke6  351  12 I70
stroke6  351  10 I70
stroke6  351  8 I70
stroke6  350  6 I70
stroke6  350  4 I70
stroke6  349  2 I70
stroke6  349  1 I70
stroke6  349  0 I70
stroke6  348  0 I70
stroke7  405  65 B1
stroke7  404  66 I1
stroke7  404  67 I1
stroke7  404  68 I1
stroke7  403  68 I1
stroke7  403  69 I1
stroke7  403  70 I1
stroke7  403  71 I1
stroke7  403  72 I1
stroke7  403  73 I1
stroke7  403  74 I1
stroke7  403  75 I1
stroke7  403  76 I1
stroke7  402  77 I1
stroke7  402  78 I1
stroke7  402  79 I1
stroke7  402  80 I1
stroke7  402  81 I1
stroke7  402  82 I1
stroke7  403  83 I1
stroke7  403  85 I1
stroke7  403  86 I1
stroke7  403  88 I1
stroke7  403  89 I1
stroke7  403  90 I1
stroke7  403  91 I1
stroke7  404  92 I1
stroke7  404  93 I1
stroke7  404  94 I1
stroke7  404  95 I1
stroke7  404  96 I1
stroke7  404  97 I1
stroke7  405  98 I1
stroke7  405  99 I1
stroke7  405  101 I1
stroke7  406  102 I1
stroke7  406  103 I1
stroke7  407  104 I1
stroke7  407  105 I1
stroke7  408  105 I1
stroke7  408  106 I1
stroke7  408  107 I1
stroke7  409  107 I1
stroke7  408  107 I1
stroke7  407  106 I1
stroke7  406  106 I1
stroke7  405  105 I1
stroke7  404  105 I1
stroke7  402  104 I1
stroke7  401  104 I1
stroke7  400  104 I1
stroke7  399  104 I1
stroke7  397  103 I1
stroke7  396  104 I1
stroke7  396  105 I1
stroke7  397  105 I1
stroke7  397  106 I1
stroke7  398  107 I1
stroke7  399  108 I1
stroke7  399  109 I1
stroke7  400  110 I1
stroke7  400  112 I1
stroke7  401  113 I1
stroke7  401  114 I1
stroke7  401  116 I1
stroke7  402  117 I1
stroke7  402  119 I1
stroke7  402  120 I1
stroke7  403  122 I1
stroke7  403  123 I1
stroke7  404  124 I1
stroke7  405  125 I1
stroke7  405  126 I1
stroke7  406  127 I1
stroke7  407  128 I1
stroke7  408  128 I1
stroke7  409  129 I1
stroke7  410  130 I1
stroke7  411  130 I1
stroke7  412  130 I1
stroke7  413  131 I1
stroke7  415  131 I1
stroke7  416  132 I1
stroke7  417  132 I1
stroke7  419  132 I1
stroke7  420  132 I1
stroke7  422  133 I1
stroke7  423  133 I1
stroke7  424  133 I1
stroke7  425  132 I1
stroke7  426  131 I1
stroke7  427  130 I1
stroke7  427  129 I1
stroke7  428  128 I1
stroke7  428  127 I1
stroke7  428  126 I1
stroke7  429  125 I1
stroke7  429  123 I1
stroke7  430  122 I1
stroke7  430  120 I1
stroke7  430  118 I1
stroke7  431  116 I1
stroke7  431  114 I1
stroke7  431  112 I1
stroke7  431  110 I1
stroke7  432  108 I1
stroke7  432  106 I1
stroke7  431  105 I1
stroke7  431  103 I1
stroke7  431  101 I1
stroke7  431  100 I1
stroke7  431  98 I1
stroke7  430  96 I1
stroke7  430  95 I1
stroke7  430  93 I1
stroke7  430  92 I1
stroke7  430  91 I1
stroke7  429  89 I1
stroke7  429  88 I1
stroke7  429  87 I1
stroke7  429  86 I1
stroke7  429  84 I1
stroke7  428  83 I1
stroke7  428  81 I1
stroke7  428  80 I1
stroke7  428  78 I1
stroke7  427  76 I1
stroke7  427  75 I1
stroke7  427  73 I1
stroke7  427  72 I1
stroke7  427  70 I1
stroke7  427  69 I1
stroke7  427  67 I1
stroke7  427  66 I1
stroke7  427  64 I1
stroke7  427  63 I1
stroke7  427  62 I1
stroke7  427  61 I1
stroke7  427  60 I1
stroke7  427  59 I1
stroke7  427  60 I1
stroke7  428  60 I1
stroke7  428  61 I1
stroke7  428  62 I1
stroke7  428  63 I1
stroke7  427  65 I1
stroke8  455  83 B36
stroke8  454  83 I36
stroke8  454  84 I36
stroke8  454  85 I36
stroke8  454  86 I36
stroke8  454  87 I36
stroke8  455  87 I36
stroke8  455  88 I36
stroke8  456  89 I36
stroke8  457  89 I36
stroke8  457  90 I36
stroke8  458  90 I36
stroke8  459  91 I36
stroke8  460  91 I36
stroke8  461  91 I36
stroke8  461  90 I36
stroke8  462  90 I36
stroke8  462  89 I36
stroke8  462  88 I36
stroke8  461  88 I36
stroke8  461  87 I36
stroke8  460  86 I36
stroke8  460  85 I36
stroke8  459  84 I36
stroke8  458  82 I36
stroke8  457  81 I36
stroke8  457  80 I36
stroke8  456  78 I36
stroke8  455  77 I36
stroke8  454  75 I36
stroke8  454  74 I36
stroke8  453  73 I36
stroke8  452  72 I36
stroke8  452  71 I36
stroke8  451  70 I36
stroke8  451  69 I36
stroke8  450  69 I36
stroke8  450  70 I36
stroke8  451  70 I36
stroke8  451  71 I36
stroke8  451  72 I36
stroke8  451  73 I36
stroke8  452  75 I36
stroke8  452  76 I36
stroke8  452  78 I36
stroke8  453  80 I36
stroke8  453  82 I36
stroke8  454  85 I36
stroke8  454  87 I36
stroke8  454  90 I36
stroke8  455  92 I36
stroke8  455  94 I36
stroke8  455  96 I36
stroke8  455  98 I36
stroke8  455  100 I36
stroke8  455  102 I36
stroke8  455  103 I36
stroke8  455  105 I36
stroke8  456  106 I36
stroke8  456  107 I36
stroke8  456  108 I36
stroke8  456  109 I36
stroke8  456  110 I36
stroke8  457  110 I36
stroke8  457  111 I36
stroke8  458  111 I36
stroke8  459  110 I36
stroke8  460  110 I36
stroke8  460  109 I36
stroke8  461  108 I36
stroke8  462  106 I36
stroke8  463  105 I36
stroke8  464  104 I36
stroke8  465  102 I36
stroke8  465  101 I36
stroke8  466  99 I36
stroke8  467  97 I36
stroke8  467  95 I36
stroke8  468  93 I36
stroke8  468  91 I36
stroke8  469  90 I36
stroke8  470  88 I36
stroke8  470  86 I36
stroke8  471  84 I36
stroke8  471  82 I36
stroke8  472  81 I36
stroke8  472  79 I36
stroke8  473  78 I36
stroke8  473  76 I36
stroke8  473  75 I36
stroke8  473  73 I36
stroke8  473  72 I36
stroke8  473  71 I36
stroke8  474  70 I36
stroke8  474  69 I36
stroke8  474  68 I36
stroke8  474  67 I36
stroke8  473  66 I36
stroke8  473  67 I36
stroke8  473  68 I36
stroke8  473  69 I36
stroke8  473  70 I36
stroke8  474  71 I36
stroke8  473  73 I36
stroke8  473  75 I36
stroke8  473  77 I36
stroke8  473  79 I36
stroke8  474  82 I36
stroke8  474  84 I36
stroke8  474  86 I36
stroke8  474  88 I36
stroke8  474  90 I36
stroke8  474  92 I36
stroke8  474  94 I36
stroke8  475  96 I36
stroke8  475  98 I36
stroke8  475  100 I36
stroke8  475  102 I36
stroke8  475  104 I36
stroke8  475  106 I36
stroke8  475  108 I36
stroke8  475  109 I36
stroke8  475  111 I36
stroke8  475  112 I36
stroke8  475  113 I36
stroke8  475  115 I36
stroke8  475  116 I36
stroke8  475  117 I36
stroke8  475  118 I36
stroke8  475  119 I36
stroke8  475  120 I36
stroke8  475  121 I36
stroke8  475  122 I36
stroke8  475  123 I36
stroke8  475  124 I36
stroke8  475  125 I36
stroke8  475  126 I36
stroke8  475  127 I36
stroke8  475  128 I36
stroke8  475  129 I36
stroke8  475  130 I36
stroke8  474  131 I36
stroke8  474  132 I36
stroke8  473  132 I36
stroke8  473  133 I36
stroke8  472  133 I36
stroke8  471  133 I36
stroke8  469  133 I36
stroke8  467  133 I36
stroke8  464  132 I36
stroke8  461  131 I36
stroke8  458  131 I36
stroke8  455  130 I36
stroke8  452  128 I36
stroke8  448  127 I36
stroke8  445  125 I36
stroke8  442  123 I36
stroke8  440  120 I36
stroke8  438  118 I36
stroke8  437  115 I36
stroke8  436  113 I36
stroke8  437  112 I36
stroke9  490  116 B47
stroke9  489  116 I47
stroke9  488  116 I47
stroke9  488  117 I47
stroke9  488  118 I47
stroke9  488  119 I47
stroke9  488  120 I47
stroke9  489  121 I47
stroke9  489  122 I47
stroke9  489  123 I47
stroke9  489  124 I47
stroke9  490  125 I47
stroke9  490  126 I47
stroke9  490  127 I47
stroke9  491  128 I47
stroke9  491  129 I47
stroke9  492  130 I47
stroke9  493  131 I47
stroke9  493  132 I47
stroke9  494  132 I47
stroke9  495  132 I47
stroke9  496  132 I47
stroke9  497  131 I47
stroke9  498  131 I47
stroke9  498  130 I47
stroke9  499  130 I47
stroke9  500  129 I47
stroke9  500  128 I47
stroke9  501  127 I47
stroke9  501  126 I47
stroke9  502  125 I47
stroke9  502  124 I47
stroke9  503  123 I47
stroke9  503  122 I47
stroke9  503  120 I47
stroke9  504  119 I47
stroke9  504  117 I47
stroke9  504  116 I47
stroke9  504  114 I47
stroke9  504  112 I47
stroke9  505  111 I47
stroke9  505  109 I47
stroke9  505  108 I47
stroke9  505  106 I47
stroke9  505  105 I47
stroke9  506  103 I47
stroke9  506  102 I47
stroke9  506  100 I47
stroke9  506  99 I47
stroke9  506  97 I47
stroke9  506  95 I47
stroke9  506  94 I47
stroke9  506  92 I47
stroke9  506  90 I47
stroke9  506  89 I47
stroke9  506  87 I47
stroke9  506  85 I47
stroke9  506  84 I47
stroke9  506  82 I47
stroke9  506  80 I47
stroke9  506  79 I47
stroke9  506  77 I47
stroke9  505  76 I47
stroke9  505  74 I47
stroke9  505  72 I47
stroke9  505  70 I47
stroke9  505  68 I47
stroke9  505  67 I47
stroke9  505  65 I47
stroke9  505  64 I47
stroke9  506  62 I47
stroke9  506  61 I47
stroke9  506  60 I47
stroke9  506  59 I47
stroke9  507  59 I47
stroke9  507  60 I47
stroke9  506  61 I47
stroke9  506  63 I47
stroke10  527  125 B7
stroke10  528  125 I7
stroke10  529  125 I7
stroke10  530  125 I7
stroke10  531  125 I7
stroke10  532  125 I7
stroke10  533  124 I7
stroke10  534  123 I7
stroke10  533  123 I7
stroke10  533  122 I7
stroke10  533  121 I7
stroke10  532  121 I7
stroke10  532  120 I7
stroke10  531  119 I7
stroke10  530  119 I7
stroke10  529  119 I7
stroke10  529  118 I7
stroke10  528  118 I7
stroke10  527  118 I7
stroke10  526  119 I7
stroke10  525  119 I7
stroke10  524  119 I7
stroke10  523  120 I7
stroke10  522  120 I7
stroke10  522  121 I7
stroke10  521  121 I7
stroke10  521  122 I7
stroke10  520  123 I7
stroke10  520  124 I7
stroke10  521  125 I7
stroke10  521  126 I7
stroke10  522  127 I7
stroke10  522  128 I7
stroke10  523  129 I7
stroke10  524  130 I7
stroke10  525  131 I7
stroke10  526  131 I7
stroke10  526  132 I7
stroke10  527  132 I7
stroke10  528  132 I7
stroke10  529  133 I7
stroke10  530  133 I7
stroke10  531  133 I7
stroke10  532  133 I7
stroke10  533  132 I7
stroke10  534  132 I7
stroke10  535  131 I7
stroke10  536  129 I7
stroke10  536  127 I7
stroke10  536  126 I7
stroke10  537  124 I7
stroke10  537  123 I7
stroke10  537  121 I7
stroke10  537  119 I7
stroke10  537  118 I7
stroke10  538  116 I7
stroke10  538  115 I7
stroke10  538  114 I7
stroke10  538  112 I7
stroke10  539  111 I7
stroke10  539  110 I7
stroke10  539  109 I7
stroke10  539  107 I7
stroke10  539  106 I7
stroke10  539  105 I7
stroke10  539  103 I7
stroke10  538  102 I7
stroke10  538  101 I7
stroke10  538  99 I7
stroke10  538  98 I7
stroke10  538  97 I7
stroke10  538  95 I7
stroke10  539  94 I7
stroke10  539  92 I7
stroke10  539  90 I7
stroke10  539  89 I7
stroke10  539  87 I7
stroke10  539  86 I7
stroke10  539  84 I7
stroke10  540  83 I7
stroke10  540  81 I7
stroke10  540  80 I7
stroke10  540  78 I7
stroke10  540  77 I7
stroke10  540  76 I7
stroke10  540  74 I7
stroke10  540  73 I7
stroke10  540  72 I7
stroke10  540  71 I7
stroke10  540  70 I7
stroke10  540  68 I7
stroke10  541  67 I7
stroke10  541  66 I7
stroke10  541  65 I7
stroke10  541  64 I7
stroke10  542  63 I7
stroke10  542  62 I7
stroke10  542  61 I7
stroke10  542  60 I7
stroke10  543  58 I7
stroke10  543  57 I7
stroke10  543  56 I7
stroke10  543  57 I7
stroke10  542  58 I7
stroke10  541  59 I7
stroke10  540  61 I7
stroke10  539  63 I7
stroke10  537  64 I7
stroke10  535  66 I7
stroke10  533  67 I7
stroke10  531  68 I7
stroke10  528  68 I7
stroke10  526  69 I7
stroke10  524  69 I7
stroke10  522  69 I7
stroke10  520  70 I7
stroke11  570  102 B70
stroke11  571  102 I70
stroke11  571  103 I70
stroke11  571  104 I70
stroke11  571  105 I70
stroke11  572  105 I70
stroke11  572  104 I70
stroke11  572  103 I70
stroke11  572  102 I70
stroke11  572  101 I70
stroke11  572  100 I70
stroke11  571  99 I70
stroke11  571  98 I70
stroke11  570  97 I70
stroke11  570  96 I70
stroke11  569  96 I70
stroke11  568  95 I70
stroke11  567  95 I70
stroke11  566  95 I70
stroke11  565  95 I70
stroke11  565  96 I70
stroke11  564  96 I70
stroke11  564  97 I70
stroke11  563  97 I70
stroke11  563  98 I70
stroke11  562  99 I70
stroke11  562  100 I70
stroke11  562  101 I70
stroke11  562  102 I70
stroke11  562  103 I70
stroke11  562  104 I70
stroke11  563  105 I70
stroke11  563  106 I70
stroke11  564  107 I70
stroke11  564  108 I70
stroke11  564  109 I70
stroke11  565  110 I70
stroke11  566  111 I70
stroke11  566  112 I70
stroke11  567  112 I70
stroke11  567  113 I70
stroke11  568  113 I70
stroke11  568  114 I70
stroke11  569  114 I70
stroke11  570  115 I70
stroke11  571  115 I70
stroke11  572  115 I70
stroke11  573  115 I70
stroke11  573  114 I70
stroke11  574  114 I70
stroke11  574  113 I70
stroke11  574  112 I70
stroke11  574  111 I70
stroke11  575  110 I70
stroke11  575  109 I70
stroke11  575  108 I70
stroke11  575  107 I70
stroke11  575  106 I70
stroke11  576  105 I70
stroke11  576  104 I70
stroke11  577  103 I70
stroke11  577  104 I70
stroke11  578  105 I70
stroke11  578  106 I70
stroke11  578  108 I70
stroke11  579  109 I70
stroke11  579  110 I70
stroke11  579  112 I70
stroke11  580  113 I70
stroke11  581  114 I70
stroke11  581  115 I70
stroke11  582  116 I70
stroke11  583  117 I70
stroke11  584  118 I70
stroke11  585  118 I70
stroke11  586  119 I70
stroke11  587  118 I70
stroke11  588  117 I70
stroke11  589  116 I70
stroke11  590  115 I70
stroke11  590  114 I70
stroke11  591  113 I70
stroke11  591  111 I70
stroke11  592  110 I70
stroke11  592  109 I70
stroke11  592  108 I70
stroke11  593  107 I70
stroke11  593  105 I70
stroke11  593  104 I70
stroke11  593  103 I70
stroke11  593  102 I70
stroke11  594  101 I70
stroke11  594  100 I70
stroke11  594  99 I70
stroke11  594  98 I70
stroke11  594  97 I70
stroke11  594  96 I70
stroke11  594  94 I70
stroke11  593  93 I70
stroke11  593  92 I70
stroke11  593  90 I70
stroke11  593  89 I70
stroke11  593  87 I70
stroke11  593  85 I70
stroke11  593  83 I70
stroke11  593  81 I70
stroke11  593  79 I70
stroke11  593  77 I70
stroke11  593  75 I70
stroke11  593  73 I70
stroke11  593  71 I70
stroke11  593  69 I70
stroke11  593  66 I70
stroke11  594  64 I70
stroke11  594  61 I70
stroke11  594  58 I70
stroke11  595  56 I70
stroke11  595  53 I70
stroke11  595  50 I70
stroke11  595  48 I70
stroke11  595  45 I70
stroke11  595  43 I70
stroke11  595  40 I70
stroke11  595  38 I70
stroke11  595  36 I70
stroke11  595  34 I70
stroke11  594  33 I70
stroke11  594  31 I70
stroke11  594  30 I70
stroke11  594  29 I70
stroke11  593  28 I70
stroke11  593  27 I70
stroke11  592  27 I70
stroke11  592  28 I70
stroke11  591  29 I70
stroke11  590  30 I70
