stroke1  176  94 B26
stroke1  177  94 I26
stroke1  177  93 I26
stroke1  177  92 I26
stroke1  176  92 I26
stroke1  176  91 I26
stroke1  175  91 I26
stroke1  175  90 I26
stroke1  174  90 I26
stroke1  173  91 I26
stroke1  172  91 I26
stroke1  171  91 I26
stroke1  171  92 I26
stroke1  170  92 I26
stroke1  169  93 I26
stroke1  168  93 I26
stroke1  167  94 I26
stroke1  167  95 I26
stroke1  166  96 I26
stroke1  166  97 I26
stroke1  166  98 I26
stroke1  166  99 I26
stroke1  166  100 I26
stroke1  167  100 I26
stroke1  167  101 I26
stroke1  167  102 I26
stroke1  168  102 I26
stroke1  168  103 I26
stroke1  169  103 I26
stroke1  170  103 I26
stroke1  171  103 I26
stroke1  172  102 I26
stroke1  173  102 I26
stroke1  174  102 I26
stroke1  175  101 I26
stroke1  176  100 I26
stroke1  177  99 I26
stroke1  178  99 I26
stroke1  179  98 I26
stroke1  179  97 I26
stroke1  180  96 I26
stroke1  180  95 I26
stroke1  181  95 I26
stroke1  181  93 I26
stroke1  181  92 I26
stroke1  182  91 I26
stroke1  182  90 I26
stroke1  182  89 I26
stroke1  182  88 I26
stroke1  182  86 I26
stroke1  182  85 I26
stroke1  182  84 I26
stroke1  182  83 I26
stroke1  182  82 I26
stroke1  183  81 I26
stroke1  183  80 I26
stroke1  183  79 I26
stroke1  183  78 I26
stroke1  183  77 I26
stroke1  183  76 I26
stroke1  183  75 I26
stroke1  183  74 I26
stroke1  183  73 I26
stroke1  183  72 I26
stroke1  183  71 I26
stroke1  183  70 I26
stroke1  183  69 I26
stroke1  183  68 I26
stroke1  183  67 I26
stroke1  182  66 I26
stroke1  183  66 I26
stroke1  182  65 I26
stroke1  182  64 I26
stroke1  182  63 I26
stroke1  183  63 I26
stroke1  183  62 I26
stroke1  183  61 I26
stroke1  183  60 I26
stroke1  183  59 I26
stroke1  183  58 I26
stroke1  183  57 I26
stroke1  183  56 I26
stroke1  183  55 I26
stroke1  183  54 I26
stroke1  183  53 I26
stroke1  183  52 I26
stroke1  184  51 I26
stroke1  184  50 I26
stroke1  184  49 I26
stroke1  184  48 I26
stroke1  184  47 I26
stroke1  183  47 I26
stroke1  183  46 I26
stroke1  183  45 I26
stroke1  184  45 I26
stroke1  184  44 I26
stroke1  184  43 I26
stroke1  184  42 I26
stroke1  184  41 I26
stroke1  184  40 I26
stroke1  184  39 I26
stroke1  183  39 I26
stroke1  183  38 I26
stroke1  182  37 I26
stroke1  181  37 I26
stroke1  181  36 I26
stroke1  181  35 I26
stroke1  181  34 I26
stroke1  181  35 I26
stroke1  182  35 I26
stroke1  182  36 I26
stroke1  183  36 I26
stroke1  184  37 I26
stroke1  185  37 I26
stroke1  186  37 I26
stroke1  187  38 I26
stroke1  188  38 I26
stroke1  189  38 I26
stroke1  190  38 I26
stroke1  191  38 I26
stroke1  192  38 I26
stroke1  193  38 I26
stroke1  194  38 I26
stroke1  195  38 I26
stroke1  196  38 I26
stroke1  197  38 I26
stroke1  198  38 I26
stroke1  199  38 I26
stroke1  200  38 I26
stroke1  201  38 I26
stroke1  202  38 I26
stroke1  202  37 I26
stroke1  203  37 I26
stroke1  204  37 I26
stroke1  205  37 I26
stroke1  206  37 I26
stroke1  207  36 I26
stroke1  208  36 I26
stroke1  209  36 I26
stroke1  209  37 I26
stroke1  210  37 I26
stroke1  210  38 I26
stroke1  209  38 I26
stroke1  209  39 I26
stroke1  208  39 I26
stroke1  208  40 I26
stroke1  207  41 I26
stroke1  207  42 I26
stroke1  207  43 I26
stroke1  207  44 I26
stroke1  207  45 I26
stroke1  206  46 I26
stroke1  206  47 I26
stroke1  206  48 I26
stroke1  206  49 I26
stroke1  205  51 I26
stroke1  205  52 I26
stroke1  205  53 I26
stroke1  205  54 I26
stroke1  204  55 I26
stroke1  204  56 I26
stroke1  204  58 I26
stroke1  204  59 I26
stroke1  204  60 I26
stroke1  203  61 I26
stroke1  203  63 I26
stroke1  203  64 I26
stroke1  203  65 I26
stroke1  203  67 I26
stroke1  203  68 I26
stroke1  203  69 I26
stroke1  203  70 I26
stroke1  203  71 I26
stroke1  203  73 I26
stroke1  204  74 I26
stroke1  204  75 I26
stroke1  204  76 I26
stroke1  204  77 I26
stroke1  204  79 I26
stroke1  205  80 I26
stroke1  205  81 I26
stroke1  205  83 I26
stroke1  205  84 I26
stroke1  205  85 I26
stroke1  205  86 I26
stroke1  205  87 I26
stroke1  205  88 I26
stroke1  205  89 I26
stroke1  205  90 I26
stroke1  205  91 I26
stroke1  205  92 I26
stroke1  205  93 I26
stroke1  205  94 I26
stroke1  204  95 I26
stroke1  204  96 I26
stroke1  204  97 I26
stroke1  204  98 I26
stroke1  204  99 I26
stroke1  204  100 I26
stroke1  204  101 I26
stroke1  205  101 I26
stroke1  205  102 I26
stroke1  205  103 I26
stroke1  205  104 I26
stroke1  206  105 I26
stroke1  206  106 I26
stroke1  206  107 I26
stroke1  206  108 I26
stroke1  207  108 I26
stroke1  206  108 I26
stroke1  206  107 I26
stroke1  205  107 I26
stroke2  197  12 B53
stroke2  196  12 I53
stroke2  196  13 I53
stroke2  195  13 I53
stroke2  194  14 I53
stroke2  194  15 I53
stroke2  193  15 I53
stroke2  193  16 I53
stroke2  194  16 I53
stroke2  195  16 I53
stroke2  196  16 I53
stroke2  196  15 I53
stroke2  197  15 I53
stroke2  198  14 I53
stroke2  199  13 I53
stroke2  199  12 I53
stroke2  200  11 I53
stroke2  200  10 I53
stroke2  200  9 I53
stroke2  200  8 I53
stroke2  200  7 I53
stroke2  200  6 I53
stroke2  200  5 I53
stroke2  199  5 I53
stroke2  199  4 I53
stroke2  199  3 I53
stroke2  198  2 I53
stroke2  198  1 I53
stroke2  199  1 I53
stroke2  199  0 I53
stroke2  200  0 I53
stroke2  201  0 I53
stroke2  202  0 I53
stroke2  203  0 I53
stroke2  204  1 I53
stroke2  205  1 I53
stroke2  206  1 I53
stroke2  207  1 I53
stroke2  208  1 I53
stroke2  209  1 I53
stroke2  209  2 I53
stroke2  209  3 I53
stroke2  209  4 I53
stroke2  209  5 I53
stroke2  209  7 I53
stroke2  209  9 I53
stroke2  209  11 I53
stroke2  209  14 I53
stroke2  209  16 I53
stroke2  209  19 I53
stroke2  209  22 I53
stroke2  209  24 I53
stroke2  209  25 I53
stroke2  209  27 I53
stroke2  209  28 I53
stroke3  237  40 B35
stroke3  238  40 I35
stroke3  238  41 I35
stroke3  237  42 I35
stroke3  236  42 I35
stroke3  235  42 I35
stroke3  234  42 I35
stroke3  233  41 I35
stroke3  232  40 I35
stroke3  231  39 I35
stroke3  230  38 I35
stroke3  230  37 I35
stroke3  229  36 I35
stroke3  229  35 I35
stroke3  230  34 I35
stroke3  230  33 I35
stroke3  231  33 I35
stroke3  231  32 I35
stroke3  232  32 I35
stroke3  233  32 I35
stroke3  234  32 I35
stroke3  235  32 I35
stroke3  236  32 I35
stroke3  237  33 I35
stroke3  238  33 I35
stroke3  239  33 I35
stroke3  240  34 I35
stroke3  241  34 I35
stroke3  241  35 I35
stroke3  241  36 I35
stroke3  241  37 I35
stroke3  241  38 I35
stroke3  241  40 I35
stroke3  241  41 I35
stroke3  241  42 I35
stroke3  241  43 I35
stroke3  240  44 I35
stroke3  240  46 I35
stroke3  240  47 I35
stroke3  240  48 I35
stroke3  240  49 I35
stroke3  239  50 I35
stroke3  239  52 I35
stroke3  239  53 I35
stroke3  239  54 I35
stroke3  239  55 I35
stroke3  239  56 I35
stroke3  239  57 I35
stroke3  239  58 I35
stroke3  239  59 I35
stroke3  239  60 I35
stroke3  239  61 I35
stroke3  239  62 I35
stroke3  239  63 I35
stroke3  239  64 I35
stroke3  239  65 I35
stroke3  239  66 I35
stroke3  239  67 I35
stroke3  238  68 I35
stroke3  238  69 I35
stroke3  238  70 I35
stroke3  238  71 I35
stroke3  238  72 I35
stroke3  239  72 I35
stroke3  239  73 I35
stroke3  239  74 I35
stroke3  238  74 I35
stroke3  238  75 I35
stroke3  238  76 I35
stroke3  238  77 I35
stroke3  238  78 I35
stroke3  238  79 I35
stroke3  238  80 I35
stroke3  238  81 I35
stroke3  237  81 I35
stroke3  237  82 I35
stroke3  236  82 I35
stroke3  236  83 I35
stroke3  235  83 I35
stroke3  234  83 I35
stroke3  233  83 I35
stroke3  232  83 I35
stroke3  231  82 I35
stroke3  230  82 I35
stroke3  228  82 I35
stroke3  227  82 I35
stroke3  226  82 I35
stroke3  224  81 I35
stroke3  223  81 I35
stroke3  222  81 I35
stroke3  221  81 I35
stroke3  220  81 I35
stroke3  219  81 I35
stroke3  218  81 I35
stroke3  217  81 I35
stroke3  216  81 I35
stroke3  215  81 I35
stroke3  215  82 I35
stroke3  215  83 I35
stroke3  216  83 I35
stroke3  216  84 I35
stroke3  216  85 I35
stroke3  216  86 I35
stroke3  217  86 I35
stroke3  217  87 I35
stroke3  218  88 I35
stroke3  218  89 I35
stroke3  219  90 I35
stroke3  219  91 I35
stroke3  220  92 I35
stroke3  221  93 I35
stroke3  222  94 I35
stroke3  222  95 I35
stroke3  223  95 I35
stroke3  224  96 I35
stroke3  224  97 I35
stroke3  225  97 I35
stroke3  226  98 I35
stroke3  227  98 I35
stroke3  228  99 I35
stroke3  229  99 I35
stroke3  230  99 I35
stroke3  231  99 I35
stroke3  232  99 I35
stroke3  233  99 I35
stroke3  234  98 I35
stroke3  235  98 I35
stroke3  236  98 I35
stroke3  236  97 I35
stroke3  237  97 I35
stroke3  238  97 I35
stroke3  239  97 I35
stroke3  240  97 I35
stroke3  241  97 I35
stroke3  242  98 I35
stroke3  244  98 I35
stroke3  245  99 I35
stroke3  246  100 I35
stroke3  248  101 I35
stroke3  249  102 I35
stroke3  250  103 I35
stroke3  251  104 I35
stroke3  252  105 I35
stroke3  253  106 I35
stroke3  253  107 I35
stroke3  254  107 I35
stroke3  254  108 I35
stroke3  255  108 I35
stroke3  254  107 I35
stroke3  254  106 I35
stroke4  270  44 B19
stroke4  271  45 I19
stroke4  271  46 I19
stroke4  272  47 I19
stroke4  273  48 I19
stroke4  274  48 I19
stroke4  274  49 I19
stroke4  275  49 I19
stroke4  275  48 I19
stroke4  276  48 I19
stroke4  276  47 I19
stroke4  276  46 I19
stroke4  277  45 I19
stroke4  276  45 I19
stroke4  276  44 I19
stroke4  276  43 I19
stroke4  276  42 I19
stroke4  276  41 I19
stroke4  276  40 I19
stroke4  276  39 I19
stroke4  275  38 I19
stroke4  275  37 I19
stroke4  275  36 I19
stroke4  274  35 I19
stroke4  274  34 I19
stroke4  274  33 I19
stroke4  273  33 I19
stroke4  273  32 I19
stroke4  272  32 I19
stroke4  271  32 I19
stroke4  271  33 I19
stroke4  271  34 I19
stroke4  271  35 I19
stroke4  271  36 I19
stroke4  271  37 I19
stroke4  271  38 I19
stroke4  271  40 I19
stroke4  271  41 I19
stroke4  271  43 I19
stroke4  271  45 I19
stroke4  271  46 I19
stroke4  271  48 I19
stroke4  271  50 I19
stroke4  271  51 I19
stroke4  271  53 I19
stroke4  271  54 I19
stroke4  271  56 I19
stroke4  271  57 I19
stroke4  271  58 I19
stroke4  271  60 I19
stroke4  271  61 I19
stroke4  271  62 I19
stroke4  271  63 I19
stroke4  271  64 I19
stroke4  272  65 I19
stroke4  272  66 I19
stroke4  272  67 I19
stroke4  272  68 I19
stroke4  273  69 I19
stroke4  273  71 I19
stroke4  273  72 I19
stroke4  273  73 I19
stroke4  273  74 I19
stroke4  274  75 I19
stroke4  274  76 I19
stroke4  274  77 I19
stroke4  274  78 I19
stroke4  274  79 I19
stroke4  274  80 I19
stroke4  274  81 I19
stroke4  274  82 I19
stroke4  275  83 I19
stroke4  275  84 I19
stroke4  275  85 I19
stroke4  275  86 I19
stroke4  275  87 I19
stroke4  274  86 I19
stroke4  273  86 I19
stroke4  272  85 I19
stroke4  271  85 I19
stroke4  270  84 I19
stroke4  269  84 I19
stroke4  268  83 I19
stroke4  267  83 I19
stroke4  266  83 I19
stroke4  265  83 I19
stroke4  264  84 I19
stroke4  264  85 I19
stroke4  264  86 I19
stroke4  265  87 I19
stroke4  265  88 I19
stroke4  265  89 I19
stroke4  265  90 I19
stroke4  266  90 I19
stroke4  266  91 I19
stroke4  266  92 I19
stroke4  267  93 I19
stroke4  267  94 I19
stroke4  267  95 I19
stroke4  268  96 I19
stroke4  269  97 I19
stroke4  269  98 I19
stroke4  270  99 I19
stroke4  270  100 I19
stroke4  271  100 I19
stroke4  271  101 I19
stroke4  272  102 I19
stroke4  273  103 I19
stroke4  274  103 I19
stroke4  274  104 I19
stroke4  275  104 I19
stroke4  276  104 I19
stroke4  277  104 I19
stroke4  279  104 I19
stroke4  280  104 I19
stroke4  281  104 I19
stroke4  282  104 I19
stroke4  283  104 I19
stroke4  284  103 I19
stroke4  285  103 I19
stroke4  286  102 I19
stroke4  287  101 I19
stroke4  288  100 I19
stroke4  288  99 I19
stroke4  289  98 I19
stroke4  290  96 I19
stroke4  290  95 I19
stroke4  291  94 I19
stroke4  291  93 I19
stroke4  292  91 I19
stroke4  292  90 I19
stroke4  292  89 I19
stroke4  292  88 I19
stroke4  293  86 I19
stroke4  293  85 I19
stroke4  293  84 I19
stroke4  294  83 I19
stroke4  294  81 I19
stroke4  294  80 I19
stroke4  295  79 I19
stroke4  295  78 I19
stroke4  295  77 I19
stroke4  295  76 I19
stroke4  296  75 I19
stroke4  296  73 I19
stroke4  296  72 I19
stroke4  296  71 I19
stroke4  296  70 I19
stroke4  296  69 I19
stroke4  296  68 I19
stroke4  296  67 I19
stroke4  296  66 I19
stroke4  297  65 I19
stroke4  297  64 I19
stroke4  297  63 I19
stroke4  296  62 I19
stroke4  296  61 I19
stroke4  296  60 I19
stroke4  296  59 I19
stroke4  296  58 I19
stroke4  296  57 I19
stroke4  296  56 I19
stroke4  296  55 I19
stroke4  296  54 I19
stroke4  295  54 I19
stroke4  295  53 I19
stroke4  295  52 I19
stroke4  295  51 I19
stroke4  295  50 I19
stroke4  295  49 I19
stroke4  295  48 I19
stroke4  295  47 I19
stroke4  295  46 I19
stroke4  295  45 I19
stroke4  294  44 I19
stroke4  294  43 I19
stroke4  294  42 I19
stroke4  294  41 I19
stroke4  294  40 I19
stroke4  294  39 I19
stroke4  293  38 I19
stroke4  293  37 I19
stroke4  293  36 I19
stroke4  293  35 I19
stroke4  292  34 I19
stroke4  292  33 I19
stroke4  291  32 I19
stroke4  291  33 I19
stroke4  292  33 I19
stroke4  292  34 I19
stroke4  292  35 I19
stroke4  293  36 I19
stroke4  293  37 I19
stroke4  294  38 I19
stroke4  295  40 I19
stroke4  296  41 I19
stroke4  297  43 I19
stroke4  298  44 I19
stroke4  300  46 I19
stroke4  301  47 I19
stroke4  302  49 I19
stroke4  303  50 I19
stroke4  305  51 I19
stroke4  306  52 I19
stroke4  307  53 I19
stroke4  308  53 I19
stroke4  309  54 I19
stroke4  310  54 I19
stroke4  311  54 I19
stroke4  312  54 I19
stroke4  314  54 I19
stroke4  315  54 I19
stroke4  316  54 I19
stroke4  317  54 I19
stroke4  318  54 I19
stroke4  319  53 I19
stroke4  320  52 I19
stroke4  321  51 I19
stroke4  322  50 I19
stroke4  321  49 I19
stroke4  321  48 I19
stroke4  321  47 I19
stroke4  320  47 I19
stroke4  320  46 I19
stroke4  319  45 I19
stroke4  319  44 I19
stroke4  318  44 I19
stroke4  318  43 I19
stroke4  317  42 I19
stroke4  316  41 I19
stroke4  315  40 I19
stroke4  315  39 I19
stroke4  314  39 I19
stroke4  313  38 I19
stroke4  313  37 I19
stroke4  312  36 I19
stroke4  311  36 I19
stroke4  311  35 I19
stroke4  310  34 I19
stroke4  309  33 I19
stroke4  309  34 I19
stroke4  309  35 I19
stroke4  310  36 I19
stroke4  310  37 I19
stroke4  311  38 I19
stroke4  311  39 I19
stroke4  311  41 I19
stroke4  312  43 I19
stroke4  312  44 I19
stroke4  312  46 I19
stroke4  313  48 I19
stroke4  313  50 I19
stroke4  313  53 I19
stroke4  313  55 I19
stroke4  313  57 I19
stroke4  312  59 I19
stroke4  312  61 I19
stroke4  312  62 I19
stroke4  312  64 I19
stroke4  312  66 I19
stroke4  312  67 I19
stroke4  312  69 I19
stroke4  312  71 I19
stroke4  312  73 I19
stroke4  312  74 I19
stroke4  312  76 I19
stroke4  312  78 I19
stroke4  313  79 I19
stroke4  313  81 I19
stroke4  313  82 I19
stroke4  313  84 I19
stroke4  313  86 I19
stroke4  314  87 I19
stroke4  314  89 I19
stroke4  314  90 I19
stroke4  314  91 I19
stroke4  314  93 I19
stroke4  315  94 I19
stroke4  315  95 I19
stroke4  315  96 I19
stroke4  316  97 I19
stroke4  316  98 I19
stroke4  316  99 I19
stroke4  316  100 I19
stroke4  317  101 I19
stroke4  317  102 I19
stroke4  317  103 I19
stroke4  317  104 I19
stroke4  317  103 I19
stroke4  316  102 I19
stroke4  316  101 I19
stroke5  340  88 B27
stroke5  340  87 I27
stroke5  340  86 I27
stroke5  340  85 I27
stroke5  339  85 I27
stroke5  338  85 I27
stroke5  337  85 I27
stroke5  336  86 I27
stroke5  335  87 I27
stroke5  335  88 I27
stroke5  334  89 I27
stroke5  334  90 I27
stroke5  333  91 I27
stroke5  333  92 I27
stroke5  334  93 I27
stroke5  334  94 I27
stroke5  334  95 I27
stroke5  334  96 I27
stroke5  335  97 I27
stroke5  335  98 I27
stroke5  336  98 I27
stroke5  336  99 I27
stroke5  337  99 I27
stroke5  338  100 I27
stroke5  339  100 I27
stroke5  339  101 I27
stroke5  340  101 I27
stroke5  341  101 I27
stroke5  341  100 I27
stroke5  342  99 I27
stroke5  342  98 I27
stroke5  342  97 I27
stroke5  343  96 I27
stroke5  343  95 I27
stroke5  343  94 I27
stroke5  343  93 I27
stroke5  344  92 I27
stroke5  344  90 I27
stroke5  344  89 I27
stroke5  344  88 I27
stroke5  344  87 I27
stroke5  345  86 I27
stroke5  345  84 I27
stroke5  345  83 I27
stroke5  345  82 I27
stroke5  344  80 I27
stroke5  344  79 I27
stroke5  344  78 I27
stroke5  344  77 I27
stroke5  344  76 I27
stroke5  344  75 I27
stroke5  344  74 I27
stroke5  344  73 I27
stroke5  343  71 I27
stroke5  343  70 I27
stroke5  343  69 I27
stroke5  343  68 I27
stroke5  342  67 I27
stroke5  342  66 I27
stroke5  342  65 I27
stroke5  342  64 I27
stroke5  341  63 I27
stroke5  341  62 I27
stroke5  341  61 I27
stroke5  340  60 I27
stroke5  340  59 I27
stroke5  340  58 I27
stroke5  340  57 I27
stroke5  340  56 I27
stroke5  340  55 I27
stroke5  339  54 I27
stroke5  339  53 I27
stroke5  340  53 I27
stroke5  339  52 I27
stroke5  339  51 I27
stroke5  339  50 I27
stroke5  339  49 I27
stroke5  339  48 I27
stroke5  339  47 I27
stroke5  339  46 I27
stroke5  339  45 I27
stroke5  339  44 I27
stroke5  338  44 I27
stroke5  338  43 I27
stroke5  338  42 I27
stroke5  338  41 I27
stroke5  338  40 I27
stroke5  338  39 I27
stroke5  337  39 I27
stroke5  337  38 I27
stroke5  337  37 I27
stroke5  338  36 I27
stroke5  338  35 I27
stroke5  338  36 I27
stroke5  339  36 I27
stroke5  340  36 I27
stroke5  340  37 I27
stroke5  341  37 I27
stroke5  342  37 I27
stroke5  343  37 I27
stroke5  344  38 I27
stroke5  345  38 I27
stroke5  346  39 I27
stroke5  347  39 I27
stroke5  348  39 I27
stroke5  350  39 I27
stroke5  351  39 I27
stroke5  352  39 I27
stroke5  353  38 I27
stroke5  354  38 I27
stroke5  355  37 I27
stroke5  356  37 I27
stroke5  357  36 I27
stroke5  358  36 I27
stroke5  359  36 I27
stroke5  360  35 I27
stroke5  361  35 I27
stroke5  362  35 I27
stroke5  363  35 I27
stroke5  364  35 I27
stroke5  365  35 I27
stroke5  365  36 I27
stroke5  365  37 I27
stroke5  365  38 I27
stroke5  365  40 I27
stroke5  365  41 I27
stroke5  365  42 I27
stroke5  365  44 I27
stroke5  365  46 I27
stroke5  365  48 I27
stroke5  365  50 I27
stroke5  364  52 I27
stroke5  364  54 I27
stroke5  364  56 I27
stroke5  363  58 I27
stroke5  363  60 I27
stroke5  363  62 I27
stroke5  362  64 I27
stroke5  362  66 I27
stroke5  361  68 I27
stroke5  361  70 I27
stroke5  361  72 I27
stroke5  361  75 I27
stroke5  361  77 I27
stroke5  361  79 I27
stroke5  361  81 I27
stroke5  361  83 I27
stroke5  362  85 I27
stroke5  362  87 I27
stroke5  362  89 I27
stroke5  362  90 I27
stroke5  362  93 I27
stroke5  362  95 I27
stroke5  362  97 I27
stroke5  363  100 I27
stroke5  363  102 I27
stroke5  363  105 I27
stroke5  363  107 I27
stroke5  364  110 I27
stroke5  364  112 I27
stroke5  364  114 I27
stroke5  365  116 I27
stroke5  365  119 I27
stroke5  365  121 I27
stroke5  366  123 I27
stroke5  366  125 I27
stroke5  366  128 I27
stroke5  367  130 I27
stroke5  367  133 I27
stroke5  367  135 I27
stroke5  368  137 I27
stroke5  368  139 I27
stroke5  367  140 I27
stroke5  367  142 I27
stroke5  366  144 I27
stroke5  366  145 I27
stroke5  365  147 I27
stroke5  364  149 I27
stroke5  363  150 I27
stroke5  363  152 I27
stroke5  362  153 I27
stroke5  362  154 I27
stroke5  362  155 I27
stroke5  362  156 I27
stroke5  362  157 I27
stroke5  362  156 I27
stroke5  363  156 I27
stroke5  364  155 I27
stroke5  365  155 I27
stroke5  365  154 I27
stroke5  366  152 I27
stroke6  390  41 B15
stroke6  390  42 I15
stroke6  389  42 I15
stroke6  388  42 I15
stroke6  387  41 I15
stroke6  386  41 I15
stroke6  386  40 I15
stroke6  385  40 I15
stroke6  385  39 I15
stroke6  384  39 I15
stroke6  384  38 I15
stroke6  384  37 I15
stroke6  383  36 I15
stroke6  383  35 I15
stroke6  384  34 I15
stroke6  385  33 I15
stroke6  386  33 I15
stroke6  387  33 I15
stroke6  388  33 I15
stroke6  389  33 I15
stroke6  390  33 I15
stroke6  390  34 I15
stroke6  391  34 I15
stroke6  391  35 I15
stroke6  392  36 I15
stroke6  392  37 I15
stroke6  392  38 I15
stroke6  392  39 I15
stroke6  392  40 I15
stroke6  392  41 I15
stroke6  392  42 I15
stroke6  392  43 I15
stroke6  393  44 I15
stroke6  393  45 I15
stroke6  393  46 I15
stroke6  393  47 I15
stroke6  393  48 I15
stroke6  393  49 I15
stroke6  393  51 I15
stroke6  393  52 I15
stroke6  394  53 I15
stroke6  394  54 I15
stroke6  393  55 I15
stroke6  393  56 I15
stroke6  393  57 I15
stroke6  394  57 I15
stroke6  394  58 I15
stroke6  394  59 I15
stroke6  394  60 I15
stroke6  394  61 I15
stroke6  394  62 I15
stroke6  394  63 I15
stroke6  394  64 I15
stroke6  394  65 I15
stroke6  394  66 I15
stroke6  394  67 I15
stroke6  394  68 I15
stroke6  394  69 I15
stroke6  394  70 I15
stroke6  394  71 I15
stroke6  394  72 I15
stroke6  394  73 I15
stroke6  395  74 I15
stroke6  395  75 I15
stroke6  395  76 I15
stroke6  395  77 I15
stroke6  395  78 I15
stroke6  395  79 I15
stroke6  395  80 I15
stroke6  395  81 I15
stroke6  395  82 I15
stroke6  395  83 I15
stroke6  394  83 I15
stroke6  394  84 I15
stroke6  393  84 I15
stroke6  393  85 I15
stroke6  392  85 I15
stroke6  391  85 I15
stroke6  390  85 I15
stroke6  389  85 I15
stroke6  388  85 I15
stroke6  387  84 I15
stroke6  385  83 I15
stroke6  384  83 I15
stroke6  383  82 I15
stroke6  382  82 I15
stroke6  381  81 I15
stroke6  380  81 I15
stroke6  381  81 I15
stroke6  382  82 I15
stroke6  383  83 I15
stroke6  383  84 I15
stroke6  384  85 I15
stroke6  384  86 I15
stroke6  385  87 I15
stroke6  386  88 I15
stroke6  387  89 I15
stroke6  387  91 I15
stroke6  388  92 I15
stroke6  388  93 I15
stroke6  389  94 I15
stroke6  389  95 I15
stroke6  390  96 I15
stroke6  390  97 I15
stroke6  391  98 I15
stroke6  392  99 I15
stroke6  393  100 I15
stroke6  394  101 I15
stroke6  394  102 I15
stroke6  395  102 I15
stroke6  396  103 I15
stroke6  397  103 I15
stroke6  398  104 I15
stroke6  399  104 I15
stroke6  400  105 I15
stroke6  401  105 I15
stroke6  402  105 I15
stroke6  403  105 I15
stroke6  404  104 I15
stroke6  405  104 I15
stroke6  406  103 I15
stroke6  406  102 I15
stroke6  407  101 I15
stroke6  408  100 I15
stroke6  409  99 I15
stroke6  410  98 I15
stroke6  411  97 I15
stroke6  411  96 I15
stroke6  412  95 I15
stroke6  413  94 I15
stroke6  414  93 I15
stroke6  414  92 I15
stroke6  415  91 I15
stroke6  415  89 I15
stroke6  416  88 I15
stroke6  416  87 I15
stroke6  416  86 I15
stroke6  416  84 I15
stroke6  416  83 I15
stroke6  416  82 I15
stroke6  416  81 I15
stroke6  416  80 I15
stroke6  417  79 I15
stroke6  417  78 I15
stroke6  417  77 I15
stroke6  417  76 I15
stroke6  416  75 I15
stroke6  416  73 I15
stroke6  416  72 I15
stroke6  416  71 I15
stroke6  415  70 I15
stroke6  415  69 I15
stroke6  415  67 I15
stroke6  415  66 I15
stroke6  414  65 I15
stroke6  414  63 I15
stroke6  414  62 I15
stroke6  413  61 I15
stroke6  413  60 I15
stroke6  413  59 I15
stroke6  413  58 I15
stroke6  413  56 I15
stroke6  413  55 I15
stroke6  412  54 I15
stroke6  412  53 I15
stroke6  412  52 I15
stroke6  412  51 I15
stroke6  411  50 I15
stroke6  411  49 I15
stroke6  411  48 I15
stroke6  410  47 I15
stroke6  410  46 I15
stroke6  410  45 I15
stroke6  410  44 I15
stroke6  409  43 I15
stroke6  409  42 I15
stroke6  409  41 I15
stroke6  409  40 I15
stroke6  409  39 I15
stroke6  408  38 I15
stroke6  408  37 I15
stroke6  408  36 I15
stroke6  408  35 I15
stroke6  408  34 I15
stroke6  408  33 I15
stroke6  407  32 I15
stroke6  407  31 I15
stroke6  407  30 I15
stroke6  407  29 I15
stroke6  406  28 I15
stroke6  406  27 I15
stroke6  406  26 I15
stroke6  406  25 I15
stroke6  406  24 I15
stroke6  406  23 I15
stroke6  406  22 I15
stroke6  405  22 I15
stroke6  405  21 I15
stroke6  405  20 I15
stroke6  405  19 I15
stroke6  405  18 I15
stroke6  405  17 I15
stroke6  404  17 I15
stroke6  404  16 I15
stroke6  404  15 I15
stroke6  404  14 I15
stroke6  404  13 I15
stroke6  404  12 I15
stroke6  404  11 I15
stroke6  404  10 I15
stroke6  404  9 I15
stroke6  404  8 I15
stroke6  403  8 I15
stroke6  403  7 I15
stroke6  403  6 I15
stroke6  403  5 I15
stroke6  403  4 I15
stroke6  403  3 I15
stroke6  403  2 I15
stroke6  403  1 I15
stroke6  403  0 I15
stroke6  403  1 I15
stroke6  402  1 I15
stroke6  402  2 I15
stroke6  402  3 I15
stroke6  402  4 I15
stroke6  401  6 I15
stroke6  400  8 I15
stroke6  400  10 I15
stroke6  399  11 I15
stroke6  398  13 I15
stroke6  397  13 I15
stroke6  396  14 I15
stroke6  395  14 I15
stroke6  394  14 I15
stroke6  393  13 I15
stroke6  392  13 I15
stroke6  391  12 I15
stroke6  391  11 I15
stroke6  390  10 I15
stroke6  389  9 I15
stroke6  389  8 I15
stroke6  389  7 I15
stroke6  388  6 I15
stroke6  388  7 I15
stroke6  387  7 I15
stroke6  386  8 I15
stroke6  385  9 I15
stroke6  383  10 I15
stroke6  381  11 I15
stroke6  379  12 I15
stroke6  377  13 I15
stroke6  374  13 I15
stroke6  372  14 I15
stroke6  370  13 I15
stroke6  367  13 I15
stroke6  365  12 I15
stroke6  363  11 I15
stroke6  362  10 I15
stroke6  360  8 I15
stroke6  359  8 I15
stroke6  358  7 I15
stroke6  357  6 I15
stroke6  358  6 I15
stroke6  359  6 I15
stroke6  361  7 I15
stroke6  364  8 I15
stroke6  367  9 I15
stroke6  371  10 I15
stroke6  375  12 I15
stroke6  379  13 I15
stroke6  383  15 I15
stroke6  386  16 I15
stroke6  389  18 I15
stroke6  392  20 I15
stroke6  395  21 I15
stroke6  397  23 I15
stroke6  399  25 I15
stroke6  401  27 I15
stroke6  402  29 I15
stroke6  403  31 I15
stroke7  411  111 B48
stroke7  412  111 I48
stroke7  412  112 I48
stroke7  411  112 I48
stroke7  411  113 I48
stroke7  410  114 I48
stroke7  409  114 I48
stroke7  408  115 I48
stroke7  407  115 I48
stroke7  405  115 I48
stroke7  403  116 I48
stroke7  401  116 I48
stroke7  398  116 I48
stroke7  395  116 I48
stroke7  393  116 I48
stroke7  390  116 I48
stroke7  387  115 I48
stroke7  384  115 I48
stroke7  382  115 I48
stroke7  380  114 I48
stroke7  378  114 I48
stroke7  377  114 I48
stroke7  376  114 I48
stroke7  375  114 I48
stroke7  375  115 I48
stroke7  376  116 I48
stroke7  377  117 I48
stroke7  379  118 I48
stroke7  381  119 I48
stroke7  384  119 I48
stroke7  387  120 I48
stroke7  390  120 I48
stroke7  394  120 I48
stroke7  398  120 I48
stroke7  402  120 I48
stroke7  405  119 I48
stroke7  408  119 I48
stroke7  411  118 I48
stroke7  413  117 I48
stroke7  414  116 I48
stroke7  415  115 I48
stroke7  416  115 I48
stroke7  416  114 I48
stroke7  416  113 I48
stroke8  435  50 B40
stroke8  435  49 I40
stroke8  435  50 I40
stroke8  434  50 I40
stroke8  435  50 I40
stroke8  435  51 I40
stroke8  435  52 I40
stroke8  436  53 I40
stroke8  436  54 I40
stroke8  437  55 I40
stroke8  438  56 I40
stroke8  439  57 I40
stroke8  439  58 I40
stroke8  440  58 I40
stroke8  441  58 I40
stroke8  441  59 I40
stroke8  441  58 I40
stroke8  442  58 I40
stroke8  442  57 I40
stroke8  442  56 I40
stroke8  442  55 I40
stroke8  442  54 I40
stroke8  442  53 I40
stroke8  441  52 I40
stroke8  441  51 I40
stroke8  441  50 I40
stroke8  440  49 I40
stroke8  440  48 I40
stroke8  440  47 I40
stroke8  440  46 I40
stroke8  439  45 I40
stroke8  439  44 I40
stroke8  438  43 I40
stroke8  438  42 I40
stroke8  438  41 I40
stroke8  437  40 I40
stroke8  437  39 I40
stroke8  437  38 I40
stroke8  436  37 I40
stroke8  436  36 I40
stroke8  436  35 I40
stroke8  435  35 I40
stroke8  435  34 I40
stroke8  435  33 I40
stroke8  435  34 I40
stroke8  436  35 I40
stroke8  436  37 I40
stroke8  436  39 I40
stroke8  437  41 I40
stroke8  437  43 I40
stroke8  437  45 I40
stroke8  438  47 I40
stroke8  438  49 I40
stroke8  438  51 I40
stroke8  438  53 I40
stroke8  438  55 I40
stroke8  438  56 I40
stroke8  438  58 I40
stroke8  438  60 I40
stroke8  439  62 I40
stroke8  439  64 I40
stroke8  439  66 I40
stroke8  439  68 I40
stroke8  439  70 I40
stroke8  440  72 I40
stroke8  440  74 I40
stroke8  440  75 I40
stroke8  441  76 I40
stroke8  441  77 I40
stroke8  441  78 I40
stroke8  441  79 I40
stroke8  441  80 I40
stroke8  442  80 I40
stroke8  443  80 I40
stroke8  443  79 I40
stroke8  444  79 I40
stroke8  444  77 I40
stroke8  444  76 I40
stroke8  445  74 I40
stroke8  446  73 I40
stroke8  446  71 I40
stroke8  446  69 I40
stroke8  447  67 I40
stroke8  447  65 I40
stroke8  447  63 I40
stroke8  448  62 I40
stroke8  448  60 I40
stroke8  448  58 I40
stroke8  449  57 I40
stroke8  449  55 I40
stroke8  449  54 I40
stroke8  449  53 I40
stroke8  450  51 I40
stroke8  450  50 I40
stroke8  450  49 I40
stroke8  450  48 I40
stroke8  450  46 I40
stroke8  451  45 I40
stroke8  451  44 I40
stroke8  451  43 I40
stroke8  451  42 I40
stroke8  451  41 I40
stroke8  451  40 I40
stroke8  452  39 I40
stroke8  452  38 I40
stroke8  452  37 I40
stroke8  452  36 I40
stroke8  452  35 I40
stroke8  453  36 I40
stroke8  453  37 I40
stroke8  453  38 I40
stroke8  453  40 I40
stroke8  454  41 I40
stroke8  454  43 I40
stroke8  454  44 I40
stroke8  455  46 I40
stroke8  455  48 I40
stroke8  455  50 I40
stroke8  456  52 I40
stroke8  456  54 I40
stroke8  457  56 I40
stroke8  457  58 I40
stroke8  457  60 I40
stroke8  457  62 I40
stroke8  457  64 I40
stroke8  457  66 I40
stroke8  457  67 I40
stroke8  457  69 I40
stroke8  456  70 I40
stroke8  456  71 I40
stroke8  456  72 I40
stroke8  455  73 I40
stroke8  455  74 I40
stroke8  455  75 I40
stroke8  455  76 I40
stroke8  454  77 I40
stroke8  454  78 I40
stroke8  454  79 I40
stroke8  453  80 I40
stroke8  453  81 I40
stroke8  453  82 I40
stroke8  453  83 I40
stroke8  453  84 I40
stroke8  454  85 I40
stroke8  454  86 I40
stroke8  454  87 I40
stroke8  454  88 I40
stroke8  454  89 I40
stroke8  454  90 I40
stroke8  454  91 I40
stroke8  453  91 I40
stroke8  453  92 I40
stroke8  453  93 I40
stroke8  453  94 I40
stroke8  453  95 I40
stroke8  453  96 I40
stroke8  453  97 I40
stroke8  452  98 I40
stroke8  452  99 I40
stroke8  451  100 I40
stroke8  450  100 I40
stroke8  450  101 I40
stroke8  449  101 I40
stroke8  448  101 I40
stroke8  447  101 I40
stroke8  446  101 I40
stroke8  445  101 I40
stroke8  443  100 I40
stroke8  441  100 I40
stroke8  438  99 I40
stroke8  436  97 I40
stroke8  432  96 I40
stroke8  429  94 I40
stroke8  427  92 I40
stroke8  424  90 I40
stroke8  422  89 I40
stroke8  421  87 I40
stroke8  420  86 I40
stroke8  468  101 I40
stroke8  467  101 I40
stroke8  468  101 I40
stroke8  468  102 I40
stroke8  469  103 I40
stroke8  470  103 I40
stroke8  472  105 I40
stroke8  474  106 I40
stroke8  476  107 I40
stroke8  478  109 I40
stroke8  480  111 I40
stroke8  482  113 I40
stroke8  484  114 I40
stroke8  486  116 I40
stroke8  487  118 I40
stroke8  489  120 I40
stroke8  490  122 I40
stroke8  491  123 I40
stroke8  492  124 I40
stroke8  493  126 I40
stroke8  494  127 I40
stroke8  494  128 I40
stroke8  494  129 I40
stroke8  493  129 I40
stroke8  492  129 I40
stroke9  455  122 B45
stroke9  454  122 I45
stroke9  453  122 I45
stroke9  452  122 I45
stroke9  451  122 I45
stroke9  450  122 I45
stroke9  449  122 I45
stroke9  448  122 I45
stroke9  447  122 I45
stroke9  446  122 I45
stroke9  446  121 I45
stroke9  445  121 I45
stroke9  445  120 I45
stroke9  446  120 I45
stroke9  446  119 I45
stroke9  447  118 I45
stroke9  448  118 I45
stroke9  450  118 I45
stroke9  451  118 I45
stroke9  453  119 I45
stroke9  456  119 I45
stroke9  458  120 I45
stroke9  461  122 I45
stroke9  464  123 I45
stroke9  468  124 I45
stroke9  471  126 I45
stroke9  474  127 I45
stroke9  476  128 I45
stroke9  479  130 I45
stroke9  481  131 I45
stroke9  483  132 I45
stroke9  484  132 I45
stroke9  485  133 I45
stroke9  486  133 I45
stroke9  487  133 I45
stroke9  486  133 I45
stroke10  485  89 B7
stroke10  485  88 I7
stroke10  484  87 I7
stroke10  483  87 I7
stroke10  483  86 I7
stroke10  482  86 I7
stroke10  481  86 I7
stroke10  480  86 I7
stroke10  479  86 I7
stroke10  478  87 I7
stroke10  477  87 I7
stroke10  476  88 I7
stroke10  476  89 I7
stroke10  475  90 I7
stroke10  475  91 I7
stroke10  475  92 I7
stroke10  475  93 I7
stroke10  475  94 I7
stroke10  476  95 I7
stroke10  476  96 I7
stroke10  477  96 I7
stroke10  478  97 I7
stroke10  479  97 I7
stroke10  480  97 I7
stroke10  481  97 I7
stroke10  482  97 I7
stroke10  483  96 I7
stroke10  484  95 I7
stroke10  485  94 I7
stroke10  485  93 I7
stroke10  485  92 I7
stroke10  485  91 I7
stroke10  485  89 I7
stroke10  485  88 I7
stroke10  485  87 I7
stroke10  485  86 I7
stroke10  484  85 I7
stroke10  484  83 I7
stroke10  484  82 I7
stroke10  484  81 I7
stroke10  484  79 I7
stroke10  483  78 I7
stroke10  483  77 I7
stroke10  483  76 I7
stroke10  483  74 I7
stroke10  483  73 I7
stroke10  483  72 I7
stroke10  482  71 I7
stroke10  482  69 I7
stroke10  482  68 I7
stroke10  482  67 I7
stroke10  481  66 I7
stroke10  481  65 I7
stroke10  481  64 I7
stroke10  481  63 I7
stroke10  481  62 I7
stroke10  481  61 I7
stroke10  480  60 I7
stroke10  480  59 I7
stroke10  480  58 I7
stroke10  480  57 I7
stroke10  480  55 I7
stroke10  480  54 I7
stroke10  480  53 I7
stroke10  480  52 I7
stroke10  480  51 I7
stroke10  480  50 I7
stroke10  479  49 I7
stroke10  479  47 I7
stroke10  480  46 I7
stroke10  479  45 I7
stroke10  479  44 I7
stroke10  479  43 I7
stroke10  480  43 I7
stroke10  480  42 I7
stroke10  480  41 I7
stroke10  480  40 I7
stroke10  480  39 I7
stroke10  480  38 I7
stroke10  480  37 I7
stroke10  480  36 I7
stroke10  480  35 I7
stroke10  480  34 I7
stroke10  481  33 I7
stroke10  481  32 I7
stroke10  480  32 I7
stroke10  481  31 I7
stroke10  481  30 I7
stroke10  481  29 I7
stroke10  482  28 I7
stroke10  482  29 I7
stroke10  481  30 I7
stroke10  481  31 I7
stroke10  481  33 I7
stroke10  480  35 I7
stroke10  479  38 I7
stroke10  478  40 I7
stroke10  476  43 I7
stroke10  475  44 I7
stroke10  473  46 I7
stroke10  471  47 I7
stroke10  470  47 I7
stroke10  469  48 I7
stroke10  467  48 I7
stroke11  514  92 B2
stroke11  514  91 I2
stroke11  514  90 I2
stroke11  514  89 I2
stroke11  513  89 I2
stroke11  513  88 I2
stroke11  512  88 I2
stroke11  511  88 I2
stroke11  510  88 I2
stroke11  509  88 I2
stroke11  508  89 I2
stroke11  507  89 I2
stroke11  506  90 I2
stroke11  505  91 I2
stroke11  505  92 I2
stroke11  504  92 I2
stroke11  504  93 I2
stroke11  503  94 I2
stroke11  503  95 I2
stroke11  504  96 I2
stroke11  504  97 I2
stroke11  505  98 I2
stroke11  506  98 I2
stroke11  507  98 I2
stroke11  508  98 I2
stroke11  509  98 I2
stroke11  510  98 I2
stroke11  511  98 I2
stroke11  512  97 I2
stroke11  513  96 I2
stroke11  514  96 I2
stroke11  515  95 I2
stroke11  515  94 I2
stroke11  516  93 I2
stroke11  516  92 I2
stroke11  516  91 I2
stroke11  516  90 I2
stroke11  516  88 I2
stroke11  516  86 I2
stroke11  516  85 I2
stroke11  515  83 I2
stroke11  515  81 I2
stroke11  515  80 I2
stroke11  515  78 I2
stroke11  515  77 I2
stroke11  515  75 I2
stroke11  515  74 I2
stroke11  515  73 I2
stroke11  515  72 I2
stroke11  515  71 I2
stroke11  515  70 I2
stroke11  515  69 I2
stroke11  514  67 I2
stroke11  514  66 I2
stroke11  514  65 I2
stroke11  514  64 I2
stroke11  514  63 I2
stroke11  513  62 I2
stroke11  513  61 I2
stroke11  513  60 I2
stroke11  513  59 I2
stroke11  513  58 I2
stroke11  513  57 I2
stroke11  513  56 I2
stroke11  512  55 I2
stroke11  512  54 I2
stroke11  512  53 I2
stroke11  512  52 I2
stroke11  512  51 I2
stroke11  512  50 I2
stroke11  511  49 I2
stroke11  511  48 I2
stroke11  511  47 I2
stroke11  511  46 I2
stroke11  511  45 I2
stroke11  511  44 I2
stroke11  510  44 I2
stroke11  510  43 I2
stroke11  510  42 I2
stroke11  510  41 I2
stroke11  509  41 I2
stroke11  509  40 I2
stroke11  509  39 I2
stroke11  509  38 I2
stroke11  510  38 I2
stroke11  510  37 I2
stroke11  510  36 I2
stroke11  510  35 I2
stroke11  511  35 I2
stroke11  511  34 I2
stroke11  512  33 I2
stroke11  513  33 I2
stroke11  514  33 I2
stroke11  514  32 I2
stroke11  515  32 I2
stroke11  516  32 I2
stroke11  517  32 I2
stroke11  518  32 I2
stroke11  519  32 I2
stroke11  520  32 I2
stroke11  521  32 I2
stroke11  522  32 I2
stroke11  523  32 I2
stroke11  524  32 I2
stroke11  524  33 I2
stroke11  525  33 I2
stroke11  525  34 I2
stroke11  526  35 I2
stroke11  526  36 I2
stroke11  527  37 I2
stroke11  527  38 I2
stroke11  527  39 I2
stroke11  528  40 I2
stroke11  528  41 I2
stroke11  528  43 I2
stroke11  529  44 I2
stroke11  529  46 I2
stroke11  529  48 I2
stroke11  530  50 I2
stroke11  530  51 I2
stroke11  530  54 I2
stroke11  530  56 I2
stroke11  530  58 I2
stroke11  530  60 I2
stroke11  530  62 I2
stroke11  530  64 I2
stroke11  530  66 I2
stroke11  530  68 I2
stroke11  530  70 I2
stroke11  530  73 I2
stroke11  530  76 I2
stroke11  530  79 I2
stroke11  530  81 I2
stroke11  530  83 I2
stroke11  530  85 I2
stroke11  530  87 I2
stroke11  530  88 I2
stroke11  530  90 I2
stroke11  530  91 I2
stroke11  531  92 I2
stroke11  530  93 I2
stroke11  530  94 I2
stroke11  530  95 I2
stroke11  530  96 I2
stroke11  530  97 I2
stroke11  530  98 I2
stroke11  530  97 I2
stroke11  529  97 I2
stroke11  529  96 I2
stroke11  529  95 I2
stroke12  560  44 B35
stroke12  560  45 I35
stroke12  559  45 I35
stroke12  558  44 I35
stroke12  557  44 I35
stroke12  556  43 I35
stroke12  555  42 I35
stroke12  554  42 I35
stroke12  554  41 I35
stroke12  554  40 I35
stroke12  553  39 I35
stroke12  553  38 I35
stroke12  553  37 I35
stroke12  553  36 I35
stroke12  554  36 I35
stroke12  555  36 I35
stroke12  556  35 I35
stroke12  557  35 I35
stroke12  558  36 I35
stroke12  559  36 I35
stroke12  560  36 I35
stroke12  561  36 I35
stroke12  562  36 I35
stroke12  563  36 I35
stroke12  563  37 I35
stroke12  563  38 I35
stroke12  562  39 I35
stroke12  562  40 I35
stroke12  562  41 I35
stroke12  562  42 I35
stroke12  562  43 I35
stroke12  562  44 I35
stroke12  563  45 I35
stroke12  563  46 I35
stroke12  563  47 I35
stroke12  563  49 I35
stroke12  563  50 I35
stroke12  563  51 I35
stroke12  563  53 I35
stroke12  563  54 I35
stroke12  563  55 I35
stroke12  563  56 I35
stroke12  563  57 I35
stroke12  563  58 I35
stroke12  563  59 I35
stroke12  563  60 I35
stroke12  563  61 I35
stroke12  563  62 I35
stroke12  563  63 I35
stroke12  563  64 I35
stroke12  563  65 I35
stroke12  563  66 I35
stroke12  563  67 I35
stroke12  563  68 I35
stroke12  563  69 I35
stroke12  563  70 I35
stroke12  563  71 I35
stroke12  563  72 I35
stroke12  563  73 I35
stroke12  563  74 I35
stroke12  563  75 I35
stroke12  564  76 I35
stroke12  563  77 I35
stroke12  563  78 I35
stroke12  563  79 I35
stroke12  562  80 I35
stroke12  562  81 I35
stroke12  561  82 I35
stroke12  561  83 I35
stroke12  560  83 I35
stroke12  559  83 I35
stroke12  558  83 I35
stroke12  557  83 I35
stroke12  556  83 I35
stroke12  555  83 I35
stroke12  554  82 I35
stroke12  553  82 I35
stroke12  551  82 I35
stroke12  550  81 I35
stroke12  548  81 I35
stroke12  547  80 I35
stroke12  546  80 I35
stroke12  544  79 I35
stroke12  543  79 I35
stroke12  542  78 I35
stroke12  541  78 I35
stroke12  540  78 I35
stroke12  539  78 I35
stroke12  539  79 I35
stroke12  540  80 I35
stroke12  541  81 I35
stroke12  541  82 I35
stroke12  542  83 I35
stroke12  543  85 I35
stroke12  544  86 I35
stroke12  545  88 I35
stroke12  546  89 I35
stroke12  547  90 I35
stroke12  548  92 I35
stroke12  549  93 I35
stroke12  550  94 I35
stroke12  551  95 I35
stroke12  551  96 I35
stroke12  552  96 I35
stroke12  553  97 I35
stroke12  554  98 I35
stroke12  555  98 I35
stroke12  556  98 I35
stroke12  556  99 I35
stroke12  557  99 I35
stroke12  558  99 I35
stroke12  559  99 I35
stroke12  560  99 I35
stroke12  561  98 I35
stroke12  562  98 I35
stroke12  563  98 I35
stroke12  564  97 I35
stroke12  565  97 I35
stroke12  566  96 I35
stroke12  567  96 I35
stroke12  568  96 I35
stroke12  569  96 I35
stroke12  570  96 I35
stroke12  571  97 I35
stroke12  572  98 I35
stroke12  573  98 I35
stroke12  574  99 I35
stroke12  575  101 I35
stroke12  576  102 I35
stroke12  577  103 I35
stroke12  578  104 I35
stroke12  579  105 I35
stroke12  580  106 I35
stroke12  580  105 I35
stroke12  579  105 I35
stroke12  579  104 I35
stroke12  578  102 I35
stroke13  596  49 B19
stroke13  596  50 I19
stroke13  597  50 I19
stroke13  598  51 I19
stroke13  598  52 I19
stroke13  599  52 I19
stroke13  600  52 I19
stroke13  601  52 I19
stroke13  601  51 I19
stroke13  602  51 I19
stroke13  602  50 I19
stroke13  602  49 I19
stroke13  602  48 I19
stroke13  603  47 I19
stroke13  603  46 I19
stroke13  603  45 I19
stroke13  602  44 I19
stroke13  602  43 I19
stroke13  602  42 I19
stroke13  602  41 I19
stroke13  601  40 I19
stroke13  601  39 I19
stroke13  601  38 I19
stroke13  600  37 I19
stroke13  599  36 I19
stroke13  599  35 I19
stroke13  598  35 I19
stroke13  597  35 I19
stroke13  597  36 I19
stroke13  596  36 I19
stroke13  596  37 I19
stroke13  596  38 I19
stroke13  596  39 I19
stroke13  596  40 I19
stroke13  596  41 I19
stroke13  596  43 I19
stroke13  597  44 I19
stroke13  597  46 I19
stroke13  597  47 I19
stroke13  598  49 I19
stroke13  598  50 I19
stroke13  598  52 I19
stroke13  599  53 I19
stroke13  599  55 I19
stroke13  599  56 I19
stroke13  599  57 I19
stroke13  599  59 I19
stroke13  600  60 I19
stroke13  600  61 I19
stroke13  600  62 I19
stroke13  600  63 I19
stroke13  601  64 I19
stroke13  601  66 I19
stroke13  601  67 I19
stroke13  601  68 I19
stroke13  601  69 I19
stroke13  601  71 I19
stroke13  602  72 I19
stroke13  601  73 I19
stroke13  601  74 I19
stroke13  601  75 I19
stroke13  602  76 I19
stroke13  601  77 I19
stroke13  601  78 I19
stroke13  602  79 I19
stroke13  602  80 I19
stroke13  602  81 I19
stroke13  602  82 I19
stroke13  602  83 I19
stroke13  602  84 I19
stroke13  602  85 I19
stroke13  602  86 I19
stroke13  602  87 I19
stroke13  603  87 I19
stroke13  603  88 I19
stroke13  603  89 I19
stroke13  602  88 I19
stroke13  602  87 I19
stroke13  602  86 I19
stroke13  601  86 I19
stroke13  601  85 I19
stroke13  600  85 I19
stroke13  600  84 I19
stroke13  599  84 I19
stroke13  598  84 I19
stroke13  597  84 I19
stroke13  596  84 I19
stroke13  595  84 I19
stroke13  594  84 I19
stroke13  592  84 I19
stroke13  591  84 I19
stroke13  590  84 I19
stroke13  589  84 I19
stroke13  589  85 I19
stroke13  588  85 I19
stroke13  589  85 I19
stroke13  589  86 I19
stroke13  590  87 I19
stroke13  591  88 I19
stroke13  592  89 I19
stroke13  593  90 I19
stroke13  593  91 I19
stroke13  594  92 I19
stroke13  595  93 I19
stroke13  596  94 I19
stroke13  596  95 I19
stroke13  597  96 I19
stroke13  598  97 I19
stroke13  599  97 I19
stroke13  599  98 I19
stroke13  600  99 I19
stroke13  601  99 I19
stroke13  602  100 I19
stroke13  603  101 I19
stroke13  604  101 I19
stroke13  605  101 I19
stroke13  606  101 I19
stroke13  607  100 I19
stroke13  608  100 I19
stroke13  609  100 I19
stroke13  610  99 I19
stroke13  611  99 I19
stroke13  612  98 I19
stroke13  613  97 I19
stroke13  614  97 I19
stroke13  614  96 I19
stroke13  615  95 I19
stroke13  616  95 I19
stroke13  616  94 I19
stroke13  617  92 I19
stroke13  617  91 I19
stroke13  617  90 I19
stroke13  618  89 I19
stroke13  618  88 I19
stroke13  618  87 I19
stroke13  619  86 I19
stroke13  619  84 I19
stroke13  619  83 I19
stroke13  619  81 I19
stroke13  619  80 I19
stroke13  619  79 I19
stroke13  619  77 I19
stroke13  619  76 I19
stroke13  619  74 I19
stroke13  619  73 I19
stroke13  619  72 I19
stroke13  619  71 I19
stroke13  619  70 I19
stroke13  619  69 I19
stroke13  619  68 I19
stroke13  619  67 I19
stroke13  619  66 I19
stroke13  619  65 I19
stroke13  619  64 I19
stroke13  619  63 I19
stroke13  619  62 I19
stroke13  619  61 I19
stroke13  619  60 I19
stroke13  619  59 I19
stroke13  619  58 I19
stroke13  619  57 I19
stroke13  619  55 I19
stroke13  618  54 I19
stroke13  618  53 I19
stroke13  618  52 I19
stroke13  618  51 I19
stroke13  618  50 I19
stroke13  618  49 I19
stroke13  618  48 I19
stroke13  618  47 I19
stroke13  618  46 I19
stroke13  618  45 I19
stroke13  618  44 I19
stroke13  618  43 I19
stroke13  618  42 I19
stroke13  618  41 I19
stroke13  617  40 I19
stroke13  618  40 I19
stroke13  618  39 I19
stroke13  618  38 I19
stroke13  618  37 I19
stroke13  618  36 I19
stroke13  617  36 I19
stroke13  617  35 I19
stroke13  617  34 I19
stroke13  617  35 I19
stroke13  618  36 I19
stroke13  618  37 I19
stroke13  619  38 I19
stroke13  619  39 I19
stroke13  620  41 I19
stroke13  621  43 I19
stroke13  622  45 I19
stroke13  623  47 I19
stroke13  624  49 I19
stroke13  625  50 I19
stroke13  626  52 I19
stroke13  627  53 I19
stroke13  628  54 I19
stroke13  629  55 I19
stroke13  630  55 I19
stroke13  631  55 I19
stroke13  632  55 I19
stroke13  633  56 I19
stroke13  634  56 I19
stroke13  635  56 I19
stroke13  636  56 I19
stroke13  637  55 I19
stroke13  638  55 I19
stroke13  639  54 I19
stroke13  639  53 I19
stroke13  640  53 I19
stroke13  640  52 I19
stroke13  641  51 I19
stroke13  641  50 I19
stroke13  642  49 I19
stroke13  641  48 I19
stroke13  641  47 I19
stroke13  641  46 I19
stroke13  640  45 I19
stroke13  640  44 I19
stroke13  639  43 I19
stroke13  639  42 I19
stroke13  639  41 I19
stroke13  638  41 I19
stroke13  638  40 I19
stroke13  638  39 I19
stroke13  637  39 I19
stroke13  637  38 I19
stroke13  636  38 I19
stroke13  636  37 I19
stroke13  635  37 I19
stroke13  635  36 I19
stroke13  634  36 I19
stroke13  633  36 I19
stroke13  633  37 I19
stroke13  633  38 I19
stroke13  634  39 I19
stroke13  634  41 I19
stroke13  634  42 I19
stroke13  635  44 I19
stroke13  635  45 I19
stroke13  636  47 I19
stroke13  636  49 I19
stroke13  637  51 I19
stroke13  637  53 I19
stroke13  638  54 I19
stroke13  639  56 I19
stroke13  639  58 I19
stroke13  639  59 I19
stroke13  640  61 I19
stroke13  640  62 I19
stroke13  640  64 I19
stroke13  640  65 I19
stroke13  640  67 I19
stroke13  640  68 I19
stroke13  639  70 I19
stroke13  640  72 I19
stroke13  640  74 I19
stroke13  640  76 I19
stroke13  640  78 I19
stroke13  641  81 I19
stroke13  641  83 I19
stroke13  641  85 I19
stroke13  642  87 I19
stroke13  642  89 I19
stroke13  643  91 I19
stroke13  643  93 I19
stroke13  643  95 I19
stroke13  644  97 I19
stroke13  644  98 I19
stroke13  644  99 I19
stroke13  644  100 I19
stroke13  645  101 I19
stroke13  645  100 I19
stroke13  644  100 I19
stroke13  644  99 I19
stroke13  643  99 I19
stroke14  626  124 B64
stroke14  627  124 I64
stroke14  627  125 I64
stroke14  628  125 I64
stroke14  627  125 I64
stroke14  628  124 I64
stroke14  628  123 I64
stroke14  628  122 I64
stroke14  627  121 I64
stroke14  627  120 I64
stroke14  626  119 I64
stroke14  626  118 I64
stroke14  625  117 I64
stroke14  624  116 I64
stroke14  623  116 I64
stroke14  622  116 I64
stroke14  622  117 I64
stroke14  621  117 I64
stroke14  621  119 I64
stroke14  621  120 I64
stroke14  620  122 I64
stroke14  621  124 I64
stroke14  621  126 I64
stroke14  622  128 I64
stroke14  623  131 I64
stroke14  625  133 I64
stroke14  628  136 I64
stroke14  631  139 I64
stroke14  634  142 I64
stroke14  637  144 I64
stroke14  641  146 I64
stroke14  643  149 I64
stroke14  646  150 I64
stroke14  648  152 I64
stroke14  650  153 I64
stroke14  651  154 I64
stroke14  652  155 I64
stroke14  653  155 I64
stroke14  654  155 I64
stroke14  654  156 I64
stroke14  653  156 I64
