stroke1  224  19 B35
stroke1  223  19 I35
stroke1  222  19 I35
stroke1  222  20 I35
stroke1  221  20 I35
stroke1  220  20 I35
stroke1  219  20 I35
stroke1  218  20 I35
stroke1  217  20 I35
stroke1  216  19 I35
stroke1  215  19 I35
stroke1  214  18 I35
stroke1  213  17 I35
stroke1  212  16 I35
stroke1  210  15 I35
stroke1  209  14 I35
stroke1  208  13 I35
stroke1  207  12 I35
stroke1  207  11 I35
stroke1  207  11 I35
stroke1  206  10 I35
stroke1  206  9 I35
stroke1  206  8 I35
stroke1  207  8 I35
stroke1  208  8 I35
stroke1  209  8 I35
stroke1  210  7 I35
stroke1  211  7 I35
stroke1  213  7 I35
stroke1  214  7 I35
stroke1  215  7 I35
stroke1  216  7 I35
stroke1  217  7 I35
stroke1  218  7 I35
stroke1  219  7 I35
stroke1  219  8 I35
stroke1  220  8 I35
stroke1  220  9 I35
stroke1  220  10 I35
stroke1  221  11 I35
stroke1  221  12 I35
stroke1  221  13 I35
stroke1  221  14 I35
stroke1  221  15 I35
stroke1  221  16 I35
stroke1  221  18 I35
stroke1  221  19 I35
stroke1  221  21 I35
stroke1  220  22 I35
stroke1  220  24 I35
stroke1  220  25 I35
stroke1  220  27 I35
stroke1  220  28 I35
stroke1  220  29 I35
stroke1  220  30 I35
stroke1  219  31 I35
stroke1  219  32 I35
stroke1  219  33 I35
stroke1  219  34 I35
stroke1  219  35 I35
stroke1  219  36 I35
stroke1  219  37 I35
stroke1  219  38 I35
stroke1  219  39 I35
stroke1  219  40 I35
stroke1  219  41 I35
stroke1  219  42 I35
stroke1  219  43 I35
stroke1  219  44 I35
stroke1  219  45 I35
stroke1  219  46 I35
stroke1  219  47 I35
stroke1  218  48 I35
stroke1  218  49 I35
stroke1  218  50 I35
stroke1  218  51 I35
stroke1  218  52 I35
stroke1  218  53 I35
stroke1  218  54 I35
stroke1  218  55 I35
stroke1  218  56 I35
stroke1  218  57 I35
stroke1  218  58 I35
stroke1  217  59 I35
stroke1  217  60 I35
stroke1  217  61 I35
stroke1  216  62 I35
stroke1  216  63 I35
stroke1  215  63 I35
stroke1  214  63 I35
stroke1  213  63 I35
stroke1  212  63 I35
stroke1  211  62 I35
stroke1  210  62 I35
stroke1  208  61 I35
stroke1  206  61 I35
stroke1  204  60 I35
stroke1  202  59 I35
stroke1  200  58 I35
stroke1  199  58 I35
stroke1  197  57 I35
stroke1  196  57 I35
stroke1  194  56 I35
stroke1  193  56 I35
stroke1  191  55 I35
stroke1  190  55 I35
stroke1  189  54 I35
stroke1  188  54 I35
stroke1  187  53 I35
stroke1  186  53 I35
stroke1  184  52 I35
stroke1  183  52 I35
stroke1  182  52 I35
stroke1  181  52 I35
stroke1  181  53 I35
stroke1  181  54 I35
stroke1  182  55 I35
stroke1  182  56 I35
stroke1  183  58 I35
stroke1  184  59 I35
stroke1  185  60 I35
stroke1  186  62 I35
stroke1  187  63 I35
stroke1  188  64 I35
stroke1  188  65 I35
stroke1  189  66 I35
stroke1  190  67 I35
stroke1  191  68 I35
stroke1  192  69 I35
stroke1  193  70 I35
stroke1  194  71 I35
stroke1  195  72 I35
stroke1  197  73 I35
stroke1  198  74 I35
stroke1  200  75 I35
stroke1  202  75 I35
stroke1  203  76 I35
stroke1  204  76 I35
stroke1  205  77 I35
stroke1  207  76 I35
stroke1  208  75 I35
stroke1  209  75 I35
stroke1  210  74 I35
stroke1  211  73 I35
stroke1  212  72 I35
stroke1  213  71 I35
stroke1  214  71 I35
stroke1  216  70 I35
stroke1  217  70 I35
stroke1  219  70 I35
stroke1  220  71 I35
stroke1  222  71 I35
stroke1  224  72 I35
stroke1  225  73 I35
stroke1  227  74 I35
stroke1  228  75 I35
stroke1  229  76 I35
stroke1  230  77 I35
stroke1  231  78 I35
stroke1  231  79 I35
stroke1  232  80 I35
stroke1  233  81 I35
stroke1  233  82 I35
stroke1  233  81 I35
stroke1  233  80 I35
stroke2  241  57 B47
stroke2  240  57 I47
stroke2  239  56 I47
stroke2  239  57 I47
stroke2  238  57 I47
stroke2  238  58 I47
stroke2  237  58 I47
stroke2  237  59 I47
stroke2  237  60 I47
stroke2  237  61 I47
stroke2  237  62 I47
stroke2  237  63 I47
stroke2  238  64 I47
stroke2  238  66 I47
stroke2  239  67 I47
stroke2  240  68 I47
stroke2  240  69 I47
stroke2  241  70 I47
stroke2  241  71 I47
stroke2  242  72 I47
stroke2  242  73 I47
stroke2  243  73 I47
stroke2  243  74 I47
stroke2  244  74 I47
stroke2  244  75 I47
stroke2  245  75 I47
stroke2  246  75 I47
stroke2  247  75 I47
stroke2  247  74 I47
stroke2  248  74 I47
stroke2  249  73 I47
stroke2  250  72 I47
stroke2  251  71 I47
stroke2  252  71 I47
stroke2  252  70 I47
stroke2  253  69 I47
stroke2  254  68 I47
stroke2  255  66 I47
stroke2  255  65 I47
stroke2  256  64 I47
stroke2  256  63 I47
stroke2  257  61 I47
stroke2  257  59 I47
stroke2  257  57 I47
stroke2  257  56 I47
stroke2  257  54 I47
stroke2  258  52 I47
stroke2  258  50 I47
stroke2  258  49 I47
stroke2  258  47 I47
stroke2  259  46 I47
stroke2  259  45 I47
stroke2  259  43 I47
stroke2  259  42 I47
stroke2  259  41 I47
stroke2  259  39 I47
stroke2  259  38 I47
stroke2  259  37 I47
stroke2  259  36 I47
stroke2  259  34 I47
stroke2  259  33 I47
stroke2  259  32 I47
stroke2  259  31 I47
stroke2  259  29 I47
stroke2  259  28 I47
stroke2  259  27 I47
stroke2  259  26 I47
stroke2  259  24 I47
stroke2  259  23 I47
stroke2  259  22 I47
stroke2  259  21 I47
stroke2  259  20 I47
stroke2  259  18 I47
stroke2  259  17 I47
stroke2  259  16 I47
stroke2  259  15 I47
stroke2  259  14 I47
stroke2  259  13 I47
stroke2  258  11 I47
stroke2  259  10 I47
stroke2  258  9 I47
stroke2  258  8 I47
stroke2  258  7 I47
stroke2  258  6 I47
stroke2  258  5 I47
stroke2  258  4 I47
stroke2  258  3 I47
stroke2  258  2 I47
stroke2  258  1 I47
stroke2  258  0 I47
stroke2  257  0 I47
stroke2  257  1 I47
stroke2  257  2 I47
stroke2  256  4 I47
stroke3  277  68 B34
stroke3  277  67 I34
stroke3  276  67 I34
stroke3  277  67 I34
stroke3  278  68 I34
stroke3  279  68 I34
stroke3  280  68 I34
stroke3  280  69 I34
stroke3  281  69 I34
stroke3  282  70 I34
stroke3  283  70 I34
stroke3  284  71 I34
stroke3  285  72 I34
stroke3  286  73 I34
stroke3  286  74 I34
stroke3  285  74 I34
stroke3  285  75 I34
stroke3  284  75 I34
stroke3  283  76 I34
stroke3  282  76 I34
stroke3  281  75 I34
stroke3  280  75 I34
stroke3  279  75 I34
stroke3  278  75 I34
stroke3  277  74 I34
stroke3  276  74 I34
stroke3  275  74 I34
stroke3  274  73 I34
stroke3  273  73 I34
stroke3  273  72 I34
stroke3  272  71 I34
stroke3  271  70 I34
stroke3  271  69 I34
stroke3  271  68 I34
stroke3  270  66 I34
stroke3  270  65 I34
stroke3  270  64 I34
stroke3  270  63 I34
stroke3  270  62 I34
stroke3  270  60 I34
stroke3  270  59 I34
stroke3  270  58 I34
stroke3  270  57 I34
stroke3  270  55 I34
stroke3  271  54 I34
stroke3  271  53 I34
stroke3  272  52 I34
stroke3  272  51 I34
stroke3  273  50 I34
stroke3  274  49 I34
stroke3  275  49 I34
stroke3  276  48 I34
stroke3  278  48 I34
stroke3  279  48 I34
stroke3  280  48 I34
stroke3  281  47 I34
stroke3  282  47 I34
stroke3  283  47 I34
stroke3  283  46 I34
stroke3  282  46 I34
stroke3  282  45 I34
stroke3  281  45 I34
stroke3  280  44 I34
stroke3  279  43 I34
stroke3  278  42 I34
stroke3  278  41 I34
stroke3  277  40 I34
stroke3  276  39 I34
stroke3  276  38 I34
stroke3  275  37 I34
stroke3  275  36 I34
stroke3  274  35 I34
stroke3  274  33 I34
stroke3  274  32 I34
stroke3  273  31 I34
stroke3  273  29 I34
stroke3  273  28 I34
stroke3  273  26 I34
stroke3  273  25 I34
stroke3  273  24 I34
stroke3  273  23 I34
stroke3  273  21 I34
stroke3  273  20 I34
stroke3  273  19 I34
stroke3  273  18 I34
stroke3  274  17 I34
stroke3  274  16 I34
stroke3  274  15 I34
stroke3  274  14 I34
stroke3  274  13 I34
stroke3  274  12 I34
stroke3  274  11 I34
stroke3  274  10 I34
stroke3  275  10 I34
stroke3  275  9 I34
stroke3  275  8 I34
stroke3  275  7 I34
stroke3  275  6 I34
stroke3  276  6 I34
stroke3  277  6 I34
stroke3  278  6 I34
stroke3  279  6 I34
stroke3  279  7 I34
stroke3  280  7 I34
stroke3  281  7 I34
stroke3  282  7 I34
stroke3  283  7 I34
stroke3  284  7 I34
stroke3  286  7 I34
stroke3  287  7 I34
stroke3  288  7 I34
stroke3  289  6 I34
stroke3  291  6 I34
stroke3  292  6 I34
stroke3  293  6 I34
stroke3  295  6 I34
stroke3  296  5 I34
stroke3  297  5 I34
stroke3  298  5 I34
stroke3  299  5 I34
stroke3  300  6 I34
stroke3  301  6 I34
stroke3  302  6 I34
stroke3  302  7 I34
stroke3  302  8 I34
stroke3  303  9 I34
stroke3  303  10 I34
stroke3  303  11 I34
stroke3  303  12 I34
stroke3  303  13 I34
stroke3  303  14 I34
stroke3  303  15 I34
stroke3  303  17 I34
stroke3  303  18 I34
stroke3  303  19 I34
stroke3  303  21 I34
stroke3  303  22 I34
stroke3  303  24 I34
stroke3  303  26 I34
stroke3  303  27 I34
stroke3  304  29 I34
stroke3  304  31 I34
stroke3  304  32 I34
stroke3  304  34 I34
stroke3  304  36 I34
stroke3  304  37 I34
stroke3  303  39 I34
stroke3  303  41 I34
stroke3  303  42 I34
stroke3  303  44 I34
stroke3  303  45 I34
stroke3  303  47 I34
stroke3  303  48 I34
stroke3  303  50 I34
stroke3  303  51 I34
stroke3  303  53 I34
stroke3  303  55 I34
stroke3  303  56 I34
stroke3  303  58 I34
stroke3  303  59 I34
stroke3  303  61 I34
stroke3  303  62 I34
stroke3  303  64 I34
stroke3  304  65 I34
stroke3  304  66 I34
stroke3  304  68 I34
stroke3  304  69 I34
stroke3  304  70 I34
stroke3  304  71 I34
stroke3  304  73 I34
stroke3  304  74 I34
stroke3  304  75 I34
stroke3  304  76 I34
stroke3  304  77 I34
stroke3  304  78 I34
stroke3  304  79 I34
stroke3  304  78 I34
stroke3  303  77 I34
stroke4  332  23 B36
stroke4  331  23 I36
stroke4  331  24 I36
stroke4  331  25 I36
stroke4  331  26 I36
stroke4  331  27 I36
stroke4  331  28 I36
stroke4  332  29 I36
stroke4  332  30 I36
stroke4  333  31 I36
stroke4  333  32 I36
stroke4  334  32 I36
stroke4  335  33 I36
stroke4  336  33 I36
stroke4  336  32 I36
stroke4  337  32 I36
stroke4  337  31 I36
stroke4  337  30 I36
stroke4  337  29 I36
stroke4  338  28 I36
stroke4  338  27 I36
stroke4  338  26 I36
stroke4  337  25 I36
stroke4  337  24 I36
stroke4  337  23 I36
stroke4  337  22 I36
stroke4  336  21 I36
stroke4  336  20 I36
stroke4  336  19 I36
stroke4  335  18 I36
stroke4  334  17 I36
stroke4  334  15 I36
stroke4  333  14 I36
stroke4  333  13 I36
stroke4  332  12 I36
stroke4  331  12 I36
stroke4  331  11 I36
stroke4  331  10 I36
stroke4  330  9 I36
stroke4  330  8 I36
stroke4  329  7 I36
stroke4  329  6 I36
stroke4  328  6 I36
stroke4  327  6 I36
stroke4  327  7 I36
stroke4  327  8 I36
stroke4  327  9 I36
stroke4  327  10 I36
stroke4  327  11 I36
stroke4  327  12 I36
stroke4  327  14 I36
stroke4  328  15 I36
stroke4  328  17 I36
stroke4  328  19 I36
stroke4  328  21 I36
stroke4  329  23 I36
stroke4  329  24 I36
stroke4  329  26 I36
stroke4  330  28 I36
stroke4  330  30 I36
stroke4  330  31 I36
stroke4  329  33 I36
stroke4  329  34 I36
stroke4  329  36 I36
stroke4  330  37 I36
stroke4  330  39 I36
stroke4  330  40 I36
stroke4  330  41 I36
stroke4  330  42 I36
stroke4  330  43 I36
stroke4  330  44 I36
stroke4  331  45 I36
stroke4  331  46 I36
stroke4  332  46 I36
stroke4  332  47 I36
stroke4  333  46 I36
stroke4  334  46 I36
stroke4  335  45 I36
stroke4  336  44 I36
stroke4  336  43 I36
stroke4  337  43 I36
stroke4  338  42 I36
stroke4  339  41 I36
stroke4  340  40 I36
stroke4  341  39 I36
stroke4  341  38 I36
stroke4  342  37 I36
stroke4  343  36 I36
stroke4  344  35 I36
stroke4  344  33 I36
stroke4  345  32 I36
stroke4  345  31 I36
stroke4  346  29 I36
stroke4  346  27 I36
stroke4  346  26 I36
stroke4  347  25 I36
stroke4  347  23 I36
stroke4  347  22 I36
stroke4  348  21 I36
stroke4  348  19 I36
stroke4  349  18 I36
stroke4  349  17 I36
stroke4  350  15 I36
stroke4  350  14 I36
stroke4  351  13 I36
stroke4  351  12 I36
stroke4  352  10 I36
stroke4  353  9 I36
stroke4  353  8 I36
stroke4  354  7 I36
stroke4  354  6 I36
stroke4  355  6 I36
stroke4  355  5 I36
stroke4  354  6 I36
stroke4  354  7 I36
stroke4  354  8 I36
stroke4  354  9 I36
stroke4  354  10 I36
stroke4  353  12 I36
stroke4  353  13 I36
stroke4  353  15 I36
stroke4  353  16 I36
stroke4  353  18 I36
stroke4  353  20 I36
stroke4  352  22 I36
stroke4  352  23 I36
stroke4  352  25 I36
stroke4  352  27 I36
stroke4  352  28 I36
stroke4  351  30 I36
stroke4  351  32 I36
stroke4  351  34 I36
stroke4  351  36 I36
stroke4  351  37 I36
stroke4  350  39 I36
stroke4  350  40 I36
stroke4  350  42 I36
stroke4  350  43 I36
stroke4  351  44 I36
stroke4  351  45 I36
stroke4  351  47 I36
stroke4  351  48 I36
stroke4  351  49 I36
stroke4  351  50 I36
stroke4  351  52 I36
stroke4  351  53 I36
stroke4  351  54 I36
stroke4  351  55 I36
stroke4  351  56 I36
stroke4  351  58 I36
stroke4  351  59 I36
stroke4  351  60 I36
stroke4  350  60 I36
stroke4  350  61 I36
stroke4  350  62 I36
stroke4  350  63 I36
stroke4  350  64 I36
stroke4  351  65 I36
stroke4  350  66 I36
stroke4  350  67 I36
stroke4  350  68 I36
stroke4  350  69 I36
stroke4  350  70 I36
stroke4  349  70 I36
stroke4  349  71 I36
stroke4  348  71 I36
stroke4  347  71 I36
stroke4  346  71 I36
stroke4  345  71 I36
stroke4  344  71 I36
stroke4  342  71 I36
stroke4  340  72 I36
stroke4  338  71 I36
stroke4  336  71 I36
stroke4  333  71 I36
stroke4  331  70 I36
stroke4  328  69 I36
stroke4  326  68 I36
stroke4  323  67 I36
stroke4  321  65 I36
stroke4  319  63 I36
stroke4  318  61 I36
stroke4  317  60 I36
stroke5  376  50 B46
stroke5  375  50 I46
stroke5  375  51 I46
stroke5  374  51 I46
stroke5  373  52 I46
stroke5  372  52 I46
stroke5  372  53 I46
stroke5  371  54 I46
stroke5  370  54 I46
stroke5  370  55 I46
stroke5  369  55 I46
stroke5  368  56 I46
stroke5  367  55 I46
stroke5  366  55 I46
stroke5  365  55 I46
stroke5  364  54 I46
stroke5  363  54 I46
stroke5  363  53 I46
stroke5  362  52 I46
stroke5  361  51 I46
stroke5  361  50 I46
stroke5  361  49 I46
stroke5  362  49 I46
stroke5  362  48 I46
stroke5  363  47 I46
stroke5  364  47 I46
stroke5  366  47 I46
stroke5  367  47 I46
stroke5  370  48 I46
stroke5  373  49 I46
stroke5  376  50 I46
stroke5  379  52 I46
stroke5  382  54 I46
stroke5  385  56 I46
stroke5  388  58 I46
stroke5  390  59 I46
stroke5  392  60 I46
stroke5  393  62 I46
stroke5  394  62 I46
stroke5  395  63 I46
stroke5  395  64 I46
stroke5  396  64 I46
stroke5  395  64 I46
stroke5  394  63 I46
stroke5  393  62 I46
stroke5  391  61 I46
stroke5  369  31 I46
stroke5  368  31 I46
stroke5  367  31 I46
stroke5  366  32 I46
stroke5  365  32 I46
stroke5  364  31 I46
stroke5  363  30 I46
stroke5  363  29 I46
stroke5  362  28 I46
stroke5  362  27 I46
stroke5  363  27 I46
stroke5  364  27 I46
stroke5  366  27 I46
stroke5  367  27 I46
stroke5  368  27 I46
stroke5  370  28 I46
stroke5  372  29 I46
stroke5  373  29 I46
stroke5  375  30 I46
stroke5  377  31 I46
stroke5  378  32 I46
stroke5  380  34 I46
stroke5  381  35 I46
stroke5  382  36 I46
stroke5  384  37 I46
stroke5  384  38 I46
stroke5  385  38 I46
stroke5  386  39 I46
stroke6  411  65 B54
stroke6  412  66 I54
stroke6  413  67 I54
stroke6  414  68 I54
stroke6  415  69 I54
stroke6  415  70 I54
stroke6  415  71 I54
stroke6  416  71 I54
stroke6  415  70 I54
stroke6  415  69 I54
stroke6  414  68 I54
stroke6  414  66 I54
stroke6  414  65 I54
stroke6  414  64 I54
stroke6  413  63 I54
stroke6  413  61 I54
stroke6  413  60 I54
stroke6  413  59 I54
stroke6  413  58 I54
stroke6  413  56 I54
stroke6  413  55 I54
stroke6  412  53 I54
stroke6  412  52 I54
stroke6  411  50 I54
stroke6  411  49 I54
stroke6  411  47 I54
stroke6  410  46 I54
stroke6  410  45 I54
stroke6  409  44 I54
stroke6  409  42 I54
stroke6  409  41 I54
stroke6  409  40 I54
stroke6  409  39 I54
stroke6  409  38 I54
stroke6  409  37 I54
stroke6  409  36 I54
stroke6  409  34 I54
stroke6  409  33 I54
stroke6  409  32 I54
stroke6  409  31 I54
stroke6  409  30 I54
stroke6  409  28 I54
stroke6  409  27 I54
stroke6  409  26 I54
stroke6  409  25 I54
stroke6  409  24 I54
stroke6  410  23 I54
stroke6  410  22 I54
stroke6  410  21 I54
stroke6  410  20 I54
stroke6  410  19 I54
stroke6  410  18 I54
stroke6  410  17 I54
stroke6  411  16 I54
stroke6  411  15 I54
stroke6  411  14 I54
stroke6  411  13 I54
stroke6  411  12 I54
stroke6  412  11 I54
stroke6  412  10 I54
stroke6  412  9 I54
stroke6  412  8 I54
stroke6  412  7 I54
stroke6  413  7 I54
stroke6  413  6 I54
stroke6  414  6 I54
stroke6  415  6 I54
stroke6  416  6 I54
stroke6  417  7 I54
stroke6  418  7 I54
stroke6  418  8 I54
stroke6  419  9 I54
stroke6  420  10 I54
stroke6  420  11 I54
stroke6  421  12 I54
stroke6  422  13 I54
stroke6  422  14 I54
stroke6  423  15 I54
stroke6  423  16 I54
stroke6  423  17 I54
stroke6  423  19 I54
stroke6  423  20 I54
stroke6  422  21 I54
stroke6  421  22 I54
stroke6  420  23 I54
stroke6  419  23 I54
stroke6  417  23 I54
stroke6  416  23 I54
stroke6  415  23 I54
stroke6  414  22 I54
stroke6  413  21 I54
stroke6  412  20 I54
stroke6  411  19 I54
stroke6  410  18 I54
stroke7  442  45 B43
stroke7  442  44 I43
stroke7  441  43 I43
stroke7  440  42 I43
stroke7  441  42 I43
stroke7  442  42 I43
stroke7  443  42 I43
stroke7  444  43 I43
stroke7  445  43 I43
stroke7  446  44 I43
stroke7  447  45 I43
stroke7  448  46 I43
stroke7  448  47 I43
stroke7  448  48 I43
stroke7  448  49 I43
stroke7  448  50 I43
stroke7  447  51 I43
stroke7  446  52 I43
stroke7  445  53 I43
stroke7  444  54 I43
stroke7  443  54 I43
stroke7  442  53 I43
stroke7  441  52 I43
stroke7  441  51 I43
stroke7  441  50 I43
stroke7  440  49 I43
stroke7  440  48 I43
stroke7  440  46 I43
stroke7  440  45 I43
stroke7  439  44 I43
stroke7  439  43 I43
stroke7  439  42 I43
stroke7  439  40 I43
stroke7  439  39 I43
stroke7  438  38 I43
stroke7  438  37 I43
stroke7  438  35 I43
stroke7  438  34 I43
stroke7  437  33 I43
stroke7  437  31 I43
stroke7  437  30 I43
stroke7  437  29 I43
stroke7  436  28 I43
stroke7  436  27 I43
stroke7  436  26 I43
stroke7  436  25 I43
stroke7  436  24 I43
stroke7  436  23 I43
stroke7  435  22 I43
stroke7  435  21 I43
stroke7  435  20 I43
stroke7  435  19 I43
stroke7  435  18 I43
stroke7  435  17 I43
stroke7  435  16 I43
stroke7  435  15 I43
stroke7  436  14 I43
stroke7  436  13 I43
stroke7  436  12 I43
stroke7  436  11 I43
stroke7  437  10 I43
stroke7  438  10 I43
stroke7  439  11 I43
stroke7  440  11 I43
stroke7  440  12 I43
stroke7  441  12 I43
stroke7  442  12 I43
stroke7  444  13 I43
stroke7  445  13 I43
stroke7  446  13 I43
stroke7  447  13 I43
stroke7  448  13 I43
stroke7  449  13 I43
stroke7  450  13 I43
stroke7  451  13 I43
stroke7  452  13 I43
stroke7  452  12 I43
stroke7  453  12 I43
stroke7  454  11 I43
stroke7  455  11 I43
stroke7  455  12 I43
stroke7  456  13 I43
stroke7  456  15 I43
stroke7  457  16 I43
stroke7  457  18 I43
stroke7  458  20 I43
stroke7  458  22 I43
stroke7  458  24 I43
stroke7  458  26 I43
stroke7  459  27 I43
stroke7  459  29 I43
stroke7  459  31 I43
stroke7  459  33 I43
stroke7  459  35 I43
stroke7  459  37 I43
stroke7  459  38 I43
stroke7  459  40 I43
stroke7  459  42 I43
stroke7  459  43 I43
stroke7  460  45 I43
stroke7  460  46 I43
stroke7  460  48 I43
stroke7  460  49 I43
stroke7  460  51 I43
stroke7  461  52 I43
stroke7  461  54 I43
stroke7  461  55 I43
stroke7  460  57 I43
stroke7  460  58 I43
stroke7  460  59 I43
stroke7  460  60 I43
stroke7  460  61 I43
stroke7  460  62 I43
stroke7  459  63 I43
stroke7  459  64 I43
stroke7  459  65 I43
stroke7  459  66 I43
stroke7  459  67 I43
stroke7  459  68 I43
stroke7  459  69 I43
stroke7  458  70 I43
stroke7  458  71 I43
stroke7  458  72 I43
stroke7  458  73 I43
stroke7  458  74 I43
stroke7  458  75 I43
stroke7  458  76 I43
stroke7  458  77 I43
stroke7  457  77 I43
stroke7  457  78 I43
stroke7  456  78 I43
stroke7  455  78 I43
stroke7  453  78 I43
stroke7  451  77 I43
stroke7  449  77 I43
stroke7  447  76 I43
stroke7  444  75 I43
stroke7  442  74 I43
stroke7  439  73 I43
stroke7  437  71 I43
stroke7  434  69 I43
stroke7  432  67 I43
stroke7  430  64 I43
stroke7  428  61 I43
stroke7  427  59 I43
stroke7  426  57 I43
stroke7  425  56 I43
stroke8  465  94 B49
stroke8  465  95 I49
stroke8  466  95 I49
stroke8  466  94 I49
stroke8  466  95 I49
stroke8  465  95 I49
stroke8  465  96 I49
stroke8  464  96 I49
stroke8  463  97 I49
stroke8  462  97 I49
stroke8  461  97 I49
stroke8  460  98 I49
stroke8  459  98 I49
stroke8  457  99 I49
stroke8  456  99 I49
stroke8  454  99 I49
stroke8  451  100 I49
stroke8  449  100 I49
stroke8  447  100 I49
stroke8  444  100 I49
stroke8  441  100 I49
stroke8  439  99 I49
stroke8  436  99 I49
stroke8  434  99 I49
stroke8  432  98 I49
stroke8  430  98 I49
stroke8  429  98 I49
stroke8  428  98 I49
stroke8  427  97 I49
stroke8  426  97 I49
stroke8  425  97 I49
stroke8  426  97 I49
stroke8  427  98 I49
stroke8  429  98 I49
stroke8  431  99 I49
stroke8  433  100 I49
stroke8  435  101 I49
stroke8  438  102 I49
stroke8  440  103 I49
stroke8  443  103 I49
stroke8  445  103 I49
stroke8  447  103 I49
stroke8  448  103 I49
stroke8  450  102 I49
stroke8  451  101 I49
stroke8  452  100 I49
stroke8  453  99 I49
stroke8  454  98 I49
stroke8  456  97 I49
stroke8  457  96 I49
stroke8  458  96 I49
stroke8  459  95 I49
stroke8  461  95 I49
stroke8  462  94 I49
stroke8  463  94 I49
stroke8  465  94 I49
stroke8  466  94 I49
stroke8  467  94 I49
stroke8  468  95 I49
stroke8  468  96 I49
stroke8  468  97 I49
stroke8  469  98 I49
stroke8  469  100 I49
stroke8  470  101 I49
stroke8  470  104 I49
stroke8  471  106 I49
stroke8  471  109 I49
stroke8  471  111 I49
stroke8  471  113 I49
stroke8  472  115 I49
stroke8  472  117 I49
stroke8  472  118 I49
stroke8  472  119 I49
stroke8  473  119 I49
stroke8  472  118 I49
stroke8  472  117 I49
stroke9  478  63 B34
stroke9  479  63 I34
stroke9  479  64 I34
stroke9  480  64 I34
stroke9  481  64 I34
stroke9  482  64 I34
stroke9  483  64 I34
stroke9  484  64 I34
stroke9  485  65 I34
stroke9  486  65 I34
stroke9  487  65 I34
stroke9  487  66 I34
stroke9  488  66 I34
stroke9  489  67 I34
stroke9  490  68 I34
stroke9  491  69 I34
stroke9  491  70 I34
stroke9  490  71 I34
stroke9  490  72 I34
stroke9  489  72 I34
stroke9  488  73 I34
stroke9  487  73 I34
stroke9  486  74 I34
stroke9  485  74 I34
stroke9  484  74 I34
stroke9  483  74 I34
stroke9  482  74 I34
stroke9  481  74 I34
stroke9  480  74 I34
stroke9  479  73 I34
stroke9  478  72 I34
stroke9  477  72 I34
stroke9  476  71 I34
stroke9  475  70 I34
stroke9  475  69 I34
stroke9  474  68 I34
stroke9  473  67 I34
stroke9  473  66 I34
stroke9  472  65 I34
stroke9  472  64 I34
stroke9  471  63 I34
stroke9  471  61 I34
stroke9  472  60 I34
stroke9  472  59 I34
stroke9  473  58 I34
stroke9  474  58 I34
stroke9  475  57 I34
stroke9  476  57 I34
stroke9  478  56 I34
stroke9  479  56 I34
stroke9  480  56 I34
stroke9  481  55 I34
stroke9  482  55 I34
stroke9  483  55 I34
stroke9  484  55 I34
stroke9  485  55 I34
stroke9  485  54 I34
stroke9  486  54 I34
stroke9  487  54 I34
stroke9  486  54 I34
stroke9  486  53 I34
stroke9  485  53 I34
stroke9  485  52 I34
stroke9  484  51 I34
stroke9  483  50 I34
stroke9  482  49 I34
stroke9  480  48 I34
stroke9  479  47 I34
stroke9  478  46 I34
stroke9  477  44 I34
stroke9  476  43 I34
stroke9  475  42 I34
stroke9  475  41 I34
stroke9  474  40 I34
stroke9  474  39 I34
stroke9  473  38 I34
stroke9  473  37 I34
stroke9  473  36 I34
stroke9  472  35 I34
stroke9  472  34 I34
stroke9  472  33 I34
stroke9  471  32 I34
stroke9  471  31 I34
stroke9  471  30 I34
stroke9  470  29 I34
stroke9  470  28 I34
stroke9  470  27 I34
stroke9  470  26 I34
stroke9  470  25 I34
stroke9  470  24 I34
stroke9  469  24 I34
stroke9  469  23 I34
stroke9  469  22 I34
stroke9  469  21 I34
stroke9  469  20 I34
stroke9  469  19 I34
stroke9  469  18 I34
stroke9  469  17 I34
stroke9  468  16 I34
stroke9  468  15 I34
stroke9  468  14 I34
stroke9  468  13 I34
stroke9  469  12 I34
stroke9  469  11 I34
stroke9  470  11 I34
stroke9  470  10 I34
stroke9  471  9 I34
stroke9  472  9 I34
stroke9  473  9 I34
stroke9  475  9 I34
stroke9  476  9 I34
stroke9  478  10 I34
stroke9  479  10 I34
stroke9  481  10 I34
stroke9  483  10 I34
stroke9  484  10 I34
stroke9  486  10 I34
stroke9  488  10 I34
stroke9  490  10 I34
stroke9  491  10 I34
stroke9  492  10 I34
stroke9  493  10 I34
stroke9  494  10 I34
stroke9  495  10 I34
stroke9  496  10 I34
stroke9  497  10 I34
stroke9  498  9 I34
stroke9  498  10 I34
stroke9  499  10 I34
stroke9  500  10 I34
stroke9  501  11 I34
stroke9  501  12 I34
stroke9  502  13 I34
stroke9  502  14 I34
stroke9  502  16 I34
stroke9  503  17 I34
stroke9  503  19 I34
stroke9  504  21 I34
stroke9  504  23 I34
stroke9  505  26 I34
stroke9  506  28 I34
stroke9  506  30 I34
stroke9  507  32 I34
stroke9  507  35 I34
stroke9  508  37 I34
stroke9  509  40 I34
stroke9  509  42 I34
stroke9  510  45 I34
stroke9  510  47 I34
stroke9  511  50 I34
stroke9  511  52 I34
stroke9  512  55 I34
stroke9  512  57 I34
stroke9  513  59 I34
stroke9  513  62 I34
stroke9  513  64 I34
stroke9  514  67 I34
stroke9  514  69 I34
stroke9  514  71 I34
stroke9  514  72 I34
stroke9  514  73 I34
stroke9  514  74 I34
stroke9  514  75 I34
stroke9  513  75 I34
stroke9  513  74 I34
stroke9  513  73 I34
stroke9  513  72 I34
stroke9  512  72 I34
stroke10  536  44 B20
stroke10  535  44 I20
stroke10  534  44 I20
stroke10  534  45 I20
stroke10  533  45 I20
stroke10  533  46 I20
stroke10  533  47 I20
stroke10  533  49 I20
stroke10  534  50 I20
stroke10  534  52 I20
stroke10  535  53 I20
stroke10  535  54 I20
stroke10  536  55 I20
stroke10  537  56 I20
stroke10  538  57 I20
stroke10  539  57 I20
stroke10  540  57 I20
stroke10  541  56 I20
stroke10  542  54 I20
stroke10  542  53 I20
stroke10  542  52 I20
stroke10  542  51 I20
stroke10  542  49 I20
stroke10  541  48 I20
stroke10  541  47 I20
stroke10  540  45 I20
stroke10  540  44 I20
stroke10  539  43 I20
stroke10  538  42 I20
stroke10  537  42 I20
stroke10  536  41 I20
stroke10  535  40 I20
stroke10  534  39 I20
stroke10  533  38 I20
stroke10  533  37 I20
stroke10  532  36 I20
stroke10  531  35 I20
stroke10  530  34 I20
stroke10  529  33 I20
stroke10  529  31 I20
stroke10  528  30 I20
stroke10  527  29 I20
stroke10  527  27 I20
stroke10  526  25 I20
stroke10  525  24 I20
stroke10  525  22 I20
stroke10  524  20 I20
stroke10  524  19 I20
stroke10  523  18 I20
stroke10  523  16 I20
stroke10  523  15 I20
stroke10  522  14 I20
stroke10  522  13 I20
stroke10  522  12 I20
stroke10  521  12 I20
stroke10  521  13 I20
stroke10  521  14 I20
stroke10  522  15 I20
stroke10  522  16 I20
stroke10  522  18 I20
stroke10  522  19 I20
stroke10  523  21 I20
stroke10  524  24 I20
stroke10  524  26 I20
stroke10  525  29 I20
stroke10  526  31 I20
stroke10  526  33 I20
stroke10  527  35 I20
stroke10  527  37 I20
stroke10  528  39 I20
stroke10  528  41 I20
stroke10  528  43 I20
stroke10  528  45 I20
stroke10  528  47 I20
stroke10  528  50 I20
stroke10  528  52 I20
stroke10  528  54 I20
stroke10  528  56 I20
stroke10  529  57 I20
stroke10  529  59 I20
stroke10  529  60 I20
stroke10  529  61 I20
stroke10  529  62 I20
stroke10  529  63 I20
stroke10  529  64 I20
stroke10  529  66 I20
stroke10  529  67 I20
stroke10  529  68 I20
stroke10  529  69 I20
stroke10  529  70 I20
stroke10  529  71 I20
stroke10  530  72 I20
stroke10  530  73 I20
stroke10  531  74 I20
stroke10  531  75 I20
stroke10  532  76 I20
stroke10  532  77 I20
stroke10  532  78 I20
stroke10  533  78 I20
stroke10  534  79 I20
stroke10  535  78 I20
stroke10  536  78 I20
stroke10  538  78 I20
stroke10  540  78 I20
stroke10  541  77 I20
stroke10  543  77 I20
stroke10  545  76 I20
stroke10  546  75 I20
stroke10  548  74 I20
stroke10  549  73 I20
stroke10  551  72 I20
stroke10  552  70 I20
stroke10  553  69 I20
stroke10  554  67 I20
stroke10  555  66 I20
stroke10  556  65 I20
stroke10  557  64 I20
stroke10  558  62 I20
stroke10  559  61 I20
stroke10  559  60 I20
stroke10  560  59 I20
stroke10  560  58 I20
stroke10  560  57 I20
stroke10  560  55 I20
stroke10  560  54 I20
stroke10  560  52 I20
stroke10  560  50 I20
stroke10  560  49 I20
stroke10  560  47 I20
stroke10  560  45 I20
stroke10  560  44 I20
stroke10  560  42 I20
stroke10  560  40 I20
stroke10  560  38 I20
stroke10  559  37 I20
stroke10  559  35 I20
stroke10  559  33 I20
stroke10  558  32 I20
stroke10  558  30 I20
stroke10  558  28 I20
stroke10  558  27 I20
stroke10  558  25 I20
stroke10  557  24 I20
stroke10  557  22 I20
stroke10  557  21 I20
stroke10  557  20 I20
stroke10  556  18 I20
stroke10  556  17 I20
stroke10  556  16 I20
stroke10  556  15 I20
stroke10  555  14 I20
stroke10  555  13 I20
stroke10  555  12 I20
stroke10  555  11 I20
stroke10  554  11 I20
stroke10  554  10 I20
stroke10  555  10 I20
stroke10  555  11 I20
stroke10  555  12 I20
stroke10  555  13 I20
stroke10  554  14 I20
stroke10  554  15 I20
