stroke1  261  68 B9
stroke1  262  68 I9
stroke1  263  68 I9
stroke1  264  68 I9
stroke1  263  68 I9
stroke1  263  67 I9
stroke1  262  67 I9
stroke1  261  67 I9
stroke1  261  66 I9
stroke1  260  66 I9
stroke1  259  66 I9
stroke1  258  66 I9
stroke1  257  66 I9
stroke1  256  66 I9
stroke1  255  67 I9
stroke1  254  67 I9
stroke1  253  68 I9
stroke1  252  69 I9
stroke1  251  70 I9
stroke1  250  71 I9
stroke1  250  72 I9
stroke1  250  73 I9
stroke1  250  74 I9
stroke1  251  74 I9
stroke1  251  75 I9
stroke1  252  75 I9
stroke1  253  76 I9
stroke1  254  76 I9
stroke1  255  76 I9
stroke1  256  76 I9
stroke1  257  75 I9
stroke1  258  74 I9
stroke1  259  73 I9
stroke1  259  72 I9
stroke1  259  71 I9
stroke1  260  70 I9
stroke1  260  69 I9
stroke1  260  67 I9
stroke1  260  66 I9
stroke1  260  65 I9
stroke1  261  64 I9
stroke1  261  62 I9
stroke1  261  61 I9
stroke1  261  60 I9
stroke1  261  59 I9
stroke1  261  58 I9
stroke1  261  56 I9
stroke1  261  55 I9
stroke1  261  54 I9
stroke1  261  53 I9
stroke1  261  52 I9
stroke1  261  51 I9
stroke1  261  49 I9
stroke1  261  48 I9
stroke1  261  47 I9
stroke1  260  46 I9
stroke1  260  45 I9
stroke1  260  44 I9
stroke1  260  42 I9
stroke1  259  41 I9
stroke1  259  40 I9
stroke1  259  39 I9
stroke1  259  38 I9
stroke1  258  38 I9
stroke1  258  37 I9
stroke1  259  37 I9
stroke1  258  36 I9
stroke1  258  35 I9
stroke1  259  35 I9
stroke1  259  36 I9
stroke1  259  37 I9
stroke1  260  38 I9
stroke1  261  39 I9
stroke1  261  40 I9
stroke1  262  41 I9
stroke1  263  42 I9
stroke1  264  43 I9
stroke1  265  44 I9
stroke1  266  45 I9
stroke1  267  46 I9
stroke1  268  48 I9
stroke1  269  49 I9
stroke1  270  50 I9
stroke1  271  51 I9
stroke1  272  51 I9
stroke1  273  52 I9
stroke1  274  52 I9
stroke1  275  53 I9
stroke1  276  53 I9
stroke1  277  53 I9
stroke1  278  53 I9
stroke1  278  52 I9
stroke1  279  52 I9
stroke1  280  51 I9
stroke1  281  50 I9
stroke1  282  49 I9
stroke1  282  48 I9
stroke1  282  47 I9
stroke1  282  46 I9
stroke1  282  45 I9
stroke1  281  44 I9
stroke1  281  43 I9
stroke1  281  42 I9
stroke1  281  41 I9
stroke1  280  40 I9
stroke1  279  40 I9
stroke1  279  39 I9
stroke1  278  39 I9
stroke1  278  38 I9
stroke1  277  39 I9
stroke1  277  40 I9
stroke1  277  41 I9
stroke1  277  42 I9
stroke1  278  43 I9
stroke1  278  44 I9
stroke1  278  46 I9
stroke1  278  47 I9
stroke1  278  49 I9
stroke1  279  50 I9
stroke1  279  52 I9
stroke1  279  53 I9
stroke1  279  55 I9
stroke1  279  56 I9
stroke1  279  57 I9
stroke1  279  59 I9
stroke1  279  60 I9
stroke1  279  61 I9
stroke1  279  63 I9
stroke1  278  64 I9
stroke1  278  65 I9
stroke1  278  66 I9
stroke1  279  67 I9
stroke1  279  69 I9
stroke1  279  70 I9
stroke1  279  71 I9
stroke1  279  72 I9
stroke1  279  73 I9
stroke1  279  74 I9
stroke1  279  75 I9
stroke1  279  76 I9
stroke1  279  78 I9
stroke1  279  79 I9
stroke1  279  80 I9
stroke1  279  81 I9
stroke1  280  82 I9
stroke1  280  83 I9
stroke1  279  84 I9
stroke1  279  85 I9
stroke1  279  86 I9
stroke1  279  87 I9
stroke1  279  88 I9
stroke1  279  89 I9
stroke1  279  90 I9
stroke1  278  90 I9
stroke1  278  91 I9
stroke1  278  92 I9
stroke1  278  93 I9
stroke1  278  94 I9
stroke1  278  95 I9
stroke1  278  96 I9
stroke1  278  97 I9
stroke1  277  97 I9
stroke1  277  98 I9
stroke1  277  99 I9
stroke1  276  99 I9
stroke1  276  100 I9
stroke1  275  100 I9
stroke1  274  100 I9
stroke1  273  100 I9
stroke1  272  100 I9
stroke1  271  100 I9
stroke1  270  100 I9
stroke1  268  100 I9
stroke1  267  100 I9
stroke1  265  100 I9
stroke1  263  100 I9
stroke1  260  99 I9
stroke1  258  98 I9
stroke1  255  97 I9
stroke1  252  96 I9
stroke1  249  95 I9
stroke1  246  93 I9
stroke1  244  90 I9
stroke1  241  87 I9
stroke1  238  83 I9
stroke1  236  79 I9
stroke1  233  75 I9
stroke2  280  2 B52
stroke2  280  1 I52
stroke2  280  0 I52
stroke2  279  0 I52
stroke2  279  1 I52
stroke2  279  2 I52
stroke2  279  3 I52
stroke2  279  4 I52
stroke2  279  5 I52
stroke2  279  6 I52
stroke2  279  7 I52
stroke2  279  8 I52
stroke2  279  10 I52
stroke2  280  11 I52
stroke2  280  12 I52
stroke2  280  14 I52
stroke2  280  15 I52
stroke2  280  16 I52
stroke2  280  17 I52
stroke2  279  18 I52
stroke2  278  18 I52
stroke2  277  18 I52
stroke2  276  18 I52
stroke2  275  17 I52
stroke2  273  17 I52
stroke2  272  16 I52
stroke2  271  16 I52
stroke2  271  15 I52
stroke2  270  15 I52
stroke2  270  14 I52
stroke2  271  13 I52
stroke2  272  13 I52
stroke2  273  13 I52
stroke2  274  13 I52
stroke2  275  14 I52
stroke2  277  14 I52
stroke2  278  15 I52
stroke3  306  36 B1
stroke3  306  35 I1
stroke3  306  34 I1
stroke3  305  34 I1
stroke3  305  33 I1
stroke3  304  33 I1
stroke3  304  34 I1
stroke3  303  35 I1
stroke3  303  36 I1
stroke3  303  37 I1
stroke3  302  38 I1
stroke3  302  39 I1
stroke3  302  41 I1
stroke3  303  43 I1
stroke3  303  44 I1
stroke3  303  46 I1
stroke3  303  48 I1
stroke3  303  49 I1
stroke3  304  51 I1
stroke3  304  52 I1
stroke3  304  54 I1
stroke3  304  55 I1
stroke3  304  56 I1
stroke3  304  57 I1
stroke3  304  58 I1
stroke3  304  59 I1
stroke3  304  60 I1
stroke3  305  61 I1
stroke3  305  62 I1
stroke3  305  63 I1
stroke3  305  64 I1
stroke3  305  65 I1
stroke3  305  66 I1
stroke3  305  67 I1
stroke3  305  68 I1
stroke3  305  69 I1
stroke3  305  70 I1
stroke3  305  71 I1
stroke3  305  72 I1
stroke3  306  72 I1
stroke3  306  73 I1
stroke3  306  74 I1
stroke3  306  75 I1
stroke3  307  76 I1
stroke3  307  77 I1
stroke3  307  78 I1
stroke3  306  79 I1
stroke3  305  79 I1
stroke3  304  79 I1
stroke3  303  79 I1
stroke3  302  78 I1
stroke3  301  78 I1
stroke3  299  77 I1
stroke3  298  77 I1
stroke3  297  77 I1
stroke3  296  77 I1
stroke3  295  76 I1
stroke3  294  76 I1
stroke3  293  76 I1
stroke3  292  76 I1
stroke3  293  76 I1
stroke3  293  77 I1
stroke3  293  78 I1
stroke3  294  79 I1
stroke3  294  80 I1
stroke3  295  82 I1
stroke3  296  83 I1
stroke3  297  84 I1
stroke3  297  85 I1
stroke3  298  86 I1
stroke3  298  88 I1
stroke3  299  89 I1
stroke3  299  90 I1
stroke3  299  91 I1
stroke3  300  92 I1
stroke3  300  93 I1
stroke3  301  94 I1
stroke3  301  95 I1
stroke3  301  96 I1
stroke3  302  97 I1
stroke3  303  98 I1
stroke3  303  99 I1
stroke3  304  99 I1
stroke3  305  100 I1
stroke3  306  101 I1
stroke3  307  101 I1
stroke3  308  102 I1
stroke3  309  102 I1
stroke3  311  102 I1
stroke3  312  102 I1
stroke3  313  102 I1
stroke3  314  101 I1
stroke3  316  101 I1
stroke3  317  100 I1
stroke3  318  99 I1
stroke3  319  98 I1
stroke3  321  98 I1
stroke3  322  98 I1
stroke3  323  97 I1
stroke3  324  97 I1
stroke3  325  96 I1
stroke3  326  96 I1
stroke3  327  95 I1
stroke3  327  94 I1
stroke3  328  93 I1
stroke3  328  91 I1
stroke3  328  90 I1
stroke3  328  88 I1
stroke3  328  86 I1
stroke3  328  84 I1
stroke3  328  82 I1
stroke3  328  80 I1
stroke3  328  78 I1
stroke3  328  76 I1
stroke3  328  74 I1
stroke3  328  72 I1
stroke3  328  70 I1
stroke3  328  68 I1
stroke3  328  66 I1
stroke3  328  64 I1
stroke3  328  62 I1
stroke3  328  60 I1
stroke3  328  58 I1
stroke3  328  56 I1
stroke3  327  55 I1
stroke3  327  53 I1
stroke3  327  51 I1
stroke3  327  49 I1
stroke3  327  48 I1
stroke3  327  46 I1
stroke3  327  45 I1
stroke3  327  44 I1
stroke3  327  43 I1
stroke3  327  42 I1
stroke3  327  40 I1
stroke3  326  40 I1
stroke3  326  39 I1
stroke3  326  38 I1
stroke3  326  37 I1
stroke3  326  36 I1
stroke3  326  35 I1
stroke3  326  34 I1
stroke3  326  33 I1
stroke3  326  34 I1
stroke3  326  35 I1
stroke3  326  36 I1
stroke3  325  37 I1
stroke4  359  91 B54
stroke4  359  92 I54
stroke4  360  93 I54
stroke4  360  94 I54
stroke4  360  95 I54
stroke4  361  95 I54
stroke4  361  96 I54
stroke4  361  97 I54
stroke4  361  98 I54
stroke4  361  99 I54
stroke4  361  98 I54
stroke4  360  98 I54
stroke4  360  97 I54
stroke4  360  96 I54
stroke4  360  95 I54
stroke4  360  93 I54
stroke4  359  91 I54
stroke4  359  89 I54
stroke4  358  86 I54
stroke4  358  84 I54
stroke4  357  81 I54
stroke4  357  79 I54
stroke4  356  77 I54
stroke4  355  74 I54
stroke4  355  72 I54
stroke4  355  70 I54
stroke4  354  68 I54
stroke4  354  65 I54
stroke4  354  63 I54
stroke4  353  61 I54
stroke4  353  58 I54
stroke4  352  56 I54
stroke4  352  54 I54
stroke4  352  52 I54
stroke4  351  50 I54
stroke4  351  49 I54
stroke4  351  47 I54
stroke4  351  46 I54
stroke4  351  44 I54
stroke4  351  43 I54
stroke4  352  42 I54
stroke4  352  41 I54
stroke4  352  40 I54
stroke4  353  39 I54
stroke4  353  38 I54
stroke4  354  38 I54
stroke4  354  37 I54
stroke4  355  37 I54
stroke4  355  36 I54
stroke4  356  36 I54
stroke4  357  36 I54
stroke4  357  35 I54
stroke4  358  36 I54
stroke4  359  36 I54
stroke4  360  37 I54
stroke4  361  38 I54
stroke4  362  39 I54
stroke4  363  40 I54
stroke4  364  42 I54
stroke4  365  43 I54
stroke4  365  44 I54
stroke4  366  46 I54
stroke4  366  47 I54
stroke4  366  48 I54
stroke4  365  49 I54
stroke4  365  50 I54
stroke4  364  50 I54
stroke4  363  51 I54
stroke4  361  51 I54
stroke4  359  51 I54
stroke4  358  51 I54
stroke4  356  51 I54
stroke4  355  51 I54
stroke4  354  51 I54
stroke4  353  51 I54
stroke5  386  71 B9
stroke5  386  70 I9
stroke5  387  69 I9
stroke5  386  69 I9
stroke5  386  68 I9
stroke5  385  68 I9
stroke5  384  67 I9
stroke5  383  66 I9
stroke5  382  66 I9
stroke5  381  66 I9
stroke5  380  66 I9
stroke5  379  66 I9
stroke5  378  67 I9
stroke5  377  68 I9
stroke5  376  69 I9
stroke5  376  70 I9
stroke5  375  71 I9
stroke5  375  73 I9
stroke5  375  74 I9
stroke5  375  75 I9
stroke5  375  77 I9
stroke5  376  78 I9
stroke5  376  79 I9
stroke5  376  80 I9
stroke5  377  80 I9
stroke5  378  81 I9
stroke5  379  81 I9
stroke5  380  80 I9
stroke5  381  80 I9
stroke5  382  79 I9
stroke5  383  78 I9
stroke5  384  78 I9
stroke5  385  77 I9
stroke5  385  76 I9
stroke5  386  75 I9
stroke5  386  74 I9
stroke5  386  73 I9
stroke5  386  72 I9
stroke5  386  71 I9
stroke5  386  69 I9
stroke5  386  68 I9
stroke5  386  67 I9
stroke5  386  65 I9
stroke5  386  64 I9
stroke5  386  63 I9
stroke5  386  62 I9
stroke5  385  60 I9
stroke5  385  59 I9
stroke5  385  57 I9
stroke5  384  56 I9
stroke5  384  54 I9
stroke5  384  52 I9
stroke5  383  51 I9
stroke5  383  49 I9
stroke5  383  48 I9
stroke5  383  46 I9
stroke5  383  45 I9
stroke5  383  44 I9
stroke5  383  42 I9
stroke5  383  41 I9
stroke5  383  40 I9
stroke5  383  39 I9
stroke5  383  38 I9
stroke5  383  37 I9
stroke5  383  36 I9
stroke5  383  35 I9
stroke5  382  34 I9
stroke5  383  35 I9
stroke5  383  36 I9
stroke5  383  37 I9
stroke5  384  37 I9
stroke5  384  39 I9
stroke5  385  40 I9
stroke5  386  42 I9
stroke5  387  43 I9
stroke5  388  45 I9
stroke5  389  46 I9
stroke5  391  48 I9
stroke5  392  49 I9
stroke5  393  50 I9
stroke5  394  51 I9
stroke5  395  52 I9
stroke5  396  53 I9
stroke5  397  53 I9
stroke5  398  54 I9
stroke5  399  53 I9
stroke5  400  53 I9
stroke5  401  53 I9
stroke5  402  52 I9
stroke5  403  51 I9
stroke5  403  50 I9
stroke5  404  50 I9
stroke5  404  49 I9
stroke5  404  48 I9
stroke5  404  47 I9
stroke5  404  46 I9
stroke5  404  45 I9
stroke5  404  44 I9
stroke5  403  43 I9
stroke5  403  42 I9
stroke5  403  41 I9
stroke5  402  40 I9
stroke5  401  39 I9
stroke5  401  38 I9
stroke5  400  38 I9
stroke5  399  38 I9
stroke5  399  37 I9
stroke5  398  37 I9
stroke5  398  38 I9
stroke5  398  39 I9
stroke5  398  40 I9
stroke5  398  41 I9
stroke5  399  42 I9
stroke5  399  44 I9
stroke5  399  45 I9
stroke5  399  47 I9
stroke5  400  49 I9
stroke5  400  51 I9
stroke5  400  53 I9
stroke5  400  55 I9
stroke5  401  56 I9
stroke5  401  58 I9
stroke5  401  60 I9
stroke5  401  62 I9
stroke5  401  64 I9
stroke5  402  66 I9
stroke5  402  68 I9
stroke5  402  70 I9
stroke5  403  72 I9
stroke5  403  73 I9
stroke5  403  75 I9
stroke5  404  77 I9
stroke5  404  78 I9
stroke5  404  80 I9
stroke5  405  81 I9
stroke5  405  83 I9
stroke5  405  84 I9
stroke5  405  86 I9
stroke5  405  87 I9
stroke5  405  89 I9
stroke5  406  90 I9
stroke5  406  92 I9
stroke5  406  93 I9
stroke5  406  94 I9
stroke5  406  95 I9
stroke5  406  96 I9
stroke5  406  97 I9
stroke5  406  98 I9
stroke5  406  99 I9
stroke5  406  100 I9
stroke5  405  100 I9
stroke5  405  101 I9
stroke5  405  102 I9
stroke5  404  102 I9
stroke5  403  103 I9
stroke5  402  103 I9
stroke5  400  103 I9
stroke5  399  103 I9
stroke5  397  102 I9
stroke5  394  102 I9
stroke5  392  101 I9
stroke5  389  100 I9
stroke5  386  99 I9
stroke5  384  98 I9
stroke5  381  96 I9
stroke5  379  95 I9
stroke5  376  93 I9
stroke5  374  91 I9
stroke5  372  89 I9
stroke5  370  87 I9
stroke5  368  85 I9
stroke5  367  84 I9
stroke6  419  117 B48
stroke6  419  118 I48
stroke6  420  118 I48
stroke6  420  119 I48
stroke6  419  119 I48
stroke6  418  119 I48
stroke6  417  119 I48
stroke6  415  119 I48
stroke6  414  119 I48
stroke6  412  119 I48
stroke6  410  119 I48
stroke6  408  119 I48
stroke6  405  120 I48
stroke6  402  120 I48
stroke6  399  121 I48
stroke6  396  121 I48
stroke6  393  122 I48
stroke6  390  123 I48
stroke6  386  123 I48
stroke6  383  123 I48
stroke6  380  122 I48
stroke6  377  122 I48
stroke6  375  121 I48
stroke6  372  120 I48
stroke6  370  120 I48
stroke6  369  119 I48
stroke6  368  119 I48
stroke6  367  119 I48
stroke6  366  118 I48
stroke6  367  118 I48
stroke6  369  118 I48
stroke6  371  118 I48
stroke6  373  118 I48
stroke6  377  118 I48
stroke6  381  118 I48
stroke6  385  118 I48
stroke6  390  119 I48
stroke6  394  119 I48
stroke6  398  120 I48
stroke6  402  120 I48
stroke6  405  120 I48
stroke6  408  120 I48
stroke6  410  119 I48
stroke6  412  118 I48
stroke6  413  117 I48
stroke6  413  116 I48
stroke6  414  116 I48
stroke7  436  92 B25
stroke7  437  92 I25
stroke7  437  91 I25
stroke7  436  91 I25
stroke7  435  90 I25
stroke7  434  89 I25
stroke7  433  88 I25
stroke7  432  88 I25
stroke7  431  87 I25
stroke7  430  87 I25
stroke7  429  87 I25
stroke7  428  87 I25
stroke7  427  87 I25
stroke7  426  88 I25
stroke7  425  89 I25
stroke7  424  90 I25
stroke7  424  91 I25
stroke7  423  92 I25
stroke7  423  94 I25
stroke7  422  95 I25
stroke7  423  97 I25
stroke7  423  98 I25
stroke7  424  100 I25
stroke7  424  101 I25
stroke7  425  102 I25
stroke7  426  103 I25
stroke7  427  103 I25
stroke7  428  103 I25
stroke7  428  102 I25
stroke7  429  100 I25
stroke7  429  99 I25
stroke7  430  98 I25
stroke7  430  96 I25
stroke7  431  95 I25
stroke7  431  94 I25
stroke7  432  92 I25
stroke7  432  91 I25
stroke7  433  90 I25
stroke7  433  89 I25
stroke7  434  88 I25
stroke7  434  87 I25
stroke7  434  85 I25
stroke7  434  84 I25
stroke7  434  83 I25
stroke7  433  81 I25
stroke7  433  80 I25
stroke7  433  79 I25
stroke7  433  78 I25
stroke7  433  76 I25
stroke7  433  75 I25
stroke7  433  74 I25
stroke7  433  73 I25
stroke7  433  72 I25
stroke7  432  71 I25
stroke7  432  70 I25
stroke7  432  69 I25
stroke7  432  68 I25
stroke7  432  67 I25
stroke7  432  66 I25
stroke7  431  65 I25
stroke7  431  63 I25
stroke7  431  62 I25
stroke7  431  61 I25
stroke7  430  60 I25
stroke7  430  59 I25
stroke7  429  57 I25
stroke7  429  56 I25
stroke7  429  55 I25
stroke7  428  53 I25
stroke7  428  52 I25
stroke7  427  51 I25
stroke7  427  49 I25
stroke7  426  48 I25
stroke7  426  47 I25
stroke7  425  46 I25
stroke7  425  45 I25
stroke7  425  44 I25
stroke7  425  43 I25
stroke7  424  42 I25
stroke7  424  41 I25
stroke7  424  40 I25
stroke7  424  41 I25
stroke7  425  42 I25
stroke7  425  43 I25
stroke7  426  44 I25
stroke7  426  46 I25
stroke7  428  47 I25
stroke7  429  49 I25
stroke7  430  51 I25
stroke7  431  53 I25
stroke7  433  55 I25
stroke7  434  57 I25
stroke7  436  58 I25
stroke7  437  60 I25
stroke7  438  61 I25
stroke7  440  62 I25
stroke7  441  62 I25
stroke7  441  63 I25
stroke7  442  63 I25
stroke7  443  63 I25
stroke7  444  63 I25
stroke7  445  63 I25
stroke7  446  63 I25
stroke7  447  63 I25
stroke7  448  63 I25
stroke7  449  62 I25
stroke7  450  62 I25
stroke7  451  61 I25
stroke7  453  61 I25
stroke7  454  60 I25
stroke7  455  60 I25
stroke7  456  59 I25
stroke7  457  58 I25
stroke7  457  57 I25
stroke7  456  56 I25
stroke7  455  55 I25
stroke7  455  54 I25
stroke7  454  53 I25
stroke7  453  52 I25
stroke7  452  51 I25
stroke7  451  50 I25
stroke7  450  49 I25
stroke7  449  48 I25
stroke7  448  47 I25
stroke7  447  46 I25
stroke7  447  45 I25
stroke7  446  44 I25
stroke7  445  43 I25
stroke7  445  42 I25
stroke7  444  41 I25
stroke7  444  40 I25
stroke7  443  39 I25
stroke7  442  39 I25
stroke7  442  40 I25
stroke7  443  41 I25
stroke7  443  43 I25
stroke7  443  45 I25
stroke7  444  47 I25
stroke7  445  51 I25
stroke7  446  54 I25
stroke7  447  58 I25
stroke7  448  61 I25
stroke7  450  65 I25
stroke7  451  69 I25
stroke7  452  72 I25
stroke7  453  75 I25
stroke7  454  78 I25
stroke7  454  80 I25
stroke7  455  83 I25
stroke7  455  85 I25
stroke7  456  87 I25
stroke7  456  89 I25
stroke7  456  91 I25
stroke7  457  93 I25
stroke7  457  95 I25
stroke7  458  96 I25
stroke7  458  97 I25
stroke7  458  98 I25
stroke7  458  99 I25
stroke7  459  100 I25
stroke7  459  101 I25
stroke7  459  100 I25
stroke7  459  99 I25
stroke7  458  98 I25
stroke7  457  97 I25
