stroke1  90  67 B9
stroke1  89  67 I9
stroke1  88  67 I9
stroke1  87  67 I9
stroke1  86  67 I9
stroke1  85  67 I9
stroke1  84  66 I9
stroke1  82  67 I9
stroke1  81  67 I9
stroke1  80  67 I9
stroke1  79  67 I9
stroke1  78  68 I9
stroke1  77  69 I9
stroke1  76  70 I9
stroke1  75  71 I9
stroke1  75  73 I9
stroke1  75  74 I9
stroke1  75  75 I9
stroke1  75  77 I9
stroke1  75  77 I9
stroke1  76  78 I9
stroke1  76  79 I9
stroke1  77  79 I9
stroke1  78  80 I9
stroke1  79  80 I9
stroke1  80  80 I9
stroke1  81  80 I9
stroke1  82  80 I9
stroke1  84  79 I9
stroke1  85  78 I9
stroke1  86  76 I9
stroke1  87  75 I9
stroke1  87  73 I9
stroke1  88  70 I9
stroke1  88  68 I9
stroke1  88  65 I9
stroke1  89  62 I9
stroke1  88  59 I9
stroke1  88  56 I9
stroke1  88  54 I9
stroke1  88  51 I9
stroke1  88  49 I9
stroke1  88  47 I9
stroke1  88  46 I9
stroke1  88  44 I9
stroke1  88  43 I9
stroke1  88  42 I9
stroke1  89  42 I9
stroke1  89  43 I9
stroke1  89  44 I9
stroke1  90  45 I9
stroke1  91  47 I9
stroke1  92  48 I9
stroke1  93  50 I9
stroke1  94  51 I9
stroke1  95  52 I9
stroke1  97  53 I9
stroke1  98  54 I9
stroke1  99  55 I9
stroke1  101  56 I9
stroke1  102  56 I9
stroke1  104  56 I9
stroke1  105  56 I9
stroke1  107  56 I9
stroke1  108  55 I9
stroke1  109  54 I9
stroke1  110  53 I9
stroke1  111  53 I9
stroke1  111  52 I9
stroke1  112  51 I9
stroke1  112  50 I9
stroke1  112  49 I9
stroke1  112  48 I9
stroke1  112  47 I9
stroke1  111  47 I9
stroke1  111  46 I9
stroke1  110  46 I9
stroke1  109  46 I9
stroke1  108  46 I9
stroke1  108  47 I9
stroke1  107  48 I9
stroke1  106  50 I9
stroke1  105  51 I9
stroke1  105  54 I9
stroke1  104  56 I9
stroke1  104  58 I9
stroke1  103  61 I9
stroke1  102  64 I9
stroke1  102  67 I9
stroke1  101  70 I9
stroke1  101  73 I9
stroke1  100  76 I9
stroke1  100  80 I9
stroke1  99  83 I9
stroke1  99  86 I9
stroke1  98  88 I9
stroke1  97  91 I9
stroke1  97  93 I9
stroke1  96  94 I9
stroke1  95  96 I9
stroke1  94  97 I9
stroke1  93  98 I9
stroke1  91  99 I9
stroke1  90  100 I9
stroke1  88  101 I9
stroke1  86  101 I9
stroke1  84  101 I9
stroke1  81  101 I9
stroke1  79  100 I9
stroke1  76  98 I9
stroke1  73  96 I9
stroke1  71  93 I9
stroke1  69  91 I9
stroke1  67  88 I9
stroke1  66  86 I9
stroke1  66  83 I9
stroke1  66  81 I9
stroke1  67  79 I9
stroke2  95  21 B52
stroke2  95  19 I52
stroke2  95  18 I52
stroke2  95  16 I52
stroke2  94  15 I52
stroke2  94  13 I52
stroke2  93  12 I52
stroke2  92  11 I52
stroke2  91  10 I52
stroke2  90  9 I52
stroke2  89  9 I52
stroke2  88  8 I52
stroke2  87  8 I52
stroke2  86  9 I52
stroke2  85  10 I52
stroke2  84  11 I52
stroke2  83  12 I52
stroke2  83  13 I52
stroke2  83  14 I52
stroke2  83  15 I52
stroke2  84  16 I52
stroke2  85  17 I52
stroke2  86  17 I52
stroke2  87  17 I52
stroke2  88  17 I52
stroke2  90  16 I52
stroke2  91  15 I52
stroke2  93  14 I52
stroke2  94  12 I52
stroke2  95  10 I52
stroke2  96  8 I52
stroke2  96  6 I52
stroke2  97  4 I52
stroke2  97  2 I52
stroke2  98  1 I52
stroke2  98  0 I52
stroke3  147  43 B1
stroke3  146  43 I1
stroke3  145  44 I1
stroke3  145  45 I1
stroke3  145  47 I1
stroke3  145  48 I1
stroke3  145  50 I1
stroke3  146  52 I1
stroke3  146  54 I1
stroke3  146  57 I1
stroke3  147  60 I1
stroke3  147  63 I1
stroke3  147  66 I1
stroke3  146  69 I1
stroke3  146  72 I1
stroke3  145  74 I1
stroke3  145  75 I1
stroke3  144  76 I1
stroke3  143  77 I1
stroke3  142  78 I1
stroke3  141  78 I1
stroke3  140  78 I1
stroke3  139  78 I1
stroke3  138  78 I1
stroke3  137  78 I1
stroke3  136  78 I1
stroke3  136  79 I1
stroke3  135  80 I1
stroke3  136  81 I1
stroke3  136  82 I1
stroke3  136  84 I1
stroke3  137  85 I1
stroke3  138  87 I1
stroke3  139  89 I1
stroke3  141  91 I1
stroke3  143  93 I1
stroke3  145  95 I1
stroke3  147  97 I1
stroke3  150  98 I1
stroke3  152  99 I1
stroke3  155  100 I1
stroke3  157  100 I1
stroke3  160  100 I1
stroke3  162  99 I1
stroke3  164  98 I1
stroke3  166  97 I1
stroke3  168  95 I1
stroke3  170  93 I1
stroke3  171  90 I1
stroke3  173  87 I1
stroke3  174  84 I1
stroke3  175  80 I1
stroke3  176  77 I1
stroke3  176  74 I1
stroke3  176  71 I1
stroke3  177  67 I1
stroke3  177  64 I1
stroke3  177  62 I1
stroke3  177  59 I1
stroke3  177  57 I1
stroke3  177  55 I1
stroke3  177  53 I1
stroke3  177  52 I1
stroke3  177  50 I1
stroke3  178  50 I1
stroke4  203  83 B54
stroke4  203  84 I54
stroke4  203  85 I54
stroke4  202  86 I54
stroke4  202  87 I54
stroke4  201  87 I54
stroke4  202  86 I54
stroke4  202  84 I54
stroke4  202  81 I54
stroke4  202  78 I54
stroke4  202  74 I54
stroke4  202  70 I54
stroke4  202  66 I54
stroke4  203  62 I54
stroke4  203  59 I54
stroke4  204  56 I54
stroke4  205  54 I54
stroke4  207  52 I54
stroke4  209  51 I54
stroke4  212  51 I54
stroke4  215  51 I54
stroke4  218  52 I54
stroke4  220  53 I54
stroke4  222  55 I54
stroke4  224  56 I54
stroke4  225  58 I54
stroke4  226  59 I54
stroke4  226  60 I54
stroke4  226  61 I54
stroke4  225  62 I54
stroke4  224  63 I54
stroke4  223  63 I54
stroke4  221  63 I54
stroke4  219  62 I54
stroke4  217  61 I54
stroke4  215  61 I54
stroke5  263  76 B9
stroke5  262  77 I9
stroke5  261  77 I9
stroke5  260  77 I9
stroke5  259  77 I9
stroke5  258  78 I9
stroke5  256  78 I9
stroke5  255  78 I9
stroke5  253  78 I9
stroke5  251  78 I9
stroke5  250  78 I9
stroke5  249  79 I9
stroke5  248  79 I9
stroke5  248  80 I9
stroke5  247  81 I9
stroke5  248  82 I9
stroke5  248  83 I9
stroke5  249  84 I9
stroke5  250  85 I9
stroke5  251  86 I9
stroke5  253  86 I9
stroke5  254  86 I9
stroke5  256  85 I9
stroke5  258  84 I9
stroke5  260  83 I9
stroke5  261  81 I9
stroke5  263  79 I9
stroke5  264  77 I9
stroke5  265  75 I9
stroke5  266  72 I9
stroke5  266  69 I9
stroke5  266  66 I9
stroke5  267  63 I9
stroke5  266  60 I9
stroke5  266  58 I9
stroke5  266  55 I9
stroke5  266  53 I9
stroke5  266  52 I9
stroke5  266  50 I9
stroke5  267  50 I9
stroke5  266  49 I9
stroke5  267  49 I9
stroke5  267  50 I9
stroke5  267  51 I9
stroke5  268  52 I9
stroke5  269  54 I9
stroke5  269  56 I9
stroke5  270  58 I9
stroke5  272  59 I9
stroke5  273  61 I9
stroke5  275  62 I9
stroke5  276  63 I9
stroke5  278  63 I9
stroke5  279  64 I9
stroke5  281  64 I9
stroke5  282  64 I9
stroke5  284  63 I9
stroke5  285  63 I9
stroke5  286  61 I9
stroke5  287  60 I9
stroke5  287  59 I9
stroke5  288  57 I9
stroke5  287  56 I9
stroke5  287  55 I9
stroke5  287  53 I9
stroke5  286  52 I9
stroke5  285  51 I9
stroke5  284  51 I9
stroke5  283  51 I9
stroke5  282  52 I9
stroke5  282  53 I9
stroke5  281  54 I9
stroke5  281  56 I9
stroke5  280  58 I9
stroke5  280  61 I9
stroke5  279  63 I9
stroke5  279  66 I9
stroke5  279  69 I9
stroke5  279  73 I9
stroke5  278  76 I9
stroke5  278  79 I9
stroke5  278  83 I9
stroke5  278  86 I9
stroke5  277  89 I9
stroke5  277  92 I9
stroke5  277  95 I9
stroke5  276  97 I9
stroke5  276  99 I9
stroke5  275  101 I9
stroke5  274  102 I9
stroke5  272  104 I9
stroke5  271  105 I9
stroke5  268  106 I9
stroke5  266  107 I9
stroke5  263  107 I9
stroke5  260  107 I9
stroke5  257  106 I9
stroke5  253  105 I9
stroke5  250  104 I9
stroke5  246  102 I9
stroke5  244  100 I9
stroke5  242  98 I9
stroke5  240  97 I9
stroke5  240  96 I9
stroke5  240  95 I9
stroke5  241  95 I9
stroke5  242  95 I9
stroke5  243  95 I9
stroke5  244  96 I9
stroke6  272  124 B48
stroke6  273  125 I48
stroke6  273  126 I48
stroke6  272  127 I48
stroke6  270  127 I48
stroke6  269  128 I48
stroke6  268  128 I48
stroke6  266  128 I48
stroke6  264  129 I48
stroke6  262  129 I48
stroke6  259  130 I48
stroke6  256  130 I48
stroke6  253  130 I48
stroke6  250  131 I48
stroke6  247  131 I48
stroke6  245  132 I48
stroke6  243  132 I48
stroke6  241  133 I48
stroke6  240  134 I48
stroke6  240  136 I48
stroke6  240  137 I48
stroke6  241  139 I48
stroke6  243  140 I48
stroke6  245  141 I48
stroke6  248  142 I48
stroke6  251  142 I48
stroke6  254  142 I48
stroke6  257  141 I48
stroke6  260  140 I48
stroke6  262  140 I48
stroke6  265  139 I48
stroke6  266  138 I48
stroke6  268  137 I48
stroke6  269  135 I48
stroke6  270  134 I48
stroke6  271  134 I48
stroke6  271  133 I48
stroke7  324  97 B25
stroke7  325  96 I25
stroke7  324  95 I25
stroke7  324  94 I25
stroke7  323  93 I25
stroke7  322  93 I25
stroke7  320  92 I25
stroke7  319  91 I25
stroke7  318  91 I25
stroke7  317  91 I25
stroke7  316  91 I25
stroke7  316  92 I25
stroke7  315  93 I25
stroke7  315  94 I25
stroke7  315  95 I25
stroke7  315  96 I25
stroke7  315  98 I25
stroke7  315  99 I25
stroke7  316  100 I25
stroke7  317  101 I25
stroke7  318  101 I25
stroke7  319  102 I25
stroke7  321  102 I25
stroke7  322  102 I25
stroke7  324  103 I25
stroke7  325  102 I25
stroke7  326  102 I25
stroke7  327  102 I25
stroke7  328  102 I25
stroke7  329  101 I25
stroke7  330  100 I25
stroke7  330  99 I25
stroke7  331  97 I25
stroke7  331  95 I25
stroke7  331  92 I25
stroke7  331  89 I25
stroke7  331  86 I25
stroke7  331  83 I25
stroke7  330  79 I25
stroke7  330  76 I25
stroke7  330  73 I25
stroke7  330  69 I25
stroke7  330  66 I25
stroke7  330  63 I25
stroke7  330  60 I25
stroke7  330  57 I25
stroke7  330  55 I25
stroke7  330  53 I25
stroke7  330  52 I25
stroke7  330  51 I25
stroke7  330  50 I25
stroke7  331  50 I25
stroke7  331  51 I25
stroke7  331  52 I25
stroke7  332  53 I25
stroke7  333  54 I25
stroke7  334  56 I25
stroke7  335  58 I25
stroke7  336  60 I25
stroke7  338  61 I25
stroke7  339  63 I25
stroke7  341  64 I25
stroke7  343  66 I25
stroke7  345  66 I25
stroke7  347  67 I25
stroke7  349  68 I25
stroke7  351  68 I25
stroke7  353  68 I25
stroke7  355  67 I25
stroke7  356  67 I25
stroke7  358  66 I25
stroke7  359  65 I25
stroke7  361  64 I25
stroke7  361  63 I25
stroke7  362  62 I25
stroke7  363  60 I25
stroke7  363  59 I25
stroke7  363  57 I25
stroke7  363  56 I25
stroke7  363  55 I25
stroke7  363  54 I25
stroke7  362  53 I25
stroke7  362  52 I25
stroke7  361  51 I25
stroke7  360  51 I25
stroke7  360  50 I25
stroke7  359  50 I25
stroke7  359  51 I25
stroke7  358  51 I25
stroke7  358  52 I25
stroke7  358  53 I25
stroke7  358  55 I25
stroke7  357  56 I25
stroke7  357  58 I25
stroke7  357  61 I25
stroke7  358  64 I25
stroke7  358  67 I25
stroke7  358  70 I25
stroke7  358  74 I25
stroke7  358  78 I25
stroke7  358  82 I25
stroke7  358  85 I25
stroke7  358  89 I25
stroke7  359  92 I25
stroke7  359  94 I25
stroke7  359  96 I25
stroke7  359  98 I25
stroke7  359  99 I25
stroke7  359  100 I25
stroke7  359  101 I25
stroke7  358  102 I25
stroke7  358  103 I25
stroke7  357  102 I25
stroke7  357  101 I25
