stroke1  61  14 B40
stroke1  61  15 I40
stroke1  60  16 I40
stroke1  61  16 I40
stroke1  61  17 I40
stroke1  62  18 I40
stroke1  63  19 I40
stroke1  64  19 I40
stroke1  66  20 I40
stroke1  67  20 I40
stroke1  69  19 I40
stroke1  70  19 I40
stroke1  72  18 I40
stroke1  73  17 I40
stroke1  74  16 I40
stroke1  75  15 I40
stroke1  75  14 I40
stroke1  75  13 I40
stroke1  75  11 I40
stroke1  75  11 I40
stroke1  74  10 I40
stroke1  74  9 I40
stroke1  73  9 I40
stroke1  72  8 I40
stroke1  71  8 I40
stroke1  70  8 I40
stroke1  69  8 I40
stroke1  68  8 I40
stroke1  66  9 I40
stroke1  65  10 I40
stroke1  63  12 I40
stroke1  62  14 I40
stroke1  61  17 I40
stroke1  60  19 I40
stroke1  59  23 I40
stroke1  59  26 I40
stroke1  59  29 I40
stroke1  60  32 I40
stroke1  61  35 I40
stroke1  62  38 I40
stroke1  64  40 I40
stroke1  65  42 I40
stroke1  67  43 I40
stroke1  69  44 I40
stroke1  71  45 I40
stroke1  74  44 I40
stroke1  76  44 I40
stroke1  78  42 I40
stroke1  81  41 I40
stroke1  83  38 I40
stroke1  85  36 I40
stroke1  87  33 I40
stroke1  89  30 I40
stroke1  90  28 I40
stroke1  91  25 I40
stroke1  92  22 I40
stroke1  93  19 I40
stroke1  94  17 I40
stroke1  94  15 I40
stroke1  95  13 I40
stroke1  95  12 I40
stroke1  96  11 I40
stroke1  96  10 I40
stroke1  96  11 I40
stroke1  96  12 I40
stroke1  96  14 I40
stroke1  96  16 I40
stroke1  95  19 I40
stroke1  95  22 I40
stroke1  95  25 I40
stroke1  95  28 I40
stroke1  95  31 I40
stroke1  95  34 I40
stroke1  94  38 I40
stroke1  94  41 I40
stroke1  94  45 I40
stroke1  94  48 I40
stroke1  93  51 I40
stroke1  93  54 I40
stroke1  93  57 I40
stroke1  92  59 I40
stroke1  91  61 I40
stroke1  90  62 I40
stroke1  89  64 I40
stroke1  88  65 I40
stroke1  87  66 I40
stroke1  85  67 I40
stroke1  83  67 I40
stroke1  81  68 I40
stroke1  79  68 I40
stroke1  76  67 I40
stroke1  74  66 I40
stroke1  71  65 I40
stroke1  68  63 I40
stroke1  66  62 I40
stroke1  64  61 I40
stroke1  62  59 I40
stroke1  61  59 I40
stroke1  61  58 I40
stroke1  62  58 I40
stroke1  63  59 I40
stroke1  84  69 I40
stroke1  84  70 I40
stroke1  85  71 I40
stroke1  87  74 I40
stroke1  89  76 I40
stroke1  92  79 I40
stroke1  95  82 I40
stroke1  98  84 I40
stroke1  101  87 I40
stroke1  104  90 I40
stroke1  106  92 I40
stroke1  108  93 I40
stroke1  110  94 I40
stroke1  111  95 I40
stroke1  111  96 I40
stroke1  112  96 I40
stroke1  112  97 I40
stroke1  111  97 I40
stroke1  110  96 I40
stroke1  108  96 I40
stroke1  106  96 I40
stroke1  104  95 I40
stroke2  86  93 B51
stroke2  85  93 I51
stroke2  84  93 I51
stroke2  83  94 I51
stroke2  81  94 I51
stroke2  79  94 I51
stroke2  77  94 I51
stroke2  75  94 I51
stroke2  72  95 I51
stroke2  70  95 I51
stroke2  68  94 I51
stroke2  65  94 I51
stroke2  63  94 I51
stroke2  60  93 I51
stroke2  58  92 I51
stroke2  55  91 I51
stroke2  53  90 I51
stroke2  51  89 I51
stroke2  49  88 I51
stroke2  48  88 I51
stroke2  47  87 I51
stroke2  46  87 I51
stroke2  46  88 I51
stroke2  45  89 I51
stroke2  45  90 I51
stroke2  46  91 I51
stroke2  46  93 I51
stroke2  47  96 I51
stroke2  49  98 I51
stroke2  51  101 I51
stroke2  53  103 I51
stroke2  55  106 I51
stroke2  58  108 I51
stroke2  61  109 I51
stroke2  64  109 I51
stroke2  66  109 I51
stroke2  69  108 I51
stroke2  71  107 I51
stroke2  74  106 I51
stroke2  76  104 I51
stroke2  77  103 I51
stroke2  79  101 I51
stroke2  80  100 I51
stroke2  81  98 I51
stroke2  81  97 I51
stroke2  82  96 I51
stroke2  83  95 I51
stroke2  84  94 I51
stroke2  85  94 I51
stroke2  95  117 I51
stroke2  95  119 I51
stroke2  95  120 I51
stroke2  94  122 I51
stroke2  94  123 I51
stroke2  94  124 I51
stroke2  93  124 I51
stroke2  93  123 I51
stroke2  93  121 I51
stroke2  93  119 I51
stroke2  93  116 I51
stroke2  93  114 I51
stroke2  93  111 I51
stroke2  93  108 I51
stroke2  92  106 I51
stroke2  92  103 I51
stroke2  91  101 I51
stroke2  91  99 I51
stroke2  90  97 I51
stroke2  90  96 I51
stroke2  89  96 I51
stroke2  89  95 I51
stroke2  83  116 I51
stroke2  83  117 I51
stroke2  82  118 I51
stroke2  81  119 I51
stroke2  81  120 I51
stroke2  80  120 I51
stroke2  80  119 I51
stroke2  80  118 I51
stroke2  79  116 I51
stroke2  79  114 I51
stroke2  78  112 I51
stroke2  78  109 I51
stroke2  77  107 I51
stroke2  77  104 I51
stroke2  76  102 I51
stroke2  76  100 I51
stroke2  75  98 I51
stroke2  75  97 I51
stroke3  126  42 B26
stroke3  125  42 I26
stroke3  123  41 I26
stroke3  121  41 I26
stroke3  119  40 I26
stroke3  116  40 I26
stroke3  114  39 I26
stroke3  111  39 I26
stroke3  109  38 I26
stroke3  107  38 I26
stroke3  105  38 I26
stroke3  104  39 I26
stroke3  103  40 I26
stroke3  102  42 I26
stroke3  101  44 I26
stroke3  101  46 I26
stroke3  101  48 I26
stroke3  101  50 I26
stroke3  102  53 I26
stroke3  102  54 I26
stroke3  103  56 I26
stroke3  104  58 I26
stroke3  105  59 I26
stroke3  106  60 I26
stroke3  107  61 I26
stroke3  108  61 I26
stroke3  110  62 I26
stroke3  112  62 I26
stroke3  113  62 I26
stroke3  115  62 I26
stroke3  117  62 I26
stroke3  118  61 I26
stroke3  120  60 I26
stroke3  121  58 I26
stroke3  123  56 I26
stroke3  124  53 I26
stroke3  125  50 I26
stroke3  126  47 I26
stroke3  126  43 I26
stroke3  126  39 I26
stroke3  126  35 I26
stroke3  126  30 I26
stroke3  126  26 I26
stroke3  126  22 I26
stroke3  126  18 I26
stroke3  126  14 I26
stroke3  126  11 I26
stroke3  126  9 I26
stroke3  126  7 I26
stroke3  126  6 I26
stroke3  127  5 I26
stroke3  127  4 I26
stroke3  127  3 I26
stroke3  128  3 I26
stroke3  129  3 I26
stroke3  130  4 I26
stroke3  131  4 I26
stroke3  133  4 I26
stroke3  134  4 I26
stroke3  136  4 I26
stroke3  138  4 I26
stroke3  140  4 I26
stroke3  141  4 I26
stroke3  143  3 I26
stroke3  145  3 I26
stroke3  146  2 I26
stroke3  147  2 I26
stroke3  149  1 I26
stroke3  150  1 I26
stroke3  150  0 I26
stroke3  151  0 I26
stroke3  152  1 I26
stroke3  152  2 I26
stroke3  153  3 I26
stroke3  153  5 I26
stroke3  153  8 I26
stroke3  153  11 I26
stroke3  153  14 I26
stroke3  153  18 I26
stroke3  152  22 I26
stroke3  152  27 I26
stroke3  151  31 I26
stroke3  151  36 I26
stroke3  150  41 I26
stroke3  150  45 I26
stroke3  149  49 I26
stroke3  149  52 I26
stroke3  149  55 I26
stroke3  148  57 I26
stroke3  148  59 I26
stroke3  148  60 I26
stroke3  147  61 I26
stroke3  147  62 I26
stroke3  147  61 I26
stroke3  147  60 I26
stroke3  147  59 I26
stroke4  175  17 B40
stroke4  175  16 I40
stroke4  175  17 I40
stroke4  176  17 I40
stroke4  177  18 I40
stroke4  178  18 I40
stroke4  179  19 I40
stroke4  180  19 I40
stroke4  181  19 I40
stroke4  182  18 I40
stroke4  183  18 I40
stroke4  184  17 I40
stroke4  185  16 I40
stroke4  186  15 I40
stroke4  187  15 I40
stroke4  187  14 I40
stroke4  187  13 I40
stroke4  186  12 I40
stroke4  186  11 I40
stroke4  185  10 I40
stroke4  184  9 I40
stroke4  183  9 I40
stroke4  182  9 I40
stroke4  181  10 I40
stroke4  179  11 I40
stroke4  178  13 I40
stroke4  176  15 I40
stroke4  175  17 I40
stroke4  174  20 I40
stroke4  174  23 I40
stroke4  173  25 I40
stroke4  173  28 I40
stroke4  173  30 I40
stroke4  174  32 I40
stroke4  175  34 I40
stroke4  176  36 I40
stroke4  177  37 I40
stroke4  179  37 I40
stroke4  181  37 I40
stroke4  183  37 I40
stroke4  185  36 I40
stroke4  187  35 I40
stroke4  189  33 I40
stroke4  190  31 I40
stroke4  192  29 I40
stroke4  193  27 I40
stroke4  194  25 I40
stroke4  195  23 I40
stroke4  196  21 I40
stroke4  196  18 I40
stroke4  197  17 I40
stroke4  197  15 I40
stroke4  198  14 I40
stroke4  198  13 I40
stroke4  198  12 I40
stroke4  198  11 I40
stroke4  198  12 I40
stroke4  198  13 I40
stroke4  198  14 I40
stroke4  198  15 I40
stroke4  198  16 I40
stroke4  198  18 I40
stroke4  198  19 I40
stroke4  198  22 I40
stroke4  198  24 I40
stroke4  198  27 I40
stroke4  198  30 I40
stroke4  197  33 I40
stroke4  197  36 I40
stroke4  197  40 I40
stroke4  196  43 I40
stroke4  195  46 I40
stroke4  195  49 I40
stroke4  194  51 I40
stroke4  193  54 I40
stroke4  192  56 I40
stroke4  191  57 I40
stroke4  189  59 I40
stroke4  188  60 I40
stroke4  186  61 I40
stroke4  184  61 I40
stroke4  182  61 I40
stroke4  180  61 I40
stroke4  178  60 I40
stroke4  175  59 I40
stroke4  173  58 I40
stroke4  172  57 I40
stroke4  171  57 I40
stroke4  171  56 I40
stroke4  170  56 I40
stroke4  184  58 I40
stroke4  184  57 I40
stroke4  183  57 I40
stroke4  183  56 I40
stroke4  183  57 I40
stroke4  184  58 I40
stroke4  185  59 I40
stroke4  186  60 I40
stroke4  188  62 I40
stroke4  190  64 I40
stroke4  193  66 I40
stroke4  196  69 I40
stroke4  199  71 I40
stroke4  202  74 I40
stroke4  205  76 I40
stroke4  208  78 I40
stroke4  210  80 I40
stroke4  212  82 I40
stroke4  213  83 I40
stroke4  215  83 I40
stroke4  216  84 I40
stroke4  217  84 I40
stroke4  217  83 I40
stroke5  209  49 B37
stroke5  208  48 I37
stroke5  206  48 I37
stroke5  205  48 I37
stroke5  204  48 I37
stroke5  203  48 I37
stroke5  202  48 I37
stroke5  202  49 I37
stroke5  203  50 I37
stroke5  203  51 I37
stroke5  204  53 I37
stroke5  205  54 I37
stroke5  206  56 I37
stroke5  208  58 I37
stroke5  210  60 I37
stroke5  212  61 I37
stroke5  214  63 I37
stroke5  217  64 I37
stroke5  219  65 I37
stroke5  222  65 I37
stroke5  224  65 I37
stroke5  227  64 I37
stroke5  229  63 I37
stroke5  230  61 I37
stroke5  232  58 I37
stroke5  233  55 I37
stroke5  235  52 I37
stroke5  236  49 I37
stroke5  237  45 I37
stroke5  237  41 I37
stroke5  238  38 I37
stroke5  238  34 I37
stroke5  238  31 I37
stroke5  238  27 I37
stroke5  238  24 I37
stroke5  237  21 I37
stroke5  236  18 I37
stroke5  236  16 I37
stroke5  235  14 I37
stroke5  234  13 I37
stroke5  233  12 I37
stroke5  232  12 I37
stroke5  231  12 I37
stroke5  229  13 I37
stroke5  228  14 I37
stroke5  227  16 I37
stroke5  226  17 I37
stroke5  225  19 I37
stroke5  225  21 I37
stroke5  225  22 I37
stroke5  226  24 I37
stroke5  226  25 I37
stroke5  227  26 I37
stroke5  228  26 I37
stroke5  229  27 I37
stroke5  230  27 I37
stroke5  232  27 I37
stroke5  234  28 I37
stroke5  235  28 I37
stroke5  237  29 I37
stroke6  271  47 B25
stroke6  270  47 I25
stroke6  269  46 I25
stroke6  267  46 I25
stroke6  265  46 I25
stroke6  263  45 I25
stroke6  261  45 I25
stroke6  259  45 I25
stroke6  258  45 I25
stroke6  256  45 I25
stroke6  255  45 I25
stroke6  255  46 I25
stroke6  255  48 I25
stroke6  255  49 I25
stroke6  255  51 I25
stroke6  255  52 I25
stroke6  256  54 I25
stroke6  256  55 I25
stroke6  257  56 I25
stroke6  258  56 I25
stroke6  259  57 I25
stroke6  261  56 I25
stroke6  262  56 I25
stroke6  264  54 I25
stroke6  265  52 I25
stroke6  267  50 I25
stroke6  268  47 I25
stroke6  268  44 I25
stroke6  269  41 I25
stroke6  269  37 I25
stroke6  269  34 I25
stroke6  269  30 I25
stroke6  268  26 I25
stroke6  268  23 I25
stroke6  268  20 I25
stroke6  268  17 I25
stroke6  268  15 I25
stroke6  268  13 I25
stroke6  268  12 I25
stroke6  268  11 I25
stroke6  268  12 I25
stroke6  269  14 I25
stroke6  269  15 I25
stroke6  270  17 I25
stroke6  271  19 I25
stroke6  271  22 I25
stroke6  272  24 I25
stroke6  273  26 I25
stroke6  275  27 I25
stroke6  277  29 I25
stroke6  278  30 I25
stroke6  281  31 I25
stroke6  283  32 I25
stroke6  285  32 I25
stroke6  287  32 I25
stroke6  289  31 I25
stroke6  291  31 I25
stroke6  293  30 I25
stroke6  294  29 I25
stroke6  295  27 I25
stroke6  296  26 I25
stroke6  296  24 I25
stroke6  296  23 I25
stroke6  296  21 I25
stroke6  296  20 I25
stroke6  295  18 I25
stroke6  294  17 I25
stroke6  293  16 I25
stroke6  292  16 I25
stroke6  291  16 I25
stroke6  290  16 I25
stroke6  289  16 I25
stroke6  289  17 I25
stroke6  288  18 I25
stroke6  287  19 I25
stroke6  286  21 I25
stroke6  285  24 I25
stroke6  285  26 I25
stroke6  284  30 I25
stroke6  284  33 I25
stroke6  284  37 I25
stroke6  284  41 I25
stroke6  284  45 I25
stroke6  284  49 I25
stroke6  284  53 I25
stroke6  284  56 I25
stroke6  284  58 I25
stroke6  284  60 I25
stroke6  284  62 I25
stroke6  284  63 I25
stroke6  284  64 I25
stroke6  283  64 I25
stroke7  325  21 B40
stroke7  326  22 I40
stroke7  327  22 I40
stroke7  328  22 I40
stroke7  329  22 I40
stroke7  331  22 I40
stroke7  333  21 I40
stroke7  335  20 I40
stroke7  337  19 I40
stroke7  338  18 I40
stroke7  339  17 I40
stroke7  339  16 I40
stroke7  339  15 I40
stroke7  339  14 I40
stroke7  339  13 I40
stroke7  338  12 I40
stroke7  337  12 I40
stroke7  335  11 I40
stroke7  334  11 I40
stroke7  333  12 I40
stroke7  332  12 I40
stroke7  330  13 I40
stroke7  329  15 I40
stroke7  329  17 I40
stroke7  328  19 I40
stroke7  327  21 I40
stroke7  327  24 I40
stroke7  327  27 I40
stroke7  328  29 I40
stroke7  329  32 I40
stroke7  330  34 I40
stroke7  331  35 I40
stroke7  333  37 I40
stroke7  336  38 I40
stroke7  338  38 I40
stroke7  340  38 I40
stroke7  343  37 I40
stroke7  345  36 I40
stroke7  348  35 I40
stroke7  350  33 I40
stroke7  352  31 I40
stroke7  354  29 I40
stroke7  355  27 I40
stroke7  356  25 I40
stroke7  357  23 I40
stroke7  358  21 I40
stroke7  359  19 I40
stroke7  359  18 I40
stroke7  359  16 I40
stroke7  360  16 I40
stroke7  360  15 I40
stroke7  360  16 I40
stroke7  359  18 I40
stroke7  359  19 I40
stroke7  359  22 I40
stroke7  358  24 I40
stroke7  358  27 I40
stroke7  357  31 I40
stroke7  357  34 I40
stroke7  356  38 I40
stroke7  355  41 I40
stroke7  354  45 I40
stroke7  353  48 I40
stroke7  352  51 I40
stroke7  350  53 I40
stroke7  348  55 I40
stroke7  346  57 I40
stroke7  344  58 I40
stroke7  341  59 I40
stroke7  338  59 I40
stroke7  335  59 I40
stroke7  332  58 I40
stroke7  329  57 I40
stroke7  326  56 I40
stroke7  324  55 I40
stroke7  323  54 I40
stroke7  322  53 I40
stroke7  322  52 I40
stroke7  323  52 I40
stroke7  324  52 I40
stroke7  349  57 I40
stroke7  349  56 I40
stroke7  349  57 I40
stroke7  350  58 I40
stroke7  350  59 I40
stroke7  352  61 I40
stroke7  354  64 I40
stroke7  357  67 I40
stroke7  359  70 I40
stroke7  363  73 I40
stroke7  366  76 I40
stroke7  369  78 I40
stroke7  372  80 I40
stroke7  374  82 I40
stroke7  376  83 I40
stroke7  378  84 I40
stroke7  379  84 I40
stroke7  380  85 I40
stroke7  382  84 I40
stroke8  384  41 B43
stroke8  383  40 I43
stroke8  383  39 I43
stroke8  384  39 I43
stroke8  385  39 I43
stroke8  386  39 I43
stroke8  387  39 I43
stroke8  389  39 I43
stroke8  391  39 I43
stroke8  393  40 I43
stroke8  394  40 I43
stroke8  396  41 I43
stroke8  397  42 I43
stroke8  398  43 I43
stroke8  398  45 I43
stroke8  398  46 I43
stroke8  397  47 I43
stroke8  397  49 I43
stroke8  395  50 I43
stroke8  394  51 I43
stroke8  392  52 I43
stroke8  391  52 I43
stroke8  389  52 I43
stroke8  388  52 I43
stroke8  387  51 I43
stroke8  386  50 I43
stroke8  385  48 I43
stroke8  384  46 I43
stroke8  384  43 I43
stroke8  383  39 I43
stroke8  383  36 I43
stroke8  383  32 I43
stroke8  383  29 I43
stroke8  384  26 I43
stroke8  384  22 I43
stroke8  384  19 I43
stroke8  384  17 I43
stroke8  385  14 I43
stroke8  385  12 I43
stroke8  386  11 I43
stroke8  386  10 I43
stroke8  387  9 I43
stroke8  388  9 I43
stroke8  388  10 I43
stroke8  389  11 I43
stroke8  390  12 I43
stroke8  391  13 I43
stroke8  393  14 I43
stroke8  394  15 I43
stroke8  396  15 I43
stroke8  398  15 I43
stroke8  400  15 I43
stroke8  402  15 I43
stroke8  404  14 I43
stroke8  406  14 I43
stroke8  408  13 I43
stroke8  410  13 I43
stroke8  411  12 I43
stroke8  412  12 I43
stroke8  413  12 I43
stroke8  414  11 I43
stroke8  415  12 I43
stroke8  415  13 I43
stroke8  416  15 I43
stroke8  416  16 I43
stroke8  416  19 I43
stroke8  416  22 I43
stroke8  417  25 I43
stroke8  417  29 I43
stroke8  416  33 I43
stroke8  416  38 I43
stroke8  416  42 I43
stroke8  415  46 I43
stroke8  415  50 I43
stroke8  414  54 I43
stroke8  413  57 I43
stroke8  412  60 I43
stroke8  411  62 I43
stroke8  410  64 I43
stroke8  408  65 I43
stroke8  407  66 I43
stroke8  405  67 I43
stroke8  403  67 I43
stroke8  401  67 I43
stroke8  398  66 I43
stroke8  396  64 I43
stroke8  394  63 I43
stroke8  392  61 I43
stroke8  391  59 I43
stroke8  390  58 I43
stroke8  390  57 I43
stroke8  391  56 I43
stroke8  392  55 I43
stroke9  445  53 B26
stroke9  446  53 I26
stroke9  445  52 I26
stroke9  444  52 I26
stroke9  443  51 I26
stroke9  442  51 I26
stroke9  441  51 I26
stroke9  440  51 I26
stroke9  439  52 I26
stroke9  438  52 I26
stroke9  437  53 I26
stroke9  436  54 I26
stroke9  435  56 I26
stroke9  435  57 I26
stroke9  435  59 I26
stroke9  435  61 I26
stroke9  435  62 I26
stroke9  436  63 I26
stroke9  437  64 I26
stroke9  438  65 I26
stroke9  439  66 I26
stroke9  440  66 I26
stroke9  442  65 I26
stroke9  444  65 I26
stroke9  445  63 I26
stroke9  447  62 I26
stroke9  448  60 I26
stroke9  449  57 I26
stroke9  450  54 I26
stroke9  450  51 I26
stroke9  451  48 I26
stroke9  451  44 I26
stroke9  451  40 I26
stroke9  450  37 I26
stroke9  450  33 I26
stroke9  450  30 I26
stroke9  449  27 I26
stroke9  449  25 I26
stroke9  449  22 I26
stroke9  449  21 I26
stroke9  450  19 I26
stroke9  450  18 I26
stroke9  451  18 I26
stroke9  452  17 I26
stroke9  453  17 I26
stroke9  455  17 I26
stroke9  457  17 I26
stroke9  458  17 I26
stroke9  461  17 I26
stroke9  463  16 I26
stroke9  465  16 I26
stroke9  467  16 I26
stroke9  469  15 I26
stroke9  471  15 I26
stroke9  472  14 I26
stroke9  474  14 I26
stroke9  475  13 I26
stroke9  476  13 I26
stroke9  477  13 I26
stroke9  478  13 I26
stroke9  479  13 I26
stroke9  480  15 I26
stroke9  480  16 I26
stroke9  480  18 I26
stroke9  481  20 I26
stroke9  481  23 I26
stroke9  481  27 I26
stroke9  481  30 I26
stroke9  480  34 I26
stroke9  480  39 I26
stroke9  480  43 I26
stroke9  479  47 I26
stroke9  479  51 I26
stroke9  478  54 I26
stroke9  478  57 I26
stroke9  478  59 I26
stroke9  477  61 I26
stroke9  477  63 I26
stroke9  476  64 I26
stroke9  477  64 I26
stroke9  476  63 I26
stroke10  506  16 B40
stroke10  506  17 I40
stroke10  507  17 I40
stroke10  507  18 I40
stroke10  508  18 I40
stroke10  510  19 I40
stroke10  512  20 I40
stroke10  514  20 I40
stroke10  516  21 I40
stroke10  519  21 I40
stroke10  521  20 I40
stroke10  523  20 I40
stroke10  525  20 I40
stroke10  526  19 I40
stroke10  528  18 I40
stroke10  528  17 I40
stroke10  528  16 I40
stroke10  528  15 I40
stroke10  527  14 I40
stroke10  526  14 I40
stroke10  524  13 I40
stroke10  523  12 I40
stroke10  521  12 I40
stroke10  518  12 I40
stroke10  516  13 I40
stroke10  514  14 I40
stroke10  512  15 I40
stroke10  511  17 I40
stroke10  510  19 I40
stroke10  509  22 I40
stroke10  510  25 I40
stroke10  510  28 I40
stroke10  511  30 I40
stroke10  512  33 I40
stroke10  514  35 I40
stroke10  516  37 I40
stroke10  518  38 I40
stroke10  521  39 I40
stroke10  523  40 I40
stroke10  526  39 I40
stroke10  528  39 I40
stroke10  531  38 I40
stroke10  533  36 I40
stroke10  535  34 I40
stroke10  537  32 I40
stroke10  539  30 I40
stroke10  541  28 I40
stroke10  542  26 I40
stroke10  543  23 I40
stroke10  544  21 I40
stroke10  545  19 I40
stroke10  546  18 I40
stroke10  546  16 I40
stroke10  546  15 I40
stroke10  546  14 I40
stroke10  546  15 I40
stroke10  546  16 I40
stroke10  546  18 I40
stroke10  545  20 I40
stroke10  545  23 I40
stroke10  545  25 I40
stroke10  545  29 I40
stroke10  544  32 I40
stroke10  544  35 I40
stroke10  544  39 I40
stroke10  543  42 I40
stroke10  543  45 I40
stroke10  542  49 I40
stroke10  542  52 I40
stroke10  541  55 I40
stroke10  540  57 I40
stroke10  539  60 I40
stroke10  538  62 I40
stroke10  537  63 I40
stroke10  535  64 I40
stroke10  534  65 I40
stroke10  532  66 I40
stroke10  530  66 I40
stroke10  527  66 I40
stroke10  525  65 I40
stroke10  522  64 I40
stroke10  519  63 I40
stroke10  516  61 I40
stroke10  514  60 I40
stroke10  512  58 I40
stroke10  510  57 I40
stroke10  511  56 I40
stroke10  512  56 I40
stroke10  514  57 I40
stroke10  535  57 I40
stroke10  534  56 I40
stroke10  533  56 I40
stroke10  532  55 I40
stroke10  531  55 I40
stroke10  531  56 I40
stroke10  532  58 I40
stroke10  534  59 I40
stroke10  537  61 I40
stroke10  540  64 I40
stroke10  543  67 I40
stroke10  547  69 I40
stroke10  551  72 I40
stroke10  555  75 I40
stroke10  558  77 I40
stroke10  561  80 I40
stroke10  563  81 I40
stroke10  565  82 I40
stroke10  567  83 I40
stroke10  569  83 I40
stroke10  570  84 I40
stroke10  571  83 I40
stroke11  569  59 B37
stroke11  569  58 I37
stroke11  568  58 I37
stroke11  567  58 I37
stroke11  566  57 I37
stroke11  565  57 I37
stroke11  564  57 I37
stroke11  564  58 I37
stroke11  564  59 I37
stroke11  565  60 I37
stroke11  565  62 I37
stroke11  566  63 I37
stroke11  567  64 I37
stroke11  569  65 I37
stroke11  570  66 I37
stroke11  572  67 I37
stroke11  574  68 I37
stroke11  576  68 I37
stroke11  578  68 I37
stroke11  580  69 I37
stroke11  581  69 I37
stroke11  583  68 I37
stroke11  584  68 I37
stroke11  586  67 I37
stroke11  587  67 I37
stroke11  588  65 I37
stroke11  589  64 I37
stroke11  590  62 I37
stroke11  591  60 I37
stroke11  592  58 I37
stroke11  593  55 I37
stroke11  593  52 I37
stroke11  594  49 I37
stroke11  595  45 I37
stroke11  595  42 I37
stroke11  595  38 I37
stroke11  595  35 I37
stroke11  595  32 I37
stroke11  594  28 I37
stroke11  594  25 I37
stroke11  593  22 I37
stroke11  592  19 I37
stroke11  591  17 I37
stroke11  590  15 I37
stroke11  588  13 I37
stroke11  587  12 I37
stroke11  585  11 I37
stroke11  584  10 I37
stroke11  582  10 I37
stroke11  581  11 I37
stroke11  579  12 I37
stroke11  578  14 I37
stroke11  577  15 I37
stroke11  576  17 I37
stroke11  575  19 I37
stroke11  576  20 I37
stroke11  576  22 I37
stroke11  577  23 I37
stroke11  578  24 I37
stroke11  579  25 I37
stroke11  580  25 I37
stroke11  582  26 I37
stroke11  584  26 I37
stroke11  586  26 I37
stroke11  588  26 I37
stroke11  589  27 I37
stroke12  620  44 B25
stroke12  619  45 I25
stroke12  618  45 I25
stroke12  617  45 I25
stroke12  615  46 I25
stroke12  614  46 I25
stroke12  613  46 I25
stroke12  612  46 I25
stroke12  611  47 I25
stroke12  611  48 I25
stroke12  610  49 I25
stroke12  610  51 I25
stroke12  610  53 I25
stroke12  611  54 I25
stroke12  611  56 I25
stroke12  611  58 I25
stroke12  612  59 I25
stroke12  612  60 I25
stroke12  613  60 I25
stroke12  614  60 I25
stroke12  615  60 I25
stroke12  616  60 I25
stroke12  617  59 I25
stroke12  619  58 I25
stroke12  620  56 I25
stroke12  621  54 I25
stroke12  622  52 I25
stroke12  622  49 I25
stroke12  623  46 I25
stroke12  623  42 I25
stroke12  623  39 I25
stroke12  622  36 I25
stroke12  621  32 I25
stroke12  621  29 I25
stroke12  620  25 I25
stroke12  619  22 I25
stroke12  619  19 I25
stroke12  618  16 I25
stroke12  618  14 I25
stroke12  618  12 I25
stroke12  618  11 I25
stroke12  618  10 I25
stroke12  618  9 I25
stroke12  618  10 I25
stroke12  618  11 I25
stroke12  619  13 I25
stroke12  620  15 I25
stroke12  621  16 I25
stroke12  622  18 I25
stroke12  623  20 I25
stroke12  625  22 I25
stroke12  627  24 I25
stroke12  630  25 I25
stroke12  632  26 I25
stroke12  634  27 I25
stroke12  637  28 I25
stroke12  639  29 I25
stroke12  641  29 I25
stroke12  643  28 I25
stroke12  645  28 I25
stroke12  646  27 I25
stroke12  648  26 I25
stroke12  649  25 I25
stroke12  649  24 I25
stroke12  650  23 I25
stroke12  650  21 I25
stroke12  650  19 I25
stroke12  649  18 I25
stroke12  649  17 I25
stroke12  648  15 I25
stroke12  646  14 I25
stroke12  645  13 I25
stroke12  644  12 I25
stroke12  642  11 I25
stroke12  641  11 I25
stroke12  639  10 I25
stroke12  638  10 I25
stroke12  636  11 I25
stroke12  635  12 I25
stroke12  634  13 I25
stroke12  634  14 I25
stroke12  633  17 I25
stroke12  633  19 I25
stroke12  632  23 I25
stroke12  632  26 I25
stroke12  632  30 I25
stroke12  633  34 I25
stroke12  633  38 I25
stroke12  633  42 I25
stroke12  633  45 I25
stroke12  633  48 I25
stroke12  633  51 I25
stroke12  633  53 I25
stroke12  633  54 I25
stroke12  633  56 I25
stroke12  633  57 I25
stroke12  633  58 I25
stroke12  633  59 I25
stroke12  633  60 I25
stroke12  633  59 I25
