stroke1  83  14 B58
stroke1  82  14 I58
stroke1  82  15 I58
stroke1  82  16 I58
stroke1  83  17 I58
stroke1  83  18 I58
stroke1  84  18 I58
stroke1  85  19 I58
stroke1  85  20 I58
stroke1  86  20 I58
stroke1  87  20 I58
stroke1  88  20 I58
stroke1  89  21 I58
stroke1  90  20 I58
stroke1  91  20 I58
stroke1  92  19 I58
stroke1  93  19 I58
stroke1  94  19 I58
stroke1  95  18 I58
stroke1  95  18 I58
stroke1  96  17 I58
stroke1  96  16 I58
stroke1  97  16 I58
stroke1  97  15 I58
stroke1  97  14 I58
stroke1  98  13 I58
stroke1  98  12 I58
stroke1  98  11 I58
stroke1  98  10 I58
stroke1  97  10 I58
stroke1  97  9 I58
stroke1  97  8 I58
stroke1  97  7 I58
stroke1  96  7 I58
stroke1  96  6 I58
stroke1  95  5 I58
stroke1  94  5 I58
stroke1  93  5 I58
stroke1  93  4 I58
stroke1  92  4 I58
stroke1  91  4 I58
stroke1  90  3 I58
stroke1  89  3 I58
stroke1  88  3 I58
stroke1  87  4 I58
stroke1  86  4 I58
stroke1  85  5 I58
stroke1  85  6 I58
stroke1  84  6 I58
stroke1  84  7 I58
stroke1  83  8 I58
stroke1  83  10 I58
stroke1  82  11 I58
stroke1  82  13 I58
stroke1  82  14 I58
stroke1  81  16 I58
stroke1  81  18 I58
stroke1  81  20 I58
stroke1  81  22 I58
stroke1  81  24 I58
stroke1  81  26 I58
stroke1  81  28 I58
stroke1  81  30 I58
stroke1  81  32 I58
stroke1  81  34 I58
stroke1  81  36 I58
stroke1  81  38 I58
stroke1  81  40 I58
stroke1  81  42 I58
stroke1  81  45 I58
stroke1  81  47 I58
stroke1  81  49 I58
stroke1  81  51 I58
stroke1  81  54 I58
stroke1  81  56 I58
stroke1  81  58 I58
stroke1  81  60 I58
stroke1  81  62 I58
stroke1  81  64 I58
stroke1  81  67 I58
stroke1  81  69 I58
stroke1  81  71 I58
stroke1  80  73 I58
stroke1  80  76 I58
stroke1  80  78 I58
stroke1  80  80 I58
stroke1  79  82 I58
stroke1  79  83 I58
stroke1  79  85 I58
stroke1  78  86 I58
stroke1  77  88 I58
stroke1  77  90 I58
stroke1  76  91 I58
stroke1  75  93 I58
stroke1  74  94 I58
stroke1  73  96 I58
stroke1  72  97 I58
stroke1  71  98 I58
stroke1  70  99 I58
stroke1  69  100 I58
stroke1  68  101 I58
stroke1  67  102 I58
stroke1  65  103 I58
stroke1  64  103 I58
stroke1  62  104 I58
stroke1  61  104 I58
stroke1  59  105 I58
stroke1  58  104 I58
stroke1  56  104 I58
stroke1  55  104 I58
stroke1  53  103 I58
stroke1  52  103 I58
stroke1  51  102 I58
stroke1  50  102 I58
stroke1  49  102 I58
stroke1  48  101 I58
stroke1  47  101 I58
stroke1  46  101 I58
stroke1  45  102 I58
stroke1  45  103 I58
stroke1  45  104 I58
stroke1  45  106 I58
stroke1  45  107 I58
stroke1  46  109 I58
stroke1  46  111 I58
stroke1  47  113 I58
stroke1  48  116 I58
stroke1  49  118 I58
stroke1  51  120 I58
stroke1  53  122 I58
stroke1  54  123 I58
stroke1  56  125 I58
stroke1  58  126 I58
stroke1  59  127 I58
stroke1  61  127 I58
stroke1  63  127 I58
stroke1  65  128 I58
stroke1  67  127 I58
stroke1  69  127 I58
stroke1  71  126 I58
stroke1  73  126 I58
stroke1  74  125 I58
stroke1  76  124 I58
stroke1  78  124 I58
stroke1  79  123 I58
stroke1  80  122 I58
stroke1  82  122 I58
stroke1  83  121 I58
stroke1  84  121 I58
stroke1  85  121 I58
stroke1  86  120 I58
stroke1  87  121 I58
stroke1  88  121 I58
stroke1  90  121 I58
stroke1  91  122 I58
stroke1  92  123 I58
stroke1  93  124 I58
stroke1  95  126 I58
stroke1  96  127 I58
stroke1  97  128 I58
stroke1  99  130 I58
stroke1  100  131 I58
stroke1  101  132 I58
stroke1  102  133 I58
stroke1  102  134 I58
stroke1  103  134 I58
stroke1  103  135 I58
stroke1  104  135 I58
stroke1  103  134 I58
stroke2  119  48 B6
stroke2  118  49 I6
stroke2  118  50 I6
stroke2  119  51 I6
stroke2  120  51 I6
stroke2  121  52 I6
stroke2  122  52 I6
stroke2  123  52 I6
stroke2  124  51 I6
stroke2  125  51 I6
stroke2  126  51 I6
stroke2  126  50 I6
stroke2  127  49 I6
stroke2  127  48 I6
stroke2  128  47 I6
stroke2  127  46 I6
stroke2  127  45 I6
stroke2  127  44 I6
stroke2  127  43 I6
stroke2  126  42 I6
stroke2  125  41 I6
stroke2  124  40 I6
stroke2  123  40 I6
stroke2  122  39 I6
stroke2  121  39 I6
stroke2  120  39 I6
stroke2  119  40 I6
stroke2  118  41 I6
stroke2  117  41 I6
stroke2  116  42 I6
stroke2  116  43 I6
stroke2  115  45 I6
stroke2  114  46 I6
stroke2  114  47 I6
stroke2  114  48 I6
stroke2  113  49 I6
stroke2  113  50 I6
stroke2  113  52 I6
stroke2  113  53 I6
stroke2  114  54 I6
stroke2  114  55 I6
stroke2  114  57 I6
stroke2  115  58 I6
stroke2  115  59 I6
stroke2  116  60 I6
stroke2  117  61 I6
stroke2  118  62 I6
stroke2  118  63 I6
stroke2  119  63 I6
stroke2  120  64 I6
stroke2  121  64 I6
stroke2  122  65 I6
stroke2  123  65 I6
stroke2  124  65 I6
stroke2  126  65 I6
stroke2  127  65 I6
stroke2  128  64 I6
stroke2  129  64 I6
stroke2  130  63 I6
stroke2  131  63 I6
stroke2  132  62 I6
stroke2  133  61 I6
stroke2  134  60 I6
stroke2  134  59 I6
stroke2  135  59 I6
stroke2  135  58 I6
stroke2  135  57 I6
stroke2  136  58 I6
stroke2  136  59 I6
stroke2  136  60 I6
stroke2  137  61 I6
stroke2  137  62 I6
stroke2  138  62 I6
stroke2  138  63 I6
stroke2  139  64 I6
stroke2  140  65 I6
stroke2  141  65 I6
stroke2  142  65 I6
stroke2  143  65 I6
stroke2  144  65 I6
stroke2  145  65 I6
stroke2  146  65 I6
stroke2  147  65 I6
stroke2  148  64 I6
stroke2  149  64 I6
stroke2  149  63 I6
stroke2  150  63 I6
stroke2  151  62 I6
stroke2  151  61 I6
stroke2  152  60 I6
stroke2  152  59 I6
stroke2  153  58 I6
stroke2  153  57 I6
stroke2  153  56 I6
stroke2  154  55 I6
stroke2  154  53 I6
stroke2  154  52 I6
stroke2  154  50 I6
stroke2  154  49 I6
stroke2  155  47 I6
stroke2  155  45 I6
stroke2  155  44 I6
stroke2  155  42 I6
stroke2  155  41 I6
stroke2  155  39 I6
stroke2  155  38 I6
stroke2  155  37 I6
stroke2  155  35 I6
stroke2  155  34 I6
stroke2  155  33 I6
stroke2  155  31 I6
stroke2  155  30 I6
stroke2  155  29 I6
stroke2  155  28 I6
stroke2  154  27 I6
stroke2  154  26 I6
stroke2  154  25 I6
stroke2  154  24 I6
stroke2  154  23 I6
stroke2  153  22 I6
stroke2  153  21 I6
stroke2  153  20 I6
stroke2  152  19 I6
stroke2  152  17 I6
stroke2  151  16 I6
stroke2  151  15 I6
stroke2  151  14 I6
stroke2  150  14 I6
stroke2  150  13 I6
stroke2  150  12 I6
stroke2  149  11 I6
stroke2  149  10 I6
stroke2  148  9 I6
stroke2  148  8 I6
stroke2  147  8 I6
stroke2  147  7 I6
stroke2  146  6 I6
stroke2  145  6 I6
stroke2  144  6 I6
stroke2  144  5 I6
stroke2  143  5 I6
stroke2  142  5 I6
stroke2  141  4 I6
stroke2  140  4 I6
stroke2  139  4 I6
stroke2  138  4 I6
stroke2  137  5 I6
stroke2  136  5 I6
stroke2  135  6 I6
stroke2  135  7 I6
stroke2  134  7 I6
stroke2  134  8 I6
stroke2  134  9 I6
stroke2  133  10 I6
stroke2  134  11 I6
stroke2  134  12 I6
stroke2  134  13 I6
stroke2  134  14 I6
stroke2  135  16 I6
stroke2  136  17 I6
stroke2  137  18 I6
stroke2  138  19 I6
stroke2  139  19 I6
stroke2  140  20 I6
stroke2  141  20 I6
stroke2  142  20 I6
stroke2  144  20 I6
stroke2  145  20 I6
stroke2  147  20 I6
stroke2  148  20 I6
stroke2  150  20 I6
stroke2  151  19 I6
stroke2  153  19 I6
stroke2  155  18 I6
stroke2  157  18 I6
stroke2  159  17 I6
stroke2  161  16 I6
stroke2  163  15 I6
stroke2  164  14 I6
stroke2  166  13 I6
stroke2  168  12 I6
stroke2  170  11 I6
stroke2  171  11 I6
stroke2  173  10 I6
stroke2  174  9 I6
stroke2  175  8 I6
stroke2  176  8 I6
stroke2  178  7 I6
stroke2  179  7 I6
stroke2  180  6 I6
stroke2  181  6 I6
stroke2  182  5 I6
stroke2  183  5 I6
stroke2  184  5 I6
stroke2  185  5 I6
stroke2  186  6 I6
stroke2  187  6 I6
stroke2  187  7 I6
stroke2  187  8 I6
stroke2  188  9 I6
stroke2  188  10 I6
stroke2  188  11 I6
stroke2  188  12 I6
stroke2  188  14 I6
stroke2  188  15 I6
stroke2  188  17 I6
stroke2  188  19 I6
stroke2  188  21 I6
stroke2  188  23 I6
stroke2  188  25 I6
stroke2  188  27 I6
stroke2  188  29 I6
stroke2  187  31 I6
stroke2  187  34 I6
stroke2  187  36 I6
stroke2  187  38 I6
stroke2  187  41 I6
stroke2  187  43 I6
stroke2  187  45 I6
stroke2  186  47 I6
stroke2  186  49 I6
stroke2  186  50 I6
stroke2  186  52 I6
stroke2  186  53 I6
stroke2  186  54 I6
stroke2  186  55 I6
stroke2  186  56 I6
stroke2  185  58 I6
stroke2  185  59 I6
stroke2  185  60 I6
stroke2  185  61 I6
stroke2  185  62 I6
stroke2  185  63 I6
stroke2  185  64 I6
stroke2  185  63 I6
stroke2  184  63 I6
stroke2  184  62 I6
stroke3  231  51 B39
stroke3  232  51 I39
stroke3  232  52 I39
stroke3  231  52 I39
stroke3  230  52 I39
stroke3  229  51 I39
stroke3  228  51 I39
stroke3  227  51 I39
stroke3  226  51 I39
stroke3  225  50 I39
stroke3  224  50 I39
stroke3  223  50 I39
stroke3  222  50 I39
stroke3  220  50 I39
stroke3  219  50 I39
stroke3  218  51 I39
stroke3  216  51 I39
stroke3  215  52 I39
stroke3  214  53 I39
stroke3  213  54 I39
stroke3  213  55 I39
stroke3  212  56 I39
stroke3  212  57 I39
stroke3  212  59 I39
stroke3  212  60 I39
stroke3  213  61 I39
stroke3  214  62 I39
stroke3  215  63 I39
stroke3  216  63 I39
stroke3  218  64 I39
stroke3  219  64 I39
stroke3  220  64 I39
stroke3  222  64 I39
stroke3  223  63 I39
stroke3  225  62 I39
stroke3  226  62 I39
stroke3  228  61 I39
stroke3  229  59 I39
stroke3  230  58 I39
stroke3  231  56 I39
stroke3  232  55 I39
stroke3  233  53 I39
stroke3  233  50 I39
stroke3  234  48 I39
stroke3  234  45 I39
stroke3  235  43 I39
stroke3  235  40 I39
stroke3  236  37 I39
stroke3  236  35 I39
stroke3  236  32 I39
stroke3  236  29 I39
stroke3  236  27 I39
stroke3  236  25 I39
stroke3  237  22 I39
stroke3  237  20 I39
stroke3  237  18 I39
stroke3  237  16 I39
stroke3  237  14 I39
stroke3  237  13 I39
stroke3  238  11 I39
stroke3  238  10 I39
stroke3  238  8 I39
stroke3  238  7 I39
stroke3  238  6 I39
stroke3  238  5 I39
stroke3  238  4 I39
stroke3  238  3 I39
stroke3  238  2 I39
stroke3  238  1 I39
stroke3  238  0 I39
stroke3  239  0 I39
stroke3  240  0 I39
stroke3  240  1 I39
stroke3  241  1 I39
stroke3  242  1 I39
stroke3  243  2 I39
stroke3  244  2 I39
stroke3  245  2 I39
stroke3  247  3 I39
stroke3  249  3 I39
stroke3  250  3 I39
stroke3  252  3 I39
stroke3  254  3 I39
stroke3  256  3 I39
stroke3  258  3 I39
stroke3  260  3 I39
stroke3  261  3 I39
stroke3  263  3 I39
stroke3  264  3 I39
stroke3  266  3 I39
stroke3  267  3 I39
stroke3  268  3 I39
stroke3  269  3 I39
stroke3  270  4 I39
stroke3  271  5 I39
stroke3  272  6 I39
stroke3  272  7 I39
stroke3  272  9 I39
stroke3  272  10 I39
stroke3  272  12 I39
stroke3  272  13 I39
stroke3  272  15 I39
stroke3  272  17 I39
stroke3  272  19 I39
stroke3  271  22 I39
stroke3  271  24 I39
stroke3  271  27 I39
stroke3  271  30 I39
stroke3  270  33 I39
stroke3  270  35 I39
stroke3  270  38 I39
stroke3  270  40 I39
stroke3  270  43 I39
stroke3  270  45 I39
stroke3  270  47 I39
stroke3  270  49 I39
stroke3  270  51 I39
stroke3  270  53 I39
stroke3  270  55 I39
stroke3  270  57 I39
stroke3  270  59 I39
stroke3  271  60 I39
stroke3  271  61 I39
stroke3  270  62 I39
stroke3  270  63 I39
stroke3  269  63 I39
stroke3  269  62 I39
stroke3  268  61 I39
stroke3  267  60 I39
stroke3  255  37 I39
stroke3  255  36 I39
stroke3  255  35 I39
stroke3  256  36 I39
stroke3  257  36 I39
stroke3  258  37 I39
stroke3  258  38 I39
stroke3  259  38 I39
stroke3  260  39 I39
stroke3  260  40 I39
stroke3  260  41 I39
stroke3  260  42 I39
stroke3  259  42 I39
stroke3  258  42 I39
stroke3  257  42 I39
stroke3  256  41 I39
stroke3  255  40 I39
stroke3  255  39 I39
stroke3  254  37 I39
stroke3  254  36 I39
stroke3  254  35 I39
stroke3  255  34 I39
stroke3  256  34 I39
stroke3  257  33 I39
stroke3  259  33 I39
stroke3  260  33 I39
stroke3  262  34 I39
stroke3  265  34 I39
stroke3  267  35 I39
stroke3  269  36 I39
stroke3  271  37 I39
stroke3  273  38 I39
stroke3  275  39 I39
stroke3  277  41 I39
stroke3  279  41 I39
stroke3  281  42 I39
stroke4  297  9 B19
stroke4  298  9 I19
stroke4  298  10 I19
stroke4  299  10 I19
stroke4  299  11 I19
stroke4  300  11 I19
stroke4  301  11 I19
stroke4  301  12 I19
stroke4  302  13 I19
stroke4  303  13 I19
stroke4  305  13 I19
stroke4  306  13 I19
stroke4  307  13 I19
stroke4  309  13 I19
stroke4  310  13 I19
stroke4  311  12 I19
stroke4  312  11 I19
stroke4  313  11 I19
stroke4  313  10 I19
stroke4  313  9 I19
stroke4  314  8 I19
stroke4  313  7 I19
stroke4  312  6 I19
stroke4  312  5 I19
stroke4  311  4 I19
stroke4  310  4 I19
stroke4  309  3 I19
stroke4  308  3 I19
stroke4  307  3 I19
stroke4  306  3 I19
stroke4  305  3 I19
stroke4  304  4 I19
stroke4  303  5 I19
stroke4  302  5 I19
stroke4  301  7 I19
stroke4  301  8 I19
stroke4  300  10 I19
stroke4  300  12 I19
stroke4  300  14 I19
stroke4  300  16 I19
stroke4  301  19 I19
stroke4  301  21 I19
stroke4  302  24 I19
stroke4  302  27 I19
stroke4  303  29 I19
stroke4  304  31 I19
stroke4  305  33 I19
stroke4  305  35 I19
stroke4  306  37 I19
stroke4  306  38 I19
stroke4  307  39 I19
stroke4  307  40 I19
stroke4  307  41 I19
stroke4  306  42 I19
stroke4  306  43 I19
stroke4  305  43 I19
stroke4  305  44 I19
stroke4  304  44 I19
stroke4  303  44 I19
stroke4  302  44 I19
stroke4  301  45 I19
stroke4  300  45 I19
stroke4  299  45 I19
stroke4  298  46 I19
stroke4  298  47 I19
stroke4  298  48 I19
stroke4  298  49 I19
stroke4  298  51 I19
stroke4  299  52 I19
stroke4  300  53 I19
stroke4  301  54 I19
stroke4  302  56 I19
stroke4  304  57 I19
stroke4  306  58 I19
stroke4  308  58 I19
stroke4  309  59 I19
stroke4  311  60 I19
stroke4  313  60 I19
stroke4  315  60 I19
stroke4  317  60 I19
stroke4  319  60 I19
stroke4  320  59 I19
stroke4  322  59 I19
stroke4  323  58 I19
stroke4  324  56 I19
stroke4  325  55 I19
stroke4  326  53 I19
stroke4  327  51 I19
stroke4  327  49 I19
stroke4  328  47 I19
stroke4  328  45 I19
stroke4  328  43 I19
stroke4  329  41 I19
stroke4  328  38 I19
stroke4  328  36 I19
stroke4  328  34 I19
stroke4  328  31 I19
stroke4  328  29 I19
stroke4  328  27 I19
stroke4  328  25 I19
stroke4  328  23 I19
stroke4  328  21 I19
stroke4  328  19 I19
stroke4  328  17 I19
stroke4  328  16 I19
stroke4  328  14 I19
stroke4  328  13 I19
stroke4  328  11 I19
stroke4  328  10 I19
stroke4  328  9 I19
stroke4  328  8 I19
stroke4  328  7 I19
stroke4  328  6 I19
stroke4  328  5 I19
stroke4  328  6 I19
stroke4  329  6 I19
stroke4  329  7 I19
stroke4  329  8 I19
stroke4  330  9 I19
stroke4  331  11 I19
stroke4  333  12 I19
stroke4  334  13 I19
stroke4  336  15 I19
stroke4  339  16 I19
stroke4  342  17 I19
stroke4  344  19 I19
stroke4  347  19 I19
stroke4  349  20 I19
stroke4  352  21 I19
stroke4  354  21 I19
stroke4  356  21 I19
stroke4  358  21 I19
stroke4  360  21 I19
stroke4  361  20 I19
stroke4  362  20 I19
stroke4  363  19 I19
stroke4  364  18 I19
stroke4  365  17 I19
stroke4  365  16 I19
stroke4  366  15 I19
stroke4  366  14 I19
stroke4  367  13 I19
stroke4  367  11 I19
stroke4  367  10 I19
stroke4  366  9 I19
stroke4  366  7 I19
stroke4  366  6 I19
stroke4  366  5 I19
stroke4  365  4 I19
stroke4  365  3 I19
stroke4  364  3 I19
stroke4  363  2 I19
stroke4  362  2 I19
stroke4  361  2 I19
stroke4  360  2 I19
stroke4  360  3 I19
stroke4  359  3 I19
stroke4  359  4 I19
stroke4  358  5 I19
stroke4  358  6 I19
stroke4  358  7 I19
stroke4  358  8 I19
stroke4  358  10 I19
stroke4  358  12 I19
stroke4  358  13 I19
stroke4  358  15 I19
stroke4  358  17 I19
stroke4  358  19 I19
stroke4  359  21 I19
stroke4  359  23 I19
stroke4  359  25 I19
stroke4  359  28 I19
stroke4  359  30 I19
stroke4  359  32 I19
stroke4  359  34 I19
stroke4  359  36 I19
stroke4  359  38 I19
stroke4  359  41 I19
stroke4  359  43 I19
stroke4  359  44 I19
stroke4  359  46 I19
stroke4  359  48 I19
stroke4  359  50 I19
stroke4  359  52 I19
stroke4  359  53 I19
stroke4  359  55 I19
stroke4  359  56 I19
stroke4  359  57 I19
stroke4  358  58 I19
stroke4  358  59 I19
stroke4  358  60 I19
stroke4  358  59 I19
stroke4  357  59 I19
stroke5  375  47 B47
stroke5  375  47 I47
stroke5  375  47 I47
stroke5  374  47 I47
stroke5  374  48 I47
stroke5  375  48 I47
stroke5  375  49 I47
stroke5  376  50 I47
stroke5  377  51 I47
stroke5  379  52 I47
stroke5  381  54 I47
stroke5  383  55 I47
stroke5  385  56 I47
stroke5  387  57 I47
stroke5  389  58 I47
stroke5  391  58 I47
stroke5  393  59 I47
stroke5  394  59 I47
stroke5  396  60 I47
stroke5  397  60 I47
stroke5  399  60 I47
stroke5  400  60 I47
stroke5  401  60 I47
stroke5  402  59 I47
stroke5  403  58 I47
stroke5  404  58 I47
stroke5  404  57 I47
stroke5  405  56 I47
stroke5  405  55 I47
stroke5  406  53 I47
stroke5  406  52 I47
stroke5  407  50 I47
stroke5  407  48 I47
stroke5  407  46 I47
stroke5  407  44 I47
stroke5  408  43 I47
stroke5  408  41 I47
stroke5  408  39 I47
stroke5  408  37 I47
stroke5  408  35 I47
stroke5  408  33 I47
stroke5  407  32 I47
stroke5  407  30 I47
stroke5  407  28 I47
stroke5  407  26 I47
stroke5  407  24 I47
stroke5  407  22 I47
stroke5  407  20 I47
stroke5  407  18 I47
stroke5  407  16 I47
stroke5  407  15 I47
stroke5  407  13 I47
stroke5  407  12 I47
stroke5  406  11 I47
stroke5  406  9 I47
stroke5  406  8 I47
stroke5  406  7 I47
stroke5  406  6 I47
stroke5  406  5 I47
stroke5  405  5 I47
stroke5  405  6 I47
stroke5  404  6 I47
