stroke1  45  11 B36
stroke1  45  12 I36
stroke1  44  12 I36
stroke1  44  13 I36
stroke1  44  14 I36
stroke1  44  15 I36
stroke1  44  16 I36
stroke1  45  17 I36
stroke1  46  18 I36
stroke1  47  19 I36
stroke1  48  19 I36
stroke1  50  20 I36
stroke1  51  19 I36
stroke1  52  19 I36
stroke1  54  19 I36
stroke1  55  18 I36
stroke1  56  17 I36
stroke1  57  16 I36
stroke1  57  15 I36
stroke1  57  15 I36
stroke1  58  14 I36
stroke1  58  12 I36
stroke1  58  11 I36
stroke1  57  10 I36
stroke1  57  9 I36
stroke1  56  7 I36
stroke1  55  6 I36
stroke1  54  6 I36
stroke1  52  5 I36
stroke1  51  5 I36
stroke1  50  5 I36
stroke1  49  5 I36
stroke1  47  6 I36
stroke1  46  7 I36
stroke1  45  9 I36
stroke1  43  11 I36
stroke1  42  13 I36
stroke1  42  16 I36
stroke1  41  19 I36
stroke1  41  21 I36
stroke1  42  24 I36
stroke1  42  27 I36
stroke1  43  29 I36
stroke1  44  31 I36
stroke1  45  33 I36
stroke1  47  34 I36
stroke1  48  34 I36
stroke1  50  35 I36
stroke1  52  34 I36
stroke1  54  34 I36
stroke1  55  33 I36
stroke1  57  32 I36
stroke1  59  31 I36
stroke1  61  29 I36
stroke1  63  28 I36
stroke1  64  26 I36
stroke1  66  24 I36
stroke1  67  21 I36
stroke1  68  19 I36
stroke1  69  17 I36
stroke1  70  15 I36
stroke1  71  13 I36
stroke1  72  12 I36
stroke1  72  11 I36
stroke1  73  10 I36
stroke1  73  9 I36
stroke1  73  8 I36
stroke1  74  8 I36
stroke1  73  9 I36
stroke1  73  10 I36
stroke1  73  11 I36
stroke1  73  12 I36
stroke1  73  14 I36
stroke1  72  16 I36
stroke1  72  18 I36
stroke1  72  21 I36
stroke1  72  24 I36
stroke1  71  26 I36
stroke1  71  30 I36
stroke1  71  33 I36
stroke1  70  36 I36
stroke1  70  39 I36
stroke1  69  42 I36
stroke1  68  45 I36
stroke1  67  48 I36
stroke1  66  50 I36
stroke1  66  53 I36
stroke1  65  55 I36
stroke1  64  57 I36
stroke1  62  59 I36
stroke1  61  60 I36
stroke1  60  61 I36
stroke1  58  62 I36
stroke1  57  62 I36
stroke1  55  63 I36
stroke1  53  63 I36
stroke1  50  62 I36
stroke1  48  61 I36
stroke1  45  60 I36
stroke1  43  59 I36
stroke1  41  58 I36
stroke1  39  56 I36
stroke1  38  55 I36
stroke1  37  54 I36
stroke1  38  54 I36
stroke1  39  53 I36
stroke1  40  53 I36
stroke2  82  50 B47
stroke2  81  50 I47
stroke2  81  51 I47
stroke2  82  52 I47
stroke2  82  53 I47
stroke2  83  54 I47
stroke2  84  55 I47
stroke2  85  56 I47
stroke2  86  57 I47
stroke2  87  58 I47
stroke2  89  59 I47
stroke2  90  59 I47
stroke2  92  60 I47
stroke2  93  60 I47
stroke2  95  59 I47
stroke2  96  59 I47
stroke2  97  58 I47
stroke2  98  57 I47
stroke2  100  55 I47
stroke2  101  53 I47
stroke2  102  50 I47
stroke2  102  47 I47
stroke2  103  44 I47
stroke2  104  41 I47
stroke2  105  37 I47
stroke2  105  34 I47
stroke2  105  31 I47
stroke2  106  28 I47
stroke2  106  26 I47
stroke2  106  23 I47
stroke2  106  21 I47
stroke2  106  18 I47
stroke2  107  16 I47
stroke2  107  15 I47
stroke2  107  13 I47
stroke2  108  13 I47
stroke2  108  12 I47
stroke3  137  45 B34
stroke3  136  46 I34
stroke3  135  46 I34
stroke3  134  47 I34
stroke3  133  47 I34
stroke3  133  48 I34
stroke3  134  48 I34
stroke3  135  49 I34
stroke3  136  49 I34
stroke3  138  50 I34
stroke3  139  51 I34
stroke3  140  52 I34
stroke3  141  52 I34
stroke3  142  53 I34
stroke3  143  54 I34
stroke3  143  55 I34
stroke3  144  56 I34
stroke3  144  57 I34
stroke3  144  58 I34
stroke3  143  59 I34
stroke3  143  60 I34
stroke3  142  61 I34
stroke3  141  62 I34
stroke3  140  63 I34
stroke3  139  63 I34
stroke3  138  63 I34
stroke3  137  63 I34
stroke3  136  63 I34
stroke3  135  63 I34
stroke3  134  62 I34
stroke3  133  61 I34
stroke3  131  59 I34
stroke3  130  57 I34
stroke3  129  54 I34
stroke3  127  51 I34
stroke3  127  48 I34
stroke3  126  45 I34
stroke3  126  43 I34
stroke3  126  40 I34
stroke3  127  38 I34
stroke3  128  36 I34
stroke3  130  35 I34
stroke3  132  33 I34
stroke3  134  32 I34
stroke3  137  31 I34
stroke3  140  31 I34
stroke3  142  31 I34
stroke3  145  30 I34
stroke3  147  30 I34
stroke3  148  30 I34
stroke3  150  30 I34
stroke3  151  30 I34
stroke3  150  29 I34
stroke3  150  28 I34
stroke3  149  27 I34
stroke3  148  25 I34
stroke3  147  23 I34
stroke3  146  21 I34
stroke3  145  19 I34
stroke3  145  16 I34
stroke3  144  14 I34
stroke3  145  12 I34
stroke3  145  10 I34
stroke3  146  9 I34
stroke3  148  8 I34
stroke3  149  7 I34
stroke3  151  6 I34
stroke3  152  6 I34
stroke3  154  6 I34
stroke3  156  7 I34
stroke3  157  7 I34
stroke3  158  8 I34
stroke3  159  9 I34
stroke3  160  11 I34
stroke3  161  13 I34
stroke3  162  16 I34
stroke3  162  19 I34
stroke3  163  22 I34
stroke3  162  26 I34
stroke3  162  30 I34
stroke3  162  35 I34
stroke3  161  39 I34
stroke3  161  43 I34
stroke3  160  47 I34
stroke3  159  51 I34
stroke3  159  53 I34
stroke3  159  56 I34
stroke3  158  58 I34
stroke3  158  59 I34
stroke3  158  60 I34
stroke3  158  61 I34
stroke3  157  62 I34
stroke4  198  12 B36
stroke4  198  13 I36
stroke4  199  14 I36
stroke4  200  14 I36
stroke4  201  14 I36
stroke4  202  14 I36
stroke4  204  14 I36
stroke4  206  14 I36
stroke4  208  13 I36
stroke4  209  13 I36
stroke4  211  12 I36
stroke4  212  11 I36
stroke4  212  10 I36
stroke4  212  9 I36
stroke4  212  8 I36
stroke4  211  7 I36
stroke4  210  7 I36
stroke4  209  6 I36
stroke4  207  6 I36
stroke4  206  6 I36
stroke4  204  7 I36
stroke4  203  7 I36
stroke4  201  9 I36
stroke4  200  11 I36
stroke4  199  13 I36
stroke4  199  16 I36
stroke4  199  19 I36
stroke4  199  22 I36
stroke4  199  25 I36
stroke4  200  28 I36
stroke4  201  30 I36
stroke4  203  33 I36
stroke4  204  35 I36
stroke4  206  37 I36
stroke4  208  38 I36
stroke4  210  38 I36
stroke4  213  38 I36
stroke4  215  38 I36
stroke4  218  37 I36
stroke4  221  36 I36
stroke4  223  34 I36
stroke4  225  32 I36
stroke4  227  29 I36
stroke4  229  27 I36
stroke4  231  24 I36
stroke4  232  22 I36
stroke4  233  19 I36
stroke4  234  17 I36
stroke4  235  15 I36
stroke4  236  14 I36
stroke4  236  12 I36
stroke4  237  11 I36
stroke4  237  10 I36
stroke4  237  11 I36
stroke4  237  13 I36
stroke4  237  14 I36
stroke4  236  17 I36
stroke4  236  19 I36
stroke4  236  22 I36
stroke4  236  25 I36
stroke4  235  28 I36
stroke4  235  32 I36
stroke4  234  35 I36
stroke4  234  39 I36
stroke4  233  43 I36
stroke4  232  46 I36
stroke4  231  49 I36
stroke4  230  53 I36
stroke4  229  56 I36
stroke4  228  58 I36
stroke4  226  61 I36
stroke4  224  62 I36
stroke4  222  64 I36
stroke4  220  65 I36
stroke4  217  65 I36
stroke4  214  65 I36
stroke4  211  64 I36
stroke4  207  62 I36
stroke4  204  61 I36
stroke4  201  59 I36
stroke4  198  58 I36
stroke4  197  56 I36
stroke4  196  55 I36
stroke5  216  87 B45
stroke5  214  87 I45
stroke5  213  88 I45
stroke5  212  87 I45
stroke5  211  87 I45
stroke5  211  88 I45
stroke5  211  89 I45
stroke5  213  90 I45
stroke5  215  92 I45
stroke5  217  94 I45
stroke5  219  95 I45
stroke5  220  97 I45
stroke5  221  99 I45
stroke5  222  100 I45
stroke5  222  101 I45
stroke5  221  102 I45
stroke5  219  102 I45
stroke5  217  102 I45
stroke5  215  101 I45
stroke5  213  100 I45
stroke5  212  98 I45
stroke5  210  96 I45
stroke5  209  94 I45
stroke5  209  92 I45
stroke5  209  91 I45
stroke5  211  89 I45
stroke5  212  88 I45
stroke5  215  88 I45
stroke5  218  88 I45
stroke5  222  88 I45
stroke5  226  89 I45
stroke5  230  90 I45
stroke5  234  91 I45
stroke5  238  93 I45
stroke5  242  94 I45
stroke5  245  95 I45
stroke5  248  96 I45
stroke5  251  96 I45
stroke5  252  96 I45
stroke6  277  10 B1
stroke6  277  9 I1
stroke6  277  8 I1
stroke6  277  7 I1
stroke6  276  8 I1
stroke6  276  9 I1
stroke6  276  11 I1
stroke6  276  13 I1
stroke6  276  16 I1
stroke6  276  19 I1
stroke6  277  22 I1
stroke6  277  25 I1
stroke6  277  28 I1
stroke6  277  31 I1
stroke6  277  33 I1
stroke6  276  35 I1
stroke6  276  36 I1
stroke6  276  37 I1
stroke6  275  38 I1
stroke6  274  38 I1
stroke6  273  38 I1
stroke6  272  38 I1
stroke6  271  38 I1
stroke6  270  38 I1
stroke6  269  38 I1
stroke6  269  39 I1
stroke6  269  40 I1
stroke6  269  41 I1
stroke6  270  43 I1
stroke6  271  45 I1
stroke6  271  47 I1
stroke6  273  49 I1
stroke6  274  51 I1
stroke6  276  53 I1
stroke6  278  55 I1
stroke6  280  56 I1
stroke6  283  58 I1
stroke6  286  59 I1
stroke6  289  60 I1
stroke6  291  60 I1
stroke6  293  60 I1
stroke6  295  60 I1
stroke6  297  59 I1
stroke6  299  58 I1
stroke6  300  56 I1
stroke6  302  54 I1
stroke6  303  52 I1
stroke6  304  49 I1
stroke6  305  46 I1
stroke6  306  43 I1
stroke6  306  39 I1
stroke6  307  35 I1
stroke6  308  32 I1
stroke6  308  28 I1
stroke6  309  25 I1
stroke6  309  22 I1
stroke6  309  19 I1
stroke6  309  17 I1
stroke6  310  15 I1
stroke6  310  13 I1
stroke6  309  11 I1
stroke6  309  10 I1
stroke6  309  9 I1
stroke6  309  10 I1
stroke7  346  44 B39
stroke7  345  44 I39
stroke7  343  43 I39
stroke7  341  43 I39
stroke7  338  43 I39
stroke7  336  43 I39
stroke7  334  43 I39
stroke7  332  43 I39
stroke7  330  44 I39
stroke7  329  45 I39
stroke7  329  47 I39
stroke7  329  49 I39
stroke7  329  51 I39
stroke7  330  52 I39
stroke7  331  53 I39
stroke7  332  54 I39
stroke7  333  54 I39
stroke7  334  54 I39
stroke7  336  53 I39
stroke7  337  52 I39
stroke7  339  49 I39
stroke7  340  47 I39
stroke7  341  44 I39
stroke7  342  40 I39
stroke7  342  37 I39
stroke7  343  33 I39
stroke7  343  30 I39
stroke7  343  26 I39
stroke7  342  23 I39
stroke7  342  20 I39
stroke7  342  17 I39
stroke7  343  14 I39
stroke7  343  13 I39
stroke7  343  11 I39
stroke7  344  10 I39
stroke7  344  9 I39
stroke7  346  9 I39
stroke7  347  9 I39
stroke7  349  10 I39
stroke7  351  10 I39
stroke7  353  11 I39
stroke7  355  11 I39
stroke7  357  11 I39
stroke7  359  11 I39
stroke7  361  11 I39
stroke7  363  11 I39
stroke7  365  10 I39
stroke7  366  10 I39
stroke7  368  10 I39
stroke7  369  9 I39
stroke7  370  9 I39
stroke7  371  8 I39
stroke7  372  8 I39
stroke7  372  9 I39
stroke7  373  10 I39
stroke7  373  11 I39
stroke7  373  13 I39
stroke7  373  15 I39
stroke7  373  18 I39
stroke7  373  21 I39
stroke7  373  24 I39
stroke7  372  28 I39
stroke7  372  33 I39
stroke7  372  37 I39
stroke7  372  41 I39
stroke7  371  45 I39
stroke7  371  49 I39
stroke7  371  51 I39
stroke7  370  54 I39
stroke7  370  55 I39
stroke7  370  56 I39
stroke7  370  57 I39
stroke7  370  58 I39
stroke7  369  58 I39
stroke7  368  58 I39
stroke7  368  57 I39
stroke7  367  56 I39
stroke7  363  42 I39
stroke7  363  41 I39
stroke7  364  41 I39
stroke7  364  42 I39
stroke7  365  43 I39
stroke7  365  45 I39
stroke7  365  46 I39
stroke7  365  47 I39
stroke7  364  47 I39
stroke7  363  47 I39
stroke7  362  46 I39
stroke7  361  45 I39
stroke7  360  43 I39
stroke7  360  42 I39
stroke7  359  40 I39
stroke7  359  39 I39
stroke7  360  37 I39
stroke7  361  37 I39
stroke7  363  36 I39
stroke7  365  36 I39
stroke7  367  37 I39
stroke7  370  37 I39
stroke7  372  38 I39
stroke7  375  39 I39
stroke7  377  41 I39
stroke7  379  42 I39
stroke7  380  43 I39
stroke7  382  43 I39
stroke7  382  44 I39
stroke8  406  11 B19
stroke8  405  11 I19
stroke8  405  12 I19
stroke8  406  13 I19
stroke8  407  13 I19
stroke8  409  13 I19
stroke8  411  13 I19
stroke8  412  13 I19
stroke8  414  12 I19
stroke8  416  12 I19
stroke8  417  11 I19
stroke8  418  10 I19
stroke8  419  9 I19
stroke8  419  8 I19
stroke8  418  7 I19
stroke8  418  6 I19
stroke8  417  5 I19
stroke8  415  5 I19
stroke8  414  5 I19
stroke8  412  4 I19
stroke8  411  5 I19
stroke8  409  5 I19
stroke8  408  6 I19
stroke8  407  7 I19
stroke8  406  8 I19
stroke8  405  10 I19
stroke8  404  13 I19
stroke8  404  15 I19
stroke8  404  19 I19
stroke8  404  22 I19
stroke8  405  25 I19
stroke8  406  29 I19
stroke8  407  32 I19
stroke8  408  34 I19
stroke8  409  37 I19
stroke8  409  39 I19
stroke8  410  40 I19
stroke8  410  41 I19
stroke8  411  42 I19
stroke8  410  43 I19
stroke8  410  44 I19
stroke8  409  44 I19
stroke8  409  45 I19
stroke8  408  46 I19
stroke8  407  46 I19
stroke8  406  47 I19
stroke8  405  47 I19
stroke8  404  48 I19
stroke8  403  49 I19
stroke8  403  50 I19
stroke8  403  51 I19
stroke8  403  53 I19
stroke8  404  54 I19
stroke8  405  55 I19
stroke8  406  57 I19
stroke8  408  58 I19
stroke8  410  59 I19
stroke8  412  60 I19
stroke8  415  60 I19
stroke8  418  60 I19
stroke8  421  59 I19
stroke8  424  59 I19
stroke8  427  57 I19
stroke8  429  55 I19
stroke8  431  53 I19
stroke8  433  50 I19
stroke8  435  46 I19
stroke8  436  43 I19
stroke8  437  39 I19
stroke8  437  36 I19
stroke8  437  32 I19
stroke8  437  28 I19
stroke8  437  24 I19
stroke8  436  21 I19
stroke8  436  17 I19
stroke8  436  14 I19
stroke8  436  11 I19
stroke8  435  8 I19
stroke8  435  6 I19
stroke8  435  4 I19
stroke8  435  3 I19
stroke8  435  2 I19
stroke8  435  1 I19
stroke8  435  2 I19
stroke8  436  3 I19
stroke8  436  4 I19
stroke8  437  5 I19
stroke8  438  7 I19
stroke8  439  9 I19
stroke8  441  11 I19
stroke8  442  13 I19
stroke8  444  14 I19
stroke8  446  16 I19
stroke8  448  18 I19
stroke8  451  19 I19
stroke8  453  21 I19
stroke8  455  21 I19
stroke8  457  22 I19
stroke8  459  22 I19
stroke8  461  22 I19
stroke8  463  21 I19
stroke8  465  20 I19
stroke8  466  19 I19
stroke8  467  18 I19
stroke8  468  16 I19
stroke8  469  15 I19
stroke8  469  14 I19
stroke8  469  12 I19
stroke8  469  11 I19
stroke8  468  9 I19
stroke8  467  8 I19
stroke8  466  7 I19
stroke8  465  6 I19
stroke8  464  6 I19
stroke8  463  5 I19
stroke8  462  5 I19
stroke8  461  5 I19
stroke8  460  5 I19
stroke8  458  6 I19
stroke8  457  7 I19
stroke8  456  9 I19
stroke8  456  11 I19
stroke8  455  14 I19
stroke8  454  17 I19
stroke8  454  21 I19
stroke8  453  25 I19
stroke8  453  29 I19
stroke8  453  33 I19
stroke8  454  37 I19
stroke8  454  41 I19
stroke8  454  45 I19
stroke8  454  48 I19
stroke8  455  51 I19
stroke8  455  53 I19
stroke8  455  54 I19
stroke8  455  56 I19
stroke8  455  57 I19
stroke8  455  58 I19
stroke8  455  59 I19
stroke8  454  59 I19
stroke9  455  93 B64
stroke9  456  93 I64
stroke9  456  94 I64
stroke9  456  95 I64
stroke9  457  95 I64
stroke9  458  96 I64
stroke9  459  97 I64
stroke9  461  97 I64
stroke9  462  98 I64
stroke9  463  98 I64
stroke9  465  97 I64
stroke9  466  97 I64
stroke9  467  96 I64
stroke9  468  95 I64
stroke9  469  94 I64
stroke9  470  93 I64
stroke9  470  92 I64
stroke9  470  91 I64
stroke9  470  90 I64
stroke9  469  88 I64
stroke9  469  87 I64
stroke9  468  86 I64
stroke9  467  85 I64
stroke9  465  85 I64
stroke9  464  85 I64
stroke9  463  84 I64
stroke9  462  84 I64
stroke9  461  85 I64
stroke9  459  85 I64
stroke9  458  86 I64
stroke9  457  88 I64
stroke9  457  89 I64
stroke9  456  91 I64
stroke9  455  93 I64
stroke9  455  95 I64
stroke9  455  97 I64
stroke9  456  100 I64
stroke9  457  102 I64
stroke9  458  104 I64
stroke9  459  107 I64
stroke9  461  109 I64
stroke9  462  111 I64
stroke9  464  113 I64
stroke9  466  114 I64
stroke9  467  116 I64
stroke9  469  117 I64
stroke9  470  118 I64
stroke9  471  119 I64
stroke9  472  119 I64
stroke9  473  120 I64
stroke9  474  120 I64
stroke9  474  119 I64
stroke9  474  118 I64
stroke10  503  34 B43
stroke10  502  34 I43
stroke10  502  33 I43
stroke10  501  33 I43
stroke10  502  33 I43
stroke10  504  33 I43
stroke10  506  33 I43
stroke10  508  33 I43
stroke10  511  33 I43
stroke10  513  34 I43
stroke10  516  34 I43
stroke10  518  35 I43
stroke10  520  36 I43
stroke10  521  38 I43
stroke10  522  39 I43
stroke10  523  40 I43
stroke10  523  41 I43
stroke10  523  42 I43
stroke10  522  43 I43
stroke10  521  45 I43
stroke10  520  46 I43
stroke10  519  46 I43
stroke10  517  47 I43
stroke10  516  47 I43
stroke10  515  47 I43
stroke10  514  46 I43
stroke10  513  45 I43
stroke10  512  43 I43
stroke10  511  40 I43
stroke10  510  37 I43
stroke10  509  33 I43
stroke10  509  29 I43
stroke10  509  26 I43
stroke10  509  21 I43
stroke10  509  18 I43
stroke10  509  14 I43
stroke10  510  11 I43
stroke10  511  8 I43
stroke10  511  6 I43
stroke10  512  4 I43
stroke10  513  2 I43
stroke10  514  1 I43
stroke10  515  0 I43
stroke10  516  0 I43
stroke10  517  0 I43
stroke10  518  1 I43
stroke10  520  1 I43
stroke10  521  2 I43
stroke10  523  3 I43
stroke10  525  4 I43
stroke10  527  5 I43
stroke10  528  6 I43
stroke10  530  6 I43
stroke10  532  6 I43
stroke10  534  7 I43
stroke10  535  7 I43
stroke10  536  6 I43
stroke10  537  6 I43
stroke10  538  6 I43
stroke10  539  6 I43
stroke10  540  6 I43
stroke10  541  6 I43
stroke10  541  7 I43
stroke10  542  8 I43
stroke10  542  9 I43
stroke10  542  11 I43
stroke10  542  14 I43
stroke10  543  17 I43
stroke10  543  20 I43
stroke10  543  23 I43
stroke10  542  26 I43
stroke10  542  30 I43
stroke10  542  34 I43
stroke10  541  38 I43
stroke10  541  42 I43
stroke10  540  46 I43
stroke10  539  49 I43
stroke10  538  52 I43
stroke10  537  55 I43
stroke10  536  58 I43
stroke10  535  60 I43
stroke10  533  61 I43
stroke10  531  63 I43
stroke10  529  64 I43
stroke10  527  64 I43
stroke10  524  65 I43
stroke10  522  65 I43
stroke10  519  64 I43
stroke10  516  63 I43
stroke10  514  62 I43
stroke10  512  61 I43
stroke10  510  61 I43
stroke10  509  60 I43
stroke10  510  59 I43
stroke10  511  60 I43
stroke11  528  85 B45
stroke11  527  85 I45
stroke11  526  85 I45
stroke11  526  86 I45
stroke11  525  86 I45
stroke11  526  86 I45
stroke11  527  87 I45
stroke11  529  88 I45
stroke11  531  90 I45
stroke11  534  91 I45
stroke11  536  93 I45
stroke11  538  94 I45
stroke11  539  96 I45
stroke11  540  97 I45
stroke11  541  98 I45
stroke11  540  99 I45
stroke11  540  100 I45
stroke11  539  101 I45
stroke11  537  101 I45
stroke11  536  101 I45
stroke11  534  101 I45
stroke11  532  100 I45
stroke11  531  98 I45
stroke11  529  97 I45
stroke11  528  95 I45
stroke11  528  93 I45
stroke11  528  91 I45
stroke11  528  89 I45
stroke11  529  88 I45
stroke11  531  87 I45
stroke11  533  86 I45
stroke11  536  86 I45
stroke11  539  87 I45
stroke11  543  87 I45
stroke11  546  88 I45
stroke11  550  89 I45
stroke11  553  90 I45
stroke11  556  91 I45
stroke11  558  92 I45
stroke11  560  93 I45
stroke11  561  93 I45
stroke11  562  93 I45
stroke12  580  13 B1
stroke12  581  14 I1
stroke12  581  15 I1
stroke12  581  14 I1
stroke12  581  13 I1
stroke12  581  12 I1
stroke12  581  11 I1
stroke12  581  10 I1
stroke12  581  9 I1
stroke12  581  8 I1
stroke12  581  7 I1
stroke12  581  6 I1
stroke12  581  5 I1
stroke12  581  4 I1
stroke12  581  5 I1
stroke12  581  6 I1
stroke12  581  7 I1
stroke12  581  9 I1
stroke12  581  11 I1
stroke12  581  14 I1
stroke12  581  17 I1
stroke12  582  20 I1
stroke12  582  24 I1
stroke12  582  27 I1
stroke12  582  29 I1
stroke12  581  32 I1
stroke12  581  34 I1
stroke12  580  35 I1
stroke12  580  37 I1
stroke12  579  38 I1
stroke12  578  39 I1
stroke12  577  39 I1
stroke12  576  39 I1
stroke12  575  39 I1
stroke12  574  40 I1
stroke12  573  40 I1
stroke12  574  41 I1
stroke12  574  42 I1
stroke12  574  43 I1
stroke12  575  44 I1
stroke12  576  46 I1
stroke12  577  48 I1
stroke12  579  50 I1
stroke12  581  52 I1
stroke12  583  54 I1
stroke12  586  56 I1
stroke12  589  57 I1
stroke12  591  58 I1
stroke12  594  59 I1
stroke12  596  60 I1
stroke12  598  60 I1
stroke12  600  60 I1
stroke12  602  59 I1
stroke12  604  58 I1
stroke12  605  57 I1
stroke12  606  56 I1
stroke12  608  54 I1
stroke12  609  52 I1
stroke12  610  50 I1
stroke12  610  48 I1
stroke12  611  45 I1
stroke12  612  42 I1
stroke12  612  40 I1
stroke12  612  37 I1
stroke12  612  34 I1
stroke12  612  32 I1
stroke12  612  29 I1
stroke12  612  27 I1
stroke12  612  25 I1
stroke12  612  23 I1
stroke12  611  21 I1
stroke12  611  18 I1
stroke12  611  17 I1
stroke12  611  15 I1
stroke12  610  13 I1
stroke12  610  12 I1
stroke12  610  11 I1
stroke12  610  10 I1
stroke12  610  9 I1
stroke12  610  8 I1
stroke12  610  7 I1
stroke12  610  6 I1
stroke12  610  5 I1
stroke12  611  6 I1
stroke12  611  7 I1
stroke12  612  8 I1
stroke13  648  44 B39
stroke13  649  44 I39
stroke13  648  44 I39
stroke13  647  44 I39
stroke13  646  43 I39
stroke13  645  43 I39
stroke13  644  42 I39
stroke13  642  41 I39
stroke13  641  41 I39
stroke13  639  41 I39
stroke13  638  41 I39
stroke13  636  42 I39
stroke13  635  43 I39
stroke13  634  44 I39
stroke13  633  45 I39
stroke13  633  47 I39
stroke13  632  49 I39
stroke13  633  51 I39
stroke13  633  52 I39
stroke13  634  54 I39
stroke13  634  55 I39
stroke13  635  56 I39
stroke13  637  57 I39
stroke13  638  58 I39
stroke13  639  59 I39
stroke13  641  59 I39
stroke13  642  59 I39
stroke13  643  58 I39
stroke13  644  57 I39
stroke13  645  56 I39
stroke13  646  54 I39
stroke13  647  52 I39
stroke13  648  49 I39
stroke13  648  47 I39
stroke13  648  43 I39
stroke13  648  40 I39
stroke13  648  37 I39
stroke13  648  33 I39
stroke13  648  30 I39
stroke13  647  26 I39
stroke13  647  23 I39
stroke13  647  20 I39
stroke13  646  17 I39
stroke13  646  14 I39
stroke13  646  11 I39
stroke13  645  9 I39
stroke13  645  8 I39
stroke13  645  7 I39
stroke13  646  6 I39
stroke13  646  5 I39
stroke13  647  5 I39
stroke13  648  5 I39
stroke13  650  5 I39
stroke13  651  5 I39
stroke13  652  6 I39
stroke13  653  6 I39
stroke13  655  6 I39
stroke13  656  6 I39
stroke13  657  5 I39
stroke13  659  5 I39
stroke13  660  5 I39
stroke13  662  5 I39
stroke13  663  5 I39
stroke13  664  4 I39
stroke13  665  4 I39
stroke13  666  4 I39
stroke13  667  3 I39
stroke13  668  3 I39
stroke13  669  3 I39
stroke13  670  3 I39
stroke13  670  4 I39
stroke13  671  5 I39
stroke13  671  6 I39
stroke13  671  7 I39
stroke13  672  8 I39
stroke13  672  10 I39
stroke13  672  12 I39
stroke13  672  14 I39
stroke13  673  17 I39
stroke13  673  19 I39
stroke13  673  22 I39
stroke13  673  25 I39
stroke13  673  28 I39
stroke13  672  31 I39
stroke13  673  34 I39
stroke13  673  37 I39
stroke13  673  40 I39
stroke13  673  42 I39
stroke13  673  44 I39
stroke13  673  47 I39
stroke13  673  49 I39
stroke13  673  51 I39
stroke13  673  52 I39
stroke13  673  54 I39
stroke13  673  55 I39
stroke13  672  56 I39
stroke13  671  56 I39
stroke13  670  55 I39
stroke13  657  36 I39
stroke13  657  35 I39
stroke13  658  35 I39
stroke13  658  34 I39
stroke13  658  33 I39
stroke13  659  33 I39
stroke13  660  33 I39
stroke13  661  33 I39
stroke13  662  33 I39
stroke13  662  34 I39
stroke13  663  35 I39
stroke13  664  35 I39
stroke13  665  36 I39
stroke13  666  37 I39
stroke13  666  38 I39
stroke13  666  39 I39
stroke13  666  40 I39
stroke13  665  41 I39
stroke13  664  41 I39
stroke13  663  40 I39
stroke13  661  40 I39
stroke13  660  39 I39
stroke13  659  37 I39
stroke13  657  36 I39
stroke13  656  34 I39
stroke13  656  32 I39
stroke13  655  30 I39
stroke13  655  28 I39
stroke13  656  26 I39
stroke13  657  25 I39
stroke13  658  24 I39
stroke13  660  23 I39
stroke13  662  22 I39
stroke13  664  23 I39
stroke13  666  23 I39
stroke13  669  24 I39
stroke13  671  25 I39
stroke13  673  26 I39
stroke13  675  27 I39
stroke13  676  27 I39
stroke13  677  28 I39
stroke13  678  28 I39
stroke13  679  29 I39
stroke14  726  19 B35
stroke14  727  20 I35
stroke14  728  20 I35
stroke14  728  21 I35
stroke14  729  21 I35
stroke14  729  22 I35
stroke14  729  23 I35
stroke14  729  24 I35
stroke14  728  25 I35
stroke14  726  25 I35
stroke14  725  25 I35
stroke14  723  24 I35
stroke14  721  23 I35
stroke14  719  22 I35
stroke14  718  21 I35
stroke14  717  19 I35
stroke14  716  17 I35
stroke14  715  16 I35
stroke14  715  14 I35
stroke14  715  13 I35
stroke14  716  12 I35
stroke14  717  12 I35
stroke14  718  11 I35
stroke14  720  12 I35
stroke14  721  12 I35
stroke14  723  13 I35
stroke14  725  14 I35
stroke14  727  15 I35
stroke14  728  17 I35
stroke14  730  19 I35
stroke14  731  21 I35
stroke14  732  23 I35
stroke14  732  25 I35
stroke14  733  27 I35
stroke14  733  29 I35
stroke14  732  31 I35
stroke14  732  34 I35
stroke14  731  36 I35
stroke14  730  38 I35
stroke14  728  40 I35
stroke14  727  42 I35
stroke14  725  43 I35
stroke14  723  44 I35
stroke14  721  46 I35
stroke14  718  46 I35
stroke14  716  47 I35
stroke14  714  47 I35
stroke14  712  47 I35
stroke14  710  46 I35
stroke14  707  46 I35
stroke14  706  45 I35
stroke14  704  45 I35
stroke14  703  44 I35
stroke14  702  44 I35
stroke14  701  44 I35
stroke14  701  43 I35
stroke14  700  43 I35
stroke14  700  44 I35
stroke14  700  45 I35
stroke14  700  46 I35
stroke14  701  48 I35
stroke14  701  49 I35
stroke14  701  51 I35
stroke14  702  54 I35
stroke14  703  56 I35
stroke14  704  58 I35
stroke14  705  60 I35
stroke14  706  63 I35
stroke14  707  64 I35
stroke14  708  66 I35
stroke14  709  67 I35
stroke14  711  68 I35
stroke14  713  69 I35
stroke14  714  69 I35
stroke14  716  69 I35
stroke14  718  69 I35
stroke14  720  68 I35
stroke14  722  67 I35
stroke14  724  67 I35
stroke14  726  66 I35
stroke14  728  65 I35
stroke14  730  65 I35
stroke14  731  64 I35
stroke14  732  64 I35
stroke14  733  64 I35
stroke14  734  64 I35
stroke14  735  65 I35
stroke14  736  66 I35
stroke14  737  67 I35
stroke14  738  68 I35
stroke14  739  69 I35
stroke14  740  70 I35
stroke14  740  71 I35
stroke14  741  71 I35
stroke14  741  72 I35
stroke14  742  72 I35
stroke14  742  73 I35
stroke14  743  73 I35
stroke14  743  72 I35
stroke14  742  72 I35
stroke14  742  71 I35
