stroke1  58  88 B23
stroke1  58  89 I23
stroke1  59  89 I23
stroke1  59  90 I23
stroke1  59  89 I23
stroke1  59  88 I23
stroke1  59  87 I23
stroke1  59  86 I23
stroke1  58  85 I23
stroke1  57  83 I23
stroke1  56  82 I23
stroke1  54  81 I23
stroke1  53  80 I23
stroke1  52  79 I23
stroke1  51  79 I23
stroke1  49  79 I23
stroke1  48  79 I23
stroke1  47  80 I23
stroke1  47  82 I23
stroke1  47  82 I23
stroke1  46  84 I23
stroke1  46  86 I23
stroke1  46  88 I23
stroke1  46  90 I23
stroke1  47  92 I23
stroke1  47  94 I23
stroke1  48  96 I23
stroke1  49  98 I23
stroke1  50  100 I23
stroke1  51  101 I23
stroke1  52  102 I23
stroke1  54  103 I23
stroke1  55  103 I23
stroke1  56  103 I23
stroke1  57  103 I23
stroke1  58  102 I23
stroke1  59  101 I23
stroke1  61  99 I23
stroke1  62  97 I23
stroke1  63  94 I23
stroke1  63  90 I23
stroke1  64  86 I23
stroke1  65  82 I23
stroke1  66  79 I23
stroke1  66  75 I23
stroke1  66  71 I23
stroke1  67  67 I23
stroke1  67  63 I23
stroke1  67  60 I23
stroke1  67  57 I23
stroke1  67  55 I23
stroke1  68  53 I23
stroke1  68  52 I23
stroke1  68  51 I23
stroke1  68  50 I23
stroke1  69  51 I23
stroke1  69  52 I23
stroke1  69  54 I23
stroke1  69  56 I23
stroke1  69  59 I23
stroke1  69  62 I23
stroke1  70  65 I23
stroke1  70  70 I23
stroke1  71  74 I23
stroke1  72  78 I23
stroke1  73  82 I23
stroke1  74  86 I23
stroke1  76  89 I23
stroke1  77  92 I23
stroke1  78  95 I23
stroke1  79  97 I23
stroke1  80  98 I23
stroke1  81  99 I23
stroke1  82  100 I23
stroke1  83  100 I23
stroke1  84  100 I23
stroke1  85  100 I23
stroke1  86  99 I23
stroke1  87  97 I23
stroke1  88  96 I23
stroke1  89  94 I23
stroke1  89  91 I23
stroke1  90  88 I23
stroke1  90  84 I23
stroke1  91  81 I23
stroke1  91  77 I23
stroke1  91  73 I23
stroke1  91  70 I23
stroke1  91  66 I23
stroke1  91  62 I23
stroke1  91  59 I23
stroke1  91  56 I23
stroke1  92  53 I23
stroke1  92  50 I23
stroke1  92  48 I23
stroke1  92  45 I23
stroke1  93  44 I23
stroke1  93  42 I23
stroke1  94  40 I23
stroke1  94  39 I23
stroke1  94  38 I23
stroke1  94  37 I23
stroke1  94  36 I23
stroke2  91  14 B53
stroke2  89  13 I53
stroke2  87  11 I53
stroke2  84  10 I53
stroke2  82  9 I53
stroke2  80  9 I53
stroke2  78  8 I53
stroke2  77  9 I53
stroke2  76  9 I53
stroke2  75  10 I53
stroke2  75  12 I53
stroke2  75  13 I53
stroke2  76  14 I53
stroke2  77  15 I53
stroke2  77  16 I53
stroke2  78  17 I53
stroke2  79  17 I53
stroke2  80  18 I53
stroke2  82  17 I53
stroke2  83  16 I53
stroke2  83  15 I53
stroke2  84  14 I53
stroke2  85  12 I53
stroke2  86  10 I53
stroke2  86  8 I53
stroke2  87  7 I53
stroke2  87  5 I53
stroke2  88  4 I53
stroke2  88  3 I53
stroke2  89  2 I53
stroke2  90  1 I53
stroke2  91  1 I53
stroke2  92  0 I53
stroke2  93  0 I53
stroke2  94  0 I53
stroke2  96  1 I53
stroke2  97  1 I53
stroke2  98  1 I53
stroke2  100  1 I53
stroke2  101  1 I53
stroke2  102  1 I53
stroke2  103  1 I53
stroke2  104  2 I53
stroke2  105  4 I53
stroke2  105  5 I53
stroke2  105  7 I53
stroke2  105  9 I53
stroke2  105  11 I53
stroke2  104  14 I53
stroke2  104  17 I53
stroke2  104  19 I53
stroke2  103  22 I53
stroke2  103  24 I53
stroke2  103  25 I53
stroke2  102  27 I53
stroke2  102  28 I53
stroke2  102  30 I53
stroke2  103  31 I53
stroke2  103  33 I53
stroke3  130  51 B36
stroke3  130  52 I36
stroke3  130  53 I36
stroke3  130  54 I36
stroke3  131  55 I36
stroke3  133  55 I36
stroke3  134  55 I36
stroke3  136  55 I36
stroke3  138  55 I36
stroke3  139  54 I36
stroke3  140  54 I36
stroke3  141  53 I36
stroke3  142  51 I36
stroke3  142  50 I36
stroke3  142  49 I36
stroke3  142  48 I36
stroke3  141  47 I36
stroke3  140  46 I36
stroke3  139  45 I36
stroke3  138  45 I36
stroke3  137  46 I36
stroke3  136  46 I36
stroke3  135  47 I36
stroke3  133  49 I36
stroke3  132  52 I36
stroke3  132  54 I36
stroke3  131  57 I36
stroke3  131  60 I36
stroke3  131  62 I36
stroke3  131  64 I36
stroke3  132  66 I36
stroke3  133  68 I36
stroke3  134  69 I36
stroke3  136  70 I36
stroke3  137  70 I36
stroke3  139  70 I36
stroke3  142  69 I36
stroke3  144  68 I36
stroke3  146  67 I36
stroke3  148  65 I36
stroke3  151  63 I36
stroke3  152  60 I36
stroke3  154  58 I36
stroke3  155  56 I36
stroke3  157  54 I36
stroke3  158  53 I36
stroke3  159  52 I36
stroke3  159  51 I36
stroke3  160  50 I36
stroke3  161  50 I36
stroke3  161  51 I36
stroke3  161  52 I36
stroke3  160  53 I36
stroke3  160  55 I36
stroke3  160  57 I36
stroke3  159  60 I36
stroke3  159  63 I36
stroke3  158  66 I36
stroke3  158  70 I36
stroke3  157  73 I36
stroke3  156  77 I36
stroke3  155  81 I36
stroke3  154  84 I36
stroke3  153  88 I36
stroke3  152  91 I36
stroke3  151  94 I36
stroke3  150  96 I36
stroke3  149  99 I36
stroke3  148  100 I36
stroke3  146  102 I36
stroke3  145  103 I36
stroke3  143  103 I36
stroke3  141  103 I36
stroke3  138  103 I36
stroke3  136  102 I36
stroke3  133  100 I36
stroke3  130  98 I36
stroke3  127  95 I36
stroke3  125  92 I36
stroke3  123  90 I36
stroke3  122  87 I36
stroke3  122  85 I36
stroke4  192  94 B54
stroke4  192  95 I54
stroke4  191  96 I54
stroke4  191  97 I54
stroke4  190  98 I54
stroke4  189  98 I54
stroke4  189  99 I54
stroke4  188  98 I54
stroke4  188  97 I54
stroke4  188  95 I54
stroke4  188  91 I54
stroke4  188  87 I54
stroke4  189  83 I54
stroke4  189  78 I54
stroke4  190  74 I54
stroke4  191  70 I54
stroke4  192  66 I54
stroke4  193  63 I54
stroke4  194  60 I54
stroke4  196  58 I54
stroke4  198  56 I54
stroke4  200  54 I54
stroke4  201  54 I54
stroke4  203  54 I54
stroke4  205  54 I54
stroke4  207  55 I54
stroke4  208  57 I54
stroke4  208  59 I54
stroke4  208  61 I54
stroke4  208  63 I54
stroke4  207  65 I54
stroke4  206  66 I54
stroke4  204  67 I54
stroke4  203  67 I54
stroke4  201  67 I54
stroke4  199  66 I54
stroke4  198  65 I54
stroke4  196  64 I54
stroke4  195  63 I54
stroke4  194  62 I54
stroke4  193  61 I54
stroke4  194  60 I54
stroke4  195  60 I54
stroke4  197  60 I54
stroke5  234  51 B1
stroke5  234  52 I1
stroke5  235  52 I1
stroke5  234  51 I1
stroke5  234  50 I1
stroke5  234  49 I1
stroke5  234  48 I1
stroke5  233  48 I1
stroke5  233  47 I1
stroke5  233  48 I1
stroke5  233  49 I1
stroke5  233  50 I1
stroke5  233  51 I1
stroke5  233  53 I1
stroke5  233  55 I1
stroke5  233  57 I1
stroke5  233  60 I1
stroke5  233  63 I1
stroke5  233  67 I1
stroke5  233  70 I1
stroke5  233  74 I1
stroke5  233  77 I1
stroke5  233  80 I1
stroke5  233  83 I1
stroke5  232  85 I1
stroke5  232  87 I1
stroke5  232  88 I1
stroke5  231  90 I1
stroke5  230  91 I1
stroke5  229  91 I1
stroke5  227  91 I1
stroke5  226  91 I1
stroke5  225  90 I1
stroke5  223  89 I1
stroke5  222  89 I1
stroke5  222  88 I1
stroke5  221  88 I1
stroke5  220  88 I1
stroke5  220  89 I1
stroke5  220  90 I1
stroke5  221  92 I1
stroke5  221  93 I1
stroke5  222  95 I1
stroke5  223  96 I1
stroke5  225  98 I1
stroke5  226  100 I1
stroke5  228  101 I1
stroke5  230  103 I1
stroke5  233  104 I1
stroke5  235  105 I1
stroke5  237  105 I1
stroke5  239  105 I1
stroke5  241  105 I1
stroke5  243  105 I1
stroke5  245  104 I1
stroke5  246  102 I1
stroke5  248  100 I1
stroke5  249  97 I1
stroke5  250  94 I1
stroke5  251  91 I1
stroke5  252  87 I1
stroke5  253  84 I1
stroke5  254  80 I1
stroke5  254  77 I1
stroke5  255  73 I1
stroke5  255  70 I1
stroke5  255  68 I1
stroke5  256  65 I1
stroke5  256  63 I1
stroke5  256  62 I1
stroke5  257  60 I1
stroke5  257  59 I1
stroke5  257  58 I1
stroke5  257  57 I1
stroke5  257  56 I1
stroke5  257  55 I1
stroke6  280  55 B36
stroke6  280  56 I36
stroke6  281  56 I36
stroke6  281  57 I36
stroke6  282  58 I36
stroke6  283  58 I36
stroke6  284  59 I36
stroke6  286  59 I36
stroke6  287  59 I36
stroke6  289  58 I36
stroke6  290  57 I36
stroke6  292  56 I36
stroke6  293  55 I36
stroke6  294  54 I36
stroke6  294  52 I36
stroke6  295  51 I36
stroke6  294  50 I36
stroke6  294  49 I36
stroke6  293  48 I36
stroke6  292  47 I36
stroke6  291  46 I36
stroke6  290  46 I36
stroke6  288  45 I36
stroke6  287  46 I36
stroke6  285  46 I36
stroke6  284  47 I36
stroke6  283  48 I36
stroke6  282  49 I36
stroke6  281  51 I36
stroke6  280  53 I36
stroke6  280  55 I36
stroke6  279  58 I36
stroke6  280  60 I36
stroke6  280  63 I36
stroke6  281  66 I36
stroke6  282  69 I36
stroke6  283  72 I36
stroke6  284  74 I36
stroke6  286  76 I36
stroke6  287  78 I36
stroke6  289  79 I36
stroke6  291  80 I36
stroke6  292  81 I36
stroke6  294  81 I36
stroke6  295  81 I36
stroke6  297  81 I36
stroke6  298  80 I36
stroke6  300  79 I36
stroke6  301  77 I36
stroke6  302  75 I36
stroke6  304  73 I36
stroke6  305  70 I36
stroke6  306  68 I36
stroke6  306  65 I36
stroke6  307  62 I36
stroke6  308  59 I36
stroke6  308  56 I36
stroke6  309  54 I36
stroke6  309  52 I36
stroke6  309  50 I36
stroke6  310  49 I36
stroke6  310  48 I36
stroke6  310  47 I36
stroke6  310  46 I36
stroke6  310  45 I36
stroke6  310  46 I36
stroke6  310  47 I36
stroke6  310  48 I36
stroke6  310  50 I36
stroke6  309  52 I36
stroke6  309  55 I36
stroke6  309  57 I36
stroke6  309  60 I36
stroke6  308  63 I36
stroke6  308  66 I36
stroke6  307  70 I36
stroke6  307  73 I36
stroke6  306  76 I36
stroke6  306  79 I36
stroke6  305  83 I36
stroke6  305  86 I36
stroke6  304  89 I36
stroke6  303  92 I36
stroke6  303  95 I36
stroke6  302  97 I36
stroke6  301  99 I36
stroke6  300  101 I36
stroke6  299  103 I36
stroke6  298  104 I36
stroke6  297  106 I36
stroke6  295  107 I36
stroke6  293  107 I36
stroke6  292  108 I36
stroke6  290  107 I36
stroke6  287  107 I36
stroke6  285  106 I36
stroke6  282  104 I36
stroke6  279  102 I36
stroke6  276  100 I36
stroke6  274  98 I36
stroke6  272  97 I36
stroke6  271  96 I36
stroke6  270  95 I36
stroke7  296  136 B66
stroke7  296  137 I66
stroke7  295  138 I66
stroke7  294  139 I66
stroke7  293  139 I66
stroke7  292  139 I66
stroke7  291  140 I66
stroke7  290  140 I66
stroke7  289  140 I66
stroke7  288  140 I66
stroke7  287  140 I66
stroke7  287  141 I66
stroke7  286  141 I66
stroke7  285  141 I66
stroke7  284  140 I66
stroke7  283  140 I66
stroke7  283  141 I66
stroke7  282  141 I66
stroke7  283  142 I66
stroke7  283  143 I66
stroke7  284  144 I66
stroke7  284  145 I66
stroke7  285  146 I66
stroke7  286  147 I66
stroke7  287  148 I66
stroke7  288  148 I66
stroke7  289  148 I66
stroke7  291  148 I66
stroke7  292  147 I66
stroke7  293  146 I66
stroke7  294  144 I66
stroke7  295  142 I66
stroke7  295  140 I66
stroke7  295  138 I66
stroke7  295  136 I66
stroke7  295  134 I66
stroke7  294  132 I66
stroke7  294  130 I66
stroke7  293  128 I66
stroke7  293  127 I66
stroke7  293  126 I66
stroke7  293  125 I66
stroke7  294  125 I66
stroke7  295  126 I66
stroke7  297  127 I66
stroke7  298  128 I66
stroke7  300  129 I66
stroke7  303  130 I66
stroke7  305  132 I66
stroke7  308  133 I66
stroke7  311  135 I66
stroke7  313  136 I66
stroke7  316  138 I66
stroke7  318  139 I66
stroke7  321  140 I66
stroke7  323  140 I66
stroke7  324  141 I66
stroke7  325  141 I66
stroke7  326  142 I66
stroke7  327  142 I66
stroke7  328  142 I66
stroke7  329  142 I66
stroke7  328  141 I66
stroke7  328  140 I66
stroke8  331  84 B47
stroke8  330  83 I47
stroke8  329  82 I47
stroke8  329  83 I47
stroke8  330  84 I47
stroke8  332  86 I47
stroke8  333  87 I47
stroke8  335  89 I47
stroke8  337  91 I47
stroke8  339  93 I47
stroke8  341  94 I47
stroke8  343  96 I47
stroke8  346  97 I47
stroke8  348  98 I47
stroke8  350  99 I47
stroke8  352  100 I47
stroke8  354  100 I47
stroke8  355  100 I47
stroke8  357  100 I47
stroke8  359  99 I47
stroke8  360  98 I47
stroke8  362  97 I47
stroke8  363  95 I47
stroke8  364  92 I47
stroke8  365  89 I47
stroke8  366  86 I47
stroke8  366  83 I47
stroke8  367  80 I47
stroke8  367  76 I47
stroke8  367  72 I47
stroke8  367  68 I47
stroke8  367  64 I47
stroke8  366  60 I47
stroke8  366  56 I47
stroke8  366  53 I47
stroke8  366  49 I47
stroke8  366  46 I47
stroke8  366  44 I47
stroke8  366  42 I47
stroke8  366  39 I47
stroke8  367  38 I47
stroke8  367  36 I47
stroke8  367  35 I47
stroke8  367  34 I47
stroke8  367  33 I47
stroke8  367  32 I47
stroke8  367  31 I47
stroke8  367  30 I47
stroke8  367  29 I47
stroke8  367  28 I47
stroke8  368  28 I47
stroke8  368  29 I47
stroke8  368  30 I47
stroke8  368  31 I47
stroke9  425  68 B69
stroke9  426  68 I69
stroke9  426  69 I69
stroke9  425  70 I69
stroke9  425  71 I69
stroke9  425  72 I69
stroke9  424  73 I69
stroke9  423  74 I69
stroke9  422  74 I69
stroke9  420  75 I69
stroke9  418  75 I69
stroke9  416  75 I69
stroke9  413  75 I69
stroke9  411  74 I69
stroke9  408  73 I69
stroke9  406  71 I69
stroke9  404  70 I69
stroke9  402  68 I69
stroke9  401  65 I69
stroke9  400  63 I69
stroke9  400  61 I69
stroke9  400  60 I69
stroke9  400  58 I69
stroke9  401  57 I69
stroke9  403  56 I69
stroke9  405  55 I69
stroke9  406  55 I69
stroke9  409  55 I69
stroke9  411  56 I69
stroke9  413  56 I69
stroke9  416  57 I69
stroke9  418  58 I69
stroke9  419  59 I69
stroke9  421  60 I69
stroke9  422  61 I69
stroke9  423  61 I69
stroke9  424  62 I69
stroke9  424  61 I69
stroke9  425  61 I69
stroke9  425  60 I69
stroke9  425  58 I69
stroke9  425  56 I69
stroke9  425  54 I69
stroke9  425  52 I69
stroke9  425  49 I69
stroke9  425  46 I69
stroke9  424  43 I69
stroke9  424  40 I69
stroke9  424  37 I69
stroke9  424  34 I69
stroke9  423  31 I69
stroke9  423  28 I69
stroke9  423  26 I69
stroke9  422  23 I69
stroke9  422  21 I69
stroke9  422  19 I69
stroke9  422  17 I69
stroke9  422  16 I69
stroke9  422  14 I69
stroke9  422  13 I69
stroke9  422  11 I69
stroke9  422  10 I69
stroke9  422  9 I69
stroke9  422  8 I69
stroke9  422  9 I69
stroke10  461  47 B22
stroke10  460  47 I22
stroke10  460  48 I22
stroke10  460  49 I22
stroke10  460  50 I22
stroke10  460  51 I22
stroke10  461  52 I22
stroke10  463  53 I22
stroke10  464  53 I22
stroke10  466  54 I22
stroke10  467  54 I22
stroke10  469  54 I22
stroke10  470  53 I22
stroke10  472  53 I22
stroke10  473  52 I22
stroke10  473  51 I22
stroke10  474  50 I22
stroke10  474  49 I22
stroke10  474  48 I22
stroke10  473  47 I22
stroke10  472  46 I22
stroke10  471  45 I22
stroke10  470  45 I22
stroke10  468  45 I22
stroke10  467  44 I22
stroke10  465  44 I22
stroke10  463  45 I22
stroke10  462  45 I22
stroke10  460  46 I22
stroke10  459  48 I22
stroke10  458  50 I22
stroke10  457  52 I22
stroke10  456  55 I22
stroke10  456  58 I22
stroke10  455  61 I22
stroke10  455  65 I22
stroke10  456  68 I22
stroke10  457  72 I22
stroke10  457  75 I22
stroke10  458  77 I22
stroke10  459  79 I22
stroke10  459  80 I22
stroke10  460  81 I22
stroke10  459  82 I22
stroke10  459  83 I22
stroke10  458  84 I22
stroke10  457  85 I22
stroke10  455  85 I22
stroke10  454  85 I22
stroke10  454  86 I22
stroke10  453  86 I22
stroke10  453  87 I22
stroke10  452  88 I22
stroke10  453  90 I22
stroke10  453  91 I22
stroke10  454  93 I22
stroke10  455  95 I22
stroke10  457  96 I22
stroke10  459  97 I22
stroke10  462  98 I22
stroke10  465  99 I22
stroke10  468  100 I22
stroke10  471  100 I22
stroke10  474  100 I22
stroke10  477  100 I22
stroke10  480  99 I22
stroke10  482  98 I22
stroke10  485  97 I22
stroke10  486  95 I22
stroke10  488  92 I22
stroke10  489  89 I22
stroke10  490  86 I22
stroke10  490  82 I22
stroke10  490  79 I22
stroke10  490  75 I22
stroke10  490  72 I22
stroke10  490  68 I22
stroke10  490  65 I22
stroke10  490  62 I22
stroke10  490  59 I22
stroke10  490  56 I22
stroke10  490  54 I22
stroke10  490  51 I22
stroke10  491  49 I22
stroke10  491  47 I22
stroke10  491  45 I22
stroke10  491  44 I22
stroke10  491  43 I22
stroke10  492  43 I22
stroke10  492  44 I22
stroke10  492  45 I22
stroke11  519  87 B37
stroke11  518  88 I37
stroke11  517  88 I37
stroke11  516  88 I37
stroke11  516  89 I37
stroke11  516  90 I37
stroke11  516  91 I37
stroke11  516  92 I37
stroke11  517  93 I37
stroke11  518  95 I37
stroke11  519  96 I37
stroke11  521  98 I37
stroke11  523  99 I37
stroke11  525  101 I37
stroke11  527  102 I37
stroke11  528  102 I37
stroke11  530  103 I37
stroke11  532  102 I37
stroke11  534  102 I37
stroke11  536  101 I37
stroke11  538  100 I37
stroke11  540  99 I37
stroke11  541  98 I37
stroke11  543  96 I37
stroke11  545  93 I37
stroke11  546  90 I37
stroke11  547  87 I37
stroke11  549  84 I37
stroke11  550  80 I37
stroke11  551  76 I37
stroke11  551  73 I37
stroke11  552  69 I37
stroke11  552  65 I37
stroke11  552  62 I37
stroke11  552  58 I37
stroke11  552  55 I37
stroke11  551  52 I37
stroke11  550  49 I37
stroke11  549  46 I37
stroke11  548  44 I37
stroke11  546  42 I37
stroke11  545  41 I37
stroke11  543  40 I37
stroke11  542  39 I37
stroke11  540  39 I37
stroke11  538  39 I37
stroke11  536  40 I37
stroke11  535  41 I37
stroke11  533  43 I37
stroke11  532  44 I37
stroke11  532  46 I37
stroke11  531  48 I37
stroke11  532  49 I37
stroke11  532  51 I37
stroke11  533  52 I37
stroke11  533  53 I37
stroke11  535  54 I37
stroke11  536  55 I37
stroke11  537  55 I37
stroke11  538  55 I37
stroke11  540  55 I37
stroke11  541  55 I37
stroke11  543  55 I37
stroke11  544  55 I37
stroke11  545  55 I37
stroke11  547  55 I37
stroke12  572  89 B47
stroke12  571  89 I47
stroke12  570  90 I47
stroke12  571  91 I47
stroke12  571  92 I47
stroke12  572  93 I47
stroke12  573  94 I47
stroke12  574  96 I47
stroke12  576  97 I47
stroke12  577  99 I47
stroke12  579  100 I47
stroke12  581  101 I47
stroke12  583  101 I47
stroke12  585  102 I47
stroke12  587  102 I47
stroke12  588  102 I47
stroke12  590  101 I47
stroke12  591  99 I47
stroke12  593  97 I47
stroke12  594  95 I47
stroke12  596  92 I47
stroke12  597  89 I47
stroke12  598  85 I47
stroke12  599  82 I47
stroke12  599  79 I47
stroke12  600  75 I47
stroke12  600  72 I47
stroke12  600  68 I47
stroke12  600  65 I47
stroke12  600  61 I47
stroke12  600  58 I47
stroke12  600  55 I47
stroke12  600  52 I47
stroke12  600  50 I47
stroke12  600  48 I47
stroke12  600  47 I47
stroke12  600  46 I47
stroke12  600  45 I47
stroke12  601  46 I47
stroke12  601  47 I47
stroke12  602  48 I47
stroke13  627  86 B34
stroke13  626  86 I34
stroke13  626  87 I34
stroke13  625  87 I34
stroke13  624  87 I34
stroke13  625  87 I34
stroke13  626  87 I34
stroke13  627  87 I34
stroke13  629  88 I34
stroke13  631  88 I34
stroke13  632  88 I34
stroke13  634  88 I34
stroke13  636  89 I34
stroke13  638  90 I34
stroke13  640  90 I34
stroke13  642  91 I34
stroke13  643  92 I34
stroke13  644  93 I34
stroke13  645  94 I34
stroke13  646  95 I34
stroke13  646  96 I34
stroke13  646  97 I34
stroke13  646  98 I34
stroke13  646  99 I34
stroke13  645  100 I34
stroke13  644  101 I34
stroke13  642  102 I34
stroke13  640  103 I34
stroke13  639  103 I34
stroke13  636  103 I34
stroke13  634  102 I34
stroke13  631  101 I34
stroke13  629  100 I34
stroke13  626  98 I34
stroke13  624  96 I34
stroke13  622  93 I34
stroke13  620  89 I34
stroke13  619  86 I34
stroke13  619  83 I34
stroke13  618  80 I34
stroke13  619  77 I34
stroke13  620  75 I34
stroke13  622  72 I34
stroke13  624  71 I34
stroke13  626  69 I34
stroke13  629  68 I34
stroke13  632  67 I34
stroke13  635  66 I34
stroke13  637  66 I34
stroke13  640  66 I34
stroke13  642  65 I34
stroke13  644  66 I34
stroke13  646  66 I34
stroke13  647  66 I34
stroke13  648  66 I34
stroke13  647  66 I34
stroke13  646  65 I34
stroke13  645  64 I34
stroke13  643  62 I34
stroke13  642  61 I34
stroke13  641  59 I34
stroke13  640  56 I34
stroke13  639  54 I34
stroke13  639  52 I34
stroke13  639  50 I34
stroke13  639  49 I34
stroke13  640  47 I34
stroke13  641  46 I34
stroke13  642  46 I34
stroke13  644  45 I34
stroke13  645  45 I34
stroke13  647  45 I34
stroke13  649  46 I34
stroke13  650  46 I34
stroke13  652  47 I34
stroke13  653  48 I34
stroke13  655  50 I34
stroke13  656  51 I34
stroke13  657  53 I34
stroke13  658  55 I34
stroke13  659  58 I34
stroke13  659  61 I34
stroke13  660  64 I34
stroke13  660  67 I34
stroke13  661  70 I34
stroke13  661  74 I34
stroke13  660  78 I34
stroke13  660  82 I34
stroke13  660  85 I34
stroke13  660  88 I34
stroke13  660  91 I34
stroke13  659  94 I34
stroke13  659  96 I34
stroke13  659  98 I34
stroke13  659  99 I34
stroke13  659  100 I34
stroke13  659  101 I34
stroke13  659  102 I34
stroke13  658  101 I34
stroke13  658  100 I34
stroke13  657  99 I34
