stroke1  72  30 B30
stroke1  71  30 I30
stroke1  69  30 I30
stroke1  68  30 I30
stroke1  66  31 I30
stroke1  65  31 I30
stroke1  63  32 I30
stroke1  62  34 I30
stroke1  61  36 I30
stroke1  61  38 I30
stroke1  62  40 I30
stroke1  62  41 I30
stroke1  64  42 I30
stroke1  65  43 I30
stroke1  67  42 I30
stroke1  69  40 I30
stroke1  71  37 I30
stroke1  72  34 I30
stroke1  73  30 I30
stroke1  73  30 I30
stroke1  73  26 I30
stroke1  73  22 I30
stroke1  73  18 I30
stroke1  73  14 I30
stroke1  73  11 I30
stroke1  73  9 I30
stroke1  73  7 I30
stroke1  73  6 I30
stroke1  74  6 I30
stroke1  75  7 I30
stroke1  76  9 I30
stroke1  78  12 I30
stroke1  80  15 I30
stroke1  82  18 I30
stroke1  85  21 I30
stroke1  87  23 I30
stroke1  90  24 I30
stroke1  93  25 I30
stroke1  95  25 I30
stroke1  98  24 I30
stroke1  100  22 I30
stroke1  102  20 I30
stroke1  104  18 I30
stroke1  105  16 I30
stroke1  107  13 I30
stroke1  108  11 I30
stroke1  109  10 I30
stroke1  110  9 I30
stroke1  111  8 I30
stroke1  112  8 I30
stroke1  112  9 I30
stroke1  113  11 I30
stroke1  113  14 I30
stroke1  114  17 I30
stroke1  115  21 I30
stroke1  116  26 I30
stroke1  116  30 I30
stroke1  117  34 I30
stroke1  118  38 I30
stroke1  118  41 I30
stroke1  119  43 I30
stroke1  119  45 I30
stroke1  119  46 I30
stroke1  119  45 I30
stroke2  153  10 B35
stroke2  151  10 I35
stroke2  148  10 I35
stroke2  146  10 I35
stroke2  144  10 I35
stroke2  143  9 I35
stroke2  142  9 I35
stroke2  141  9 I35
stroke2  141  8 I35
stroke2  141  7 I35
stroke2  142  7 I35
stroke2  143  7 I35
stroke2  144  6 I35
stroke2  146  7 I35
stroke2  147  7 I35
stroke2  149  8 I35
stroke2  151  10 I35
stroke2  153  12 I35
stroke2  154  14 I35
stroke2  155  17 I35
stroke2  155  19 I35
stroke2  155  22 I35
stroke2  154  25 I35
stroke2  153  28 I35
stroke2  151  30 I35
stroke2  149  32 I35
stroke2  148  34 I35
stroke2  146  35 I35
stroke2  145  36 I35
stroke2  144  37 I35
stroke2  143  38 I35
stroke2  143  39 I35
stroke2  144  40 I35
stroke2  146  42 I35
stroke2  149  45 I35
stroke2  152  47 I35
stroke2  156  49 I35
stroke2  160  51 I35
stroke2  163  53 I35
stroke2  167  54 I35
stroke2  169  54 I35
stroke2  171  54 I35
stroke2  172  53 I35
stroke3  175  39 B46
stroke3  175  38 I46
stroke3  175  37 I46
stroke3  176  37 I46
stroke3  177  37 I46
stroke3  178  38 I46
stroke3  179  38 I46
stroke3  180  39 I46
stroke3  181  39 I46
stroke3  182  40 I46
stroke3  183  40 I46
stroke3  183  39 I46
stroke3  183  38 I46
stroke3  183  36 I46
stroke3  182  33 I46
stroke3  181  30 I46
stroke3  180  28 I46
stroke3  179  25 I46
stroke3  178  23 I46
stroke3  178  21 I46
stroke3  178  20 I46
stroke3  178  19 I46
stroke3  178  18 I46
stroke3  179  17 I46
stroke3  180  17 I46
stroke3  182  17 I46
stroke3  183  17 I46
stroke3  184  18 I46
stroke3  186  19 I46
stroke3  187  19 I46
stroke3  188  20 I46
stroke3  189  21 I46
stroke3  190  22 I46
stroke4  235  8 B35
stroke4  233  8 I35
stroke4  230  8 I35
stroke4  228  7 I35
stroke4  227  7 I35
stroke4  225  7 I35
stroke4  225  6 I35
stroke4  224  6 I35
stroke4  225  5 I35
stroke4  226  4 I35
stroke4  227  4 I35
stroke4  229  4 I35
stroke4  231  4 I35
stroke4  233  5 I35
stroke4  235  7 I35
stroke4  237  8 I35
stroke4  239  10 I35
stroke4  240  13 I35
stroke4  241  15 I35
stroke4  242  18 I35
stroke4  241  20 I35
stroke4  240  23 I35
stroke4  239  25 I35
stroke4  238  27 I35
stroke4  236  29 I35
stroke4  235  30 I35
stroke4  233  31 I35
stroke4  232  32 I35
stroke4  231  33 I35
stroke4  230  34 I35
stroke4  231  35 I35
stroke4  231  37 I35
stroke4  233  39 I35
stroke4  236  42 I35
stroke4  239  44 I35
stroke4  243  46 I35
stroke4  247  48 I35
stroke4  250  50 I35
stroke4  254  51 I35
stroke4  257  52 I35
stroke4  259  52 I35
stroke4  260  51 I35
stroke5  262  32 B47
stroke5  262  33 I47
stroke5  262  34 I47
stroke5  263  35 I47
stroke5  264  36 I47
stroke5  266  36 I47
stroke5  267  36 I47
stroke5  269  36 I47
stroke5  270  35 I47
stroke5  270  33 I47
stroke5  271  30 I47
stroke5  270  27 I47
stroke5  270  24 I47
stroke5  269  20 I47
stroke5  268  16 I47
stroke5  267  12 I47
stroke5  266  9 I47
stroke5  266  6 I47
stroke5  266  4 I47
stroke5  266  3 I47
stroke5  267  3 I47
stroke6  293  22 B10
stroke6  293  23 I10
stroke6  293  25 I10
stroke6  292  26 I10
stroke6  291  27 I10
stroke6  290  28 I10
stroke6  290  29 I10
stroke6  289  30 I10
stroke6  290  31 I10
stroke6  291  32 I10
stroke6  292  33 I10
stroke6  293  33 I10
stroke6  295  34 I10
stroke6  297  34 I10
stroke6  299  34 I10
stroke6  300  33 I10
stroke6  301  32 I10
stroke6  302  30 I10
stroke6  302  28 I10
stroke6  303  26 I10
stroke6  302  23 I10
stroke6  302  19 I10
stroke6  301  16 I10
stroke6  301  13 I10
stroke6  301  11 I10
stroke6  302  8 I10
stroke6  303  7 I10
stroke6  304  6 I10
stroke6  306  6 I10
stroke6  308  6 I10
stroke6  310  7 I10
stroke6  312  9 I10
stroke6  315  11 I10
stroke6  316  12 I10
stroke6  318  14 I10
stroke6  318  16 I10
stroke6  318  18 I10
stroke6  317  20 I10
stroke6  316  21 I10
stroke6  315  23 I10
stroke6  314  24 I10
stroke6  313  25 I10
stroke6  312  27 I10
stroke6  312  28 I10
stroke6  312  30 I10
stroke6  313  32 I10
stroke6  314  35 I10
stroke6  316  38 I10
stroke6  318  40 I10
stroke6  321  43 I10
stroke6  324  46 I10
stroke6  326  49 I10
stroke6  329  51 I10
stroke6  331  53 I10
stroke6  332  54 I10
stroke6  333  55 I10
stroke7  364  1 B1
stroke7  363  1 I1
stroke7  361  1 I1
stroke7  359  3 I1
stroke7  358  5 I1
stroke7  357  7 I1
stroke7  357  10 I1
stroke7  357  14 I1
stroke7  359  17 I1
stroke7  361  21 I1
stroke7  363  25 I1
stroke7  366  28 I1
stroke7  370  31 I1
stroke7  374  33 I1
stroke7  377  34 I1
stroke7  380  33 I1
stroke7  383  32 I1
stroke7  384  30 I1
stroke7  386  27 I1
stroke7  386  23 I1
stroke7  386  19 I1
stroke7  386  15 I1
stroke7  386  11 I1
stroke7  386  8 I1
stroke7  386  5 I1
stroke7  387  3 I1
stroke7  388  2 I1
stroke7  389  1 I1
stroke7  390  0 I1
stroke7  391  0 I1
stroke7  393  0 I1
stroke8  394  0 B35
stroke8  396  0 I35
stroke8  397  0 I35
stroke8  399  0 I35
stroke8  401  0 I35
stroke8  402  0 I35
stroke8  404  1 I35
stroke8  406  2 I35
stroke8  407  3 I35
stroke8  408  4 I35
stroke8  410  6 I35
stroke8  411  8 I35
stroke8  412  10 I35
stroke8  412  12 I35
stroke8  412  15 I35
stroke8  411  18 I35
stroke8  411  21 I35
stroke8  410  23 I35
stroke8  410  26 I35
stroke8  409  28 I35
stroke8  409  30 I35
stroke8  409  32 I35
stroke8  409  34 I35
stroke8  410  36 I35
stroke8  411  38 I35
stroke8  413  40 I35
stroke8  415  42 I35
stroke8  418  43 I35
stroke8  421  45 I35
stroke8  423  46 I35
stroke8  426  47 I35
stroke8  429  48 I35
stroke8  432  47 I35
stroke8  434  47 I35
stroke9  450  12 B19
stroke9  449  11 I19
stroke9  448  10 I19
stroke9  447  10 I19
stroke9  446  9 I19
stroke9  445  8 I19
stroke9  444  8 I19
stroke9  443  7 I19
stroke9  442  7 I19
stroke9  441  7 I19
stroke9  441  8 I19
stroke9  441  10 I19
stroke9  441  11 I19
stroke9  441  14 I19
stroke9  442  16 I19
stroke9  442  19 I19
stroke9  443  22 I19
stroke9  444  25 I19
stroke9  444  28 I19
stroke9  445  31 I19
stroke9  446  34 I19
stroke9  446  35 I19
stroke9  447  37 I19
stroke9  448  38 I19
stroke9  449  39 I19
stroke9  450  41 I19
stroke9  452  41 I19
stroke9  454  42 I19
stroke9  457  42 I19
stroke9  459  42 I19
stroke9  461  41 I19
stroke9  463  39 I19
stroke9  464  37 I19
stroke9  465  35 I19
stroke9  466  32 I19
stroke9  466  29 I19
stroke9  467  26 I19
stroke9  467  24 I19
stroke9  467  21 I19
stroke9  467  19 I19
stroke9  468  18 I19
stroke9  468  17 I19
stroke9  469  16 I19
stroke9  471  16 I19
stroke9  472  16 I19
stroke9  474  15 I19
stroke9  476  15 I19
stroke9  478  15 I19
stroke9  480  15 I19
stroke9  482  15 I19
stroke9  484  15 I19
stroke9  486  14 I19
stroke9  487  14 I19
stroke9  488  15 I19
stroke9  487  15 I19
stroke9  486  15 I19
stroke9  484  15 I19
stroke9  483  15 I19
stroke9  481  16 I19
stroke9  480  17 I19
stroke9  479  18 I19
stroke9  479  19 I19
stroke9  478  21 I19
stroke9  479  24 I19
stroke9  479  27 I19
stroke9  480  31 I19
stroke9  482  34 I19
stroke9  483  38 I19
stroke9  484  42 I19
stroke9  485  45 I19
stroke9  485  47 I19
stroke9  485  50 I19
stroke9  485  52 I19
stroke10  484  54 B49
stroke10  482  55 I49
stroke10  480  57 I49
stroke10  477  58 I49
stroke10  474  60 I49
stroke10  470  61 I49
stroke10  466  62 I49
stroke10  463  63 I49
stroke10  460  64 I49
stroke10  458  65 I49
stroke10  456  65 I49
stroke10  455  65 I49
stroke10  456  64 I49
stroke10  459  64 I49
stroke10  462  63 I49
stroke10  466  63 I49
stroke10  470  62 I49
stroke10  475  62 I49
stroke10  479  62 I49
stroke10  484  63 I49
stroke10  488  63 I49
stroke10  491  64 I49
stroke10  494  65 I49
stroke10  497  67 I49
stroke10  499  69 I49
stroke10  501  71 I49
stroke10  503  74 I49
stroke10  504  77 I49
stroke10  505  80 I49
stroke10  507  84 I49
stroke10  508  87 I49
stroke10  509  90 I49
stroke10  510  93 I49
stroke10  510  95 I49
stroke10  511  97 I49
stroke10  512  99 I49
stroke10  512  100 I49
stroke10  512  101 I49
stroke11  489  34 B34
stroke11  489  35 I34
stroke11  490  36 I34
stroke11  490  37 I34
stroke11  491  38 I34
stroke11  491  40 I34
stroke11  492  41 I34
stroke11  493  43 I34
stroke11  493  44 I34
stroke11  493  46 I34
stroke11  493  47 I34
stroke11  492  48 I34
stroke11  491  47 I34
stroke11  489  46 I34
stroke11  487  44 I34
stroke11  485  41 I34
stroke11  483  38 I34
stroke11  482  35 I34
stroke11  482  33 I34
stroke11  482  31 I34
stroke11  484  29 I34
stroke11  487  28 I34
stroke11  490  27 I34
stroke11  494  27 I34
stroke11  499  28 I34
stroke11  503  28 I34
stroke11  507  29 I34
stroke11  510  29 I34
stroke11  512  30 I34
stroke11  513  30 I34
stroke11  514  29 I34
stroke11  513  28 I34
stroke11  511  27 I34
stroke11  508  25 I34
stroke11  506  22 I34
stroke11  503  19 I34
stroke11  501  16 I34
stroke11  499  13 I34
stroke11  498  11 I34
stroke11  497  8 I34
stroke11  497  6 I34
stroke11  499  5 I34
stroke11  501  4 I34
stroke11  503  4 I34
stroke11  507  5 I34
stroke11  510  7 I34
stroke11  514  10 I34
stroke11  518  13 I34
stroke11  521  17 I34
stroke11  525  21 I34
stroke11  528  26 I34
stroke11  531  31 I34
stroke11  534  35 I34
stroke11  536  39 I34
stroke11  538  42 I34
stroke11  539  45 I34
stroke11  540  46 I34
stroke11  540  48 I34
stroke11  541  48 I34
stroke11  540  47 I34
stroke11  540  45 I34
stroke11  539  43 I34
stroke12  554  3 B1
stroke12  555  3 I1
stroke12  554  4 I1
stroke12  554  5 I1
stroke12  553  7 I1
stroke12  553  10 I1
stroke12  552  13 I1
stroke12  553  16 I1
stroke12  554  20 I1
stroke12  555  24 I1
stroke12  557  27 I1
stroke12  560  31 I1
stroke12  562  34 I1
stroke12  565  37 I1
stroke12  567  39 I1
stroke12  570  41 I1
stroke12  573  42 I1
stroke12  576  43 I1
stroke12  578  42 I1
stroke12  581  41 I1
stroke12  583  40 I1
stroke12  584  37 I1
stroke12  585  34 I1
stroke12  585  30 I1
stroke12  584  26 I1
stroke12  584  21 I1
stroke12  583  17 I1
stroke12  582  13 I1
stroke12  581  10 I1
stroke12  581  8 I1
stroke12  580  8 I1
stroke13  586  44 B48
stroke13  586  49 I48
stroke13  584  52 I48
stroke13  582  56 I48
stroke13  579  58 I48
stroke13  576  60 I48
stroke13  572  62 I48
stroke13  568  63 I48
stroke13  565  64 I48
stroke13  562  65 I48
stroke13  560  66 I48
stroke13  558  68 I48
stroke13  558  69 I48
stroke13  559  71 I48
stroke13  560  72 I48
stroke13  562  73 I48
stroke13  565  74 I48
stroke13  568  75 I48
stroke13  572  74 I48
stroke13  575  73 I48
stroke13  578  71 I48
stroke13  581  69 I48
stroke13  584  66 I48
stroke14  613  28 B8
stroke14  612  27 I8
stroke14  612  26 I8
stroke14  613  26 I8
stroke14  613  25 I8
stroke14  614  25 I8
stroke14  615  24 I8
stroke14  617  23 I8
stroke14  618  22 I8
stroke14  620  21 I8
stroke14  621  19 I8
stroke14  622  17 I8
stroke14  622  15 I8
stroke14  623  12 I8
stroke14  623  10 I8
stroke14  623  7 I8
stroke14  623  5 I8
stroke14  623  3 I8
stroke14  623  2 I8
stroke14  623  1 I8
stroke14  623  0 I8
stroke14  624  0 I8
stroke14  625  1 I8
stroke14  627  3 I8
stroke14  629  6 I8
stroke14  632  9 I8
stroke14  635  13 I8
stroke14  638  17 I8
stroke14  640  21 I8
stroke14  643  26 I8
stroke14  644  31 I8
stroke14  646  35 I8
stroke14  646  40 I8
stroke14  647  43 I8
stroke14  646  46 I8
stroke14  645  48 I8
stroke14  643  50 I8
stroke14  639  50 I8
stroke14  635  50 I8
stroke14  630  49 I8
stroke14  624  46 I8
stroke14  618  44 I8
stroke14  612  40 I8
stroke14  607  37 I8
stroke14  602  34 I8
