stroke1  160  68 B9
stroke1  160  69 I9
stroke1  161  69 I9
stroke1  161  70 I9
stroke1  160  70 I9
stroke1  159  69 I9
stroke1  158  69 I9
stroke1  157  69 I9
stroke1  156  69 I9
stroke1  154  70 I9
stroke1  153  70 I9
stroke1  152  71 I9
stroke1  152  72 I9
stroke1  152  73 I9
stroke1  152  74 I9
stroke1  152  75 I9
stroke1  153  76 I9
stroke1  153  78 I9
stroke1  154  78 I9
stroke1  154  78 I9
stroke1  155  79 I9
stroke1  156  80 I9
stroke1  157  80 I9
stroke1  159  80 I9
stroke1  160  79 I9
stroke1  161  78 I9
stroke1  162  76 I9
stroke1  162  74 I9
stroke1  163  71 I9
stroke1  163  68 I9
stroke1  163  64 I9
stroke1  162  61 I9
stroke1  162  58 I9
stroke1  163  56 I9
stroke1  163  54 I9
stroke1  163  53 I9
stroke1  163  52 I9
stroke1  163  51 I9
stroke1  164  50 I9
stroke1  165  50 I9
stroke1  166  50 I9
stroke1  167  51 I9
stroke1  169  52 I9
stroke1  171  54 I9
stroke1  173  55 I9
stroke1  176  56 I9
stroke1  180  57 I9
stroke1  183  58 I9
stroke1  185  59 I9
stroke1  188  59 I9
stroke1  190  59 I9
stroke1  191  59 I9
stroke1  193  58 I9
stroke1  194  57 I9
stroke1  194  55 I9
stroke1  194  54 I9
stroke1  194  52 I9
stroke1  194  51 I9
stroke1  193  50 I9
stroke1  193  49 I9
stroke1  192  48 I9
stroke1  191  48 I9
stroke1  190  47 I9
stroke1  189  47 I9
stroke1  188  48 I9
stroke1  187  49 I9
stroke1  186  50 I9
stroke1  185  51 I9
stroke1  184  54 I9
stroke1  184  56 I9
stroke1  184  60 I9
stroke1  184  63 I9
stroke1  184  67 I9
stroke1  185  71 I9
stroke1  185  76 I9
stroke1  185  80 I9
stroke1  186  84 I9
stroke1  186  88 I9
stroke1  185  91 I9
stroke1  185  94 I9
stroke1  184  97 I9
stroke1  184  99 I9
stroke1  183  101 I9
stroke1  181  102 I9
stroke1  179  102 I9
stroke1  176  102 I9
stroke1  172  101 I9
stroke1  169  100 I9
stroke1  165  99 I9
stroke1  162  98 I9
stroke1  158  96 I9
stroke1  155  95 I9
stroke1  153  93 I9
stroke1  150  92 I9
stroke1  148  91 I9
stroke1  146  90 I9
stroke1  145  89 I9
stroke1  147  89 I9
stroke2  186  28 B52
stroke2  184  26 I52
stroke2  181  24 I52
stroke2  179  23 I52
stroke2  176  22 I52
stroke2  174  22 I52
stroke2  172  23 I52
stroke2  171  24 I52
stroke2  170  24 I52
stroke2  170  26 I52
stroke2  170  27 I52
stroke2  171  28 I52
stroke2  173  29 I52
stroke2  174  29 I52
stroke2  176  29 I52
stroke2  177  28 I52
stroke2  179  27 I52
stroke2  180  26 I52
stroke2  180  23 I52
stroke2  181  20 I52
stroke2  181  17 I52
stroke2  180  13 I52
stroke2  179  10 I52
stroke2  178  6 I52
stroke2  178  4 I52
stroke2  177  2 I52
stroke2  177  0 I52
stroke2  178  1 I52
stroke2  179  2 I52
stroke2  180  5 I52
stroke2  181  7 I52
stroke3  226  44 B1
stroke3  225  43 I1
stroke3  224  43 I1
stroke3  223  44 I1
stroke3  222  44 I1
stroke3  221  45 I1
stroke3  220  47 I1
stroke3  220  49 I1
stroke3  221  51 I1
stroke3  221  54 I1
stroke3  222  58 I1
stroke3  224  61 I1
stroke3  225  66 I1
stroke3  226  70 I1
stroke3  227  74 I1
stroke3  227  77 I1
stroke3  227  81 I1
stroke3  226  83 I1
stroke3  225  85 I1
stroke3  224  86 I1
stroke3  222  87 I1
stroke3  221  88 I1
stroke3  220  89 I1
stroke3  219  89 I1
stroke3  219  90 I1
stroke3  219  91 I1
stroke3  220  93 I1
stroke3  222  94 I1
stroke3  224  96 I1
stroke3  228  97 I1
stroke3  231  98 I1
stroke3  235  99 I1
stroke3  238  100 I1
stroke3  241  99 I1
stroke3  244  98 I1
stroke3  247  97 I1
stroke3  249  94 I1
stroke3  250  90 I1
stroke3  251  86 I1
stroke3  251  82 I1
stroke3  250  77 I1
stroke3  250  72 I1
stroke3  249  68 I1
stroke3  249  64 I1
stroke3  248  60 I1
stroke3  248  56 I1
stroke3  247  53 I1
stroke3  247  51 I1
stroke3  247  49 I1
stroke3  248  47 I1
stroke3  249  47 I1
stroke3  250  47 I1
stroke4  251  49 B54
stroke4  253  50 I54
stroke4  255  52 I54
stroke4  257  54 I54
stroke4  259  55 I54
stroke4  261  57 I54
stroke4  264  58 I54
stroke4  266  59 I54
stroke4  269  59 I54
stroke4  271  59 I54
stroke4  273  59 I54
stroke4  275  59 I54
stroke4  277  58 I54
stroke4  279  57 I54
stroke4  280  55 I54
stroke4  280  53 I54
stroke4  280  51 I54
stroke4  280  49 I54
stroke4  280  47 I54
stroke4  280  45 I54
stroke4  279  43 I54
stroke4  278  42 I54
stroke4  278  41 I54
stroke4  277  41 I54
stroke4  276  41 I54
stroke4  275  42 I54
stroke4  275  44 I54
stroke4  275  47 I54
stroke4  275  50 I54
stroke4  275  54 I54
stroke4  276  58 I54
stroke4  277  62 I54
stroke4  278  67 I54
stroke4  279  72 I54
stroke4  280  77 I54
stroke4  281  81 I54
stroke4  281  85 I54
stroke4  282  88 I54
stroke4  283  90 I54
stroke4  283  92 I54
stroke4  282  93 I54
stroke5  334  68 B9
stroke5  331  68 I9
stroke5  329  69 I9
stroke5  326  69 I9
stroke5  324  70 I9
stroke5  321  72 I9
stroke5  319  73 I9
stroke5  318  74 I9
stroke5  316  75 I9
stroke5  316  77 I9
stroke5  315  78 I9
stroke5  316  80 I9
stroke5  316  81 I9
stroke5  317  81 I9
stroke5  319  81 I9
stroke5  320  81 I9
stroke5  322  79 I9
stroke5  323  77 I9
stroke5  324  74 I9
stroke5  325  70 I9
stroke5  325  66 I9
stroke5  325  62 I9
stroke5  324  58 I9
stroke5  324  55 I9
stroke5  324  52 I9
stroke5  323  50 I9
stroke5  323  48 I9
stroke5  323  47 I9
stroke5  324  46 I9
stroke5  325  47 I9
stroke5  326  48 I9
stroke5  328  49 I9
stroke5  330  51 I9
stroke5  333  53 I9
stroke5  336  55 I9
stroke5  339  57 I9
stroke5  342  59 I9
stroke5  345  60 I9
stroke5  347  60 I9
stroke5  349  60 I9
stroke5  351  60 I9
stroke5  352  59 I9
stroke5  352  57 I9
stroke5  352  55 I9
stroke5  352  53 I9
stroke5  351  52 I9
stroke5  350  50 I9
stroke5  348  48 I9
stroke5  347  47 I9
stroke5  346  47 I9
stroke5  345  48 I9
stroke5  345  49 I9
stroke5  344  52 I9
stroke5  344  55 I9
stroke5  345  59 I9
stroke5  345  63 I9
stroke5  346  68 I9
stroke5  346  72 I9
stroke5  347  77 I9
stroke5  347  81 I9
stroke5  346  86 I9
stroke5  345  89 I9
stroke5  343  93 I9
stroke5  341  96 I9
stroke5  338  98 I9
stroke5  335  99 I9
stroke5  331  100 I9
stroke5  326  100 I9
stroke5  322  99 I9
stroke5  318  98 I9
stroke5  315  97 I9
stroke5  312  96 I9
stroke5  310  95 I9
stroke5  308  93 I9
stroke5  307  92 I9
stroke5  307  91 I9
stroke5  308  90 I9
stroke5  309  91 I9
stroke5  311  91 I9
stroke6  344  109 B48
stroke6  346  110 I48
stroke6  347  111 I48
stroke6  346  111 I48
stroke6  344  111 I48
stroke6  341  111 I48
stroke6  337  111 I48
stroke6  333  111 I48
stroke6  328  112 I48
stroke6  323  112 I48
stroke6  319  114 I48
stroke6  316  116 I48
stroke6  313  118 I48
stroke6  312  121 I48
stroke6  312  123 I48
stroke6  313  126 I48
stroke6  315  129 I48
stroke6  318  131 I48
stroke6  321  133 I48
stroke6  325  134 I48
stroke6  329  135 I48
stroke6  333  134 I48
stroke6  336  133 I48
stroke6  339  131 I48
stroke6  342  128 I48
stroke6  344  124 I48
stroke6  346  120 I48
stroke6  347  116 I48
stroke6  347  111 I48
stroke6  348  107 I48
stroke7  378  77 B25
stroke7  377  78 I25
stroke7  376  79 I25
stroke7  375  80 I25
stroke7  375  82 I25
stroke7  375  85 I25
stroke7  375  87 I25
stroke7  376  89 I25
stroke7  377  91 I25
stroke7  379  93 I25
stroke7  380  94 I25
stroke7  382  94 I25
stroke7  384  93 I25
stroke7  386  92 I25
stroke7  387  90 I25
stroke7  388  86 I25
stroke7  388  82 I25
stroke7  388  78 I25
stroke7  387  73 I25
stroke7  386  68 I25
stroke7  385  63 I25
stroke7  384  58 I25
stroke7  383  54 I25
stroke7  383  51 I25
stroke7  382  48 I25
stroke7  383  46 I25
stroke7  384  46 I25
stroke7  386  47 I25
stroke7  388  48 I25
stroke7  391  50 I25
stroke7  393  52 I25
stroke7  396  54 I25
stroke7  399  56 I25
stroke7  402  58 I25
stroke7  405  59 I25
stroke7  408  60 I25
stroke7  410  61 I25
stroke7  412  61 I25
stroke7  413  60 I25
stroke7  414  59 I25
stroke7  415  58 I25
stroke7  415  56 I25
stroke7  415  54 I25
stroke7  414  52 I25
stroke7  413  50 I25
stroke7  411  48 I25
stroke7  410  46 I25
stroke7  408  45 I25
stroke7  407  45 I25
stroke7  405  45 I25
stroke7  404  46 I25
stroke7  403  47 I25
stroke7  402  50 I25
stroke7  402  53 I25
stroke7  403  57 I25
stroke7  403  61 I25
stroke7  404  66 I25
stroke7  406  72 I25
stroke7  408  78 I25
stroke7  410  83 I25
stroke7  412  89 I25
stroke7  414  95 I25
stroke7  417  100 I25
stroke7  418  105 I25
stroke7  420  109 I25
stroke7  422  113 I25
stroke7  423  115 I25
stroke7  424  117 I25
stroke7  425  119 I25
stroke7  425  120 I25
stroke7  425  119 I25
stroke7  424  118 I25
