stroke1  157  2 B58
stroke1  157  3 I58
stroke1  158  3 I58
stroke1  158  4 I58
stroke1  158  5 I58
stroke1  159  6 I58
stroke1  160  7 I58
stroke1  160  6 I58
stroke1  161  6 I58
stroke1  160  6 I58
stroke1  160  5 I58
stroke1  159  4 I58
stroke1  158  4 I58
stroke1  158  3 I58
stroke1  157  2 I58
stroke1  156  2 I58
stroke1  155  3 I58
stroke1  155  5 I58
stroke1  155  8 I58
stroke1  155  8 I58
stroke1  156  13 I58
stroke1  157  18 I58
stroke1  158  25 I58
stroke1  160  31 I58
stroke1  162  38 I58
stroke1  165  45 I58
stroke1  167  51 I58
stroke1  169  56 I58
stroke1  170  61 I58
stroke1  170  66 I58
stroke1  169  70 I58
stroke1  167  73 I58
stroke1  165  76 I58
stroke1  162  79 I58
stroke1  159  82 I58
stroke1  156  84 I58
stroke1  152  86 I58
stroke1  149  87 I58
stroke1  147  89 I58
stroke1  144  91 I58
stroke1  142  92 I58
stroke1  141  93 I58
stroke1  141  94 I58
stroke1  141  95 I58
stroke1  142  95 I58
stroke1  144  95 I58
stroke1  147  96 I58
stroke1  152  96 I58
stroke1  157  98 I58
stroke1  162  99 I58
stroke1  168  101 I58
stroke1  174  104 I58
stroke1  180  107 I58
stroke1  186  110 I58
stroke1  191  113 I58
stroke1  195  116 I58
stroke1  198  118 I58
stroke1  201  120 I58
stroke1  202  122 I58
stroke1  204  124 I58
stroke1  205  126 I58
stroke1  205  128 I58
stroke1  206  130 I58
stroke1  207  132 I58
stroke1  208  133 I58
stroke2  224  19 B4
stroke2  225  20 I4
stroke2  226  21 I4
stroke2  227  23 I4
stroke2  228  25 I4
stroke2  229  26 I4
stroke2  230  28 I4
stroke2  230  29 I4
stroke2  231  31 I4
stroke2  231  32 I4
stroke2  230  33 I4
stroke2  230  32 I4
stroke2  229  32 I4
stroke2  228  30 I4
stroke2  226  28 I4
stroke2  224  25 I4
stroke2  222  21 I4
stroke2  219  17 I4
stroke2  216  14 I4
stroke2  213  10 I4
stroke2  211  8 I4
stroke2  210  6 I4
stroke2  208  6 I4
stroke2  207  5 I4
stroke2  206  6 I4
stroke2  205  7 I4
stroke2  204  9 I4
stroke2  204  12 I4
stroke2  203  15 I4
stroke2  203  18 I4
stroke2  203  22 I4
stroke2  204  27 I4
stroke2  206  31 I4
stroke2  209  36 I4
stroke2  212  40 I4
stroke2  216  44 I4
stroke2  220  47 I4
stroke2  224  50 I4
stroke2  228  51 I4
stroke2  231  52 I4
stroke2  234  52 I4
stroke2  237  52 I4
stroke2  240  51 I4
stroke2  242  49 I4
stroke2  245  47 I4
stroke2  247  44 I4
stroke2  248  40 I4
stroke2  249  36 I4
stroke2  249  31 I4
stroke2  249  26 I4
stroke2  248  21 I4
stroke2  248  16 I4
stroke2  247  12 I4
stroke2  248  9 I4
stroke2  249  6 I4
stroke2  250  5 I4
stroke3  276  10 B35
stroke3  276  9 I35
stroke3  275  7 I35
stroke3  275  6 I35
stroke3  274  5 I35
stroke3  274  4 I35
stroke3  275  4 I35
stroke3  276  4 I35
stroke3  278  5 I35
stroke3  280  7 I35
stroke3  283  9 I35
stroke3  285  11 I35
stroke3  288  13 I35
stroke3  290  16 I35
stroke3  291  18 I35
stroke3  292  21 I35
stroke3  291  23 I35
stroke3  290  26 I35
stroke3  289  28 I35
stroke3  287  30 I35
stroke3  286  32 I35
stroke3  284  34 I35
stroke3  283  35 I35
stroke3  282  36 I35
stroke3  282  38 I35
stroke3  281  39 I35
stroke3  281  41 I35
stroke3  282  43 I35
stroke3  283  46 I35
stroke3  285  48 I35
stroke3  287  50 I35
stroke3  289  53 I35
stroke3  292  55 I35
stroke3  295  56 I35
stroke3  298  57 I35
stroke3  301  58 I35
stroke3  303  57 I35
stroke3  306  57 I35
stroke4  323  42 B7
stroke4  323  41 I7
stroke4  323  40 I7
stroke4  323  39 I7
stroke4  322  40 I7
stroke4  321  41 I7
stroke4  320  42 I7
stroke4  321  44 I7
stroke4  321  45 I7
stroke4  321  46 I7
stroke4  322  46 I7
stroke4  323  47 I7
stroke4  324  47 I7
stroke4  325  47 I7
stroke4  327  46 I7
stroke4  328  45 I7
stroke4  329  42 I7
stroke4  330  39 I7
stroke4  330  36 I7
stroke4  329  31 I7
stroke4  328  26 I7
stroke4  327  21 I7
stroke4  325  16 I7
stroke4  323  12 I7
stroke4  322  8 I7
stroke4  321  6 I7
stroke4  320  4 I7
stroke4  319  3 I7
stroke4  318  3 I7
stroke4  317  4 I7
stroke4  315  5 I7
stroke4  314  7 I7
stroke4  312  9 I7
stroke4  311  11 I7
stroke4  310  13 I7
stroke4  309  15 I7
stroke4  307  16 I7
stroke4  306  17 I7
stroke5  364  9 B40
stroke5  365  10 I40
stroke5  365  11 I40
stroke5  366  12 I40
stroke5  367  12 I40
stroke5  367  11 I40
stroke5  367  10 I40
stroke5  367  8 I40
stroke5  367  6 I40
stroke5  367  5 I40
stroke5  367  4 I40
stroke5  367  3 I40
stroke5  366  3 I40
stroke5  365  4 I40
stroke5  365  5 I40
stroke5  364  6 I40
stroke5  363  8 I40
stroke5  363  10 I40
stroke5  364  12 I40
stroke5  364  15 I40
stroke5  366  17 I40
stroke5  368  19 I40
stroke5  371  20 I40
stroke5  374  21 I40
stroke5  377  22 I40
stroke5  380  21 I40
stroke5  384  21 I40
stroke5  387  20 I40
stroke5  390  18 I40
stroke5  392  17 I40
stroke5  393  15 I40
stroke5  394  13 I40
stroke5  395  11 I40
stroke5  395  10 I40
stroke5  395  9 I40
stroke5  394  10 I40
stroke5  394  13 I40
stroke5  394  16 I40
stroke5  395  21 I40
stroke5  395  26 I40
stroke5  396  31 I40
stroke5  397  36 I40
stroke5  397  40 I40
stroke5  396  44 I40
stroke5  395  47 I40
stroke5  394  49 I40
stroke5  391  51 I40
stroke5  388  51 I40
stroke5  385  52 I40
stroke5  382  51 I40
stroke5  379  51 I40
stroke5  377  50 I40
stroke5  376  49 I40
stroke5  375  49 I40
stroke5  375  48 I40
stroke5  376  47 I40
stroke5  378  47 I40
stroke5  380  47 I40
stroke5  383  48 I40
stroke5  386  49 I40
stroke5  390  50 I40
stroke5  394  52 I40
stroke5  399  55 I40
stroke5  403  58 I40
stroke5  408  61 I40
stroke5  413  64 I40
stroke5  417  67 I40
stroke5  420  69 I40
stroke5  423  71 I40
stroke5  424  72 I40
stroke6  434  10 B35
stroke6  432  8 I35
stroke6  431  6 I35
stroke6  430  5 I35
stroke6  430  4 I35
stroke6  430  3 I35
stroke6  431  3 I35
stroke6  432  4 I35
stroke6  435  5 I35
stroke6  437  7 I35
stroke6  441  9 I35
stroke6  444  12 I35
stroke6  447  14 I35
stroke6  450  17 I35
stroke6  453  20 I35
stroke6  454  23 I35
stroke6  455  27 I35
stroke6  454  30 I35
stroke6  454  34 I35
stroke6  452  37 I35
stroke6  450  39 I35
stroke6  447  42 I35
stroke6  444  44 I35
stroke6  441  46 I35
stroke6  439  47 I35
stroke6  437  48 I35
stroke6  435  49 I35
stroke6  434  50 I35
stroke6  434  51 I35
stroke6  435  53 I35
stroke6  437  54 I35
stroke6  440  56 I35
stroke6  444  58 I35
stroke6  448  61 I35
stroke6  453  63 I35
stroke6  457  65 I35
stroke6  461  67 I35
stroke6  464  70 I35
stroke6  467  72 I35
stroke6  468  75 I35
stroke7  468  78 B66
stroke7  468  81 I66
stroke7  466  85 I66
stroke7  464  89 I66
stroke7  462  92 I66
stroke7  460  94 I66
stroke7  458  96 I66
stroke7  455  97 I66
stroke7  454  97 I66
stroke7  452  96 I66
stroke7  451  95 I66
stroke7  450  93 I66
stroke7  450  92 I66
stroke7  451  90 I66
stroke7  452  88 I66
stroke7  454  87 I66
stroke7  457  86 I66
stroke7  459  86 I66
stroke7  462  86 I66
stroke7  466  86 I66
stroke7  469  87 I66
stroke7  473  89 I66
stroke7  477  91 I66
stroke7  480  94 I66
stroke7  484  97 I66
stroke7  488  101 I66
stroke7  491  105 I66
stroke7  495  108 I66
stroke7  498  112 I66
stroke7  500  114 I66
stroke7  502  116 I66
stroke7  503  117 I66
stroke7  504  118 I66
stroke8  493  44 B47
stroke8  492  44 I47
stroke8  492  45 I47
stroke8  493  46 I47
stroke8  493  47 I47
stroke8  495  48 I47
stroke8  496  50 I47
stroke8  498  51 I47
stroke8  501  52 I47
stroke8  503  53 I47
stroke8  506  53 I47
stroke8  508  53 I47
stroke8  510  51 I47
stroke8  511  49 I47
stroke8  512  46 I47
stroke8  512  42 I47
stroke8  512  37 I47
stroke8  511  32 I47
stroke8  510  28 I47
stroke8  509  23 I47
stroke8  507  19 I47
stroke8  506  16 I47
stroke8  505  14 I47
stroke8  505  12 I47
stroke8  504  11 I47
stroke8  504  12 I47
stroke8  505  13 I47
stroke8  506  15 I47
stroke9  568  43 B7
stroke9  567  43 I7
stroke9  566  44 I7
stroke9  564  44 I7
stroke9  562  44 I7
stroke9  560  45 I7
stroke9  558  46 I7
stroke9  557  48 I7
stroke9  556  49 I7
stroke9  556  51 I7
stroke9  556  52 I7
stroke9  557  54 I7
stroke9  558  55 I7
stroke9  559  57 I7
stroke9  560  58 I7
stroke9  561  58 I7
stroke9  563  59 I7
stroke9  564  58 I7
stroke9  565  56 I7
stroke9  565  54 I7
stroke9  566  50 I7
stroke9  565  46 I7
stroke9  565  41 I7
stroke9  564  35 I7
stroke9  563  29 I7
stroke9  562  24 I7
stroke9  561  18 I7
stroke9  560  14 I7
stroke9  559  10 I7
stroke9  557  6 I7
stroke9  556  4 I7
stroke9  554  2 I7
stroke9  552  0 I7
stroke9  550  0 I7
stroke9  548  0 I7
stroke9  545  1 I7
stroke9  542  4 I7
stroke9  539  6 I7
stroke9  535  10 I7
stroke9  532  13 I7
stroke9  528  17 I7
stroke9  525  20 I7
stroke9  522  22 I7
stroke9  519  24 I7
stroke9  516  26 I7
stroke9  513  27 I7
