stroke1  107  3 B35
stroke1  108  4 I35
stroke1  108  5 I35
stroke1  109  5 I35
stroke1  109  6 I35
stroke1  109  7 I35
stroke1  108  8 I35
stroke1  108  9 I35
stroke1  107  10 I35
stroke1  106  10 I35
stroke1  105  10 I35
stroke1  103  10 I35
stroke1  102  9 I35
stroke1  101  8 I35
stroke1  100  6 I35
stroke1  99  5 I35
stroke1  99  3 I35
stroke1  100  2 I35
stroke1  101  3 I35
stroke1  101  3 I35
stroke1  102  4 I35
stroke1  104  6 I35
stroke1  106  9 I35
stroke1  107  11 I35
stroke1  109  15 I35
stroke1  111  18 I35
stroke1  112  21 I35
stroke1  112  25 I35
stroke1  112  28 I35
stroke1  111  31 I35
stroke1  110  34 I35
stroke1  109  37 I35
stroke1  107  40 I35
stroke1  105  41 I35
stroke1  103  43 I35
stroke1  101  44 I35
stroke1  100  45 I35
stroke1  99  46 I35
stroke1  98  47 I35
stroke1  99  48 I35
stroke1  101  49 I35
stroke1  102  49 I35
stroke1  110  52 I35
stroke1  113  54 I35
stroke1  116  56 I35
stroke1  120  58 I35
stroke1  123  60 I35
stroke1  126  62 I35
stroke1  128  63 I35
stroke1  130  65 I35
stroke2  141  49 B47
stroke2  142  50 I47
stroke2  142  52 I47
stroke2  143  53 I47
stroke2  144  55 I47
stroke2  145  57 I47
stroke2  147  58 I47
stroke2  149  59 I47
stroke2  151  60 I47
stroke2  153  60 I47
stroke2  155  59 I47
stroke2  157  58 I47
stroke2  158  56 I47
stroke2  159  54 I47
stroke2  160  51 I47
stroke2  159  47 I47
stroke2  159  43 I47
stroke2  158  38 I47
stroke2  157  34 I47
stroke2  156  30 I47
stroke2  155  27 I47
stroke2  155  25 I47
stroke2  156  23 I47
stroke2  156  22 I47
stroke2  158  22 I47
stroke2  159  23 I47
stroke3  187  45 B34
stroke3  188  45 I34
stroke3  189  46 I34
stroke3  190  47 I34
stroke3  191  49 I34
stroke3  193  50 I34
stroke3  194  51 I34
stroke3  195  53 I34
stroke3  195  54 I34
stroke3  195  55 I34
stroke3  195  56 I34
stroke3  194  57 I34
stroke3  193  57 I34
stroke3  191  56 I34
stroke3  189  55 I34
stroke3  187  53 I34
stroke3  185  51 I34
stroke3  184  48 I34
stroke3  183  46 I34
stroke3  182  43 I34
stroke3  183  41 I34
stroke3  183  40 I34
stroke3  184  39 I34
stroke3  186  38 I34
stroke3  188  38 I34
stroke3  190  38 I34
stroke3  192  37 I34
stroke3  193  37 I34
stroke3  194  37 I34
stroke3  195  36 I34
stroke3  195  34 I34
stroke3  194  32 I34
stroke3  194  29 I34
stroke3  193  26 I34
stroke3  192  22 I34
stroke3  192  19 I34
stroke3  191  16 I34
stroke3  191  13 I34
stroke3  192  11 I34
stroke3  192  9 I34
stroke3  193  7 I34
stroke3  195  6 I34
stroke3  197  6 I34
stroke3  199  6 I34
stroke3  201  7 I34
stroke3  204  9 I34
stroke3  206  12 I34
stroke3  209  15 I34
stroke3  212  19 I34
stroke3  215  23 I34
stroke3  217  28 I34
stroke3  219  32 I34
stroke3  221  36 I34
stroke3  222  39 I34
stroke3  223  42 I34
stroke3  224  44 I34
stroke3  224  46 I34
stroke3  224  47 I34
stroke3  223  47 I34
stroke4  258  1 B36
stroke4  255  1 I36
stroke4  253  0 I36
stroke4  250  0 I36
stroke4  248  0 I36
stroke4  245  0 I36
stroke4  244  1 I36
stroke4  243  2 I36
stroke4  242  4 I36
stroke4  243  7 I36
stroke4  244  9 I36
stroke4  246  12 I36
stroke4  249  14 I36
stroke4  251  16 I36
stroke4  254  17 I36
stroke4  256  17 I36
stroke4  259  17 I36
stroke4  261  17 I36
stroke4  264  16 I36
stroke4  266  15 I36
stroke4  267  14 I36
stroke4  269  13 I36
stroke4  270  13 I36
stroke4  271  13 I36
stroke4  272  13 I36
stroke4  273  14 I36
stroke4  274  15 I36
stroke4  275  18 I36
stroke4  275  21 I36
stroke4  276  24 I36
stroke4  276  28 I36
stroke4  276  32 I36
stroke4  275  36 I36
stroke4  273  40 I36
stroke4  271  42 I36
stroke4  268  44 I36
stroke4  264  45 I36
stroke4  259  45 I36
stroke4  254  44 I36
stroke4  250  43 I36
stroke4  245  42 I36
stroke4  242  41 I36
stroke4  240  40 I36
stroke4  239  39 I36
stroke4  238  38 I36
stroke4  240  38 I36
stroke4  242  38 I36
stroke4  245  39 I36
stroke4  248  39 I36
stroke5  292  40 B46
stroke5  293  39 I46
stroke5  294  40 I46
stroke5  295  40 I46
stroke5  297  41 I46
stroke5  298  42 I46
stroke5  299  43 I46
stroke5  301  43 I46
stroke5  302  44 I46
stroke5  304  45 I46
stroke5  305  45 I46
stroke5  305  46 I46
stroke5  306  45 I46
stroke5  305  44 I46
stroke5  304  42 I46
stroke5  302  40 I46
stroke5  300  37 I46
stroke5  298  34 I46
stroke5  296  31 I46
stroke5  295  28 I46
stroke5  294  27 I46
stroke5  294  25 I46
stroke5  295  24 I46
stroke5  297  24 I46
stroke5  300  24 I46
stroke5  302  24 I46
stroke5  305  25 I46
stroke5  308  25 I46
stroke5  311  26 I46
stroke5  313  26 I46
stroke5  315  26 I46
stroke5  316  27 I46
stroke5  317  27 I46
stroke5  317  28 I46
stroke6  359  51 B54
stroke6  357  51 I54
stroke6  356  51 I54
stroke6  355  50 I54
stroke6  354  48 I54
stroke6  352  45 I54
stroke6  350  41 I54
stroke6  349  38 I54
stroke6  348  35 I54
stroke6  347  31 I54
stroke6  346  28 I54
stroke6  346  24 I54
stroke6  346  21 I54
stroke6  347  19 I54
stroke6  347  17 I54
stroke6  348  15 I54
stroke7  377  27 B43
stroke7  379  28 I43
stroke7  381  29 I43
stroke7  383  30 I43
stroke7  384  32 I43
stroke7  384  33 I43
stroke7  384  34 I43
stroke7  384  36 I43
stroke7  383  37 I43
stroke7  382  38 I43
stroke7  380  38 I43
stroke7  378  38 I43
stroke7  376  36 I43
stroke7  374  34 I43
stroke7  372  32 I43
stroke7  371  29 I43
stroke7  371  27 I43
stroke7  371  24 I43
stroke7  372  22 I43
stroke7  374  20 I43
stroke7  376  19 I43
stroke7  379  18 I43
stroke7  382  18 I43
stroke7  385  19 I43
stroke7  389  20 I43
stroke7  392  22 I43
stroke7  395  24 I43
stroke7  398  28 I43
stroke7  401  31 I43
stroke7  402  35 I43
stroke7  403  39 I43
stroke7  402  43 I43
stroke7  401  46 I43
stroke7  399  49 I43
stroke7  396  51 I43
stroke7  392  52 I43
stroke7  388  53 I43
stroke7  383  53 I43
stroke7  378  52 I43
stroke7  375  51 I43
stroke7  372  50 I43
stroke7  370  49 I43
stroke7  370  47 I43
stroke8  370  46 B49
stroke8  372  46 I49
stroke8  375  46 I49
stroke8  378  46 I49
stroke8  381  48 I49
stroke8  385  50 I49
stroke8  388  52 I49
stroke8  392  55 I49
stroke8  394  58 I49
stroke8  396  62 I49
stroke8  397  66 I49
stroke8  398  71 I49
stroke8  397  76 I49
stroke8  396  80 I49
stroke8  394  84 I49
stroke8  392  87 I49
stroke8  389  90 I49
stroke8  387  91 I49
stroke8  385  92 I49
stroke8  383  92 I49
stroke8  381  91 I49
stroke8  380  89 I49
stroke8  381  87 I49
stroke8  382  85 I49
stroke8  384  83 I49
stroke8  387  81 I49
stroke8  390  80 I49
stroke8  393  79 I49
stroke8  397  79 I49
stroke8  400  79 I49
stroke8  403  80 I49
stroke8  406  82 I49
stroke8  408  85 I49
stroke8  411  88 I49
stroke8  413  91 I49
stroke8  415  96 I49
stroke8  417  101 I49
stroke8  419  106 I49
stroke8  421  110 I49
stroke8  422  114 I49
stroke8  423  117 I49
stroke8  423  120 I49
stroke8  424  122 I49
stroke8  424  124 I49
stroke8  423  125 I49
stroke9  443  42 B34
stroke9  443  41 I34
stroke9  444  41 I34
stroke9  444  42 I34
stroke9  445  43 I34
stroke9  446  44 I34
stroke9  447  46 I34
stroke9  447  47 I34
stroke9  448  49 I34
stroke9  447  50 I34
stroke9  446  51 I34
stroke9  445  51 I34
stroke9  444  51 I34
stroke9  442  50 I34
stroke9  440  48 I34
stroke9  439  46 I34
stroke9  437  44 I34
stroke9  437  42 I34
stroke9  436  40 I34
stroke9  437  38 I34
stroke9  438  37 I34
stroke9  439  36 I34
stroke9  441  35 I34
stroke9  443  34 I34
stroke9  445  34 I34
stroke9  447  34 I34
stroke9  449  34 I34
stroke9  451  34 I34
stroke9  451  35 I34
stroke9  451  34 I34
stroke9  450  34 I34
stroke9  448  32 I34
stroke9  446  31 I34
stroke9  445  28 I34
stroke9  443  26 I34
stroke9  442  23 I34
stroke9  441  21 I34
stroke9  441  18 I34
stroke9  441  16 I34
stroke9  442  15 I34
stroke9  444  14 I34
stroke9  445  13 I34
stroke9  448  13 I34
stroke9  450  14 I34
stroke9  453  15 I34
stroke9  456  16 I34
stroke9  458  18 I34
stroke9  461  21 I34
stroke9  463  24 I34
stroke9  465  27 I34
stroke9  467  31 I34
stroke9  469  34 I34
stroke9  471  37 I34
stroke9  473  40 I34
stroke9  474  42 I34
stroke9  476  44 I34
stroke9  477  45 I34
stroke9  479  45 I34
stroke9  480  45 I34
stroke9  481  45 I34
stroke9  483  44 I34
stroke10  493  40 B20
stroke10  494  39 I20
stroke10  496  39 I20
stroke10  497  38 I20
stroke10  498  38 I20
stroke10  499  39 I20
stroke10  500  39 I20
stroke10  501  39 I20
stroke10  502  40 I20
stroke10  503  40 I20
stroke10  505  40 I20
stroke10  506  39 I20
stroke10  508  39 I20
stroke10  508  37 I20
stroke10  509  36 I20
stroke10  508  33 I20
stroke10  508  31 I20
stroke10  506  28 I20
stroke10  504  26 I20
stroke10  501  23 I20
stroke10  498  21 I20
stroke10  495  20 I20
stroke10  492  20 I20
stroke10  489  21 I20
stroke10  488  23 I20
stroke10  487  26 I20
stroke10  487  30 I20
stroke10  489  34 I20
stroke10  491  39 I20
stroke10  495  43 I20
stroke10  499  47 I20
stroke10  504  50 I20
stroke10  509  53 I20
stroke10  514  54 I20
stroke10  519  55 I20
stroke10  524  56 I20
stroke10  528  55 I20
stroke10  532  52 I20
stroke10  535  49 I20
stroke10  536  45 I20
stroke10  537  39 I20
stroke10  537  33 I20
stroke10  536  27 I20
stroke10  535  21 I20
stroke10  533  15 I20
stroke10  531  11 I20
stroke10  530  8 I20
stroke10  528  6 I20
stroke10  527  5 I20
