stroke1  109  78 B23
stroke1  107  78 I23
stroke1  105  78 I23
stroke1  103  79 I23
stroke1  101  80 I23
stroke1  100  81 I23
stroke1  99  82 I23
stroke1  99  83 I23
stroke1  99  85 I23
stroke1  99  86 I23
stroke1  100  88 I23
stroke1  101  88 I23
stroke1  102  89 I23
stroke1  103  88 I23
stroke1  104  87 I23
stroke1  105  85 I23
stroke1  105  83 I23
stroke1  106  79 I23
stroke1  106  76 I23
stroke1  106  73 I23
stroke1  106  69 I23
stroke1  106  66 I23
stroke1  106  63 I23
stroke1  107  61 I23
stroke1  107  59 I23
stroke1  108  59 I23
stroke1  109  60 I23
stroke1  111  62 I23
stroke1  113  64 I23
stroke1  115  68 I23
stroke1  118  72 I23
stroke1  121  76 I23
stroke1  124  80 I23
stroke1  128  84 I23
stroke1  131  87 I23
stroke1  134  89 I23
stroke1  136  91 I23
stroke1  138  91 I23
stroke1  139  91 I23
stroke1  140  90 I23
stroke1  141  88 I23
stroke1  141  85 I23
stroke1  141  82 I23
stroke1  141  78 I23
stroke1  140  75 I23
stroke1  140  71 I23
stroke1  140  68 I23
stroke1  140  65 I23
stroke1  140  63 I23
stroke1  140  62 I23
stroke1  141  61 I23
stroke1  142  62 I23
stroke2  133  101 B49
stroke2  130  104 I49
stroke2  126  106 I49
stroke2  123  109 I49
stroke2  119  110 I49
stroke2  116  111 I49
stroke2  114  113 I49
stroke2  112  113 I49
stroke2  110  114 I49
stroke2  111  114 I49
stroke2  113  113 I49
stroke2  116  112 I49
stroke2  119  112 I49
stroke2  122  111 I49
stroke2  125  111 I49
stroke2  128  110 I49
stroke2  131  110 I49
stroke2  133  110 I49
stroke2  135  110 I49
stroke2  137  110 I49
stroke2  138  110 I49
stroke2  139  111 I49
stroke2  140  112 I49
stroke2  141  113 I49
stroke2  142  115 I49
stroke2  142  117 I49
stroke2  143  120 I49
stroke2  143  122 I49
stroke2  142  124 I49
stroke3  142  137 B65
stroke3  142  139 I65
stroke3  142  141 I65
stroke3  143  143 I65
stroke3  143  145 I65
stroke3  144  147 I65
stroke3  144  150 I65
stroke3  145  152 I65
stroke3  145  154 I65
stroke3  145  155 I65
stroke3  145  156 I65
stroke3  145  157 I65
stroke3  145  156 I65
stroke4  195  73 B43
stroke4  194  73 I43
stroke4  194  74 I43
stroke4  193  74 I43
stroke4  193  75 I43
stroke4  192  75 I43
stroke4  191  76 I43
stroke4  190  76 I43
stroke4  189  76 I43
stroke4  187  75 I43
stroke4  186  73 I43
stroke4  185  71 I43
stroke4  184  68 I43
stroke4  183  65 I43
stroke4  183  62 I43
stroke4  183  59 I43
stroke4  184  57 I43
stroke4  185  55 I43
stroke4  187  53 I43
stroke4  189  53 I43
stroke4  193  53 I43
stroke4  196  54 I43
stroke4  200  56 I43
stroke4  204  58 I43
stroke4  207  61 I43
stroke4  210  64 I43
stroke4  213  67 I43
stroke4  215  70 I43
stroke4  216  74 I43
stroke4  216  78 I43
stroke4  216  82 I43
stroke4  215  86 I43
stroke4  214  90 I43
stroke4  212  93 I43
stroke4  209  96 I43
stroke4  206  98 I43
stroke4  203  99 I43
stroke4  200  100 I43
stroke4  198  101 I43
stroke4  195  101 I43
stroke4  194  101 I43
stroke4  193  101 I43
stroke4  192  101 I43
stroke4  193  101 I43
stroke4  194  101 I43
stroke4  196  101 I43
stroke4  198  100 I43
stroke5  253  88 B34
stroke5  254  88 I34
stroke5  254  89 I34
stroke5  255  90 I34
stroke5  255  92 I34
stroke5  256  93 I34
stroke5  256  95 I34
stroke5  257  96 I34
stroke5  256  98 I34
stroke5  256  99 I34
stroke5  255  100 I34
stroke5  254  101 I34
stroke5  252  101 I34
stroke5  251  101 I34
stroke5  249  100 I34
stroke5  248  98 I34
stroke5  246  96 I34
stroke5  246  94 I34
stroke5  245  92 I34
stroke5  246  90 I34
stroke5  247  89 I34
stroke5  249  87 I34
stroke5  251  86 I34
stroke5  253  85 I34
stroke5  255  85 I34
stroke5  257  84 I34
stroke5  259  84 I34
stroke5  261  84 I34
stroke5  262  84 I34
stroke5  262  83 I34
stroke5  261  82 I34
stroke5  260  80 I34
stroke5  258  78 I34
stroke5  256  76 I34
stroke5  254  73 I34
stroke5  253  70 I34
stroke5  251  67 I34
stroke5  250  64 I34
stroke5  249  61 I34
stroke5  250  59 I34
stroke5  250  56 I34
stroke5  252  55 I34
stroke5  254  53 I34
stroke5  256  52 I34
stroke5  259  52 I34
stroke5  262  52 I34
stroke5  265  52 I34
stroke5  268  53 I34
stroke5  271  54 I34
stroke5  274  56 I34
stroke5  276  59 I34
stroke5  278  62 I34
stroke5  280  65 I34
stroke5  281  69 I34
stroke5  282  73 I34
stroke5  283  77 I34
stroke5  283  81 I34
stroke5  283  84 I34
stroke5  283  86 I34
stroke5  283  88 I34
stroke5  282  88 I34
stroke5  281  88 I34
stroke5  280  86 I34
stroke5  278  84 I34
stroke6  255  28 B53
stroke6  253  25 I53
stroke6  252  23 I53
stroke6  251  22 I53
stroke6  250  21 I53
stroke6  249  21 I53
stroke6  250  20 I53
stroke6  250  19 I53
stroke6  250  18 I53
stroke6  251  16 I53
stroke6  251  15 I53
stroke6  251  13 I53
stroke6  251  10 I53
stroke6  251  8 I53
stroke6  251  6 I53
stroke6  252  4 I53
stroke6  252  2 I53
stroke6  253  1 I53
stroke6  254  0 I53
stroke6  255  0 I53
stroke6  256  1 I53
stroke6  258  1 I53
stroke6  259  3 I53
stroke6  261  5 I53
stroke6  263  8 I53
stroke6  264  11 I53
stroke6  266  15 I53
stroke6  267  20 I53
stroke6  268  25 I53
stroke6  269  30 I53
stroke6  269  36 I53
stroke7  283  112 B65
stroke7  284  116 I65
stroke7  285  119 I65
stroke7  286  123 I65
stroke7  286  126 I65
stroke7  287  130 I65
stroke7  288  133 I65
stroke7  289  137 I65
stroke7  290  140 I65
stroke7  292  143 I65
stroke7  293  146 I65
stroke7  294  148 I65
stroke7  295  150 I65
stroke7  295  151 I65
stroke8  342  65 B43
stroke8  343  65 I43
stroke8  344  66 I43
stroke8  345  67 I43
stroke8  347  68 I43
stroke8  348  70 I43
stroke8  349  71 I43
stroke8  349  72 I43
stroke8  350  74 I43
stroke8  349  75 I43
stroke8  349  76 I43
stroke8  348  76 I43
stroke8  346  77 I43
stroke8  345  76 I43
stroke8  343  75 I43
stroke8  342  73 I43
stroke8  340  71 I43
stroke8  339  69 I43
stroke8  339  67 I43
stroke8  339  65 I43
stroke8  339  63 I43
stroke8  340  62 I43
stroke8  341  61 I43
stroke8  343  60 I43
stroke8  344  60 I43
stroke8  346  60 I43
stroke8  349  60 I43
stroke8  351  61 I43
stroke8  353  63 I43
stroke8  355  65 I43
stroke8  358  67 I43
stroke8  360  70 I43
stroke8  361  74 I43
stroke8  363  78 I43
stroke8  363  81 I43
stroke8  362  85 I43
stroke8  361  88 I43
stroke8  358  91 I43
stroke8  355  92 I43
stroke8  351  93 I43
stroke8  346  93 I43
stroke8  341  92 I43
stroke8  336  90 I43
stroke8  333  89 I43
stroke8  330  87 I43
stroke8  327  85 I43
stroke8  326  84 I43
stroke8  326  82 I43
stroke8  327  81 I43
stroke8  329  81 I43
stroke8  331  81 I43
stroke9  378  90 B47
stroke9  379  91 I47
stroke9  380  92 I47
stroke9  382  93 I47
stroke9  383  94 I47
stroke9  384  95 I47
stroke9  385  96 I47
stroke9  387  97 I47
stroke9  389  98 I47
stroke9  391  98 I47
stroke9  393  98 I47
stroke9  395  98 I47
stroke9  396  96 I47
stroke9  398  94 I47
stroke9  398  92 I47
stroke9  398  88 I47
stroke9  398  84 I47
stroke9  397  80 I47
stroke9  396  75 I47
stroke9  395  71 I47
stroke9  394  67 I47
stroke9  393  64 I47
stroke9  393  62 I47
stroke9  393  61 I47
stroke9  393  60 I47
stroke9  394  60 I47
stroke9  394  62 I47
stroke10  457  78 B38
stroke10  458  78 I38
stroke10  459  78 I38
stroke10  459  79 I38
stroke10  459  80 I38
stroke10  458  81 I38
stroke10  458  82 I38
stroke10  458  84 I38
stroke10  457  85 I38
stroke10  456  87 I38
stroke10  456  88 I38
stroke10  455  89 I38
stroke10  454  89 I38
stroke10  454  88 I38
stroke10  453  86 I38
stroke10  452  84 I38
stroke10  450  81 I38
stroke10  449  78 I38
stroke10  447  75 I38
stroke10  446  71 I38
stroke10  444  69 I38
stroke10  442  66 I38
stroke10  441  65 I38
stroke10  439  63 I38
stroke10  437  63 I38
stroke10  436  63 I38
stroke10  434  64 I38
stroke10  433  65 I38
stroke10  432  68 I38
stroke10  431  70 I38
stroke10  431  74 I38
stroke10  431  77 I38
stroke10  432  81 I38
stroke10  434  85 I38
stroke10  437  88 I38
stroke10  440  91 I38
stroke10  444  93 I38
stroke10  447  95 I38
stroke10  451  96 I38
stroke10  455  96 I38
stroke10  458  95 I38
stroke10  462  93 I38
stroke10  464  90 I38
stroke10  466  87 I38
stroke10  468  83 I38
stroke10  469  79 I38
stroke10  469  76 I38
stroke10  470  72 I38
stroke10  470  69 I38
stroke10  470  67 I38
stroke10  469  65 I38
stroke10  469  64 I38
stroke10  469  66 I38
stroke10  468  69 I38
stroke10  469  72 I38
stroke10  469  77 I38
stroke10  470  83 I38
stroke10  471  89 I38
stroke10  473  96 I38
stroke10  476  103 I38
stroke10  478  111 I38
stroke10  481  118 I38
stroke11  483  124 B45
stroke11  486  131 I45
stroke11  487  136 I45
stroke11  488  141 I45
stroke11  489  145 I45
stroke11  489  148 I45
stroke11  489  150 I45
stroke11  487  150 I45
stroke11  486  149 I45
stroke11  483  147 I45
stroke11  480  144 I45
stroke11  477  141 I45
stroke11  475  138 I45
stroke11  473  135 I45
stroke11  472  132 I45
stroke11  471  130 I45
stroke11  470  128 I45
stroke11  471  126 I45
stroke11  472  125 I45
stroke11  473  123 I45
stroke11  475  123 I45
stroke11  477  123 I45
stroke11  479  124 I45
stroke11  483  125 I45
stroke11  487  127 I45
stroke11  492  130 I45
stroke11  497  133 I45
stroke11  502  136 I45
stroke11  506  139 I45
stroke11  510  141 I45
stroke11  513  143 I45
stroke11  515  144 I45
stroke11  516  144 I45
stroke11  517  143 I45
stroke12  520  101 B34
stroke12  519  102 I34
stroke12  518  103 I34
stroke12  517  104 I34
stroke12  516  104 I34
stroke12  515  105 I34
stroke12  513  105 I34
stroke12  512  104 I34
stroke12  510  104 I34
stroke12  509  103 I34
stroke12  508  101 I34
stroke12  508  100 I34
stroke12  508  98 I34
stroke12  509  96 I34
stroke12  511  95 I34
stroke12  512  93 I34
stroke12  514  92 I34
stroke12  516  91 I34
stroke12  517  90 I34
stroke12  519  90 I34
stroke12  519  89 I34
stroke12  520  89 I34
stroke12  520  88 I34
stroke12  519  88 I34
stroke12  518  86 I34
stroke12  516  85 I34
stroke12  514  82 I34
stroke12  511  80 I34
stroke12  509  77 I34
stroke12  507  73 I34
stroke12  505  70 I34
stroke12  504  68 I34
stroke12  504  65 I34
stroke12  505  63 I34
stroke12  507  62 I34
stroke12  510  61 I34
stroke12  513  61 I34
stroke12  517  60 I34
stroke12  520  60 I34
stroke12  524  60 I34
stroke12  528  60 I34
stroke12  531  60 I34
stroke12  533  60 I34
stroke12  536  60 I34
stroke12  537  61 I34
stroke12  539  63 I34
stroke12  541  66 I34
stroke12  543  69 I34
stroke12  544  73 I34
stroke12  546  78 I34
stroke12  547  84 I34
stroke12  549  89 I34
stroke12  550  95 I34
stroke12  551  100 I34
stroke12  553  105 I34
stroke12  554  109 I34
stroke12  554  113 I34
stroke12  555  116 I34
stroke12  555  118 I34
stroke12  555  120 I34
