stroke1  164  64 B29
stroke1  165  64 I29
stroke1  166  63 I29
stroke1  167  63 I29
stroke1  167  64 I29
stroke1  168  64 I29
stroke1  169  64 I29
stroke1  170  65 I29
stroke1  171  65 I29
stroke1  172  66 I29
stroke1  173  66 I29
stroke1  174  67 I29
stroke1  175  67 I29
stroke1  175  68 I29
stroke1  176  69 I29
stroke1  176  70 I29
stroke1  176  71 I29
stroke1  175  71 I29
stroke1  175  72 I29
stroke1  175  72 I29
stroke1  175  73 I29
stroke1  174  73 I29
stroke1  173  73 I29
stroke1  172  74 I29
stroke1  171  73 I29
stroke1  170  73 I29
stroke1  169  72 I29
stroke1  168  72 I29
stroke1  167  71 I29
stroke1  166  69 I29
stroke1  165  68 I29
stroke1  165  66 I29
stroke1  164  65 I29
stroke1  163  63 I29
stroke1  162  61 I29
stroke1  162  60 I29
stroke1  161  58 I29
stroke1  161  56 I29
stroke1  160  54 I29
stroke1  160  52 I29
stroke1  159  51 I29
stroke1  159  49 I29
stroke1  158  47 I29
stroke1  158  45 I29
stroke1  158  43 I29
stroke1  158  42 I29
stroke1  158  40 I29
stroke1  158  39 I29
stroke1  158  38 I29
stroke1  158  36 I29
stroke1  158  35 I29
stroke1  159  34 I29
stroke1  159  32 I29
stroke1  158  31 I29
stroke1  159  30 I29
stroke1  159  28 I29
stroke1  159  27 I29
stroke1  159  25 I29
stroke1  159  24 I29
stroke1  159  23 I29
stroke1  159  21 I29
stroke1  158  20 I29
stroke1  158  19 I29
stroke1  158  18 I29
stroke1  158  17 I29
stroke1  158  16 I29
stroke1  158  15 I29
stroke1  158  14 I29
stroke1  158  13 I29
stroke1  158  12 I29
stroke1  159  12 I29
stroke1  159  11 I29
stroke1  160  11 I29
stroke1  160  10 I29
stroke1  161  10 I29
stroke1  162  10 I29
stroke1  163  10 I29
stroke1  164  11 I29
stroke1  165  11 I29
stroke1  166  11 I29
stroke1  167  12 I29
stroke1  168  13 I29
stroke1  169  14 I29
stroke1  170  16 I29
stroke1  171  17 I29
stroke1  172  19 I29
stroke1  173  21 I29
stroke1  174  23 I29
stroke1  175  24 I29
stroke1  176  26 I29
stroke1  176  27 I29
stroke1  176  29 I29
stroke1  177  30 I29
stroke1  177  31 I29
stroke1  177  32 I29
stroke1  177  33 I29
stroke1  177  34 I29
stroke1  176  33 I29
stroke1  176  32 I29
stroke1  176  30 I29
stroke1  176  29 I29
stroke1  175  27 I29
stroke1  175  25 I29
stroke1  175  23 I29
stroke1  174  21 I29
stroke1  174  20 I29
stroke1  174  18 I29
stroke1  174  16 I29
stroke1  175  15 I29
stroke1  175  14 I29
stroke1  175  13 I29
stroke1  176  12 I29
stroke1  176  11 I29
stroke1  177  11 I29
stroke1  178  10 I29
stroke1  179  10 I29
stroke1  180  9 I29
stroke1  181  9 I29
stroke1  182  9 I29
stroke1  183  9 I29
stroke1  184  9 I29
stroke1  185  9 I29
stroke1  186  9 I29
stroke1  187  9 I29
stroke1  188  9 I29
stroke1  190  10 I29
stroke1  191  10 I29
stroke1  192  11 I29
stroke1  193  11 I29
stroke1  194  12 I29
stroke1  195  13 I29
stroke1  196  14 I29
stroke1  197  15 I29
stroke1  198  16 I29
stroke1  199  17 I29
stroke1  200  18 I29
stroke1  200  20 I29
stroke1  201  21 I29
stroke1  201  23 I29
stroke1  202  25 I29
stroke1  202  27 I29
stroke1  202  30 I29
stroke1  203  33 I29
stroke1  203  36 I29
stroke1  204  40 I29
stroke1  205  43 I29
stroke1  205  46 I29
stroke1  205  49 I29
stroke1  206  52 I29
stroke1  207  55 I29
stroke1  207  58 I29
stroke1  207  62 I29
stroke1  207  65 I29
stroke1  208  69 I29
stroke1  208  73 I29
stroke1  208  76 I29
stroke1  209  80 I29
stroke1  209  84 I29
stroke1  210  87 I29
stroke1  211  90 I29
stroke1  211  93 I29
stroke1  212  96 I29
stroke1  212  99 I29
stroke1  213  102 I29
stroke1  213  105 I29
stroke1  214  109 I29
stroke1  215  113 I29
stroke1  215  117 I29
stroke1  216  120 I29
stroke1  217  124 I29
stroke1  218  127 I29
stroke1  219  129 I29
stroke1  220  131 I29
stroke1  220  133 I29
stroke1  221  135 I29
stroke1  221  136 I29
stroke1  222  137 I29
stroke1  222  139 I29
stroke1  222  140 I29
stroke1  223  141 I29
stroke1  223  142 I29
stroke1  224  143 I29
stroke1  224  142 I29
stroke1  223  142 I29
stroke1  222  141 I29
stroke1  221  140 I29
stroke2  186  106 B65
stroke2  186  107 I65
stroke2  186  108 I65
stroke2  186  109 I65
stroke2  187  110 I65
stroke2  187  111 I65
stroke2  187  110 I65
stroke2  187  108 I65
stroke2  186  106 I65
stroke2  186  103 I65
stroke2  186  101 I65
stroke2  186  98 I65
stroke2  185  95 I65
stroke2  185  93 I65
stroke2  184  90 I65
stroke2  184  89 I65
stroke2  184  87 I65
stroke2  184  86 I65
stroke3  221  59 B47
stroke3  221  60 I47
stroke3  221  61 I47
stroke3  220  62 I47
stroke3  220  63 I47
stroke3  220  64 I47
stroke3  220  65 I47
stroke3  220  66 I47
stroke3  220  67 I47
stroke3  220  68 I47
stroke3  220  69 I47
stroke3  221  70 I47
stroke3  221  71 I47
stroke3  222  72 I47
stroke3  222  73 I47
stroke3  223  73 I47
stroke3  223  74 I47
stroke3  224  74 I47
stroke3  225  75 I47
stroke3  226  75 I47
stroke3  227  75 I47
stroke3  228  76 I47
stroke3  229  76 I47
stroke3  230  77 I47
stroke3  231  77 I47
stroke3  232  76 I47
stroke3  233  75 I47
stroke3  233  74 I47
stroke3  234  73 I47
stroke3  234  72 I47
stroke3  234  71 I47
stroke3  234  69 I47
stroke3  234  68 I47
stroke3  235  67 I47
stroke3  235  66 I47
stroke3  235  65 I47
stroke3  235  64 I47
stroke3  235  62 I47
stroke3  236  61 I47
stroke3  236  59 I47
stroke3  236  58 I47
stroke3  236  57 I47
stroke3  236  55 I47
stroke3  236  53 I47
stroke3  236  52 I47
stroke3  236  50 I47
stroke3  236  49 I47
stroke3  236  47 I47
stroke3  236  45 I47
stroke3  236  44 I47
stroke3  236  43 I47
stroke3  236  41 I47
stroke3  236  40 I47
stroke3  236  38 I47
stroke3  236  37 I47
stroke3  235  36 I47
stroke3  235  34 I47
stroke3  235  33 I47
stroke3  235  31 I47
stroke3  235  29 I47
stroke3  235  28 I47
stroke3  234  26 I47
stroke3  234  25 I47
stroke3  234  23 I47
stroke3  234  22 I47
stroke3  234  20 I47
stroke3  234  19 I47
stroke3  234  18 I47
stroke3  234  16 I47
stroke3  234  15 I47
stroke3  233  14 I47
stroke3  233  13 I47
stroke3  233  12 I47
stroke3  233  10 I47
stroke3  233  9 I47
stroke3  233  8 I47
stroke3  233  7 I47
stroke3  233  6 I47
stroke3  233  5 I47
stroke3  233  4 I47
stroke3  233  3 I47
stroke3  233  2 I47
stroke3  233  1 I47
stroke3  233  0 I47
stroke3  233  1 I47
stroke3  234  1 I47
stroke3  234  2 I47
stroke3  234  3 I47
stroke3  234  5 I47
stroke4  259  59 B29
stroke4  260  59 I29
stroke4  261  59 I29
stroke4  261  58 I29
stroke4  261  59 I29
stroke4  262  59 I29
stroke4  263  59 I29
stroke4  263  60 I29
stroke4  264  60 I29
stroke4  265  60 I29
stroke4  265  61 I29
stroke4  266  62 I29
stroke4  267  62 I29
stroke4  268  63 I29
stroke4  268  64 I29
stroke4  269  65 I29
stroke4  270  65 I29
stroke4  270  66 I29
stroke4  270  67 I29
stroke4  270  68 I29
stroke4  270  69 I29
stroke4  270  70 I29
stroke4  269  70 I29
stroke4  269  71 I29
stroke4  268  71 I29
stroke4  268  72 I29
stroke4  267  72 I29
stroke4  266  72 I29
stroke4  265  71 I29
stroke4  264  70 I29
stroke4  264  69 I29
stroke4  263  68 I29
stroke4  262  67 I29
stroke4  262  66 I29
stroke4  262  64 I29
stroke4  262  63 I29
stroke4  261  61 I29
stroke4  261  60 I29
stroke4  261  58 I29
stroke4  261  57 I29
stroke4  261  55 I29
stroke4  261  53 I29
stroke4  261  52 I29
stroke4  261  50 I29
stroke4  261  49 I29
stroke4  261  47 I29
stroke4  261  46 I29
stroke4  261  44 I29
stroke4  261  43 I29
stroke4  261  42 I29
stroke4  261  40 I29
stroke4  261  39 I29
stroke4  261  38 I29
stroke4  261  36 I29
stroke4  261  35 I29
stroke4  261  34 I29
stroke4  261  33 I29
stroke4  262  32 I29
stroke4  262  31 I29
stroke4  262  29 I29
stroke4  262  28 I29
stroke4  262  27 I29
stroke4  262  26 I29
stroke4  262  25 I29
stroke4  262  24 I29
stroke4  262  23 I29
stroke4  262  22 I29
stroke4  262  21 I29
stroke4  262  20 I29
stroke4  262  19 I29
stroke4  262  18 I29
stroke4  262  17 I29
stroke4  262  16 I29
stroke4  262  15 I29
stroke4  262  14 I29
stroke4  262  13 I29
stroke4  262  12 I29
stroke4  262  11 I29
stroke4  262  10 I29
stroke4  262  9 I29
stroke4  263  8 I29
stroke4  264  8 I29
stroke4  264  7 I29
stroke4  265  7 I29
stroke4  266  7 I29
stroke4  267  7 I29
stroke4  268  7 I29
stroke4  269  8 I29
stroke4  270  8 I29
stroke4  271  9 I29
stroke4  271  10 I29
stroke4  272  11 I29
stroke4  273  12 I29
stroke4  273  13 I29
stroke4  274  15 I29
stroke4  274  17 I29
stroke4  275  19 I29
stroke4  275  21 I29
stroke4  275  24 I29
stroke4  276  26 I29
stroke4  276  28 I29
stroke4  276  30 I29
stroke4  276  31 I29
stroke4  276  32 I29
stroke4  276  33 I29
stroke4  276  34 I29
stroke4  276  35 I29
stroke4  276  36 I29
stroke4  276  35 I29
stroke4  276  33 I29
stroke4  276  32 I29
stroke4  276  31 I29
stroke4  276  29 I29
stroke4  276  28 I29
stroke4  275  26 I29
stroke4  275  24 I29
stroke4  275  22 I29
stroke4  275  21 I29
stroke4  275  19 I29
stroke4  275  18 I29
stroke4  276  17 I29
stroke4  276  15 I29
stroke4  277  14 I29
stroke4  278  13 I29
stroke4  278  12 I29
stroke4  279  11 I29
stroke4  280  10 I29
stroke4  281  10 I29
stroke4  281  9 I29
stroke4  282  9 I29
stroke4  283  9 I29
stroke4  284  8 I29
stroke4  285  8 I29
stroke4  286  8 I29
stroke4  286  9 I29
stroke4  287  9 I29
stroke4  288  9 I29
stroke4  289  9 I29
stroke4  290  9 I29
stroke4  291  10 I29
stroke4  292  11 I29
stroke4  293  12 I29
stroke4  294  13 I29
stroke4  294  14 I29
stroke4  295  15 I29
stroke4  295  16 I29
stroke4  296  17 I29
stroke4  296  19 I29
stroke4  297  21 I29
stroke4  297  23 I29
stroke4  298  25 I29
stroke4  298  27 I29
stroke4  299  29 I29
stroke4  299  32 I29
stroke4  300  35 I29
stroke4  300  38 I29
stroke4  301  41 I29
stroke4  301  44 I29
stroke4  302  47 I29
stroke4  302  50 I29
stroke4  303  54 I29
stroke4  303  57 I29
stroke4  303  60 I29
stroke4  304  63 I29
stroke4  304  66 I29
stroke4  304  68 I29
stroke4  304  71 I29
stroke4  304  74 I29
stroke4  304  77 I29
stroke4  304  80 I29
stroke4  304  83 I29
stroke4  304  86 I29
stroke4  305  88 I29
stroke4  305  91 I29
stroke4  305  93 I29
stroke4  305  96 I29
stroke4  305  98 I29
stroke4  305  100 I29
stroke4  305  101 I29
stroke4  305  103 I29
stroke4  305  106 I29
stroke4  304  108 I29
stroke4  304  110 I29
stroke4  304  113 I29
stroke4  304  115 I29
stroke4  304  117 I29
stroke4  304  120 I29
stroke4  304  122 I29
stroke4  304  123 I29
stroke4  304  125 I29
stroke4  304  127 I29
stroke4  304  128 I29
stroke4  304  130 I29
stroke4  304  131 I29
stroke4  304  133 I29
stroke4  304  135 I29
stroke4  305  137 I29
stroke4  305  139 I29
stroke4  305  141 I29
stroke4  306  143 I29
stroke4  307  144 I29
stroke4  307  145 I29
stroke4  307  146 I29
stroke4  308  148 I29
stroke4  308  149 I29
stroke4  309  150 I29
stroke4  309  151 I29
stroke4  309  152 I29
stroke4  310  153 I29
stroke4  310  154 I29
stroke4  311  154 I29
stroke4  311  153 I29
stroke4  310  152 I29
stroke4  309  151 I29
stroke5  287  86 B51
stroke5  288  86 I51
stroke5  288  85 I51
stroke5  288  86 I51
stroke5  287  86 I51
stroke5  287  87 I51
stroke5  286  87 I51
stroke5  285  87 I51
stroke5  284  88 I51
stroke5  283  88 I51
stroke5  282  88 I51
stroke5  280  89 I51
stroke5  278  89 I51
stroke5  276  89 I51
stroke5  274  89 I51
stroke5  272  89 I51
stroke5  270  88 I51
stroke5  267  88 I51
stroke5  265  87 I51
stroke5  263  87 I51
stroke5  261  86 I51
stroke5  260  86 I51
stroke5  258  85 I51
stroke5  257  85 I51
stroke5  256  85 I51
stroke5  255  84 I51
stroke5  255  85 I51
stroke5  256  86 I51
stroke5  257  86 I51
stroke5  258  87 I51
stroke5  260  88 I51
stroke5  261  88 I51
stroke5  262  88 I51
stroke5  264  89 I51
stroke5  266  89 I51
stroke5  267  89 I51
stroke5  269  89 I51
stroke5  271  90 I51
stroke5  273  90 I51
stroke5  274  90 I51
stroke5  276  90 I51
stroke5  278  90 I51
stroke5  279  90 I51
stroke5  281  89 I51
stroke5  282  89 I51
stroke5  283  88 I51
stroke5  284  87 I51
stroke5  285  86 I51
stroke5  286  87 I51
stroke5  286  88 I51
stroke5  286  89 I51
stroke5  286  91 I51
stroke5  287  92 I51
stroke5  286  94 I51
stroke5  286  97 I51
stroke5  286  99 I51
stroke5  286  101 I51
stroke5  286  103 I51
stroke5  286  105 I51
stroke5  286  106 I51
stroke5  285  107 I51
stroke5  285  108 I51
stroke5  286  108 I51
stroke5  285  107 I51
stroke5  296  106 I51
stroke5  297  107 I51
stroke5  298  108 I51
stroke5  299  108 I51
stroke5  299  109 I51
stroke5  299  108 I51
stroke5  299  107 I51
stroke5  299  106 I51
stroke5  299  104 I51
stroke5  298  102 I51
stroke5  298  100 I51
stroke5  297  98 I51
stroke5  297  96 I51
stroke5  296  93 I51
stroke5  295  91 I51
stroke5  295  89 I51
stroke5  294  88 I51
stroke5  294  87 I51
stroke5  293  86 I51
stroke6  326  60 B25
stroke6  327  60 I25
stroke6  326  59 I25
stroke6  326  58 I25
stroke6  325  58 I25
stroke6  324  58 I25
stroke6  323  58 I25
stroke6  322  58 I25
stroke6  321  58 I25
stroke6  320  58 I25
stroke6  319  59 I25
stroke6  318  59 I25
stroke6  317  60 I25
stroke6  317  61 I25
stroke6  316  62 I25
stroke6  316  64 I25
stroke6  316  65 I25
stroke6  316  66 I25
stroke6  316  68 I25
stroke6  317  69 I25
stroke6  317  70 I25
stroke6  317  71 I25
stroke6  318  71 I25
stroke6  318  72 I25
stroke6  319  72 I25
stroke6  320  72 I25
stroke6  321  72 I25
stroke6  322  71 I25
stroke6  323  71 I25
stroke6  324  70 I25
stroke6  325  70 I25
stroke6  325  69 I25
stroke6  326  68 I25
stroke6  326  67 I25
stroke6  327  66 I25
stroke6  327  64 I25
stroke6  327  63 I25
stroke6  327  62 I25
stroke6  326  60 I25
stroke6  326  59 I25
stroke6  326  57 I25
stroke6  326  56 I25
stroke6  326  55 I25
stroke6  326  53 I25
stroke6  325  52 I25
stroke6  325  51 I25
stroke6  325  49 I25
stroke6  325  48 I25
stroke6  324  47 I25
stroke6  324  45 I25
stroke6  324  44 I25
stroke6  324  43 I25
stroke6  324  42 I25
stroke6  323  40 I25
stroke6  323  39 I25
stroke6  323  38 I25
stroke6  323  37 I25
stroke6  323  36 I25
stroke6  322  35 I25
stroke6  322  34 I25
stroke6  322  33 I25
stroke6  322  32 I25
stroke6  321  31 I25
stroke6  321  30 I25
stroke6  321  29 I25
stroke6  321  28 I25
stroke6  321  27 I25
stroke6  320  26 I25
stroke6  320  25 I25
stroke6  320  24 I25
stroke6  320  23 I25
stroke6  320  22 I25
stroke6  319  20 I25
stroke6  319  19 I25
stroke6  319  18 I25
stroke6  319  17 I25
stroke6  319  16 I25
stroke6  318  16 I25
stroke6  318  15 I25
stroke6  318  14 I25
stroke6  318  13 I25
stroke6  317  13 I25
stroke6  317  12 I25
stroke6  317  11 I25
stroke6  317  10 I25
stroke6  316  10 I25
stroke6  316  9 I25
stroke6  316  8 I25
stroke6  317  9 I25
stroke6  318  10 I25
stroke6  319  11 I25
stroke6  320  13 I25
stroke6  321  15 I25
stroke6  322  17 I25
stroke6  324  19 I25
stroke6  326  21 I25
stroke6  327  22 I25
stroke6  329  23 I25
stroke6  330  25 I25
stroke6  332  25 I25
stroke6  334  26 I25
stroke6  335  26 I25
stroke6  337  27 I25
stroke6  339  27 I25
stroke6  341  28 I25
stroke6  343  28 I25
stroke6  345  29 I25
stroke6  347  29 I25
stroke6  350  30 I25
stroke6  352  30 I25
stroke6  354  30 I25
stroke6  357  30 I25
stroke6  358  30 I25
stroke6  360  30 I25
stroke6  362  30 I25
stroke6  363  29 I25
stroke6  364  29 I25
stroke6  364  28 I25
stroke6  364  27 I25
stroke6  364  26 I25
stroke6  363  26 I25
stroke6  362  25 I25
stroke6  361  24 I25
stroke6  360  23 I25
stroke6  359  23 I25
stroke6  358  22 I25
stroke6  357  20 I25
stroke6  356  19 I25
stroke6  355  18 I25
stroke6  354  17 I25
stroke6  353  16 I25
stroke6  352  14 I25
stroke6  351  13 I25
stroke6  350  12 I25
stroke6  349  10 I25
stroke6  348  9 I25
stroke6  347  8 I25
stroke6  346  7 I25
stroke6  345  7 I25
stroke6  345  6 I25
stroke6  345  7 I25
stroke6  346  7 I25
stroke6  346  8 I25
stroke6  346  9 I25
stroke6  346  10 I25
stroke6  346  11 I25
stroke6  347  12 I25
stroke6  347  13 I25
stroke6  347  15 I25
stroke6  347  18 I25
stroke6  348  21 I25
stroke6  348  24 I25
stroke6  349  28 I25
stroke6  350  32 I25
stroke6  351  36 I25
stroke6  352  40 I25
stroke6  353  44 I25
stroke6  354  47 I25
stroke6  354  50 I25
stroke6  355  53 I25
stroke6  356  56 I25
stroke6  356  58 I25
stroke6  357  60 I25
stroke6  357  63 I25
stroke6  357  65 I25
stroke6  357  67 I25
stroke6  358  69 I25
stroke6  358  70 I25
stroke6  358  72 I25
stroke6  358  73 I25
stroke6  358  74 I25
stroke6  358  75 I25
stroke6  358  76 I25
stroke6  358  77 I25
stroke6  358  78 I25
stroke6  358  79 I25
stroke6  358  80 I25
stroke6  358  81 I25
stroke6  358  82 I25
stroke6  359  82 I25
stroke6  359  81 I25
stroke6  359  80 I25
stroke6  359  79 I25
stroke6  358  79 I25
stroke6  358  78 I25
