stroke1  224  66 B30
stroke1  225  66 I30
stroke1  226  66 I30
stroke1  226  67 I30
stroke1  227  66 I30
stroke1  226  66 I30
stroke1  226  65 I30
stroke1  225  65 I30
stroke1  225  64 I30
stroke1  224  64 I30
stroke1  223  63 I30
stroke1  222  63 I30
stroke1  222  64 I30
stroke1  221  64 I30
stroke1  220  64 I30
stroke1  219  65 I30
stroke1  218  66 I30
stroke1  217  67 I30
stroke1  216  68 I30
stroke1  216  69 I30
stroke1  216  70 I30
stroke1  216  72 I30
stroke1  216  73 I30
stroke1  217  74 I30
stroke1  218  75 I30
stroke1  219  75 I30
stroke1  220  75 I30
stroke1  220  74 I30
stroke1  221  74 I30
stroke1  222  74 I30
stroke1  222  73 I30
stroke1  223  73 I30
stroke1  224  72 I30
stroke1  225  71 I30
stroke1  225  70 I30
stroke1  226  69 I30
stroke1  227  67 I30
stroke1  227  66 I30
stroke1  227  64 I30
stroke1  228  62 I30
stroke1  228  60 I30
stroke1  228  59 I30
stroke1  228  57 I30
stroke1  229  55 I30
stroke1  229  53 I30
stroke1  229  52 I30
stroke1  229  50 I30
stroke1  229  48 I30
stroke1  230  46 I30
stroke1  230  45 I30
stroke1  230  43 I30
stroke1  230  41 I30
stroke1  230  40 I30
stroke1  230  38 I30
stroke1  230  37 I30
stroke1  230  35 I30
stroke1  230  34 I30
stroke1  230  32 I30
stroke1  230  31 I30
stroke1  230  29 I30
stroke1  230  28 I30
stroke1  230  26 I30
stroke1  230  24 I30
stroke1  230  23 I30
stroke1  230  21 I30
stroke1  230  20 I30
stroke1  230  18 I30
stroke1  230  17 I30
stroke1  230  16 I30
stroke1  230  14 I30
stroke1  230  13 I30
stroke1  230  12 I30
stroke1  230  11 I30
stroke1  230  10 I30
stroke1  230  9 I30
stroke1  230  8 I30
stroke1  230  7 I30
stroke1  230  6 I30
stroke1  230  5 I30
stroke1  230  4 I30
stroke1  230  3 I30
stroke1  230  2 I30
stroke1  230  1 I30
stroke1  230  0 I30
stroke1  230  1 I30
stroke1  231  2 I30
stroke1  231  3 I30
stroke1  231  5 I30
stroke1  232  6 I30
stroke1  232  8 I30
stroke1  233  10 I30
stroke1  234  12 I30
stroke1  235  14 I30
stroke1  236  16 I30
stroke1  236  18 I30
stroke1  237  21 I30
stroke1  238  23 I30
stroke1  238  26 I30
stroke1  239  28 I30
stroke1  240  30 I30
stroke1  240  32 I30
stroke1  240  34 I30
stroke1  241  36 I30
stroke1  241  38 I30
stroke1  242  39 I30
stroke1  242  40 I30
stroke1  242  41 I30
stroke1  243  42 I30
stroke1  244  42 I30
stroke1  244  43 I30
stroke1  244  42 I30
stroke1  245  42 I30
stroke1  245  41 I30
stroke1  245  40 I30
stroke1  245  39 I30
stroke1  246  38 I30
stroke1  246  37 I30
stroke1  246  35 I30
stroke1  246  33 I30
stroke1  246  32 I30
stroke1  246  30 I30
stroke1  247  28 I30
stroke1  247  27 I30
stroke1  247  25 I30
stroke1  247  23 I30
stroke1  248  22 I30
stroke1  248  20 I30
stroke1  249  19 I30
stroke1  249  17 I30
stroke1  250  16 I30
stroke1  250  14 I30
stroke1  250  13 I30
stroke1  251  12 I30
stroke1  251  11 I30
stroke1  251  10 I30
stroke1  252  9 I30
stroke1  252  8 I30
stroke1  253  8 I30
stroke1  253  7 I30
stroke1  253  6 I30
stroke1  254  6 I30
stroke1  254  7 I30
stroke1  254  8 I30
stroke1  254  10 I30
stroke1  254  11 I30
stroke1  255  13 I30
stroke1  255  15 I30
stroke1  255  18 I30
stroke1  255  21 I30
stroke1  255  24 I30
stroke1  255  27 I30
stroke1  256  30 I30
stroke1  256  32 I30
stroke1  256  35 I30
stroke1  257  37 I30
stroke1  257  40 I30
stroke1  257  42 I30
stroke1  258  45 I30
stroke1  258  47 I30
stroke1  258  49 I30
stroke1  258  52 I30
stroke1  258  54 I30
stroke1  258  57 I30
stroke1  258  59 I30
stroke1  258  62 I30
stroke1  258  64 I30
stroke1  258  66 I30
stroke1  258  67 I30
stroke1  258  69 I30
stroke1  258  70 I30
stroke1  258  71 I30
stroke1  258  72 I30
stroke1  258  73 I30
stroke1  257  74 I30
stroke1  257  75 I30
stroke1  257  76 I30
stroke1  257  77 I30
stroke1  257  78 I30
stroke1  257  79 I30
stroke1  257  78 I30
stroke1  257  77 I30
stroke1  256  76 I30
stroke1  256  75 I30
stroke1  255  74 I30
stroke1  255  72 I30
stroke2  285  9 B35
stroke2  286  9 I35
stroke2  286  10 I35
stroke2  285  11 I35
stroke2  284  11 I35
stroke2  283  11 I35
stroke2  282  11 I35
stroke2  281  11 I35
stroke2  280  11 I35
stroke2  279  11 I35
stroke2  278  10 I35
stroke2  276  9 I35
stroke2  275  9 I35
stroke2  274  8 I35
stroke2  273  7 I35
stroke2  273  6 I35
stroke2  272  6 I35
stroke2  272  5 I35
stroke2  273  4 I35
stroke2  274  4 I35
stroke2  275  4 I35
stroke2  276  4 I35
stroke2  277  5 I35
stroke2  278  5 I35
stroke2  279  5 I35
stroke2  281  5 I35
stroke2  282  5 I35
stroke2  282  6 I35
stroke2  283  6 I35
stroke2  284  6 I35
stroke2  285  6 I35
stroke2  285  7 I35
stroke2  286  8 I35
stroke2  286  9 I35
stroke2  287  10 I35
stroke2  287  11 I35
stroke2  287  12 I35
stroke2  287  14 I35
stroke2  288  15 I35
stroke2  288  17 I35
stroke2  288  18 I35
stroke2  288  20 I35
stroke2  288  22 I35
stroke2  288  23 I35
stroke2  288  25 I35
stroke2  288  27 I35
stroke2  288  28 I35
stroke2  289  30 I35
stroke2  289  31 I35
stroke2  289  32 I35
stroke2  289  33 I35
stroke2  289  35 I35
stroke2  289  36 I35
stroke2  289  37 I35
stroke2  289  38 I35
stroke2  288  39 I35
stroke2  288  40 I35
stroke2  288  41 I35
stroke2  288  42 I35
stroke2  288  43 I35
stroke2  287  44 I35
stroke2  288  45 I35
stroke2  288  46 I35
stroke2  288  47 I35
stroke2  287  48 I35
stroke2  287  49 I35
stroke2  287  50 I35
stroke2  287  51 I35
stroke2  286  52 I35
stroke2  286  53 I35
stroke2  286  54 I35
stroke2  286  55 I35
stroke2  285  55 I35
stroke2  285  56 I35
stroke2  285  57 I35
stroke2  284  57 I35
stroke2  283  58 I35
stroke2  282  59 I35
stroke2  281  59 I35
stroke2  280  59 I35
stroke2  280  60 I35
stroke2  279  59 I35
stroke2  278  59 I35
stroke2  277  59 I35
stroke2  276  59 I35
stroke2  275  58 I35
stroke2  273  58 I35
stroke2  272  58 I35
stroke2  271  57 I35
stroke2  270  57 I35
stroke2  269  57 I35
stroke2  268  57 I35
stroke2  268  56 I35
stroke2  267  56 I35
stroke2  266  56 I35
stroke2  266  57 I35
stroke2  267  58 I35
stroke2  267  59 I35
stroke2  268  60 I35
stroke2  268  61 I35
stroke2  269  62 I35
stroke2  270  63 I35
stroke2  270  64 I35
stroke2  271  65 I35
stroke2  272  66 I35
stroke2  272  67 I35
stroke2  273  67 I35
stroke2  274  68 I35
stroke2  275  68 I35
stroke2  276  68 I35
stroke2  277  69 I35
stroke2  278  69 I35
stroke2  279  69 I35
stroke2  281  69 I35
stroke2  283  69 I35
stroke2  284  69 I35
stroke2  285  69 I35
stroke2  286  69 I35
stroke2  287  69 I35
stroke2  289  68 I35
stroke2  290  68 I35
stroke2  291  68 I35
stroke2  292  68 I35
stroke2  293  67 I35
stroke2  294  67 I35
stroke2  295  67 I35
stroke2  296  67 I35
stroke2  297  67 I35
stroke2  298  67 I35
stroke2  299  67 I35
stroke2  300  67 I35
stroke2  301  68 I35
stroke2  302  68 I35
stroke2  303  69 I35
stroke2  305  70 I35
stroke2  306  72 I35
stroke2  307  73 I35
stroke2  309  75 I35
stroke2  310  77 I35
stroke2  312  78 I35
stroke2  313  80 I35
stroke2  314  81 I35
stroke2  313  80 I35
stroke2  313  79 I35
stroke3  312  42 B46
stroke3  311  42 I46
stroke3  310  43 I46
stroke3  309  43 I46
stroke3  308  43 I46
stroke3  307  44 I46
stroke3  306  43 I46
stroke3  305  43 I46
stroke3  304  43 I46
stroke3  304  42 I46
stroke3  303  41 I46
stroke3  303  40 I46
stroke3  304  40 I46
stroke3  305  41 I46
stroke3  306  41 I46
stroke3  308  42 I46
stroke3  310  43 I46
stroke3  313  45 I46
stroke3  315  46 I46
stroke3  318  48 I46
stroke3  320  50 I46
stroke3  323  52 I46
stroke3  325  54 I46
stroke3  327  55 I46
stroke3  329  57 I46
stroke3  330  58 I46
stroke3  331  58 I46
stroke3  332  59 I46
stroke3  331  58 I46
stroke3  330  57 I46
stroke3  328  55 I46
stroke3  308  26 I46
stroke3  309  26 I46
stroke3  308  27 I46
stroke3  307  27 I46
stroke3  307  28 I46
stroke3  306  28 I46
stroke3  305  27 I46
stroke3  305  26 I46
stroke3  305  25 I46
stroke3  306  24 I46
stroke3  307  24 I46
stroke3  308  24 I46
stroke3  310  25 I46
stroke3  311  26 I46
stroke3  313  27 I46
stroke3  316  29 I46
stroke3  318  31 I46
stroke3  320  33 I46
stroke3  323  34 I46
stroke3  325  36 I46
stroke3  326  37 I46
stroke3  327  38 I46
stroke3  328  39 I46
stroke3  329  40 I46
stroke3  328  40 I46
stroke4  348  17 B40
stroke4  347  16 I40
stroke4  347  17 I40
stroke4  347  18 I40
stroke4  347  19 I40
stroke4  347  20 I40
stroke4  347  21 I40
stroke4  347  22 I40
stroke4  348  22 I40
stroke4  348  23 I40
stroke4  348  24 I40
stroke4  349  25 I40
stroke4  349  26 I40
stroke4  350  27 I40
stroke4  351  27 I40
stroke4  351  28 I40
stroke4  352  28 I40
stroke4  353  28 I40
stroke4  354  27 I40
stroke4  353  26 I40
stroke4  353  25 I40
stroke4  353  24 I40
stroke4  353  23 I40
stroke4  352  22 I40
stroke4  352  20 I40
stroke4  352  19 I40
stroke4  352  18 I40
stroke4  351  17 I40
stroke4  351  15 I40
stroke4  351  14 I40
stroke4  350  13 I40
stroke4  350  11 I40
stroke4  349  10 I40
stroke4  349  9 I40
stroke4  348  8 I40
stroke4  347  7 I40
stroke4  347  6 I40
stroke4  346  5 I40
stroke4  345  5 I40
stroke4  345  4 I40
stroke4  344  4 I40
stroke4  344  5 I40
stroke4  344  6 I40
stroke4  344  7 I40
stroke4  345  9 I40
stroke4  345  10 I40
stroke4  345  12 I40
stroke4  345  14 I40
stroke4  346  16 I40
stroke4  346  17 I40
stroke4  346  19 I40
stroke4  347  21 I40
stroke4  347  23 I40
stroke4  348  25 I40
stroke4  349  27 I40
stroke4  349  29 I40
stroke4  350  31 I40
stroke4  350  32 I40
stroke4  351  34 I40
stroke4  351  35 I40
stroke4  352  36 I40
stroke4  352  37 I40
stroke4  352  38 I40
stroke4  352  39 I40
stroke4  352  40 I40
stroke4  353  40 I40
stroke4  354  39 I40
stroke4  355  38 I40
stroke4  355  37 I40
stroke4  356  36 I40
stroke4  356  34 I40
stroke4  357  33 I40
stroke4  357  32 I40
stroke4  358  31 I40
stroke4  358  29 I40
stroke4  359  28 I40
stroke4  360  26 I40
stroke4  360  25 I40
stroke4  361  24 I40
stroke4  361  22 I40
stroke4  362  21 I40
stroke4  363  20 I40
stroke4  363  18 I40
stroke4  364  17 I40
stroke4  364  16 I40
stroke4  365  14 I40
stroke4  365  13 I40
stroke4  365  12 I40
stroke4  366  11 I40
stroke4  366  9 I40
stroke4  366  8 I40
stroke4  367  7 I40
stroke4  367  6 I40
stroke4  368  6 I40
stroke4  368  5 I40
stroke4  368  6 I40
stroke4  368  7 I40
stroke4  368  8 I40
stroke4  368  9 I40
stroke4  368  10 I40
stroke4  367  12 I40
stroke4  367  13 I40
stroke4  367  15 I40
stroke4  367  17 I40
stroke4  367  18 I40
stroke4  367  21 I40
stroke4  367  23 I40
stroke4  367  25 I40
stroke4  366  27 I40
stroke4  366  29 I40
stroke4  366  31 I40
stroke4  366  33 I40
stroke4  365  35 I40
stroke4  365  38 I40
stroke4  365  40 I40
stroke4  365  42 I40
stroke4  364  44 I40
stroke4  364  46 I40
stroke4  364  48 I40
stroke4  364  49 I40
stroke4  364  51 I40
stroke4  364  53 I40
stroke4  364  54 I40
stroke4  364  56 I40
stroke4  363  57 I40
stroke4  363  58 I40
stroke4  363  59 I40
stroke4  363  61 I40
stroke4  363  62 I40
stroke4  362  63 I40
stroke4  362  64 I40
stroke4  362  65 I40
stroke4  362  66 I40
stroke4  362  67 I40
stroke4  362  68 I40
stroke4  361  68 I40
stroke4  361  69 I40
stroke4  361  70 I40
stroke4  360  70 I40
stroke4  360  71 I40
stroke4  360  72 I40
stroke4  359  72 I40
stroke4  359  73 I40
stroke4  358  73 I40
stroke4  358  74 I40
stroke4  357  74 I40
stroke4  357  73 I40
stroke4  356  73 I40
stroke4  355  73 I40
stroke4  354  72 I40
stroke4  353  71 I40
stroke4  351  70 I40
stroke4  349  69 I40
stroke4  347  67 I40
stroke4  344  66 I40
stroke4  342  64 I40
stroke4  339  63 I40
stroke4  337  62 I40
stroke4  335  60 I40
stroke4  333  59 I40
stroke4  331  58 I40
stroke4  330  57 I40
stroke4  329  55 I40
stroke4  328  54 I40
stroke4  328  53 I40
stroke4  366  70 I40
stroke4  367  70 I40
stroke4  368  71 I40
stroke4  369  72 I40
stroke4  371  73 I40
stroke4  373  75 I40
stroke4  375  76 I40
stroke4  378  78 I40
stroke4  380  80 I40
stroke4  383  83 I40
stroke4  387  85 I40
stroke4  390  88 I40
stroke4  392  91 I40
stroke4  395  93 I40
stroke4  397  95 I40
stroke4  399  97 I40
stroke4  400  98 I40
stroke4  401  99 I40
stroke4  402  100 I40
stroke4  402  101 I40
stroke4  401  101 I40
stroke4  400  100 I40
stroke5  396  62 B7
stroke5  397  62 I7
stroke5  397  61 I7
stroke5  397  60 I7
stroke5  396  60 I7
stroke5  396  59 I7
stroke5  395  59 I7
stroke5  394  59 I7
stroke5  394  58 I7
stroke5  393  58 I7
stroke5  392  59 I7
stroke5  391  60 I7
stroke5  390  61 I7
stroke5  390  62 I7
stroke5  389  63 I7
stroke5  389  64 I7
stroke5  389  65 I7
stroke5  389  66 I7
stroke5  390  66 I7
stroke5  390  67 I7
stroke5  391  68 I7
stroke5  391  69 I7
stroke5  392  69 I7
stroke5  393  69 I7
stroke5  394  69 I7
stroke5  395  69 I7
stroke5  396  68 I7
stroke5  397  67 I7
stroke5  397  66 I7
stroke5  398  65 I7
stroke5  398  64 I7
stroke5  398  63 I7
stroke5  398  62 I7
stroke5  398  60 I7
stroke5  398  59 I7
stroke5  397  58 I7
stroke5  397  56 I7
stroke5  397  55 I7
stroke5  397  54 I7
stroke5  396  52 I7
stroke5  396  51 I7
stroke5  396  49 I7
stroke5  395  48 I7
stroke5  395  47 I7
stroke5  395  45 I7
stroke5  394  44 I7
stroke5  394  42 I7
stroke5  394  41 I7
stroke5  394  39 I7
stroke5  393  38 I7
stroke5  393  37 I7
stroke5  393  35 I7
stroke5  393  33 I7
stroke5  393  32 I7
stroke5  392  30 I7
stroke5  392  29 I7
stroke5  392  27 I7
stroke5  392  25 I7
stroke5  392  24 I7
stroke5  391  22 I7
stroke5  391  20 I7
stroke5  391  19 I7
stroke5  391  17 I7
stroke5  391  16 I7
stroke5  391  15 I7
stroke5  391  14 I7
stroke5  391  13 I7
stroke5  391  12 I7
stroke5  391  11 I7
stroke5  391  10 I7
stroke5  391  9 I7
stroke5  391  8 I7
stroke5  391  7 I7
stroke5  391  6 I7
stroke5  391  5 I7
stroke5  390  6 I7
stroke5  390  7 I7
stroke5  390  8 I7
stroke5  390  9 I7
stroke5  389  10 I7
stroke5  389  11 I7
stroke5  388  13 I7
stroke5  387  15 I7
stroke5  386  17 I7
stroke5  385  19 I7
stroke5  383  21 I7
stroke5  381  23 I7
stroke5  380  24 I7
stroke5  378  25 I7
stroke5  377  26 I7
stroke6  419  58 B6
stroke6  420  58 I6
stroke6  420  57 I6
stroke6  421  57 I6
stroke6  420  56 I6
stroke6  420  55 I6
stroke6  419  55 I6
stroke6  418  54 I6
stroke6  417  53 I6
stroke6  416  53 I6
stroke6  415  53 I6
stroke6  414  53 I6
stroke6  413  54 I6
stroke6  412  54 I6
stroke6  412  55 I6
stroke6  411  55 I6
stroke6  411  56 I6
stroke6  410  57 I6
stroke6  410  59 I6
stroke6  411  60 I6
stroke6  411  61 I6
stroke6  411  62 I6
stroke6  411  63 I6
stroke6  412  64 I6
stroke6  412  65 I6
stroke6  413  66 I6
stroke6  413  67 I6
stroke6  414  68 I6
stroke6  414  69 I6
stroke6  415  69 I6
stroke6  416  69 I6
stroke6  417  70 I6
stroke6  418  70 I6
stroke6  419  70 I6
stroke6  420  70 I6
stroke6  421  69 I6
stroke6  421  68 I6
stroke6  421  67 I6
stroke6  421  66 I6
stroke6  422  65 I6
stroke6  422  64 I6
stroke6  422  63 I6
stroke6  423  63 I6
stroke6  423  62 I6
stroke6  424  63 I6
stroke6  425  63 I6
stroke6  426  64 I6
stroke6  427  64 I6
stroke6  428  65 I6
stroke6  429  67 I6
stroke6  430  68 I6
stroke6  432  69 I6
stroke6  433  70 I6
stroke6  434  71 I6
stroke6  435  72 I6
stroke6  436  73 I6
stroke6  437  73 I6
stroke6  437  72 I6
stroke6  437  71 I6
stroke6  437  70 I6
stroke6  437  69 I6
stroke6  437  68 I6
stroke6  437  67 I6
stroke6  436  65 I6
stroke6  436  64 I6
stroke6  436  62 I6
stroke6  436  61 I6
stroke6  435  59 I6
stroke6  435  57 I6
stroke6  434  55 I6
stroke6  434  54 I6
stroke6  434  52 I6
stroke6  433  50 I6
stroke6  433  49 I6
stroke6  432  47 I6
stroke6  432  46 I6
stroke6  432  44 I6
stroke6  431  43 I6
stroke6  431  41 I6
stroke6  431  40 I6
stroke6  430  38 I6
stroke6  430  37 I6
stroke6  429  35 I6
stroke6  429  34 I6
stroke6  428  32 I6
stroke6  428  31 I6
stroke6  428  29 I6
stroke6  427  28 I6
stroke6  427  27 I6
stroke6  426  25 I6
stroke6  426  24 I6
stroke6  426  22 I6
stroke6  426  21 I6
stroke6  425  20 I6
stroke6  425  18 I6
stroke6  425  17 I6
stroke6  425  16 I6
stroke6  424  14 I6
stroke6  424  13 I6
stroke6  424  12 I6
stroke6  423  11 I6
stroke6  423  10 I6
stroke6  423  9 I6
stroke6  423  8 I6
stroke6  423  7 I6
stroke6  422  6 I6
stroke6  422  5 I6
stroke6  422  4 I6
stroke6  422  3 I6
stroke6  422  2 I6
stroke6  421  2 I6
stroke6  421  1 I6
stroke6  420  1 I6
stroke6  420  2 I6
stroke6  419  2 I6
stroke6  419  3 I6
stroke6  418  4 I6
stroke6  417  5 I6
stroke6  417  7 I6
stroke6  416  8 I6
stroke6  416  10 I6
stroke6  416  12 I6
stroke6  416  13 I6
stroke6  416  15 I6
stroke6  417  16 I6
stroke6  417  17 I6
stroke6  418  18 I6
stroke6  419  19 I6
stroke6  420  20 I6
stroke6  421  21 I6
stroke6  422  22 I6
stroke6  423  23 I6
stroke6  424  23 I6
stroke6  425  24 I6
stroke6  426  24 I6
stroke6  427  24 I6
stroke6  428  24 I6
stroke6  429  24 I6
stroke6  430  23 I6
stroke6  431  23 I6
stroke6  431  22 I6
stroke6  432  21 I6
stroke6  433  20 I6
stroke6  434  19 I6
stroke6  435  18 I6
stroke6  436  17 I6
stroke6  437  16 I6
stroke6  438  15 I6
stroke6  439  14 I6
stroke6  439  13 I6
stroke6  440  12 I6
stroke6  440  11 I6
stroke6  441  10 I6
stroke6  441  9 I6
stroke6  441  8 I6
stroke6  441  7 I6
stroke6  442  7 I6
stroke6  442  6 I6
stroke6  443  6 I6
stroke6  443  7 I6
stroke6  443  8 I6
stroke6  443  9 I6
stroke6  444  10 I6
stroke6  444  12 I6
stroke6  444  14 I6
stroke6  445  17 I6
stroke6  445  20 I6
stroke6  446  23 I6
stroke6  447  26 I6
stroke6  448  29 I6
stroke6  449  33 I6
stroke6  450  36 I6
stroke6  450  39 I6
stroke6  451  43 I6
stroke6  452  46 I6
stroke6  453  49 I6
stroke6  453  53 I6
stroke6  454  56 I6
stroke6  454  59 I6
stroke6  455  62 I6
stroke6  456  64 I6
stroke6  456  66 I6
stroke6  457  68 I6
stroke6  457  70 I6
stroke6  458  72 I6
stroke6  458  73 I6
stroke6  458  75 I6
stroke6  459  76 I6
stroke6  459  78 I6
stroke6  459  79 I6
stroke6  459  80 I6
stroke6  460  80 I6
stroke6  459  80 I6
stroke6  459  79 I6
stroke6  458  78 I6
stroke6  458  77 I6
stroke6  457  77 I6
stroke6  457  76 I6
stroke6  456  76 I6
stroke7  456  95 B64
stroke7  457  94 I64
stroke7  457  93 I64
stroke7  457  92 I64
stroke7  457  91 I64
stroke7  457  90 I64
stroke7  456  90 I64
stroke7  456  89 I64
stroke7  455  89 I64
stroke7  454  89 I64
stroke7  453  89 I64
stroke7  452  90 I64
stroke7  451  91 I64
stroke7  451  93 I64
stroke7  451  95 I64
stroke7  452  98 I64
stroke7  454  102 I64
stroke7  457  106 I64
stroke7  460  111 I64
stroke7  464  116 I64
stroke7  469  121 I64
stroke7  475  126 I64
stroke7  480  131 I64
stroke7  485  135 I64
stroke7  490  138 I64
