stroke1  195  16 B40
stroke1  194  16 I40
stroke1  193  16 I40
stroke1  193  17 I40
stroke1  193  18 I40
stroke1  193  19 I40
stroke1  193  20 I40
stroke1  194  21 I40
stroke1  194  22 I40
stroke1  195  23 I40
stroke1  195  24 I40
stroke1  196  24 I40
stroke1  197  24 I40
stroke1  197  25 I40
stroke1  198  25 I40
stroke1  199  25 I40
stroke1  200  25 I40
stroke1  201  24 I40
stroke1  201  23 I40
stroke1  201  22 I40
stroke1  201  21 I40
stroke1  201  20 I40
stroke1  201  19 I40
stroke1  201  18 I40
stroke1  201  17 I40
stroke1  200  17 I40
stroke1  200  16 I40
stroke1  200  15 I40
stroke1  199  13 I40
stroke1  198  12 I40
stroke1  198  11 I40
stroke1  197  9 I40
stroke1  196  7 I40
stroke1  195  6 I40
stroke1  194  5 I40
stroke1  194  4 I40
stroke1  193  3 I40
stroke1  193  2 I40
stroke1  192  2 I40
stroke1  192  3 I40
stroke1  192  4 I40
stroke1  192  6 I40
stroke1  192  7 I40
stroke1  192  9 I40
stroke1  192  10 I40
stroke1  192  13 I40
stroke1  192  15 I40
stroke1  192  17 I40
stroke1  193  20 I40
stroke1  193  22 I40
stroke1  193  24 I40
stroke1  193  26 I40
stroke1  193  28 I40
stroke1  194  30 I40
stroke1  194  32 I40
stroke1  194  33 I40
stroke1  194  35 I40
stroke1  195  36 I40
stroke1  195  38 I40
stroke1  195  39 I40
stroke1  195  40 I40
stroke1  196  41 I40
stroke1  196  42 I40
stroke1  196  43 I40
stroke1  196  44 I40
stroke1  197  45 I40
stroke1  197  46 I40
stroke1  198  47 I40
stroke1  198  48 I40
stroke1  199  48 I40
stroke1  199  49 I40
stroke1  200  50 I40
stroke1  201  50 I40
stroke1  201  51 I40
stroke1  202  51 I40
stroke1  202  50 I40
stroke1  203  50 I40
stroke1  203  49 I40
stroke1  204  48 I40
stroke1  205  47 I40
stroke1  205  45 I40
stroke1  206  44 I40
stroke1  207  42 I40
stroke1  208  41 I40
stroke1  208  39 I40
stroke1  209  37 I40
stroke1  210  35 I40
stroke1  211  33 I40
stroke1  212  32 I40
stroke1  213  30 I40
stroke1  213  28 I40
stroke1  214  26 I40
stroke1  215  24 I40
stroke1  215  22 I40
stroke1  216  20 I40
stroke1  216  18 I40
stroke1  217  16 I40
stroke1  217  14 I40
stroke1  218  13 I40
stroke1  218  11 I40
stroke1  219  10 I40
stroke1  219  9 I40
stroke1  219  8 I40
stroke1  220  7 I40
stroke1  220  6 I40
stroke1  221  6 I40
stroke1  221  7 I40
stroke1  221  8 I40
stroke1  221  9 I40
stroke1  221  10 I40
stroke1  220  11 I40
stroke1  220  13 I40
stroke1  220  14 I40
stroke1  220  16 I40
stroke1  219  18 I40
stroke1  219  20 I40
stroke1  218  22 I40
stroke1  218  24 I40
stroke1  218  26 I40
stroke1  217  27 I40
stroke1  216  29 I40
stroke1  216  31 I40
stroke1  216  32 I40
stroke1  215  34 I40
stroke1  215  35 I40
stroke1  214  37 I40
stroke1  214  39 I40
stroke1  213  41 I40
stroke1  213  43 I40
stroke1  213  44 I40
stroke1  213  46 I40
stroke1  213  48 I40
stroke1  213  49 I40
stroke1  213  51 I40
stroke1  213  52 I40
stroke1  212  54 I40
stroke1  212  55 I40
stroke1  212  56 I40
stroke1  212  57 I40
stroke1  212  59 I40
stroke1  211  60 I40
stroke1  211  61 I40
stroke1  211  62 I40
stroke1  211  63 I40
stroke1  211  64 I40
stroke1  211  65 I40
stroke1  210  66 I40
stroke1  210  67 I40
stroke1  209  68 I40
stroke1  209  69 I40
stroke1  208  69 I40
stroke1  208  70 I40
stroke1  207  70 I40
stroke1  206  71 I40
stroke1  205  71 I40
stroke1  204  71 I40
stroke1  203  71 I40
stroke1  202  71 I40
stroke1  201  71 I40
stroke1  200  71 I40
stroke1  199  71 I40
stroke1  198  71 I40
stroke1  197  71 I40
stroke1  196  70 I40
stroke1  195  70 I40
stroke1  194  70 I40
stroke1  192  69 I40
stroke1  191  68 I40
stroke1  189  67 I40
stroke1  187  65 I40
stroke1  184  63 I40
stroke1  182  61 I40
stroke1  180  59 I40
stroke1  177  57 I40
stroke1  175  55 I40
stroke1  173  53 I40
stroke1  172  51 I40
stroke1  170  50 I40
stroke1  169  49 I40
stroke1  168  48 I40
stroke1  168  47 I40
stroke1  216  67 I40
stroke1  215  67 I40
stroke1  216  68 I40
stroke1  216  69 I40
stroke1  217  70 I40
stroke1  218  71 I40
stroke1  219  72 I40
stroke1  221  74 I40
stroke1  222  76 I40
stroke1  224  78 I40
stroke1  225  79 I40
stroke1  227  81 I40
stroke1  228  83 I40
stroke1  229  84 I40
stroke1  230  85 I40
stroke1  231  87 I40
stroke1  231  88 I40
stroke1  232  90 I40
stroke1  233  91 I40
stroke1  233  92 I40
stroke1  233  93 I40
stroke1  232  93 I40
stroke1  231  93 I40
stroke2  204  94 B56
stroke2  203  94 I56
stroke2  202  94 I56
stroke2  201  94 I56
stroke2  200  94 I56
stroke2  199  94 I56
stroke2  197  94 I56
stroke2  195  93 I56
stroke2  193  93 I56
stroke2  191  92 I56
stroke2  189  92 I56
stroke2  187  92 I56
stroke2  186  91 I56
stroke2  185  91 I56
stroke2  184  90 I56
stroke2  183  89 I56
stroke2  183  88 I56
stroke2  184  87 I56
stroke2  184  86 I56
stroke2  185  85 I56
stroke2  187  83 I56
stroke2  188  83 I56
stroke2  190  82 I56
stroke2  192  82 I56
stroke2  195  82 I56
stroke2  197  83 I56
stroke2  200  84 I56
stroke2  202  85 I56
stroke2  204  86 I56
stroke2  206  87 I56
stroke2  207  88 I56
stroke2  208  89 I56
stroke2  208  90 I56
stroke2  208  91 I56
stroke2  208  92 I56
stroke2  207  93 I56
stroke2  205  93 I56
stroke2  204  93 I56
stroke2  202  92 I56
stroke2  200  91 I56
stroke2  198  90 I56
stroke3  231  56 B47
stroke3  230  56 I47
stroke3  229  57 I47
stroke3  229  58 I47
stroke3  229  59 I47
stroke3  229  60 I47
stroke3  230  61 I47
stroke3  230  62 I47
stroke3  230  63 I47
stroke3  230  64 I47
stroke3  231  65 I47
stroke3  231  66 I47
stroke3  231  67 I47
stroke3  232  68 I47
stroke3  233  69 I47
stroke3  233  70 I47
stroke3  234  71 I47
stroke3  235  72 I47
stroke3  236  72 I47
stroke3  236  73 I47
stroke3  237  74 I47
stroke3  238  75 I47
stroke3  239  75 I47
stroke3  239  76 I47
stroke3  240  76 I47
stroke3  241  76 I47
stroke3  242  77 I47
stroke3  243  77 I47
stroke3  244  77 I47
stroke3  245  76 I47
stroke3  246  76 I47
stroke3  247  76 I47
stroke3  247  75 I47
stroke3  248  75 I47
stroke3  249  74 I47
stroke3  250  73 I47
stroke3  250  72 I47
stroke3  251  71 I47
stroke3  252  70 I47
stroke3  252  69 I47
stroke3  253  68 I47
stroke3  253  67 I47
stroke3  254  66 I47
stroke3  254  64 I47
stroke3  254  63 I47
stroke3  255  61 I47
stroke3  255  60 I47
stroke3  255  58 I47
stroke3  255  57 I47
stroke3  255  55 I47
stroke3  256  54 I47
stroke3  256  53 I47
stroke3  256  51 I47
stroke3  256  50 I47
stroke3  256  49 I47
stroke3  256  47 I47
stroke3  256  46 I47
stroke3  256  44 I47
stroke3  256  42 I47
stroke3  256  41 I47
stroke3  256  40 I47
stroke3  256  38 I47
stroke3  256  37 I47
stroke3  256  36 I47
stroke3  257  35 I47
stroke3  257  34 I47
stroke3  257  33 I47
stroke3  257  31 I47
stroke3  257  30 I47
stroke3  257  29 I47
stroke3  257  27 I47
stroke3  257  26 I47
stroke3  257  24 I47
stroke3  257  23 I47
stroke3  257  22 I47
stroke3  257  21 I47
stroke3  256  19 I47
stroke3  256  18 I47
stroke3  256  17 I47
stroke3  256  16 I47
stroke3  256  15 I47
stroke3  256  14 I47
stroke3  256  13 I47
stroke3  256  12 I47
stroke3  256  11 I47
stroke3  256  10 I47
stroke3  256  9 I47
stroke3  256  8 I47
stroke3  256  7 I47
stroke3  256  6 I47
stroke3  256  5 I47
stroke3  256  4 I47
stroke3  256  3 I47
stroke3  257  2 I47
stroke3  256  1 I47
stroke3  257  1 I47
stroke3  257  0 I47
stroke3  257  1 I47
stroke3  257  2 I47
stroke3  257  3 I47
stroke3  257  4 I47
stroke4  283  59 B41
stroke4  282  58 I41
stroke4  282  57 I41
stroke4  281  57 I41
stroke4  281  56 I41
stroke4  280  56 I41
stroke4  279  56 I41
stroke4  278  56 I41
stroke4  278  57 I41
stroke4  277  57 I41
stroke4  277  58 I41
stroke4  276  59 I41
stroke4  276  60 I41
stroke4  275  61 I41
stroke4  275  62 I41
stroke4  275  63 I41
stroke4  275  65 I41
stroke4  275  66 I41
stroke4  275  67 I41
stroke4  275  68 I41
stroke4  275  69 I41
stroke4  276  71 I41
stroke4  276  72 I41
stroke4  277  73 I41
stroke4  277  74 I41
stroke4  278  74 I41
stroke4  279  73 I41
stroke4  279  72 I41
stroke4  280  71 I41
stroke4  280  70 I41
stroke4  281  69 I41
stroke4  282  68 I41
stroke4  283  68 I41
stroke4  283  67 I41
stroke4  284  66 I41
stroke4  286  66 I41
stroke4  286  65 I41
stroke4  287  65 I41
stroke4  287  64 I41
stroke4  287  63 I41
stroke4  287  62 I41
stroke4  287  61 I41
stroke4  287  59 I41
stroke4  287  57 I41
stroke4  287  55 I41
stroke4  286  54 I41
stroke4  286  52 I41
stroke4  286  51 I41
stroke4  286  49 I41
stroke4  286  47 I41
stroke4  286  46 I41
stroke4  286  45 I41
stroke4  286  43 I41
stroke4  286  42 I41
stroke4  285  40 I41
stroke4  285  39 I41
stroke4  285  37 I41
stroke4  285  36 I41
stroke4  285  34 I41
stroke4  285  32 I41
stroke4  285  31 I41
stroke4  285  29 I41
stroke4  284  28 I41
stroke4  285  27 I41
stroke4  285  26 I41
stroke4  285  25 I41
stroke4  284  24 I41
stroke4  284  23 I41
stroke4  284  22 I41
stroke4  284  21 I41
stroke4  283  20 I41
stroke4  283  19 I41
stroke4  283  18 I41
stroke4  283  17 I41
stroke4  283  16 I41
stroke4  283  15 I41
stroke4  283  14 I41
stroke4  283  13 I41
stroke4  283  12 I41
stroke4  282  12 I41
stroke4  282  11 I41
stroke4  282  10 I41
stroke4  282  9 I41
stroke4  282  8 I41
stroke4  282  7 I41
stroke4  281  6 I41
stroke4  281  5 I41
stroke4  281  4 I41
stroke4  281  3 I41
stroke4  282  3 I41
stroke4  282  2 I41
stroke4  282  3 I41
stroke4  283  4 I41
stroke4  283  5 I41
stroke4  284  7 I41
stroke4  285  8 I41
stroke4  286  10 I41
stroke4  287  12 I41
stroke4  288  14 I41
stroke4  290  16 I41
stroke4  291  18 I41
stroke4  292  21 I41
stroke4  293  23 I41
stroke4  294  25 I41
stroke4  295  28 I41
stroke4  296  30 I41
stroke4  297  32 I41
stroke4  297  34 I41
stroke4  298  36 I41
stroke4  298  38 I41
stroke4  299  40 I41
stroke4  299  42 I41
stroke4  300  43 I41
stroke4  300  45 I41
stroke4  300  46 I41
stroke4  301  48 I41
stroke4  301  49 I41
stroke4  302  51 I41
stroke4  302  52 I41
stroke4  302  53 I41
stroke4  303  55 I41
stroke4  303  56 I41
stroke4  304  57 I41
stroke4  304  58 I41
stroke4  305  59 I41
stroke4  305  60 I41
stroke4  305  61 I41
stroke4  306  62 I41
stroke4  306  63 I41
stroke4  307  64 I41
stroke4  307  65 I41
stroke4  307  66 I41
stroke4  307  67 I41
stroke4  308  68 I41
stroke4  308  69 I41
stroke4  307  70 I41
stroke4  307  71 I41
stroke4  307  72 I41
stroke4  307  73 I41
stroke4  306  73 I41
stroke4  306  74 I41
stroke4  305  75 I41
stroke4  305  74 I41
stroke4  304  73 I41
stroke4  304  72 I41
stroke4  303  70 I41
stroke4  303  69 I41
stroke4  302  67 I41
stroke4  302  66 I41
stroke4  301  64 I41
stroke4  301  62 I41
stroke4  301  60 I41
stroke4  300  58 I41
stroke4  300  56 I41
stroke4  301  54 I41
stroke4  301  52 I41
stroke4  301  50 I41
stroke4  301  48 I41
stroke4  301  46 I41
stroke4  302  45 I41
stroke4  302  43 I41
stroke4  302  42 I41
stroke4  302  40 I41
stroke4  303  38 I41
stroke4  303  37 I41
stroke4  303  35 I41
stroke4  303  33 I41
stroke4  303  32 I41
stroke4  303  30 I41
stroke4  303  29 I41
stroke4  303  27 I41
stroke4  304  26 I41
stroke4  304  24 I41
stroke4  304  23 I41
stroke4  304  22 I41
stroke4  304  20 I41
stroke4  305  19 I41
stroke4  305  17 I41
stroke4  305  16 I41
stroke4  305  15 I41
stroke4  305  13 I41
stroke4  306  12 I41
stroke4  306  11 I41
stroke4  306  10 I41
stroke4  307  9 I41
stroke4  307  8 I41
stroke4  307  9 I41
stroke4  307  10 I41
stroke4  307  11 I41
stroke4  307  12 I41
stroke5  338  19 B35
stroke5  337  19 I35
stroke5  336  19 I35
stroke5  335  19 I35
stroke5  334  19 I35
stroke5  333  19 I35
stroke5  332  19 I35
stroke5  331  18 I35
stroke5  330  17 I35
stroke5  329  17 I35
stroke5  329  16 I35
stroke5  328  15 I35
stroke5  328  14 I35
stroke5  327  13 I35
stroke5  327  12 I35
stroke5  327  11 I35
stroke5  328  11 I35
stroke5  329  10 I35
stroke5  330  10 I35
stroke5  331  10 I35
stroke5  332  10 I35
stroke5  333  9 I35
stroke5  334  10 I35
stroke5  335  10 I35
stroke5  336  10 I35
stroke5  337  10 I35
stroke5  338  10 I35
stroke5  339  10 I35
stroke5  340  10 I35
stroke5  340  11 I35
stroke5  341  11 I35
stroke5  341  12 I35
stroke5  341  13 I35
stroke5  341  14 I35
stroke5  341  16 I35
stroke5  342  17 I35
stroke5  342  18 I35
stroke5  342  19 I35
stroke5  342  20 I35
stroke5  342  22 I35
stroke5  343  23 I35
stroke5  343  24 I35
stroke5  343  26 I35
stroke5  343  28 I35
stroke5  343  29 I35
stroke5  343  31 I35
stroke5  343  32 I35
stroke5  343  34 I35
stroke5  343  35 I35
stroke5  343  36 I35
stroke5  343  37 I35
stroke5  343  38 I35
stroke5  342  39 I35
stroke5  342  40 I35
stroke5  342  41 I35
stroke5  342  42 I35
stroke5  342  43 I35
stroke5  342  44 I35
stroke5  342  45 I35
stroke5  342  46 I35
stroke5  342  47 I35
stroke5  342  48 I35
stroke5  342  49 I35
stroke5  342  50 I35
stroke5  342  51 I35
stroke5  342  52 I35
stroke5  342  53 I35
stroke5  342  54 I35
stroke5  342  55 I35
stroke5  342  56 I35
stroke5  342  57 I35
stroke5  342  58 I35
stroke5  342  59 I35
stroke5  341  59 I35
stroke5  341  60 I35
stroke5  341  61 I35
stroke5  340  62 I35
stroke5  339  62 I35
stroke5  338  62 I35
stroke5  337  62 I35
stroke5  336  62 I35
stroke5  335  62 I35
stroke5  333  61 I35
stroke5  332  61 I35
stroke5  331  61 I35
stroke5  329  61 I35
stroke5  328  61 I35
stroke5  327  60 I35
stroke5  325  59 I35
stroke5  324  59 I35
stroke5  323  58 I35
stroke5  322  58 I35
stroke5  321  58 I35
stroke5  320  57 I35
stroke5  319  57 I35
stroke5  318  57 I35
stroke5  317  57 I35
stroke5  316  57 I35
stroke5  317  58 I35
stroke5  317  59 I35
stroke5  318  60 I35
stroke5  318  61 I35
stroke5  319  62 I35
stroke5  320  63 I35
stroke5  321  64 I35
stroke5  321  65 I35
stroke5  322  65 I35
stroke5  323  66 I35
stroke5  324  66 I35
stroke5  325  67 I35
stroke5  326  67 I35
stroke5  327  68 I35
stroke5  329  68 I35
stroke5  330  68 I35
stroke5  331  68 I35
stroke5  333  68 I35
stroke5  334  68 I35
stroke5  335  68 I35
stroke5  337  67 I35
stroke5  338  67 I35
stroke5  339  67 I35
stroke5  341  67 I35
stroke5  342  67 I35
stroke5  343  66 I35
stroke5  344  66 I35
stroke5  346  66 I35
stroke5  347  66 I35
stroke5  348  66 I35
stroke5  349  66 I35
stroke5  350  66 I35
stroke5  351  67 I35
stroke5  352  67 I35
stroke5  353  67 I35
stroke5  354  68 I35
stroke5  355  69 I35
stroke5  356  70 I35
stroke5  357  71 I35
stroke5  358  72 I35
stroke5  358  74 I35
stroke5  359  75 I35
stroke5  360  76 I35
stroke5  361  78 I35
stroke5  362  79 I35
stroke5  362  80 I35
stroke5  363  81 I35
stroke5  363  82 I35
stroke5  363  83 I35
stroke5  364  84 I35
stroke5  363  84 I35
stroke5  362  84 I35
stroke5  361  83 I35
stroke5  359  83 I35
stroke6  341  91 B45
stroke6  342  91 I45
stroke6  342  92 I45
stroke6  341  92 I45
stroke6  340  93 I45
stroke6  339  93 I45
stroke6  338  93 I45
stroke6  337  94 I45
stroke6  336  94 I45
stroke6  335  94 I45
stroke6  333  94 I45
stroke6  331  94 I45
stroke6  330  94 I45
stroke6  328  94 I45
stroke6  326  94 I45
stroke6  325  94 I45
stroke6  323  94 I45
stroke6  322  94 I45
stroke6  321  94 I45
stroke6  321  93 I45
stroke6  320  93 I45
stroke6  320  92 I45
stroke6  320  91 I45
stroke6  321  90 I45
stroke6  322  90 I45
stroke6  323  89 I45
stroke6  325  89 I45
stroke6  327  90 I45
stroke6  330  90 I45
stroke6  334  92 I45
stroke6  338  93 I45
stroke6  343  94 I45
stroke6  347  96 I45
stroke6  351  97 I45
stroke6  355  99 I45
stroke6  359  100 I45
stroke6  363  101 I45
stroke6  366  102 I45
stroke6  369  103 I45
stroke6  372  104 I45
stroke6  374  105 I45
stroke6  376  106 I45
stroke6  378  107 I45
stroke6  380  107 I45
stroke6  381  108 I45
stroke6  382  109 I45
stroke6  381  109 I45
stroke6  379  108 I45
stroke7  371  59 B26
stroke7  370  58 I26
stroke7  369  57 I26
stroke7  368  57 I26
stroke7  367  57 I26
stroke7  366  57 I26
stroke7  365  58 I26
stroke7  365  59 I26
stroke7  364  60 I26
stroke7  364  61 I26
stroke7  364  62 I26
stroke7  364  64 I26
stroke7  364  65 I26
stroke7  364  67 I26
stroke7  365  68 I26
stroke7  365  69 I26
stroke7  366  70 I26
stroke7  367  71 I26
stroke7  368  72 I26
stroke7  368  73 I26
stroke7  369  73 I26
stroke7  370  73 I26
stroke7  370  74 I26
stroke7  371  73 I26
stroke7  372  73 I26
stroke7  373  73 I26
stroke7  374  72 I26
stroke7  375  71 I26
stroke7  375  70 I26
stroke7  376  69 I26
stroke7  376  68 I26
stroke7  377  67 I26
stroke7  377  65 I26
stroke7  377  64 I26
stroke7  378  63 I26
stroke7  378  61 I26
stroke7  378  60 I26
stroke7  378  59 I26
stroke7  378  57 I26
stroke7  378  56 I26
stroke7  377  55 I26
stroke7  377  53 I26
stroke7  377  52 I26
stroke7  376  50 I26
stroke7  376  49 I26
stroke7  376  48 I26
stroke7  375  47 I26
stroke7  375  46 I26
stroke7  375  44 I26
stroke7  375  43 I26
stroke7  374  42 I26
stroke7  374  41 I26
stroke7  374  40 I26
stroke7  374  39 I26
stroke7  374  37 I26
stroke7  373  36 I26
stroke7  373  35 I26
stroke7  373  33 I26
stroke7  373  32 I26
stroke7  372  31 I26
stroke7  372  29 I26
stroke7  372  28 I26
stroke7  372  27 I26
stroke7  371  26 I26
stroke7  371  25 I26
stroke7  371  24 I26
stroke7  371  23 I26
stroke7  370  22 I26
stroke7  370  21 I26
stroke7  370  20 I26
stroke7  370  19 I26
stroke7  369  18 I26
stroke7  369  17 I26
stroke7  369  16 I26
stroke7  369  15 I26
stroke7  369  14 I26
stroke7  368  13 I26
stroke7  368  12 I26
stroke7  368  11 I26
stroke7  368  10 I26
stroke7  368  9 I26
stroke7  367  8 I26
stroke7  367  7 I26
stroke7  367  6 I26
stroke7  367  5 I26
stroke7  366  4 I26
stroke7  367  3 I26
stroke7  366  3 I26
stroke7  367  3 I26
stroke7  367  4 I26
stroke7  368  5 I26
stroke7  369  5 I26
stroke7  369  6 I26
stroke7  370  7 I26
stroke7  371  8 I26
stroke7  372  9 I26
stroke7  373  9 I26
stroke7  375  10 I26
stroke7  376  10 I26
stroke7  376  11 I26
stroke7  377  11 I26
stroke7  378  11 I26
stroke7  379  11 I26
stroke7  380  11 I26
stroke7  381  11 I26
stroke7  383  11 I26
stroke7  384  11 I26
stroke7  385  11 I26
stroke7  386  11 I26
stroke7  387  10 I26
stroke7  388  10 I26
stroke7  389  10 I26
stroke7  390  9 I26
stroke7  391  9 I26
stroke7  392  9 I26
stroke7  392  8 I26
stroke7  393  8 I26
stroke7  394  8 I26
stroke7  395  8 I26
stroke7  395  9 I26
stroke7  395  10 I26
stroke7  396  10 I26
stroke7  396  11 I26
stroke7  396  12 I26
stroke7  396  14 I26
stroke7  397  15 I26
stroke7  397  17 I26
stroke7  397  19 I26
stroke7  398  21 I26
stroke7  398  23 I26
stroke7  398  25 I26
stroke7  398  28 I26
stroke7  399  30 I26
stroke7  399  32 I26
stroke7  399  35 I26
stroke7  400  37 I26
stroke7  400  40 I26
stroke7  400  42 I26
stroke7  401  45 I26
stroke7  401  47 I26
stroke7  401  50 I26
stroke7  402  53 I26
stroke7  402  55 I26
stroke7  402  58 I26
stroke7  402  60 I26
stroke7  402  62 I26
stroke7  403  64 I26
stroke7  403  65 I26
stroke7  403  67 I26
stroke7  403  68 I26
stroke7  403  70 I26
stroke7  403  71 I26
stroke7  403  72 I26
stroke7  403  73 I26
stroke7  403  74 I26
stroke7  404  75 I26
stroke7  404  76 I26
stroke7  404  77 I26
stroke7  404  78 I26
stroke7  405  79 I26
stroke7  405  80 I26
stroke7  405  79 I26
stroke7  404  78 I26
stroke7  403  77 I26
