stroke1  151  85 B11
stroke1  152  85 I11
stroke1  152  86 I11
stroke1  153  87 I11
stroke1  154  88 I11
stroke1  154  87 I11
stroke1  155  86 I11
stroke1  155  85 I11
stroke1  155  84 I11
stroke1  154  84 I11
stroke1  154  83 I11
stroke1  154  82 I11
stroke1  153  82 I11
stroke1  153  81 I11
stroke1  152  80 I11
stroke1  151  80 I11
stroke1  150  80 I11
stroke1  149  80 I11
stroke1  148  81 I11
stroke1  148  81 I11
stroke1  147  81 I11
stroke1  146  82 I11
stroke1  145  83 I11
stroke1  145  84 I11
stroke1  144  85 I11
stroke1  144  86 I11
stroke1  144  87 I11
stroke1  144  88 I11
stroke1  144  89 I11
stroke1  144  90 I11
stroke1  145  91 I11
stroke1  145  92 I11
stroke1  145  93 I11
stroke1  146  94 I11
stroke1  147  95 I11
stroke1  147  96 I11
stroke1  148  97 I11
stroke1  149  98 I11
stroke1  150  98 I11
stroke1  150  99 I11
stroke1  151  99 I11
stroke1  152  99 I11
stroke1  153  99 I11
stroke1  153  98 I11
stroke1  154  98 I11
stroke1  155  98 I11
stroke1  155  97 I11
stroke1  156  96 I11
stroke1  156  95 I11
stroke1  156  94 I11
stroke1  156  93 I11
stroke1  157  92 I11
stroke1  157  91 I11
stroke1  157  90 I11
stroke1  158  90 I11
stroke1  158  91 I11
stroke1  159  91 I11
stroke1  159  92 I11
stroke1  160  93 I11
stroke1  160  94 I11
stroke1  160  95 I11
stroke1  161  96 I11
stroke1  161  97 I11
stroke1  162  98 I11
stroke1  162  99 I11
stroke1  162  100 I11
stroke1  163  100 I11
stroke1  163  101 I11
stroke1  164  101 I11
stroke1  164  102 I11
stroke1  165  102 I11
stroke1  166  102 I11
stroke1  166  101 I11
stroke1  167  101 I11
stroke1  168  101 I11
stroke1  169  100 I11
stroke1  169  99 I11
stroke1  170  98 I11
stroke1  170  97 I11
stroke1  170  96 I11
stroke1  171  95 I11
stroke1  171  94 I11
stroke1  171  93 I11
stroke1  171  92 I11
stroke1  171  91 I11
stroke1  171  90 I11
stroke1  171  89 I11
stroke1  171  88 I11
stroke1  171  87 I11
stroke1  171  86 I11
stroke1  171  85 I11
stroke1  171  84 I11
stroke1  171  83 I11
stroke1  171  81 I11
stroke1  171  80 I11
stroke1  171  79 I11
stroke1  171  78 I11
stroke1  171  77 I11
stroke1  171  76 I11
stroke1  171  75 I11
stroke1  171  74 I11
stroke1  171  73 I11
stroke1  171  72 I11
stroke1  171  71 I11
stroke1  171  70 I11
stroke1  171  69 I11
stroke1  171  68 I11
stroke1  171  67 I11
stroke1  171  66 I11
stroke1  171  65 I11
stroke1  171  64 I11
stroke1  171  63 I11
stroke1  170  62 I11
stroke1  170  61 I11
stroke1  170  60 I11
stroke1  170  59 I11
stroke1  170  58 I11
stroke1  170  57 I11
stroke1  170  56 I11
stroke1  170  55 I11
stroke1  170  54 I11
stroke1  169  54 I11
stroke1  169  53 I11
stroke1  169  52 I11
stroke1  169  51 I11
stroke1  168  50 I11
stroke1  168  49 I11
stroke1  168  48 I11
stroke1  167  47 I11
stroke1  167  46 I11
stroke1  167  45 I11
stroke1  166  45 I11
stroke1  166  44 I11
stroke1  166  43 I11
stroke1  165  42 I11
stroke1  165  41 I11
stroke1  165  40 I11
stroke1  165  39 I11
stroke1  166  39 I11
stroke1  166  38 I11
stroke1  166  37 I11
stroke1  167  37 I11
stroke1  168  37 I11
stroke1  169  37 I11
stroke1  170  38 I11
stroke1  171  38 I11
stroke1  172  38 I11
stroke1  172  39 I11
stroke1  173  39 I11
stroke1  174  40 I11
stroke1  175  41 I11
stroke1  175  42 I11
stroke1  176  43 I11
stroke1  176  44 I11
stroke1  176  46 I11
stroke1  176  47 I11
stroke1  176  48 I11
stroke1  177  50 I11
stroke1  177  51 I11
stroke1  177  53 I11
stroke1  177  55 I11
stroke1  178  56 I11
stroke1  178  58 I11
stroke1  178  59 I11
stroke1  178  61 I11
stroke1  178  63 I11
stroke1  178  65 I11
stroke1  179  67 I11
stroke1  179  68 I11
stroke1  179  70 I11
stroke1  179  72 I11
stroke1  179  73 I11
stroke1  179  74 I11
stroke1  179  75 I11
stroke1  179  76 I11
stroke1  179  78 I11
stroke1  179  79 I11
stroke1  179  80 I11
stroke1  179  81 I11
stroke1  179  83 I11
stroke1  178  85 I11
stroke1  178  86 I11
stroke1  178  88 I11
stroke1  178  89 I11
stroke1  178  90 I11
stroke1  177  91 I11
stroke1  176  92 I11
stroke1  175  92 I11
stroke1  174  92 I11
stroke1  173  93 I11
stroke1  174  93 I11
stroke1  175  93 I11
stroke1  176  93 I11
stroke1  178  94 I11
stroke1  179  94 I11
stroke1  181  95 I11
stroke1  183  96 I11
stroke1  185  97 I11
stroke1  187  99 I11
stroke1  189  100 I11
stroke1  192  102 I11
stroke1  194  104 I11
stroke1  197  106 I11
stroke1  199  108 I11
stroke1  202  110 I11
stroke1  204  112 I11
stroke1  206  113 I11
stroke1  207  115 I11
stroke1  208  116 I11
stroke1  209  117 I11
stroke1  210  117 I11
stroke1  211  118 I11
stroke1  211  119 I11
stroke1  211  120 I11
stroke1  212  120 I11
stroke1  211  120 I11
stroke1  211  121 I11
stroke1  210  121 I11
stroke1  209  121 I11
stroke1  207  121 I11
stroke2  175  114 B51
stroke2  174  114 I51
stroke2  173  114 I51
stroke2  172  114 I51
stroke2  171  114 I51
stroke2  170  115 I51
stroke2  169  115 I51
stroke2  168  115 I51
stroke2  167  115 I51
stroke2  165  115 I51
stroke2  164  115 I51
stroke2  163  116 I51
stroke2  161  115 I51
stroke2  160  115 I51
stroke2  158  114 I51
stroke2  156  114 I51
stroke2  154  113 I51
stroke2  152  113 I51
stroke2  149  113 I51
stroke2  147  112 I51
stroke2  145  112 I51
stroke2  143  112 I51
stroke2  141  112 I51
stroke2  140  112 I51
stroke2  138  112 I51
stroke2  137  112 I51
stroke2  136  112 I51
stroke2  136  113 I51
stroke2  137  114 I51
stroke2  138  114 I51
stroke2  140  116 I51
stroke2  142  117 I51
stroke2  144  118 I51
stroke2  146  119 I51
stroke2  148  120 I51
stroke2  151  121 I51
stroke2  153  122 I51
stroke2  155  122 I51
stroke2  156  122 I51
stroke2  158  122 I51
stroke2  160  121 I51
stroke2  162  121 I51
stroke2  163  120 I51
stroke2  165  119 I51
stroke2  166  118 I51
stroke2  168  118 I51
stroke2  169  117 I51
stroke2  171  116 I51
stroke2  172  115 I51
stroke2  173  115 I51
stroke2  175  115 I51
stroke2  175  114 I51
stroke2  176  114 I51
stroke2  177  114 I51
stroke2  178  115 I51
stroke2  178  116 I51
stroke2  178  117 I51
stroke2  178  118 I51
stroke2  178  120 I51
stroke2  178  122 I51
stroke2  178  123 I51
stroke2  178  125 I51
stroke2  178  127 I51
stroke2  178  128 I51
stroke2  178  129 I51
stroke2  178  130 I51
stroke2  178  131 I51
stroke2  177  131 I51
stroke2  177  130 I51
stroke2  187  132 I51
stroke2  187  133 I51
stroke2  188  133 I51
stroke2  188  134 I51
stroke2  188  133 I51
stroke2  188  132 I51
stroke2  188  131 I51
stroke2  188  129 I51
stroke2  188  128 I51
stroke2  187  126 I51
stroke2  187  123 I51
stroke2  186  121 I51
stroke2  186  119 I51
stroke2  185  117 I51
stroke2  184  115 I51
stroke2  184  114 I51
stroke2  183  112 I51
stroke2  183  111 I51
stroke2  182  111 I51
stroke3  187  157 B65
stroke3  187  159 I65
stroke3  187  160 I65
stroke3  186  160 I65
stroke3  185  159 I65
stroke3  185  157 I65
stroke3  185  155 I65
stroke3  185  153 I65
stroke3  186  151 I65
stroke3  186  149 I65
stroke3  186  147 I65
stroke3  186  145 I65
stroke3  186  143 I65
stroke4  203  75 B43
stroke4  204  75 I43
stroke4  204  74 I43
stroke4  205  74 I43
stroke4  206  74 I43
stroke4  207  75 I43
stroke4  208  76 I43
stroke4  209  77 I43
stroke4  210  77 I43
stroke4  211  78 I43
stroke4  211  79 I43
stroke4  212  80 I43
stroke4  213  81 I43
stroke4  213  82 I43
stroke4  213  83 I43
stroke4  213  84 I43
stroke4  212  84 I43
stroke4  212  85 I43
stroke4  211  85 I43
stroke4  210  85 I43
stroke4  209  84 I43
stroke4  208  84 I43
stroke4  207  83 I43
stroke4  206  82 I43
stroke4  205  81 I43
stroke4  204  79 I43
stroke4  204  78 I43
stroke4  203  77 I43
stroke4  203  75 I43
stroke4  202  74 I43
stroke4  202  72 I43
stroke4  202  71 I43
stroke4  201  69 I43
stroke4  201  68 I43
stroke4  201  66 I43
stroke4  201  64 I43
stroke4  201  63 I43
stroke4  201  61 I43
stroke4  201  60 I43
stroke4  201  58 I43
stroke4  201  57 I43
stroke4  202  55 I43
stroke4  202  54 I43
stroke4  202  52 I43
stroke4  202  51 I43
stroke4  202  49 I43
stroke4  202  48 I43
stroke4  203  47 I43
stroke4  203  46 I43
stroke4  203  45 I43
stroke4  203  44 I43
stroke4  203  43 I43
stroke4  203  42 I43
stroke4  203  41 I43
stroke4  203  40 I43
stroke4  202  39 I43
stroke4  203  38 I43
stroke4  203  37 I43
stroke4  203  36 I43
stroke4  203  35 I43
stroke4  204  35 I43
stroke4  204  34 I43
stroke4  205  34 I43
stroke4  206  34 I43
stroke4  206  33 I43
stroke4  207  33 I43
stroke4  208  33 I43
stroke4  209  33 I43
stroke4  211  33 I43
stroke4  212  34 I43
stroke4  213  34 I43
stroke4  215  34 I43
stroke4  216  34 I43
stroke4  218  34 I43
stroke4  219  34 I43
stroke4  220  34 I43
stroke4  221  34 I43
stroke4  222  34 I43
stroke4  223  33 I43
stroke4  224  33 I43
stroke4  225  33 I43
stroke4  225  34 I43
stroke4  225  35 I43
stroke4  225  36 I43
stroke4  224  36 I43
stroke4  224  37 I43
stroke4  224  38 I43
stroke4  224  40 I43
stroke4  224  41 I43
stroke4  224  42 I43
stroke4  224  44 I43
stroke4  224  46 I43
stroke4  224  48 I43
stroke4  224  50 I43
stroke4  224  51 I43
stroke4  224  53 I43
stroke4  224  55 I43
stroke4  223  57 I43
stroke4  223  59 I43
stroke4  223  60 I43
stroke4  222  62 I43
stroke4  222  63 I43
stroke4  222  64 I43
stroke4  221  66 I43
stroke4  221  67 I43
stroke4  220  68 I43
stroke4  220  69 I43
stroke4  220  70 I43
stroke4  220  71 I43
stroke4  220  72 I43
stroke4  220  73 I43
stroke4  220  74 I43
stroke4  220  75 I43
stroke4  220  76 I43
stroke4  221  77 I43
stroke4  221  78 I43
stroke4  221  79 I43
stroke4  221  80 I43
stroke4  221  81 I43
stroke4  222  82 I43
stroke4  222  83 I43
stroke4  222  84 I43
stroke4  222  85 I43
stroke4  223  86 I43
stroke4  223  87 I43
stroke4  223  88 I43
stroke4  223  89 I43
stroke4  223  90 I43
stroke4  223  91 I43
stroke4  223  92 I43
stroke4  223  93 I43
stroke4  222  94 I43
stroke4  222  95 I43
stroke4  221  96 I43
stroke4  220  96 I43
stroke4  219  97 I43
stroke4  218  97 I43
stroke4  216  97 I43
stroke4  214  97 I43
stroke4  212  96 I43
stroke4  209  96 I43
stroke4  207  95 I43
stroke4  204  93 I43
stroke4  201  92 I43
stroke4  199  91 I43
stroke4  197  89 I43
stroke4  195  88 I43
stroke4  193  86 I43
stroke4  192  84 I43
stroke5  255  48 B40
stroke5  255  49 I40
stroke5  254  49 I40
stroke5  254  50 I40
stroke5  254  51 I40
stroke5  254  52 I40
stroke5  254  53 I40
stroke5  254  54 I40
stroke5  255  54 I40
stroke5  255  55 I40
stroke5  255  56 I40
stroke5  256  56 I40
stroke5  257  56 I40
stroke5  258  56 I40
stroke5  259  55 I40
stroke5  259  54 I40
stroke5  260  53 I40
stroke5  259  52 I40
stroke5  259  50 I40
stroke5  259  49 I40
stroke5  258  48 I40
stroke5  258  47 I40
stroke5  257  45 I40
stroke5  256  44 I40
stroke5  256  43 I40
stroke5  255  42 I40
stroke5  254  41 I40
stroke5  254  40 I40
stroke5  253  39 I40
stroke5  253  38 I40
stroke5  252  37 I40
stroke5  252  36 I40
stroke5  252  35 I40
stroke5  251  35 I40
stroke5  251  34 I40
stroke5  250  33 I40
stroke5  250  34 I40
stroke5  251  35 I40
stroke5  251  36 I40
stroke5  251  37 I40
stroke5  251  39 I40
stroke5  251  40 I40
stroke5  252  43 I40
stroke5  252  45 I40
stroke5  252  47 I40
stroke5  252  50 I40
stroke5  253  52 I40
stroke5  253  54 I40
stroke5  253  56 I40
stroke5  253  58 I40
stroke5  253  59 I40
stroke5  253  61 I40
stroke5  253  62 I40
stroke5  253  64 I40
stroke5  252  66 I40
stroke5  252  67 I40
stroke5  252  69 I40
stroke5  252  71 I40
stroke5  252  73 I40
stroke5  253  75 I40
stroke5  253  77 I40
stroke5  253  78 I40
stroke5  254  79 I40
stroke5  254  80 I40
stroke5  254  81 I40
stroke5  255  81 I40
stroke5  255  82 I40
stroke5  255  83 I40
stroke5  256  83 I40
stroke5  257  82 I40
stroke5  258  81 I40
stroke5  259  80 I40
stroke5  260  79 I40
stroke5  260  78 I40
stroke5  261  77 I40
stroke5  262  75 I40
stroke5  263  73 I40
stroke5  264  71 I40
stroke5  264  69 I40
stroke5  265  67 I40
stroke5  265  65 I40
stroke5  266  63 I40
stroke5  267  61 I40
stroke5  267  59 I40
stroke5  268  57 I40
stroke5  268  55 I40
stroke5  269  53 I40
stroke5  269  51 I40
stroke5  270  49 I40
stroke5  271  48 I40
stroke5  271  46 I40
stroke5  271  45 I40
stroke5  272  44 I40
stroke5  272  42 I40
stroke5  273  41 I40
stroke5  273  40 I40
stroke5  273  39 I40
stroke5  273  40 I40
stroke5  273  41 I40
stroke5  272  42 I40
stroke5  272  43 I40
stroke5  272  44 I40
stroke5  272  46 I40
stroke5  272  47 I40
stroke5  272  49 I40
stroke5  271  51 I40
stroke5  271  52 I40
stroke5  271  54 I40
stroke5  271  56 I40
stroke5  271  57 I40
stroke5  271  59 I40
stroke5  271  61 I40
stroke5  271  63 I40
stroke5  271  65 I40
stroke5  271  67 I40
stroke5  270  69 I40
stroke5  270  71 I40
stroke5  270  73 I40
stroke5  269  75 I40
stroke5  269  76 I40
stroke5  269  78 I40
stroke5  268  79 I40
stroke5  268  81 I40
stroke5  268  82 I40
stroke5  268  84 I40
stroke5  268  85 I40
stroke5  268  86 I40
stroke5  268  87 I40
stroke5  268  88 I40
stroke5  269  89 I40
stroke5  269  90 I40
stroke5  269  91 I40
stroke5  269  92 I40
stroke5  269  93 I40
stroke5  270  94 I40
stroke5  270  95 I40
stroke5  269  96 I40
stroke5  269  97 I40
stroke5  268  98 I40
stroke5  268  99 I40
stroke5  267  99 I40
stroke5  266  99 I40
stroke5  265  99 I40
stroke5  263  99 I40
stroke5  261  98 I40
stroke5  258  97 I40
stroke5  255  96 I40
stroke5  252  94 I40
stroke5  248  92 I40
stroke5  245  91 I40
stroke5  242  89 I40
stroke5  239  88 I40
stroke5  237  87 I40
stroke5  235  85 I40
stroke5  233  84 I40
stroke5  232  83 I40
stroke5  231  82 I40
stroke5  230  81 I40
stroke5  229  80 I40
stroke5  228  80 I40
stroke5  270  97 I40
stroke5  271  98 I40
stroke5  272  98 I40
stroke5  273  99 I40
stroke5  274  100 I40
stroke5  275  101 I40
stroke5  277  103 I40
stroke5  279  104 I40
stroke5  280  106 I40
stroke5  282  108 I40
stroke5  285  110 I40
stroke5  287  112 I40
stroke5  289  113 I40
stroke5  291  115 I40
stroke5  292  117 I40
stroke5  294  119 I40
stroke5  296  120 I40
stroke5  297  122 I40
stroke5  298  123 I40
stroke5  299  124 I40
stroke5  299  125 I40
stroke5  300  125 I40
stroke5  300  126 I40
stroke5  299  126 I40
stroke5  298  126 I40
stroke5  297  126 I40
stroke6  266  124 B45
stroke6  265  124 I45
stroke6  264  124 I45
stroke6  263  123 I45
stroke6  261  123 I45
stroke6  260  123 I45
stroke6  259  122 I45
stroke6  257  122 I45
stroke6  256  122 I45
stroke6  255  122 I45
stroke6  255  121 I45
stroke6  254  121 I45
stroke6  254  120 I45
stroke6  254  119 I45
stroke6  255  118 I45
stroke6  256  118 I45
stroke6  257  118 I45
stroke6  259  118 I45
stroke6  261  118 I45
stroke6  264  119 I45
stroke6  267  119 I45
stroke6  270  120 I45
stroke6  273  121 I45
stroke6  276  123 I45
stroke6  278  124 I45
stroke6  281  125 I45
stroke6  283  126 I45
stroke6  285  128 I45
stroke6  287  128 I45
stroke6  288  129 I45
stroke6  289  130 I45
stroke6  290  130 I45
stroke6  291  131 I45
stroke6  292  131 I45
stroke7  314  67 B21
stroke7  314  66 I21
stroke7  313  66 I21
stroke7  312  67 I21
stroke7  311  67 I21
stroke7  310  68 I21
stroke7  310  69 I21
stroke7  309  70 I21
stroke7  309  71 I21
stroke7  308  72 I21
stroke7  308  74 I21
stroke7  308  75 I21
stroke7  309  76 I21
stroke7  309  77 I21
stroke7  310  78 I21
stroke7  311  78 I21
stroke7  312  78 I21
stroke7  312  77 I21
stroke7  313  77 I21
stroke7  314  76 I21
stroke7  314  75 I21
stroke7  314  74 I21
stroke7  314  73 I21
stroke7  314  72 I21
stroke7  314  71 I21
stroke7  313  70 I21
stroke7  313  69 I21
stroke7  312  67 I21
stroke7  312  66 I21
stroke7  311  66 I21
stroke7  310  65 I21
stroke7  310  64 I21
stroke7  309  63 I21
stroke7  308  62 I21
stroke7  308  61 I21
stroke7  307  60 I21
stroke7  306  59 I21
stroke7  306  58 I21
stroke7  305  57 I21
stroke7  305  56 I21
stroke7  304  55 I21
stroke7  304  54 I21
stroke7  304  53 I21
stroke7  303  51 I21
stroke7  303  50 I21
stroke7  302  49 I21
stroke7  302  48 I21
stroke7  301  47 I21
stroke7  301  46 I21
stroke7  301  45 I21
stroke7  300  44 I21
stroke7  299  43 I21
stroke7  299  42 I21
stroke7  298  41 I21
stroke7  297  41 I21
stroke7  297  42 I21
stroke7  297  43 I21
stroke7  296  44 I21
stroke7  296  45 I21
stroke7  296  46 I21
stroke7  296  47 I21
stroke7  296  49 I21
stroke7  295  51 I21
stroke7  295  52 I21
stroke7  295  54 I21
stroke7  295  55 I21
stroke7  295  57 I21
stroke7  295  59 I21
stroke7  295  61 I21
stroke7  296  62 I21
stroke7  296  64 I21
stroke7  296  66 I21
stroke7  297  69 I21
stroke7  297  71 I21
stroke7  297  74 I21
stroke7  297  76 I21
stroke7  297  79 I21
stroke7  296  81 I21
stroke7  296  84 I21
stroke7  296  86 I21
stroke7  296  88 I21
stroke7  296  89 I21
stroke7  296  91 I21
stroke7  296  92 I21
stroke7  297  93 I21
stroke7  297  95 I21
stroke7  298  96 I21
stroke7  298  97 I21
stroke7  299  98 I21
stroke7  300  98 I21
stroke7  301  99 I21
stroke7  302  99 I21
stroke7  302  100 I21
stroke7  303  100 I21
stroke7  304  100 I21
stroke7  305  100 I21
stroke7  306  100 I21
stroke7  307  100 I21
stroke7  308  99 I21
stroke7  309  98 I21
stroke7  310  98 I21
stroke7  311  96 I21
stroke7  311  95 I21
stroke7  312  93 I21
stroke7  312  91 I21
stroke7  312  90 I21
stroke7  312  88 I21
stroke7  312  87 I21
stroke7  312  85 I21
stroke7  312  84 I21
stroke7  313  84 I21
stroke7  313  85 I21
stroke7  313  86 I21
stroke7  313  88 I21
stroke7  313  89 I21
stroke7  314  91 I21
stroke7  314  93 I21
stroke7  315  95 I21
stroke7  315  97 I21
stroke7  316  98 I21
stroke7  316  100 I21
stroke7  317  101 I21
stroke7  318  102 I21
stroke7  318  103 I21
stroke7  319  104 I21
stroke7  320  104 I21
stroke7  320  105 I21
stroke7  321  105 I21
stroke7  322  105 I21
stroke7  323  105 I21
stroke7  324  104 I21
stroke7  325  104 I21
stroke7  326  103 I21
stroke7  327  102 I21
stroke7  328  102 I21
stroke7  329  101 I21
stroke7  330  99 I21
stroke7  331  98 I21
stroke7  331  97 I21
stroke7  332  96 I21
stroke7  333  95 I21
stroke7  334  94 I21
stroke7  334  93 I21
stroke7  335  92 I21
stroke7  335  91 I21
stroke7  335  90 I21
stroke7  335  89 I21
stroke7  335  88 I21
stroke7  335  87 I21
stroke7  335  86 I21
stroke7  334  85 I21
stroke7  334  84 I21
stroke7  334  83 I21
stroke7  334  82 I21
stroke7  333  81 I21
stroke7  333  79 I21
stroke7  333  78 I21
stroke7  332  76 I21
stroke7  332  75 I21
stroke7  331  73 I21
stroke7  331  71 I21
stroke7  331  69 I21
stroke7  330  66 I21
stroke7  329  64 I21
stroke7  329  61 I21
stroke7  328  59 I21
stroke7  328  56 I21
stroke7  327  53 I21
stroke7  327  51 I21
stroke7  327  49 I21
stroke7  326  46 I21
stroke7  326  45 I21
stroke7  326  43 I21
stroke7  326  41 I21
stroke7  326  40 I21
stroke7  326  39 I21
stroke7  326  38 I21
stroke7  326  37 I21
stroke7  327  37 I21
stroke7  327  38 I21
stroke7  327  39 I21
stroke7  328  41 I21
stroke7  328  43 I21
stroke8  352  90 B34
stroke8  353  90 I34
stroke8  353  89 I34
stroke8  354  89 I34
stroke8  355  89 I34
stroke8  356  89 I34
stroke8  357  89 I34
stroke8  358  89 I34
stroke8  359  90 I34
stroke8  360  90 I34
stroke8  361  90 I34
stroke8  362  91 I34
stroke8  363  91 I34
stroke8  364  92 I34
stroke8  365  92 I34
stroke8  365  93 I34
stroke8  366  93 I34
stroke8  366  94 I34
stroke8  366  95 I34
stroke8  366  96 I34
stroke8  365  96 I34
stroke8  365  97 I34
stroke8  364  97 I34
stroke8  363  98 I34
stroke8  362  98 I34
stroke8  361  99 I34
stroke8  360  99 I34
stroke8  359  100 I34
stroke8  358  100 I34
stroke8  357  100 I34
stroke8  356  100 I34
stroke8  355  100 I34
stroke8  354  99 I34
stroke8  353  99 I34
stroke8  352  98 I34
stroke8  351  97 I34
stroke8  350  96 I34
stroke8  350  95 I34
stroke8  349  94 I34
stroke8  348  93 I34
stroke8  348  91 I34
stroke8  347  90 I34
stroke8  347  89 I34
stroke8  346  87 I34
stroke8  346  86 I34
stroke8  346  84 I34
stroke8  347  83 I34
stroke8  347  82 I34
stroke8  348  80 I34
stroke8  348  79 I34
stroke8  349  78 I34
stroke8  350  77 I34
stroke8  351  76 I34
stroke8  352  75 I34
stroke8  353  74 I34
stroke8  354  73 I34
stroke8  355  72 I34
stroke8  356  72 I34
stroke8  357  71 I34
stroke8  358  71 I34
stroke8  359  71 I34
stroke8  360  70 I34
stroke8  361  70 I34
stroke8  362  70 I34
stroke8  361  70 I34
stroke8  360  70 I34
stroke8  359  69 I34
stroke8  358  69 I34
stroke8  357  68 I34
stroke8  356  67 I34
stroke8  356  66 I34
stroke8  355  65 I34
stroke8  354  64 I34
stroke8  353  63 I34
stroke8  352  62 I34
stroke8  351  61 I34
stroke8  351  59 I34
stroke8  350  57 I34
stroke8  349  56 I34
stroke8  349  54 I34
stroke8  348  53 I34
stroke8  348  51 I34
stroke8  347  50 I34
stroke8  347  49 I34
stroke8  347  47 I34
stroke8  347  46 I34
stroke8  346  45 I34
stroke8  346  44 I34
stroke8  346  43 I34
stroke8  346  42 I34
stroke8  346  41 I34
stroke8  346  40 I34
stroke8  346  39 I34
stroke8  345  38 I34
stroke8  345  37 I34
stroke8  345  36 I34
stroke8  344  36 I34
stroke8  344  35 I34
stroke8  344  34 I34
stroke8  344  33 I34
stroke8  345  33 I34
stroke8  346  33 I34
stroke8  347  33 I34
stroke8  348  34 I34
stroke8  349  34 I34
stroke8  350  34 I34
stroke8  352  35 I34
stroke8  354  35 I34
stroke8  356  35 I34
stroke8  357  36 I34
stroke8  359  35 I34
stroke8  360  35 I34
stroke8  361  35 I34
stroke8  362  34 I34
stroke8  363  34 I34
stroke8  364  33 I34
stroke8  365  33 I34
stroke8  365  32 I34
stroke8  366  33 I34
stroke8  367  33 I34
stroke8  368  33 I34
stroke8  368  34 I34
stroke8  369  34 I34
stroke8  370  34 I34
stroke8  370  35 I34
stroke8  371  35 I34
stroke8  371  36 I34
stroke8  371  37 I34
stroke8  372  38 I34
stroke8  372  39 I34
stroke8  372  40 I34
stroke8  373  41 I34
stroke8  373  43 I34
stroke8  374  44 I34
stroke8  374  46 I34
stroke8  374  48 I34
stroke8  375  50 I34
stroke8  375  52 I34
stroke8  375  55 I34
stroke8  375  57 I34
stroke8  375  59 I34
stroke8  375  61 I34
stroke8  375  63 I34
stroke8  375  65 I34
stroke8  374  68 I34
stroke8  374  70 I34
stroke8  374  73 I34
stroke8  375  75 I34
stroke8  375  78 I34
stroke8  375  80 I34
stroke8  375  82 I34
stroke8  375  84 I34
stroke8  376  86 I34
stroke8  376  88 I34
stroke8  376  89 I34
stroke8  376  91 I34
stroke8  377  92 I34
stroke8  377  94 I34
stroke8  377  95 I34
stroke8  378  96 I34
stroke8  378  98 I34
stroke8  378  99 I34
stroke8  379  99 I34
stroke8  379  100 I34
stroke8  379  101 I34
stroke8  379  100 I34
stroke8  378  100 I34
stroke8  377  100 I34
stroke9  383  122 B64
stroke9  382  121 I64
stroke9  381  120 I64
stroke9  380  119 I64
stroke9  379  118 I64
stroke9  378  118 I64
stroke9  377  118 I64
stroke9  376  118 I64
stroke9  375  118 I64
stroke9  374  118 I64
stroke9  373  119 I64
stroke9  372  120 I64
stroke9  372  121 I64
stroke9  372  122 I64
stroke9  372  124 I64
stroke9  372  126 I64
stroke9  374  129 I64
stroke9  376  131 I64
stroke9  378  135 I64
stroke9  381  138 I64
stroke9  385  142 I64
stroke9  389  145 I64
stroke9  392  148 I64
stroke9  396  150 I64
stroke9  399  152 I64
stroke9  401  153 I64
stroke9  403  155 I64
stroke9  404  155 I64
stroke9  405  155 I64
stroke9  406  155 I64
stroke9  406  154 I64
stroke9  406  153 I64
stroke9  405  152 I64
stroke9  405  151 I64
stroke10  407  55 B40
stroke10  407  56 I40
stroke10  406  56 I40
stroke10  406  57 I40
stroke10  405  57 I40
stroke10  405  58 I40
stroke10  405  59 I40
stroke10  406  60 I40
stroke10  407  61 I40
stroke10  408  61 I40
stroke10  409  61 I40
stroke10  410  61 I40
stroke10  410  60 I40
stroke10  410  59 I40
stroke10  409  58 I40
stroke10  409  57 I40
stroke10  409  56 I40
stroke10  408  55 I40
stroke10  408  54 I40
stroke10  408  53 I40
stroke10  408  52 I40
stroke10  407  51 I40
stroke10  406  50 I40
stroke10  406  49 I40
stroke10  405  48 I40
stroke10  404  47 I40
stroke10  403  46 I40
stroke10  403  44 I40
stroke10  402  43 I40
stroke10  401  42 I40
stroke10  400  41 I40
stroke10  400  40 I40
stroke10  400  39 I40
stroke10  399  39 I40
stroke10  398  39 I40
stroke10  398  40 I40
stroke10  399  41 I40
stroke10  399  42 I40
stroke10  400  44 I40
stroke10  400  45 I40
stroke10  401  47 I40
stroke10  401  49 I40
stroke10  402  51 I40
stroke10  402  54 I40
stroke10  402  56 I40
stroke10  403  59 I40
stroke10  403  61 I40
stroke10  403  63 I40
stroke10  403  65 I40
stroke10  403  67 I40
stroke10  403  69 I40
stroke10  403  71 I40
stroke10  403  73 I40
stroke10  403  75 I40
stroke10  403  77 I40
stroke10  403  78 I40
stroke10  403  79 I40
stroke10  403  81 I40
stroke10  403  82 I40
stroke10  404  83 I40
stroke10  404  84 I40
stroke10  405  84 I40
stroke10  406  83 I40
stroke10  407  83 I40
stroke10  408  82 I40
stroke10  409  81 I40
stroke10  409  80 I40
stroke10  410  79 I40
stroke10  411  78 I40
stroke10  412  77 I40
stroke10  413  75 I40
stroke10  413  74 I40
stroke10  414  73 I40
stroke10  414  71 I40
stroke10  415  70 I40
stroke10  415  68 I40
stroke10  416  67 I40
stroke10  416  66 I40
stroke10  417  64 I40
stroke10  417  63 I40
stroke10  417  62 I40
stroke10  418  61 I40
stroke10  418  59 I40
stroke10  418  58 I40
stroke10  419  57 I40
stroke10  419  55 I40
stroke10  419  54 I40
stroke10  419  52 I40
stroke10  419  51 I40
stroke10  419  49 I40
stroke10  419  48 I40
stroke10  419  46 I40
stroke10  420  45 I40
stroke10  420  43 I40
stroke10  420  42 I40
stroke10  420  40 I40
stroke10  421  39 I40
stroke10  421  38 I40
stroke10  421  37 I40
stroke10  421  36 I40
stroke10  421  37 I40
stroke10  422  37 I40
stroke10  422  38 I40
stroke10  422  39 I40
stroke10  422  40 I40
stroke10  422  41 I40
stroke10  422  43 I40
stroke10  421  44 I40
stroke10  421  46 I40
stroke10  421  47 I40
stroke10  421  49 I40
stroke10  421  51 I40
stroke10  421  52 I40
stroke10  421  54 I40
stroke10  421  56 I40
stroke10  421  58 I40
stroke10  421  60 I40
stroke10  421  62 I40
stroke10  421  64 I40
stroke10  421  66 I40
stroke10  421  68 I40
stroke10  421  70 I40
stroke10  421  72 I40
stroke10  421  74 I40
stroke10  421  75 I40
stroke10  422  77 I40
stroke10  422  79 I40
stroke10  423  81 I40
stroke10  424  83 I40
stroke10  424  86 I40
stroke10  425  88 I40
stroke10  425  89 I40
stroke10  426  91 I40
stroke10  426  92 I40
stroke10  427  93 I40
stroke10  427  94 I40
stroke10  427  95 I40
stroke10  428  96 I40
stroke10  428  97 I40
stroke10  428  98 I40
stroke10  427  98 I40
stroke10  427  99 I40
stroke10  427  100 I40
stroke10  428  101 I40
stroke10  427  101 I40
stroke10  427  102 I40
stroke10  427  103 I40
stroke10  426  103 I40
stroke10  425  103 I40
stroke10  424  103 I40
stroke10  422  103 I40
stroke10  420  102 I40
stroke10  418  102 I40
stroke10  415  101 I40
stroke10  412  100 I40
stroke10  409  99 I40
stroke10  406  97 I40
stroke10  403  96 I40
stroke10  400  95 I40
stroke10  397  94 I40
stroke10  395  93 I40
stroke10  393  91 I40
stroke10  391  90 I40
stroke10  389  89 I40
stroke10  388  87 I40
stroke10  387  86 I40
stroke10  387  85 I40
stroke10  388  85 I40
stroke10  389  85 I40
stroke10  434  100 I40
stroke10  434  101 I40
stroke10  434  102 I40
stroke10  435  103 I40
stroke10  436  105 I40
stroke10  437  106 I40
stroke10  439  108 I40
stroke10  440  110 I40
stroke10  443  112 I40
stroke10  445  114 I40
stroke10  448  116 I40
stroke10  451  119 I40
stroke10  453  121 I40
stroke10  456  122 I40
stroke10  459  124 I40
stroke10  461  126 I40
stroke10  463  127 I40
stroke10  464  128 I40
stroke10  465  128 I40
stroke10  465  129 I40
stroke10  465  128 I40
stroke10  464  128 I40
stroke10  463  127 I40
stroke10  462  126 I40
stroke11  416  1 B52
stroke11  416  0 I52
stroke11  415  0 I52
stroke11  415  1 I52
stroke11  416  2 I52
stroke11  417  3 I52
stroke11  417  4 I52
stroke11  418  6 I52
stroke11  419  7 I52
stroke11  420  9 I52
stroke11  421  10 I52
stroke11  421  12 I52
stroke11  422  13 I52
stroke11  422  15 I52
stroke11  422  16 I52
stroke11  421  18 I52
stroke11  421  19 I52
stroke11  420  20 I52
stroke11  418  21 I52
stroke11  416  21 I52
stroke11  414  22 I52
stroke11  412  22 I52
stroke11  411  22 I52
stroke11  409  21 I52
stroke11  407  21 I52
stroke11  406  20 I52
stroke11  405  19 I52
stroke11  405  18 I52
stroke11  405  17 I52
stroke11  406  16 I52
stroke11  407  16 I52
stroke11  408  15 I52
stroke11  410  15 I52
stroke11  412  16 I52
stroke11  413  16 I52
stroke11  415  17 I52
stroke12  458  66 B8
stroke12  458  65 I8
stroke12  458  64 I8
stroke12  457  64 I8
stroke12  457  63 I8
stroke12  456  63 I8
stroke12  455  63 I8
stroke12  455  64 I8
stroke12  454  64 I8
stroke12  454  65 I8
stroke12  453  66 I8
stroke12  452  67 I8
stroke12  452  68 I8
stroke12  451  69 I8
stroke12  451  71 I8
stroke12  452  72 I8
stroke12  452  73 I8
stroke12  452  75 I8
stroke12  453  76 I8
stroke12  453  78 I8
stroke12  454  79 I8
stroke12  455  80 I8
stroke12  455  81 I8
stroke12  456  81 I8
stroke12  457  80 I8
stroke12  457  79 I8
stroke12  457  78 I8
stroke12  457  77 I8
stroke12  457  76 I8
stroke12  458  74 I8
stroke12  458  73 I8
stroke12  458  71 I8
stroke12  458  69 I8
stroke12  458  67 I8
stroke12  458  65 I8
stroke12  458  63 I8
stroke12  459  61 I8
stroke12  459  59 I8
stroke12  460  57 I8
stroke12  460  55 I8
stroke12  461  53 I8
stroke12  461  51 I8
stroke12  462  50 I8
stroke12  462  48 I8
stroke12  462  46 I8
stroke12  462  44 I8
stroke12  463  42 I8
stroke12  463  41 I8
stroke12  463  40 I8
stroke12  463  39 I8
stroke12  463  37 I8
stroke12  464  36 I8
stroke12  464  35 I8
stroke12  464  34 I8
stroke12  465  34 I8
stroke12  465  33 I8
stroke12  465  34 I8
stroke12  464  34 I8
stroke12  464  35 I8
stroke12  464  36 I8
stroke12  464  37 I8
stroke12  464  38 I8
stroke12  465  40 I8
stroke12  465  41 I8
stroke12  465  44 I8
stroke12  465  46 I8
stroke12  466  48 I8
stroke12  466  50 I8
stroke12  466  53 I8
stroke12  467  55 I8
stroke12  467  57 I8
stroke12  467  60 I8
stroke12  468  62 I8
stroke12  468  64 I8
stroke12  468  66 I8
stroke12  468  68 I8
stroke12  468  70 I8
stroke12  468  71 I8
stroke12  468  73 I8
stroke12  468  74 I8
stroke12  469  76 I8
stroke12  469  77 I8
stroke12  469  79 I8
stroke12  469  80 I8
stroke12  469  82 I8
stroke12  470  83 I8
stroke12  470  84 I8
stroke12  470  85 I8
stroke12  471  86 I8
stroke12  471  88 I8
stroke12  471  89 I8
stroke12  471  90 I8
stroke12  471  91 I8
stroke12  471  92 I8
stroke12  471  93 I8
stroke12  471  94 I8
stroke12  471  95 I8
stroke12  470  95 I8
stroke12  469  95 I8
stroke12  468  96 I8
stroke12  467  96 I8
stroke12  466  96 I8
stroke12  464  96 I8
stroke12  462  96 I8
stroke12  460  96 I8
stroke12  458  96 I8
stroke12  455  96 I8
stroke12  453  95 I8
stroke12  450  94 I8
stroke12  447  93 I8
stroke12  445  91 I8
stroke12  442  89 I8
stroke12  439  86 I8
stroke12  436  83 I8
stroke12  434  80 I8
stroke12  433  77 I8
stroke12  432  74 I8
stroke13  497  43 B35
stroke13  498  43 I35
stroke13  498  44 I35
stroke13  497  44 I35
stroke13  496  44 I35
stroke13  495  44 I35
stroke13  494  44 I35
stroke13  493  44 I35
stroke13  493  43 I35
stroke13  492  42 I35
stroke13  491  42 I35
stroke13  491  41 I35
stroke13  490  40 I35
stroke13  490  39 I35
stroke13  490  38 I35
stroke13  490  37 I35
stroke13  491  36 I35
stroke13  492  36 I35
stroke13  494  35 I35
stroke13  495  35 I35
stroke13  497  36 I35
stroke13  499  36 I35
stroke13  500  36 I35
stroke13  502  36 I35
stroke13  503  37 I35
stroke13  504  37 I35
stroke13  504  38 I35
stroke13  504  39 I35
stroke13  504  40 I35
stroke13  504  41 I35
stroke13  504  42 I35
stroke13  504  43 I35
stroke13  503  44 I35
stroke13  503  45 I35
stroke13  503  46 I35
stroke13  503  47 I35
stroke13  503  48 I35
stroke13  503  49 I35
stroke13  503  50 I35
stroke13  503  51 I35
stroke13  503  52 I35
stroke13  503  53 I35
stroke13  503  54 I35
stroke13  503  56 I35
stroke13  503  57 I35
stroke13  503  58 I35
stroke13  503  60 I35
stroke13  503  61 I35
stroke13  503  62 I35
stroke13  504  63 I35
stroke13  504  64 I35
stroke13  504  65 I35
stroke13  504  66 I35
stroke13  504  67 I35
stroke13  504  68 I35
stroke13  504  69 I35
stroke13  504  70 I35
stroke13  505  71 I35
stroke13  505  72 I35
stroke13  505  73 I35
stroke13  505  74 I35
stroke13  505  75 I35
stroke13  505  76 I35
stroke13  505  77 I35
stroke13  505  78 I35
stroke13  504  79 I35
stroke13  505  79 I35
stroke13  504  79 I35
stroke13  504  80 I35
stroke13  503  80 I35
stroke13  502  80 I35
stroke13  501  81 I35
stroke13  500  81 I35
stroke13  498  80 I35
stroke13  497  80 I35
stroke13  496  80 I35
stroke13  494  80 I35
stroke13  493  80 I35
stroke13  491  80 I35
stroke13  490  79 I35
stroke13  488  79 I35
stroke13  487  79 I35
stroke13  485  78 I35
stroke13  484  78 I35
stroke13  483  77 I35
stroke13  484  78 I35
stroke13  485  78 I35
stroke13  486  79 I35
stroke13  487  80 I35
stroke13  488  81 I35
stroke13  489  82 I35
stroke13  490  83 I35
stroke13  492  85 I35
stroke13  493  86 I35
stroke13  494  87 I35
stroke13  495  88 I35
stroke13  496  89 I35
stroke13  498  91 I35
stroke13  499  92 I35
stroke13  500  93 I35
stroke13  501  94 I35
stroke13  502  95 I35
stroke13  503  96 I35
stroke13  504  96 I35
stroke13  505  97 I35
stroke13  506  97 I35
stroke13  507  97 I35
stroke13  507  96 I35
stroke13  508  96 I35
stroke13  509  95 I35
stroke13  510  94 I35
stroke13  511  93 I35
stroke13  512  93 I35
stroke13  514  92 I35
stroke13  515  93 I35
stroke13  517  93 I35
stroke13  520  94 I35
stroke13  522  94 I35
stroke13  524  95 I35
stroke13  526  96 I35
stroke13  528  98 I35
stroke13  530  99 I35
stroke13  532  101 I35
stroke13  533  102 I35
stroke13  534  104 I35
stroke13  535  105 I35
stroke13  536  106 I35
stroke13  536  107 I35
stroke13  536  108 I35
stroke13  535  108 I35
stroke13  533  107 I35
stroke13  532  107 I35
stroke14  522  116 B48
stroke14  523  116 I48
stroke14  522  116 I48
stroke14  522  117 I48
stroke14  521  117 I48
stroke14  520  117 I48
stroke14  520  118 I48
stroke14  519  118 I48
stroke14  518  119 I48
stroke14  518  120 I48
stroke14  517  120 I48
stroke14  517  121 I48
stroke14  516  121 I48
stroke14  515  122 I48
stroke14  514  122 I48
stroke14  513  123 I48
stroke14  512  123 I48
stroke14  510  124 I48
stroke14  508  124 I48
stroke14  505  125 I48
stroke14  502  125 I48
stroke14  499  125 I48
stroke14  497  126 I48
stroke14  494  126 I48
stroke14  491  126 I48
stroke14  488  125 I48
stroke14  486  125 I48
stroke14  484  125 I48
stroke14  483  125 I48
stroke14  481  125 I48
stroke14  480  125 I48
stroke14  479  125 I48
stroke14  480  125 I48
stroke14  481  125 I48
stroke14  484  126 I48
stroke14  486  126 I48
stroke14  490  127 I48
stroke14  494  128 I48
stroke14  498  128 I48
stroke14  503  129 I48
stroke14  507  129 I48
stroke14  511  129 I48
stroke14  515  129 I48
stroke14  518  128 I48
stroke14  520  127 I48
stroke14  522  125 I48
stroke14  523  124 I48
stroke14  524  122 I48
stroke14  524  121 I48
stroke14  524  119 I48
stroke14  524  118 I48
stroke14  524  116 I48
stroke14  524  115 I48
stroke14  524  114 I48
stroke14  523  114 I48
stroke14  523  113 I48
stroke15  559  69 B21
stroke15  558  69 I21
stroke15  557  69 I21
stroke15  556  70 I21
stroke15  555  71 I21
stroke15  555  72 I21
stroke15  555  74 I21
stroke15  555  75 I21
stroke15  555  76 I21
stroke15  555  77 I21
stroke15  556  78 I21
stroke15  557  79 I21
stroke15  558  79 I21
stroke15  559  79 I21
stroke15  560  79 I21
stroke15  561  78 I21
stroke15  561  77 I21
stroke15  561  76 I21
stroke15  561  74 I21
stroke15  560  73 I21
stroke15  560  72 I21
stroke15  559  70 I21
stroke15  558  69 I21
stroke15  557  68 I21
stroke15  556  67 I21
stroke15  555  65 I21
stroke15  554  64 I21
stroke15  553  63 I21
stroke15  552  62 I21
stroke15  551  61 I21
stroke15  550  60 I21
stroke15  549  59 I21
stroke15  548  58 I21
stroke15  548  57 I21
stroke15  547  56 I21
stroke15  546  54 I21
stroke15  545  53 I21
stroke15  545  52 I21
stroke15  544  50 I21
stroke15  544  49 I21
stroke15  544  48 I21
stroke15  543  46 I21
stroke15  543  45 I21
stroke15  543  44 I21
stroke15  542  43 I21
stroke15  542  42 I21
stroke15  542  41 I21
stroke15  541  40 I21
stroke15  541  39 I21
stroke15  541  38 I21
stroke15  541  37 I21
stroke15  541  38 I21
stroke15  541  39 I21
stroke15  541  40 I21
stroke15  541  42 I21
stroke15  541  43 I21
stroke15  541  45 I21
stroke15  542  48 I21
stroke15  542  50 I21
stroke15  542  53 I21
stroke15  543  56 I21
stroke15  543  59 I21
stroke15  543  61 I21
stroke15  543  64 I21
stroke15  544  66 I21
stroke15  544  69 I21
stroke15  544  71 I21
stroke15  543  73 I21
stroke15  543  76 I21
stroke15  543  78 I21
stroke15  543  80 I21
stroke15  543  83 I21
stroke15  542  85 I21
stroke15  542  87 I21
stroke15  542  89 I21
stroke15  543  90 I21
stroke15  543  92 I21
stroke15  543  93 I21
stroke15  543  94 I21
stroke15  544  95 I21
stroke15  545  95 I21
stroke15  546  96 I21
stroke15  547  96 I21
stroke15  549  97 I21
stroke15  550  97 I21
stroke15  552  97 I21
stroke15  553  97 I21
stroke15  555  96 I21
stroke15  556  95 I21
stroke15  557  94 I21
stroke15  557  93 I21
stroke15  557  91 I21
stroke15  557  90 I21
stroke15  557  88 I21
stroke15  557  87 I21
stroke15  556  86 I21
stroke15  556  85 I21
stroke15  556  84 I21
stroke15  555  83 I21
stroke15  556  84 I21
stroke15  556  85 I21
stroke15  556  86 I21
stroke15  556  87 I21
stroke15  557  88 I21
stroke15  557  90 I21
stroke15  557  92 I21
stroke15  558  94 I21
stroke15  558  96 I21
stroke15  559  97 I21
stroke15  560  99 I21
stroke15  561  100 I21
stroke15  561  101 I21
stroke15  562  102 I21
stroke15  563  103 I21
stroke15  564  103 I21
stroke15  564  104 I21
stroke15  565  104 I21
stroke15  566  104 I21
stroke15  567  105 I21
stroke15  568  104 I21
stroke15  569  104 I21
stroke15  570  104 I21
stroke15  571  103 I21
stroke15  572  102 I21
stroke15  573  101 I21
stroke15  574  100 I21
stroke15  575  99 I21
stroke15  575  98 I21
stroke15  576  97 I21
stroke15  577  96 I21
stroke15  577  95 I21
stroke15  578  94 I21
stroke15  579  94 I21
stroke15  579  93 I21
stroke15  580  92 I21
stroke15  580  91 I21
stroke15  580  90 I21
stroke15  581  90 I21
stroke15  581  89 I21
stroke15  581  88 I21
stroke15  581  87 I21
stroke15  581  86 I21
stroke15  581  85 I21
stroke15  580  84 I21
stroke15  580  83 I21
stroke15  580  82 I21
stroke15  580  81 I21
stroke15  580  79 I21
stroke15  580  77 I21
stroke15  579  75 I21
stroke15  579  73 I21
stroke15  578  72 I21
stroke15  578  69 I21
stroke15  578  68 I21
stroke15  577  66 I21
stroke15  577  64 I21
stroke15  577  62 I21
stroke15  577  60 I21
stroke15  576  58 I21
stroke15  576  56 I21
stroke15  575  54 I21
stroke15  575  52 I21
stroke15  574  50 I21
stroke15  574  48 I21
stroke15  573  47 I21
stroke15  572  45 I21
stroke15  572  43 I21
stroke15  571  42 I21
stroke15  571  40 I21
stroke15  571  39 I21
stroke15  570  38 I21
stroke15  570  37 I21
stroke15  570  36 I21
stroke15  570  35 I21
stroke15  569  35 I21
stroke15  570  35 I21
stroke15  570  36 I21
stroke15  571  37 I21
stroke15  571  38 I21
stroke15  571  39 I21
stroke15  571  40 I21
