stroke1  153  69 B9
stroke1  152  68 I9
stroke1  151  68 I9
stroke1  150  68 I9
stroke1  149  68 I9
stroke1  148  68 I9
stroke1  147  69 I9
stroke1  146  69 I9
stroke1  144  69 I9
stroke1  143  70 I9
stroke1  142  71 I9
stroke1  141  71 I9
stroke1  140  72 I9
stroke1  139  73 I9
stroke1  139  74 I9
stroke1  139  75 I9
stroke1  140  76 I9
stroke1  140  77 I9
stroke1  141  77 I9
stroke1  141  78 I9
stroke1  142  78 I9
stroke1  143  78 I9
stroke1  144  78 I9
stroke1  145  78 I9
stroke1  146  77 I9
stroke1  147  76 I9
stroke1  148  76 I9
stroke1  148  75 I9
stroke1  149  74 I9
stroke1  149  72 I9
stroke1  149  71 I9
stroke1  149  69 I9
stroke1  150  68 I9
stroke1  150  66 I9
stroke1  150  65 I9
stroke1  150  64 I9
stroke1  151  62 I9
stroke1  151  61 I9
stroke1  151  60 I9
stroke1  151  59 I9
stroke1  151  58 I9
stroke1  151  57 I9
stroke1  151  55 I9
stroke1  151  54 I9
stroke1  151  53 I9
stroke1  151  52 I9
stroke1  151  51 I9
stroke1  151  50 I9
stroke1  150  49 I9
stroke1  150  48 I9
stroke1  150  47 I9
stroke1  150  46 I9
stroke1  150  45 I9
stroke1  150  44 I9
stroke1  150  43 I9
stroke1  149  42 I9
stroke1  149  41 I9
stroke1  149  40 I9
stroke1  149  39 I9
stroke1  149  38 I9
stroke1  149  37 I9
stroke1  149  36 I9
stroke1  148  36 I9
stroke1  148  35 I9
stroke1  148  34 I9
stroke1  149  35 I9
stroke1  149  36 I9
stroke1  149  37 I9
stroke1  150  38 I9
stroke1  150  39 I9
stroke1  151  40 I9
stroke1  151  41 I9
stroke1  152  42 I9
stroke1  153  43 I9
stroke1  154  44 I9
stroke1  155  45 I9
stroke1  156  46 I9
stroke1  157  47 I9
stroke1  158  47 I9
stroke1  159  48 I9
stroke1  160  48 I9
stroke1  161  48 I9
stroke1  162  47 I9
stroke1  163  47 I9
stroke1  163  46 I9
stroke1  164  45 I9
stroke1  165  44 I9
stroke1  165  43 I9
stroke1  166  42 I9
stroke1  166  41 I9
stroke1  166  40 I9
stroke1  167  40 I9
stroke1  167  39 I9
stroke1  167  38 I9
stroke1  166  37 I9
stroke1  166  36 I9
stroke1  165  36 I9
stroke1  165  35 I9
stroke1  164  34 I9
stroke1  164  35 I9
stroke1  163  36 I9
stroke1  164  36 I9
stroke1  164  37 I9
stroke1  164  38 I9
stroke1  164  39 I9
stroke1  164  41 I9
stroke1  164  42 I9
stroke1  165  43 I9
stroke1  165  45 I9
stroke1  165  46 I9
stroke1  165  48 I9
stroke1  165  50 I9
stroke1  165  52 I9
stroke1  165  53 I9
stroke1  166  55 I9
stroke1  166  57 I9
stroke1  166  59 I9
stroke1  166  60 I9
stroke1  166  62 I9
stroke1  166  64 I9
stroke1  166  65 I9
stroke1  166  66 I9
stroke1  166  68 I9
stroke1  166  69 I9
stroke1  166  71 I9
stroke1  166  72 I9
stroke1  166  73 I9
stroke1  166  74 I9
stroke1  166  76 I9
stroke1  166  77 I9
stroke1  166  78 I9
stroke1  166  80 I9
stroke1  166  81 I9
stroke1  166  82 I9
stroke1  166  83 I9
stroke1  166  84 I9
stroke1  166  85 I9
stroke1  166  87 I9
stroke1  166  88 I9
stroke1  167  89 I9
stroke1  167  90 I9
stroke1  166  91 I9
stroke1  167  92 I9
stroke1  167  93 I9
stroke1  167  94 I9
stroke1  166  95 I9
stroke1  166  96 I9
stroke1  166  97 I9
stroke1  166  98 I9
stroke1  166  99 I9
stroke1  165  100 I9
stroke1  164  100 I9
stroke1  163  100 I9
stroke1  161  100 I9
stroke1  160  100 I9
stroke1  157  99 I9
stroke1  155  99 I9
stroke1  152  99 I9
stroke1  148  98 I9
stroke1  145  97 I9
stroke1  141  95 I9
stroke1  136  93 I9
stroke1  132  90 I9
stroke1  127  86 I9
stroke1  123  83 I9
stroke2  153  2 B52
stroke2  153  1 I52
stroke2  153  0 I52
stroke2  152  0 I52
stroke2  152  1 I52
stroke2  152  2 I52
stroke2  153  3 I52
stroke2  153  4 I52
stroke2  153  5 I52
stroke2  153  6 I52
stroke2  154  8 I52
stroke2  154  10 I52
stroke2  155  12 I52
stroke2  155  13 I52
stroke2  155  15 I52
stroke2  155  17 I52
stroke2  154  18 I52
stroke2  153  19 I52
stroke2  152  20 I52
stroke2  151  20 I52
stroke2  150  21 I52
stroke2  148  20 I52
stroke2  147  20 I52
stroke2  146  19 I52
stroke2  144  18 I52
stroke2  144  17 I52
stroke2  143  16 I52
stroke2  143  15 I52
stroke2  144  14 I52
stroke2  146  13 I52
stroke2  147  13 I52
stroke2  148  14 I52
stroke3  195  35 B1
stroke3  195  34 I1
stroke3  194  34 I1
stroke3  194  35 I1
stroke3  194  36 I1
stroke3  194  37 I1
stroke3  194  38 I1
stroke3  194  39 I1
stroke3  194  40 I1
stroke3  194  41 I1
stroke3  194  42 I1
stroke3  194  43 I1
stroke3  194  44 I1
stroke3  194  45 I1
stroke3  194  47 I1
stroke3  194  48 I1
stroke3  194  50 I1
stroke3  195  51 I1
stroke3  195  52 I1
stroke3  195  54 I1
stroke3  195  55 I1
stroke3  196  56 I1
stroke3  196  57 I1
stroke3  196  58 I1
stroke3  196  59 I1
stroke3  197  60 I1
stroke3  197  61 I1
stroke3  198  62 I1
stroke3  198  63 I1
stroke3  198  64 I1
stroke3  199  65 I1
stroke3  200  66 I1
stroke3  200  67 I1
stroke3  201  68 I1
stroke3  201  69 I1
stroke3  202  69 I1
stroke3  202  70 I1
stroke3  202  71 I1
stroke3  202  72 I1
stroke3  201  72 I1
stroke3  201  73 I1
stroke3  200  74 I1
stroke3  199  74 I1
stroke3  198  74 I1
stroke3  197  74 I1
stroke3  196  75 I1
stroke3  195  75 I1
stroke3  194  75 I1
stroke3  192  75 I1
stroke3  191  75 I1
stroke3  190  75 I1
stroke3  189  75 I1
stroke3  188  75 I1
stroke3  187  75 I1
stroke3  186  75 I1
stroke3  185  75 I1
stroke3  184  75 I1
stroke3  184  76 I1
stroke3  183  76 I1
stroke3  183  77 I1
stroke3  182  78 I1
stroke3  182  79 I1
stroke3  183  80 I1
stroke3  183  81 I1
stroke3  183  82 I1
stroke3  184  84 I1
stroke3  184  85 I1
stroke3  185  86 I1
stroke3  185  87 I1
stroke3  186  88 I1
stroke3  186  90 I1
stroke3  187  91 I1
stroke3  187  92 I1
stroke3  188  93 I1
stroke3  189  94 I1
stroke3  189  95 I1
stroke3  190  97 I1
stroke3  191  98 I1
stroke3  192  98 I1
stroke3  193  99 I1
stroke3  194  100 I1
stroke3  195  101 I1
stroke3  196  102 I1
stroke3  197  102 I1
stroke3  198  103 I1
stroke3  199  103 I1
stroke3  200  103 I1
stroke3  201  103 I1
stroke3  202  103 I1
stroke3  203  103 I1
stroke3  204  102 I1
stroke3  205  101 I1
stroke3  205  100 I1
stroke3  206  100 I1
stroke3  207  99 I1
stroke3  208  98 I1
stroke3  209  97 I1
stroke3  210  96 I1
stroke3  211  95 I1
stroke3  212  95 I1
stroke3  213  94 I1
stroke3  213  92 I1
stroke3  214  91 I1
stroke3  215  90 I1
stroke3  215  88 I1
stroke3  216  87 I1
stroke3  216  85 I1
stroke3  217  84 I1
stroke3  217  82 I1
stroke3  218  81 I1
stroke3  218  79 I1
stroke3  218  78 I1
stroke3  219  76 I1
stroke3  219  75 I1
stroke3  219  73 I1
stroke3  219  71 I1
stroke3  219  70 I1
stroke3  220  68 I1
stroke3  220  66 I1
stroke3  220  64 I1
stroke3  220  62 I1
stroke3  220  60 I1
stroke3  220  57 I1
stroke3  220  55 I1
stroke3  220  52 I1
stroke3  219  50 I1
stroke3  219  48 I1
stroke3  219  45 I1
stroke3  219  43 I1
stroke3  219  41 I1
stroke3  219  40 I1
stroke3  218  38 I1
stroke3  219  37 I1
stroke3  218  36 I1
stroke3  218  35 I1
stroke3  218  34 I1
stroke3  218  35 I1
stroke3  217  36 I1
stroke3  217  37 I1
stroke4  255  95 B54
stroke4  255  96 I54
stroke4  256  96 I54
stroke4  256  95 I54
stroke4  255  95 I54
stroke4  255  94 I54
stroke4  255  93 I54
stroke4  254  92 I54
stroke4  254  91 I54
stroke4  254  90 I54
stroke4  253  88 I54
stroke4  253  87 I54
stroke4  253  86 I54
stroke4  253  84 I54
stroke4  252  83 I54
stroke4  252  82 I54
stroke4  252  80 I54
stroke4  251  79 I54
stroke4  251  77 I54
stroke4  250  75 I54
stroke4  250  73 I54
stroke4  249  71 I54
stroke4  248  70 I54
stroke4  248  68 I54
stroke4  247  66 I54
stroke4  247  64 I54
stroke4  246  62 I54
stroke4  246  61 I54
stroke4  246  59 I54
stroke4  245  57 I54
stroke4  245  56 I54
stroke4  245  54 I54
stroke4  245  52 I54
stroke4  245  51 I54
stroke4  245  49 I54
stroke4  245  47 I54
stroke4  245  46 I54
stroke4  245  44 I54
stroke4  246  43 I54
stroke4  246  41 I54
stroke4  246  40 I54
stroke4  246  39 I54
stroke4  247  38 I54
stroke4  247  37 I54
stroke4  247  36 I54
stroke4  248  35 I54
stroke4  249  34 I54
stroke4  249  33 I54
stroke4  250  32 I54
stroke4  251  32 I54
stroke4  252  31 I54
stroke4  253  31 I54
stroke4  254  31 I54
stroke4  255  32 I54
stroke4  255  33 I54
stroke4  256  34 I54
stroke4  256  36 I54
stroke4  257  37 I54
stroke4  258  39 I54
stroke4  258  41 I54
stroke4  258  42 I54
stroke4  258  44 I54
stroke4  258  45 I54
stroke4  258  46 I54
stroke4  257  47 I54
stroke4  256  47 I54
stroke4  254  48 I54
stroke4  252  48 I54
stroke4  250  48 I54
stroke4  249  48 I54
stroke4  247  47 I54
stroke4  245  47 I54
stroke4  244  46 I54
stroke4  242  45 I54
stroke4  241  44 I54
stroke5  280  72 B9
stroke5  280  71 I9
stroke5  280  70 I9
stroke5  280  69 I9
stroke5  279  69 I9
stroke5  279  68 I9
stroke5  278  68 I9
stroke5  277  67 I9
stroke5  276  67 I9
stroke5  275  67 I9
stroke5  274  67 I9
stroke5  273  68 I9
stroke5  273  69 I9
stroke5  272  70 I9
stroke5  271  71 I9
stroke5  270  72 I9
stroke5  269  74 I9
stroke5  269  75 I9
stroke5  268  76 I9
stroke5  268  77 I9
stroke5  268  78 I9
stroke5  269  79 I9
stroke5  269  80 I9
stroke5  270  80 I9
stroke5  271  80 I9
stroke5  272  79 I9
stroke5  273  78 I9
stroke5  274  77 I9
stroke5  275  76 I9
stroke5  276  75 I9
stroke5  276  73 I9
stroke5  277  72 I9
stroke5  277  70 I9
stroke5  277  69 I9
stroke5  277  67 I9
stroke5  277  66 I9
stroke5  277  64 I9
stroke5  277  62 I9
stroke5  277  61 I9
stroke5  277  59 I9
stroke5  277  58 I9
stroke5  277  56 I9
stroke5  276  55 I9
stroke5  276  54 I9
stroke5  276  52 I9
stroke5  276  51 I9
stroke5  276  50 I9
stroke5  276  48 I9
stroke5  276  47 I9
stroke5  276  46 I9
stroke5  276  45 I9
stroke5  276  43 I9
stroke5  276  42 I9
stroke5  276  41 I9
stroke5  276  40 I9
stroke5  276  39 I9
stroke5  276  38 I9
stroke5  276  37 I9
stroke5  276  36 I9
stroke5  276  35 I9
stroke5  276  34 I9
stroke5  276  33 I9
stroke5  276  32 I9
stroke5  276  31 I9
stroke5  276  30 I9
stroke5  276  31 I9
stroke5  276  32 I9
stroke5  277  32 I9
stroke5  277  34 I9
stroke5  278  35 I9
stroke5  279  37 I9
stroke5  280  38 I9
stroke5  281  40 I9
stroke5  282  42 I9
stroke5  283  44 I9
stroke5  284  45 I9
stroke5  285  47 I9
stroke5  286  48 I9
stroke5  286  49 I9
stroke5  287  49 I9
stroke5  287  50 I9
stroke5  288  50 I9
stroke5  289  50 I9
stroke5  290  50 I9
stroke5  291  50 I9
stroke5  292  50 I9
stroke5  293  50 I9
stroke5  294  50 I9
stroke5  295  49 I9
stroke5  296  48 I9
stroke5  297  48 I9
stroke5  297  47 I9
stroke5  298  47 I9
stroke5  298  46 I9
stroke5  299  45 I9
stroke5  300  44 I9
stroke5  300  43 I9
stroke5  301  43 I9
stroke5  301  42 I9
stroke5  301  41 I9
stroke5  300  41 I9
stroke5  300  40 I9
stroke5  300  39 I9
stroke5  300  38 I9
stroke5  299  37 I9
stroke5  298  36 I9
stroke5  297  35 I9
stroke5  296  35 I9
stroke5  295  35 I9
stroke5  295  36 I9
stroke5  294  37 I9
stroke5  294  39 I9
stroke5  294  40 I9
stroke5  294  41 I9
stroke5  294  43 I9
stroke5  294  45 I9
stroke5  295  47 I9
stroke5  295  49 I9
stroke5  295  51 I9
stroke5  295  53 I9
stroke5  294  55 I9
stroke5  294  56 I9
stroke5  294  58 I9
stroke5  294  60 I9
stroke5  293  62 I9
stroke5  293  63 I9
stroke5  293  65 I9
stroke5  293  67 I9
stroke5  293  69 I9
stroke5  293  70 I9
stroke5  293  72 I9
stroke5  293  74 I9
stroke5  293  76 I9
stroke5  293  77 I9
stroke5  293  79 I9
stroke5  293  80 I9
stroke5  293  82 I9
stroke5  293  83 I9
stroke5  293  85 I9
stroke5  293  86 I9
stroke5  293  87 I9
stroke5  293  88 I9
stroke5  293  89 I9
stroke5  293  90 I9
stroke5  293  91 I9
stroke5  293  92 I9
stroke5  293  93 I9
stroke5  292  94 I9
stroke5  292  95 I9
stroke5  292  96 I9
stroke5  292  97 I9
stroke5  292  98 I9
stroke5  291  99 I9
stroke5  291  100 I9
stroke5  290  100 I9
stroke5  290  101 I9
stroke5  289  101 I9
stroke5  288  101 I9
stroke5  287  102 I9
stroke5  286  102 I9
stroke5  284  102 I9
stroke5  283  102 I9
stroke5  281  101 I9
stroke5  279  100 I9
stroke5  276  98 I9
stroke5  273  96 I9
stroke5  271  94 I9
stroke5  268  91 I9
stroke5  265  89 I9
stroke5  262  86 I9
stroke5  260  84 I9
stroke5  258  83 I9
stroke5  257  81 I9
stroke6  298  124 B48
stroke6  299  124 I48
stroke6  298  124 I48
stroke6  298  125 I48
stroke6  297  125 I48
stroke6  296  125 I48
stroke6  295  125 I48
stroke6  294  124 I48
stroke6  292  124 I48
stroke6  290  124 I48
stroke6  287  124 I48
stroke6  285  124 I48
stroke6  282  124 I48
stroke6  279  124 I48
stroke6  275  124 I48
stroke6  271  124 I48
stroke6  268  124 I48
stroke6  264  124 I48
stroke6  261  124 I48
stroke6  258  123 I48
stroke6  256  123 I48
stroke6  254  123 I48
stroke6  253  124 I48
stroke6  254  125 I48
stroke6  256  125 I48
stroke6  258  126 I48
stroke6  261  127 I48
stroke6  265  127 I48
stroke6  269  128 I48
stroke6  273  128 I48
stroke6  277  128 I48
stroke6  280  128 I48
stroke6  284  128 I48
stroke6  286  128 I48
stroke6  289  127 I48
stroke6  291  127 I48
stroke6  292  126 I48
stroke7  324  87 B25
stroke7  324  86 I25
stroke7  323  85 I25
stroke7  322  85 I25
stroke7  321  85 I25
stroke7  320  85 I25
stroke7  319  85 I25
stroke7  319  86 I25
stroke7  318  86 I25
stroke7  317  87 I25
stroke7  315  88 I25
stroke7  314  89 I25
stroke7  313  90 I25
stroke7  313  91 I25
stroke7  312  93 I25
stroke7  312  94 I25
stroke7  311  95 I25
stroke7  312  95 I25
stroke7  312  96 I25
stroke7  312  97 I25
stroke7  313  97 I25
stroke7  314  98 I25
stroke7  315  98 I25
stroke7  316  98 I25
stroke7  316  99 I25
stroke7  317  98 I25
stroke7  318  98 I25
stroke7  319  98 I25
stroke7  320  98 I25
stroke7  320  97 I25
stroke7  321  96 I25
stroke7  321  95 I25
stroke7  322  94 I25
stroke7  322  93 I25
stroke7  322  92 I25
stroke7  322  90 I25
stroke7  323  89 I25
stroke7  323  88 I25
stroke7  323  86 I25
stroke7  323  85 I25
stroke7  323  84 I25
stroke7  323  82 I25
stroke7  323  81 I25
stroke7  323  79 I25
stroke7  323  78 I25
stroke7  322  76 I25
stroke7  322  74 I25
stroke7  322  73 I25
stroke7  322  71 I25
stroke7  322  70 I25
stroke7  322  68 I25
stroke7  322  67 I25
stroke7  322  66 I25
stroke7  322  64 I25
stroke7  322  63 I25
stroke7  322  62 I25
stroke7  322  61 I25
stroke7  322  60 I25
stroke7  322  58 I25
stroke7  322  57 I25
stroke7  322  56 I25
stroke7  322  55 I25
stroke7  322  53 I25
stroke7  322  52 I25
stroke7  322  51 I25
stroke7  322  50 I25
stroke7  322  49 I25
stroke7  322  48 I25
stroke7  321  47 I25
stroke7  321  46 I25
stroke7  321  45 I25
stroke7  321  44 I25
stroke7  321  43 I25
stroke7  321  42 I25
stroke7  321  41 I25
stroke7  321  40 I25
stroke7  321  39 I25
stroke7  321  38 I25
stroke7  321  37 I25
stroke7  321  36 I25
stroke7  321  35 I25
stroke7  321  34 I25
stroke7  321  35 I25
stroke7  322  36 I25
stroke7  322  37 I25
stroke7  322  38 I25
stroke7  323  39 I25
stroke7  323  40 I25
stroke7  324  41 I25
stroke7  324  43 I25
stroke7  325  45 I25
stroke7  326  47 I25
stroke7  327  49 I25
stroke7  329  51 I25
stroke7  330  52 I25
stroke7  331  54 I25
stroke7  332  55 I25
stroke7  333  56 I25
stroke7  334  56 I25
stroke7  335  57 I25
stroke7  336  57 I25
stroke7  337  57 I25
stroke7  338  57 I25
stroke7  339  57 I25
stroke7  340  56 I25
stroke7  342  56 I25
stroke7  343  56 I25
stroke7  344  56 I25
stroke7  345  55 I25
stroke7  347  55 I25
stroke7  348  54 I25
stroke7  349  54 I25
stroke7  350  53 I25
stroke7  351  53 I25
stroke7  351  52 I25
stroke7  352  52 I25
stroke7  352  51 I25
stroke7  352  50 I25
stroke7  352  49 I25
stroke7  351  48 I25
stroke7  351  47 I25
stroke7  350  46 I25
stroke7  349  45 I25
stroke7  349  44 I25
stroke7  348  43 I25
stroke7  347  42 I25
stroke7  347  41 I25
stroke7  346  40 I25
stroke7  345  39 I25
stroke7  344  38 I25
stroke7  344  37 I25
stroke7  343  36 I25
stroke7  343  35 I25
stroke7  342  34 I25
stroke7  342  33 I25
stroke7  341  32 I25
stroke7  341  33 I25
stroke7  341  34 I25
stroke7  341  35 I25
stroke7  342  36 I25
stroke7  342  38 I25
stroke7  343  40 I25
stroke7  343  42 I25
stroke7  344  44 I25
stroke7  344  47 I25
stroke7  345  49 I25
stroke7  345  52 I25
stroke7  345  54 I25
stroke7  346  57 I25
stroke7  346  59 I25
stroke7  346  61 I25
stroke7  346  63 I25
stroke7  347  66 I25
stroke7  347  68 I25
stroke7  347  70 I25
stroke7  347  73 I25
stroke7  347  75 I25
stroke7  347  78 I25
stroke7  347  81 I25
stroke7  347  84 I25
stroke7  347  86 I25
stroke7  347  88 I25
stroke7  347  90 I25
stroke7  347  92 I25
stroke7  347  93 I25
stroke7  347  94 I25
stroke7  347  95 I25
stroke7  346  96 I25
stroke7  346  97 I25
stroke7  346  98 I25
stroke7  347  99 I25
stroke7  347  100 I25
stroke7  347  101 I25
stroke7  347  102 I25
stroke7  347  103 I25
stroke7  347  104 I25
stroke7  347  105 I25
stroke7  347  106 I25
stroke7  347  105 I25
stroke7  346  104 I25
