stroke1  328  15 B58
stroke1  329  16 I58
stroke1  329  17 I58
stroke1  330  18 I58
stroke1  330  19 I58
stroke1  331  19 I58
stroke1  332  19 I58
stroke1  333  19 I58
stroke1  334  17 I58
stroke1  335  16 I58
stroke1  335  13 I58
stroke1  335  11 I58
stroke1  336  9 I58
stroke1  335  7 I58
stroke1  335  6 I58
stroke1  334  4 I58
stroke1  333  3 I58
stroke1  332  2 I58
stroke1  330  2 I58
stroke1  329  2 I58
stroke1  327  3 I58
stroke1  325  4 I58
stroke1  324  5 I58
stroke1  323  8 I58
stroke1  322  12 I58
stroke1  322  16 I58
stroke1  322  21 I58
stroke1  323  28 I58
stroke1  324  35 I58
stroke1  326  42 I58
stroke1  328  49 I58
stroke1  331  56 I58
stroke1  333  64 I58
stroke1  336  71 I58
stroke1  339  78 I58
stroke1  341  85 I58
stroke1  343  91 I58
stroke1  345  97 I58
stroke1  346  103 I58
stroke1  347  108 I58
stroke1  346  112 I58
stroke1  345  115 I58
stroke1  343  118 I58
stroke1  340  120 I58
stroke1  336  121 I58
stroke1  331  121 I58
stroke1  326  121 I58
stroke1  321  120 I58
stroke1  315  119 I58
stroke1  308  117 I58
stroke1  302  115 I58
stroke1  296  114 I58
stroke1  291  113 I58
stroke1  287  112 I58
stroke1  284  112 I58
stroke1  282  112 I58
stroke1  281  113 I58
stroke1  281  115 I58
stroke1  282  117 I58
stroke1  284  120 I58
stroke1  287  123 I58
stroke1  291  126 I58
stroke1  296  130 I58
stroke1  301  133 I58
stroke1  306  135 I58
stroke1  311  136 I58
stroke1  315  136 I58
stroke1  320  134 I58
stroke1  323  132 I58
stroke1  327  128 I58
stroke1  330  125 I58
stroke1  333  121 I58
stroke1  335  118 I58
stroke1  337  116 I58
stroke1  338  115 I58
stroke1  340  114 I58
stroke1  341  115 I58
stroke1  342  116 I58
stroke1  343  118 I58
stroke1  344  120 I58
stroke1  346  123 I58
stroke1  348  127 I58
stroke1  351  130 I58
stroke1  353  134 I58
stroke1  356  137 I58
stroke1  358  140 I58
stroke1  360  142 I58
stroke1  362  144 I58
stroke1  364  145 I58
stroke1  366  146 I58
stroke1  367  146 I58
stroke1  368  145 I58
stroke1  368  144 I58
stroke2  378  33 B4
stroke2  378  32 I4
stroke2  377  30 I4
stroke2  378  30 I4
stroke2  378  29 I4
stroke2  379  30 I4
stroke2  380  30 I4
stroke2  382  31 I4
stroke2  383  32 I4
stroke2  385  34 I4
stroke2  386  35 I4
stroke2  387  37 I4
stroke2  388  38 I4
stroke2  388  40 I4
stroke2  387  41 I4
stroke2  386  41 I4
stroke2  384  41 I4
stroke2  383  41 I4
stroke2  380  40 I4
stroke2  378  38 I4
stroke2  375  36 I4
stroke2  373  33 I4
stroke2  371  30 I4
stroke2  370  26 I4
stroke2  368  22 I4
stroke2  367  17 I4
stroke2  366  13 I4
stroke2  366  9 I4
stroke2  365  6 I4
stroke2  365  4 I4
stroke2  365  2 I4
stroke2  365  1 I4
stroke2  365  0 I4
stroke2  364  1 I4
stroke2  364  2 I4
stroke2  363  4 I4
stroke2  362  7 I4
stroke2  361  10 I4
stroke2  359  13 I4
stroke2  358  18 I4
stroke2  357  23 I4
stroke2  357  28 I4
stroke2  357  34 I4
stroke2  357  39 I4
stroke2  358  44 I4
stroke2  360  49 I4
stroke2  362  54 I4
stroke2  365  58 I4
stroke2  368  61 I4
stroke2  372  63 I4
stroke2  376  64 I4
stroke2  380  65 I4
stroke2  385  64 I4
stroke2  389  62 I4
stroke2  392  59 I4
stroke2  395  55 I4
stroke2  397  50 I4
stroke2  398  46 I4
stroke2  398  41 I4
stroke2  398  35 I4
stroke2  398  31 I4
stroke2  397  26 I4
stroke2  396  23 I4
stroke2  395  19 I4
stroke2  394  17 I4
stroke2  394  14 I4
stroke2  393  13 I4
stroke2  393  11 I4
stroke2  393  10 I4
stroke2  394  9 I4
stroke2  395  9 I4
stroke2  396  10 I4
stroke3  436  25 B35
stroke3  434  23 I35
stroke3  432  21 I35
stroke3  430  18 I35
stroke3  428  15 I35
stroke3  427  13 I35
stroke3  426  10 I35
stroke3  425  9 I35
stroke3  426  7 I35
stroke3  427  7 I35
stroke3  429  8 I35
stroke3  430  9 I35
stroke3  432  11 I35
stroke3  434  13 I35
stroke3  435  16 I35
stroke3  436  18 I35
stroke3  437  21 I35
stroke3  436  24 I35
stroke3  436  27 I35
stroke3  434  30 I35
stroke3  432  34 I35
stroke3  422  43 I35
stroke3  419  46 I35
stroke3  416  48 I35
stroke3  413  50 I35
stroke3  411  52 I35
stroke3  410  54 I35
stroke3  410  56 I35
stroke3  410  57 I35
stroke3  411  58 I35
stroke3  414  58 I35
stroke3  416  59 I35
stroke3  420  58 I35
stroke3  424  57 I35
stroke3  428  56 I35
stroke3  432  55 I35
stroke3  436  54 I35
stroke3  440  53 I35
stroke3  443  53 I35
stroke3  445  53 I35
stroke3  447  54 I35
stroke3  449  55 I35
stroke3  450  57 I35
stroke3  451  59 I35
stroke3  451  61 I35
stroke3  452  63 I35
stroke3  452  65 I35
stroke3  452  67 I35
stroke3  452  69 I35
stroke3  452  71 I35
stroke3  453  73 I35
stroke3  453  74 I35
stroke3  454  75 I35
stroke3  456  75 I35
stroke3  457  75 I35
stroke3  459  74 I35
stroke3  461  74 I35
stroke4  504  63 B7
stroke4  502  63 I7
stroke4  500  63 I7
stroke4  498  64 I7
stroke4  495  64 I7
stroke4  494  65 I7
stroke4  492  66 I7
stroke4  491  68 I7
stroke4  490  69 I7
stroke4  490  70 I7
stroke4  490  71 I7
stroke4  491  72 I7
stroke4  493  72 I7
stroke4  494  71 I7
stroke4  496  70 I7
stroke4  498  68 I7
stroke4  500  66 I7
stroke4  501  63 I7
stroke4  502  59 I7
stroke4  503  55 I7
stroke4  503  50 I7
stroke4  502  44 I7
stroke4  501  37 I7
stroke4  499  31 I7
stroke4  497  25 I7
stroke4  495  20 I7
stroke4  494  16 I7
stroke4  492  13 I7
stroke4  490  11 I7
stroke4  489  10 I7
stroke4  488  9 I7
stroke4  486  10 I7
stroke4  485  12 I7
stroke4  483  14 I7
stroke4  481  16 I7
stroke4  480  19 I7
stroke4  478  22 I7
stroke4  476  24 I7
stroke4  475  26 I7
stroke4  474  28 I7
stroke4  473  29 I7
stroke4  472  30 I7
stroke4  473  30 I7
stroke4  474  29 I7
stroke4  476  29 I7
stroke5  544  39 B40
stroke5  542  42 I40
stroke5  542  43 I40
stroke5  541  44 I40
stroke5  542  44 I40
stroke5  543  42 I40
stroke5  545  40 I40
stroke5  547  37 I40
stroke5  549  33 I40
stroke5  551  29 I40
stroke5  552  24 I40
stroke5  553  20 I40
stroke5  553  16 I40
stroke5  552  12 I40
stroke5  551  9 I40
stroke5  549  7 I40
stroke5  547  5 I40
stroke5  544  4 I40
stroke5  542  4 I40
stroke5  539  4 I40
stroke5  535  5 I40
stroke5  532  7 I40
stroke5  530  10 I40
stroke5  527  13 I40
stroke5  526  16 I40
stroke5  525  20 I40
stroke5  525  24 I40
stroke5  525  27 I40
stroke5  527  29 I40
stroke5  529  31 I40
stroke5  532  32 I40
stroke5  535  33 I40
stroke5  539  32 I40
stroke5  543  31 I40
stroke5  547  29 I40
stroke5  552  26 I40
stroke5  556  24 I40
stroke5  560  20 I40
stroke5  564  18 I40
stroke5  567  15 I40
stroke5  569  13 I40
stroke5  571  12 I40
stroke5  572  11 I40
stroke5  573  10 I40
stroke5  574  11 I40
stroke5  574  13 I40
stroke5  574  14 I40
stroke5  574  17 I40
stroke5  573  20 I40
stroke5  572  24 I40
stroke5  572  28 I40
stroke5  571  34 I40
stroke5  570  40 I40
stroke5  568  45 I40
stroke5  566  51 I40
stroke5  564  56 I40
stroke5  561  61 I40
stroke5  557  64 I40
stroke5  552  68 I40
stroke5  547  70 I40
stroke5  542  72 I40
stroke5  537  73 I40
stroke5  532  73 I40
stroke5  528  73 I40
stroke5  524  72 I40
stroke5  522  70 I40
stroke5  520  69 I40
stroke5  520  67 I40
stroke5  520  66 I40
stroke5  522  64 I40
stroke5  525  64 I40
stroke5  529  63 I40
stroke5  533  64 I40
stroke5  539  65 I40
stroke5  545  68 I40
stroke5  551  70 I40
stroke5  558  74 I40
stroke5  564  77 I40
stroke5  570  81 I40
stroke5  575  85 I40
stroke5  580  88 I40
stroke5  584  91 I40
stroke5  588  94 I40
stroke5  590  96 I40
stroke5  592  97 I40
stroke5  594  98 I40
stroke5  595  99 I40
stroke5  596  99 I40
stroke5  596  98 I40
stroke5  596  97 I40
stroke5  596  96 I40
stroke5  596  93 I40
stroke6  629  26 B35
stroke6  627  25 I35
stroke6  624  24 I35
stroke6  621  22 I35
stroke6  619  21 I35
stroke6  616  19 I35
stroke6  614  18 I35
stroke6  613  16 I35
stroke6  612  15 I35
stroke6  612  14 I35
stroke6  616  13 I35
stroke6  618  14 I35
stroke6  621  16 I35
stroke6  623  18 I35
stroke6  625  20 I35
stroke6  627  23 I35
stroke6  628  25 I35
stroke6  628  28 I35
stroke6  628  32 I35
stroke6  627  35 I35
stroke6  625  39 I35
stroke6  622  43 I35
stroke6  619  46 I35
stroke6  615  48 I35
stroke6  612  51 I35
stroke6  608  52 I35
stroke6  606  54 I35
stroke6  604  54 I35
stroke6  603  55 I35
stroke6  603  56 I35
stroke6  604  57 I35
stroke6  605  58 I35
stroke6  607  60 I35
stroke6  610  61 I35
stroke6  613  64 I35
stroke6  617  66 I35
stroke6  621  68 I35
stroke6  624  71 I35
stroke6  628  75 I35
stroke6  631  79 I35
stroke6  634  83 I35
stroke7  636  88 B66
stroke7  638  93 I66
stroke7  638  98 I66
stroke7  638  104 I66
stroke7  638  109 I66
stroke7  636  114 I66
stroke7  635  119 I66
stroke7  634  123 I66
stroke7  632  126 I66
stroke7  631  128 I66
stroke7  631  129 I66
stroke7  630  130 I66
stroke7  630  129 I66
stroke7  629  128 I66
stroke7  629  125 I66
stroke7  629  123 I66
stroke7  630  119 I66
stroke7  631  116 I66
stroke7  632  113 I66
stroke7  634  111 I66
stroke7  636  109 I66
stroke7  637  108 I66
stroke7  639  107 I66
stroke7  641  107 I66
stroke7  643  107 I66
stroke7  645  109 I66
stroke7  647  111 I66
stroke7  650  113 I66
stroke7  653  116 I66
stroke7  656  119 I66
stroke7  658  121 I66
stroke7  661  123 I66
stroke7  663  125 I66
stroke7  665  125 I66
stroke7  666  126 I66
stroke7  667  125 I66
stroke7  667  123 I66
stroke7  667  120 I66
stroke7  666  117 I66
stroke8  645  56 B47
stroke8  643  54 I47
stroke8  642  54 I47
stroke8  641  54 I47
stroke8  640  54 I47
stroke8  640  56 I47
stroke8  641  57 I47
stroke8  642  59 I47
stroke8  643  61 I47
stroke8  645  64 I47
stroke8  648  66 I47
stroke8  650  68 I47
stroke8  653  70 I47
stroke8  656  72 I47
stroke8  658  72 I47
stroke8  661  73 I47
stroke8  663  72 I47
stroke8  665  71 I47
stroke8  666  69 I47
stroke8  667  66 I47
stroke8  668  62 I47
stroke8  668  57 I47
stroke8  668  52 I47
stroke8  668  47 I47
stroke8  668  41 I47
stroke8  668  36 I47
stroke8  668  31 I47
stroke8  668  27 I47
stroke8  667  23 I47
stroke8  668  21 I47
stroke8  668  18 I47
stroke8  668  17 I47
stroke8  669  16 I47
stroke8  669  15 I47
stroke8  670  15 I47
stroke8  671  15 I47
stroke8  672  16 I47
stroke9  718  65 B7
stroke9  717  66 I7
stroke9  716  67 I7
stroke9  715  69 I7
stroke9  715  70 I7
stroke9  714  70 I7
stroke9  714  71 I7
stroke9  713  71 I7
stroke9  714  70 I7
stroke9  714  68 I7
stroke9  715  67 I7
stroke9  716  64 I7
stroke9  717  61 I7
stroke9  718  58 I7
stroke9  718  53 I7
stroke9  718  49 I7
stroke9  718  45 I7
stroke9  717  40 I7
stroke9  716  36 I7
stroke9  715  31 I7
stroke9  713  27 I7
stroke9  712  24 I7
stroke9  710  21 I7
stroke9  708  18 I7
stroke9  707  16 I7
stroke9  705  15 I7
stroke9  703  14 I7
stroke9  702  14 I7
stroke9  700  15 I7
stroke9  699  16 I7
stroke9  697  17 I7
stroke9  695  20 I7
stroke9  693  22 I7
stroke9  691  25 I7
stroke9  690  27 I7
stroke9  689  29 I7
stroke9  688  30 I7
stroke9  687  31 I7
