stroke1  366  98 B27
stroke1  364  96 I27
stroke1  360  94 I27
stroke1  357  93 I27
stroke1  353  91 I27
stroke1  349  90 I27
stroke1  346  89 I27
stroke1  343  89 I27
stroke1  340  88 I27
stroke1  338  89 I27
stroke1  337  89 I27
stroke1  336  90 I27
stroke1  337  91 I27
stroke1  338  92 I27
stroke1  340  94 I27
stroke1  342  95 I27
stroke1  345  96 I27
stroke1  348  97 I27
stroke1  350  98 I27
stroke1  353  97 I27
stroke1  355  96 I27
stroke1  357  94 I27
stroke1  359  91 I27
stroke1  360  87 I27
stroke1  361  83 I27
stroke1  361  78 I27
stroke1  361  74 I27
stroke1  360  70 I27
stroke1  359  65 I27
stroke1  358  61 I27
stroke1  356  57 I27
stroke1  354  53 I27
stroke1  351  50 I27
stroke1  350  48 I27
stroke1  349  46 I27
stroke1  348  45 I27
stroke1  347  45 I27
stroke1  348  45 I27
stroke1  349  46 I27
stroke1  351  48 I27
stroke1  353  49 I27
stroke1  356  50 I27
stroke1  359  51 I27
stroke1  363  52 I27
stroke1  367  51 I27
stroke1  372  50 I27
stroke1  376  49 I27
stroke1  381  48 I27
stroke1  385  47 I27
stroke1  389  46 I27
stroke1  393  46 I27
stroke1  396  45 I27
stroke1  398  45 I27
stroke1  400  46 I27
stroke1  401  47 I27
stroke1  401  49 I27
stroke1  401  51 I27
stroke1  401  53 I27
stroke1  400  56 I27
stroke1  399  59 I27
stroke1  398  64 I27
stroke1  396  69 I27
stroke1  395  75 I27
stroke1  394  82 I27
stroke1  394  89 I27
stroke1  393  96 I27
stroke1  392  103 I27
stroke1  391  109 I27
stroke1  390  114 I27
stroke1  388  119 I27
stroke2  387  122 B45
stroke2  385  125 I45
stroke2  383  127 I45
stroke2  381  129 I45
stroke2  379  129 I45
stroke2  376  129 I45
stroke2  374  128 I45
stroke2  372  127 I45
stroke2  370  125 I45
stroke2  369  123 I45
stroke2  368  121 I45
stroke2  368  120 I45
stroke2  369  118 I45
stroke2  371  118 I45
stroke2  373  118 I45
stroke2  377  120 I45
stroke2  382  122 I45
stroke2  387  124 I45
stroke2  392  128 I45
stroke2  398  131 I45
stroke2  403  135 I45
stroke2  408  139 I45
stroke2  413  142 I45
stroke2  417  145 I45
stroke2  421  148 I45
stroke2  425  150 I45
stroke2  427  151 I45
stroke2  429  152 I45
stroke2  431  152 I45
stroke2  431  151 I45
stroke2  432  149 I45
stroke2  431  147 I45
stroke2  431  144 I45
stroke3  428  73 B8
stroke3  426  71 I8
stroke3  423  69 I8
stroke3  421  68 I8
stroke3  419  68 I8
stroke3  417  70 I8
stroke3  417  72 I8
stroke3  418  73 I8
stroke3  420  74 I8
stroke3  421  75 I8
stroke3  423  75 I8
stroke3  426  74 I8
stroke3  428  73 I8
stroke3  431  72 I8
stroke3  433  70 I8
stroke3  435  68 I8
stroke3  437  65 I8
stroke3  438  62 I8
stroke3  439  60 I8
stroke3  440  57 I8
stroke3  440  54 I8
stroke3  440  52 I8
stroke3  440  51 I8
stroke3  440  49 I8
stroke3  440  48 I8
stroke3  440  49 I8
stroke3  441  51 I8
stroke3  441  53 I8
stroke3  442  56 I8
stroke3  443  60 I8
stroke3  444  65 I8
stroke3  445  69 I8
stroke3  446  74 I8
stroke3  446  79 I8
stroke3  446  83 I8
stroke3  445  87 I8
stroke3  444  90 I8
stroke3  442  93 I8
stroke3  440  95 I8
stroke3  436  96 I8
stroke3  432  96 I8
stroke3  428  96 I8
stroke3  423  96 I8
stroke3  419  95 I8
stroke3  415  93 I8
stroke3  411  92 I8
stroke3  408  90 I8
stroke3  406  89 I8
stroke3  405  87 I8
stroke3  405  86 I8
stroke3  405  84 I8
stroke3  407  83 I8
stroke3  409  82 I8
stroke4  478  89 B8
stroke4  477  88 I8
stroke4  476  88 I8
stroke4  475  88 I8
stroke4  476  87 I8
stroke4  477  86 I8
stroke4  479  85 I8
stroke4  480  83 I8
stroke4  482  81 I8
stroke4  484  78 I8
stroke4  485  75 I8
stroke4  486  71 I8
stroke4  487  68 I8
stroke4  488  64 I8
stroke4  488  61 I8
stroke4  488  58 I8
stroke4  487  55 I8
stroke4  487  53 I8
stroke4  487  52 I8
stroke4  486  51 I8
stroke4  487  51 I8
stroke4  487  52 I8
stroke4  488  53 I8
stroke4  489  56 I8
stroke4  490  59 I8
stroke4  492  62 I8
stroke4  493  66 I8
stroke4  495  71 I8
stroke4  496  76 I8
stroke4  496  80 I8
stroke4  497  84 I8
stroke4  496  88 I8
stroke4  495  91 I8
stroke4  493  94 I8
stroke4  491  96 I8
stroke4  488  98 I8
stroke4  485  99 I8
stroke4  482  100 I8
stroke4  478  100 I8
stroke4  474  100 I8
stroke4  470  99 I8
stroke4  466  99 I8
stroke4  463  98 I8
stroke4  461  96 I8
stroke4  459  95 I8
stroke4  459  93 I8
stroke4  458  91 I8
stroke4  459  89 I8
stroke4  460  86 I8
stroke5  484  36 B52
stroke5  482  34 I52
stroke5  479  32 I52
stroke5  476  31 I52
stroke5  474  30 I52
stroke5  473  30 I52
stroke5  472  30 I52
stroke5  472  31 I52
stroke5  472  32 I52
stroke5  473  33 I52
stroke5  475  34 I52
stroke5  477  35 I52
stroke5  480  36 I52
stroke5  482  36 I52
stroke5  485  36 I52
stroke5  487  36 I52
stroke5  489  34 I52
stroke5  491  33 I52
stroke5  492  31 I52
stroke5  492  28 I52
stroke5  492  25 I52
stroke5  492  21 I52
stroke5  491  18 I52
stroke5  490  14 I52
stroke5  488  10 I52
stroke5  487  7 I52
stroke5  486  4 I52
stroke5  485  2 I52
stroke5  485  1 I52
stroke5  485  0 I52
stroke5  486  1 I52
stroke5  487  2 I52
stroke5  489  4 I52
stroke5  490  7 I52
stroke5  492  11 I52
stroke6  526  86 B26
stroke6  524  88 I26
stroke6  522  89 I26
stroke6  520  90 I26
stroke6  518  91 I26
stroke6  516  92 I26
stroke6  515  93 I26
stroke6  515  94 I26
stroke6  514  94 I26
stroke6  515  94 I26
stroke6  516  93 I26
stroke6  518  92 I26
stroke6  520  91 I26
stroke6  521  88 I26
stroke6  523  85 I26
stroke6  524  82 I26
stroke6  524  79 I26
stroke6  525  75 I26
stroke6  524  71 I26
stroke6  523  67 I26
stroke6  522  64 I26
stroke6  521  61 I26
stroke6  520  58 I26
stroke6  519  56 I26
stroke6  518  55 I26
stroke6  518  53 I26
stroke6  519  52 I26
stroke6  521  51 I26
stroke6  523  51 I26
stroke6  526  50 I26
stroke6  529  49 I26
stroke6  532  48 I26
stroke6  536  47 I26
stroke6  540  46 I26
stroke6  543  45 I26
stroke6  547  44 I26
stroke6  550  44 I26
stroke6  552  44 I26
stroke6  554  44 I26
stroke6  556  44 I26
stroke6  557  45 I26
stroke6  558  46 I26
stroke6  558  48 I26
stroke6  559  50 I26
stroke6  559  53 I26
stroke6  559  57 I26
stroke6  559  61 I26
stroke6  559  67 I26
stroke6  559  73 I26
stroke6  558  79 I26
stroke6  558  86 I26
stroke6  557  93 I26
stroke6  555  100 I26
stroke7  553  105 B45
stroke7  550  110 I45
stroke7  547  113 I45
stroke7  543  115 I45
stroke7  539  116 I45
stroke7  534  116 I45
stroke7  531  116 I45
stroke7  527  115 I45
stroke7  525  114 I45
stroke7  523  112 I45
stroke7  522  111 I45
stroke7  523  110 I45
stroke7  524  109 I45
stroke7  526  108 I45
stroke7  530  109 I45
stroke7  534  109 I45
stroke7  538  110 I45
stroke7  550  114 I45
stroke7  555  117 I45
stroke7  561  119 I45
stroke7  566  121 I45
stroke7  570  122 I45
stroke7  574  124 I45
stroke7  576  124 I45
stroke7  579  124 I45
stroke7  580  123 I45
stroke7  581  122 I45
stroke7  581  120 I45
stroke7  581  118 I45
stroke8  572  88 B25
stroke8  571  88 I25
stroke8  570  88 I25
stroke8  570  89 I25
stroke8  570  90 I25
stroke8  570  91 I25
stroke8  571  92 I25
stroke8  572  92 I25
stroke8  573  93 I25
stroke8  575  92 I25
stroke8  576  92 I25
stroke8  578  91 I25
stroke8  579  89 I25
stroke8  580  86 I25
stroke8  580  83 I25
stroke8  580  79 I25
stroke8  580  75 I25
stroke8  579  71 I25
stroke8  577  66 I25
stroke8  575  62 I25
stroke8  573  58 I25
stroke8  572  54 I25
stroke8  571  51 I25
stroke8  569  48 I25
stroke8  569  47 I25
stroke8  569  45 I25
stroke8  570  45 I25
stroke8  572  46 I25
stroke8  574  48 I25
stroke8  577  50 I25
stroke8  580  52 I25
stroke8  584  54 I25
stroke8  589  55 I25
stroke8  594  57 I25
stroke8  598  58 I25
stroke8  603  59 I25
stroke8  607  59 I25
stroke8  611  59 I25
stroke8  614  58 I25
stroke8  617  57 I25
stroke8  619  55 I25
stroke8  620  53 I25
stroke8  620  51 I25
stroke8  620  49 I25
stroke8  619  47 I25
stroke8  617  45 I25
stroke8  616  44 I25
stroke8  614  43 I25
stroke8  613  43 I25
stroke8  611  43 I25
stroke8  609  44 I25
stroke8  607  46 I25
stroke8  605  48 I25
stroke8  603  51 I25
stroke8  602  55 I25
stroke8  600  60 I25
stroke8  599  65 I25
stroke8  598  71 I25
stroke8  597  77 I25
stroke8  596  81 I25
stroke8  596  85 I25
stroke8  595  88 I25
stroke8  595  91 I25
stroke8  595  92 I25
stroke8  595  93 I25
stroke8  595  94 I25
stroke8  595  95 I25
stroke8  596  95 I25
stroke8  597  96 I25
stroke8  598  96 I25
