stroke1  207  64 B2
stroke1  205  64 I2
stroke1  202  64 I2
stroke1  199  64 I2
stroke1  196  64 I2
stroke1  192  64 I2
stroke1  189  64 I2
stroke1  186  65 I2
stroke1  184  66 I2
stroke1  182  67 I2
stroke1  181  69 I2
stroke1  181  71 I2
stroke1  182  73 I2
stroke1  183  75 I2
stroke1  185  76 I2
stroke1  188  77 I2
stroke1  191  78 I2
stroke1  194  77 I2
stroke1  196  75 I2
stroke1  196  75 I2
stroke1  198  73 I2
stroke1  200  69 I2
stroke1  201  65 I2
stroke1  202  60 I2
stroke1  202  55 I2
stroke1  202  50 I2
stroke1  201  45 I2
stroke1  201  41 I2
stroke1  200  37 I2
stroke1  199  33 I2
stroke1  198  30 I2
stroke1  198  28 I2
stroke1  197  26 I2
stroke1  197  24 I2
stroke1  198  23 I2
stroke1  198  22 I2
stroke1  199  23 I2
stroke1  200  25 I2
stroke1  201  28 I2
stroke1  202  31 I2
stroke1  203  35 I2
stroke1  204  40 I2
stroke1  205  45 I2
stroke1  206  50 I2
stroke1  208  56 I2
stroke1  210  62 I2
stroke1  212  68 I2
stroke1  214  73 I2
stroke1  216  79 I2
stroke1  218  83 I2
stroke1  220  87 I2
stroke1  222  90 I2
stroke1  223  92 I2
stroke2  223  94 B66
stroke2  222  95 I66
stroke2  221  96 I66
stroke2  219  97 I66
stroke2  216  98 I66
stroke2  213  99 I66
stroke2  210  101 I66
stroke2  207  102 I66
stroke2  205  104 I66
stroke2  202  106 I66
stroke2  200  108 I66
stroke2  199  110 I66
stroke2  198  112 I66
stroke2  198  115 I66
stroke2  199  117 I66
stroke2  200  119 I66
stroke2  202  121 I66
stroke2  204  122 I66
stroke2  206  122 I66
stroke2  208  120 I66
stroke2  209  117 I66
stroke2  210  113 I66
stroke2  211  109 I66
stroke2  211  105 I66
stroke2  211  102 I66
stroke2  211  99 I66
stroke2  210  97 I66
stroke2  210  96 I66
stroke2  212  99 I66
stroke2  214  102 I66
stroke2  217  106 I66
stroke2  222  111 I66
stroke2  226  115 I66
stroke2  231  119 I66
stroke2  236  123 I66
stroke2  240  125 I66
stroke2  244  127 I66
stroke2  247  128 I66
stroke2  249  128 I66
stroke2  251  128 I66
stroke3  239  64 B43
stroke3  239  61 I43
stroke3  240  59 I43
stroke3  241  57 I43
stroke3  242  56 I43
stroke3  244  55 I43
stroke3  245  54 I43
stroke3  248  55 I43
stroke3  250  56 I43
stroke3  251  57 I43
stroke3  253  58 I43
stroke3  254  59 I43
stroke3  255  61 I43
stroke3  255  62 I43
stroke3  255  63 I43
stroke3  254  63 I43
stroke3  252  63 I43
stroke3  249  63 I43
stroke3  246  61 I43
stroke3  243  59 I43
stroke3  240  57 I43
stroke3  237  53 I43
stroke3  235  49 I43
stroke3  233  45 I43
stroke3  232  42 I43
stroke3  232  38 I43
stroke3  233  35 I43
stroke3  235  33 I43
stroke3  238  32 I43
stroke3  241  32 I43
stroke3  245  33 I43
stroke3  250  36 I43
stroke3  254  39 I43
stroke3  258  43 I43
stroke3  262  47 I43
stroke3  264  52 I43
stroke3  266  57 I43
stroke3  267  62 I43
stroke3  267  66 I43
stroke3  266  71 I43
stroke3  264  75 I43
stroke3  261  78 I43
stroke3  257  80 I43
stroke3  253  80 I43
stroke3  249  80 I43
stroke3  244  79 I43
stroke3  240  78 I43
stroke3  237  77 I43
stroke3  234  75 I43
stroke3  232  74 I43
stroke3  232  72 I43
stroke3  232  71 I43
stroke3  233  70 I43
stroke3  234  70 I43
stroke4  301  82 B33
stroke4  298  83 I33
stroke4  294  83 I33
stroke4  290  84 I33
stroke4  287  85 I33
stroke4  284  85 I33
stroke4  281  86 I33
stroke4  280  86 I33
stroke4  279  87 I33
stroke4  280  86 I33
stroke4  282  85 I33
stroke4  285  83 I33
stroke4  288  81 I33
stroke4  294  74 I33
stroke4  297  70 I33
stroke4  298  66 I33
stroke4  298  61 I33
stroke4  297  56 I33
stroke4  294  52 I33
stroke4  291  48 I33
stroke4  288  45 I33
stroke4  285  43 I33
stroke4  282  42 I33
stroke4  279  41 I33
stroke4  277  42 I33
stroke4  276  44 I33
stroke4  276  46 I33
stroke4  276  49 I33
stroke4  278  52 I33
stroke4  280  54 I33
stroke4  283  56 I33
stroke4  287  57 I33
stroke4  292  57 I33
stroke4  296  57 I33
stroke4  301  57 I33
stroke4  306  56 I33
stroke4  310  55 I33
stroke4  313  54 I33
stroke4  316  54 I33
stroke4  317  53 I33
stroke4  319  53 I33
stroke4  319  54 I33
stroke4  319  56 I33
stroke4  318  58 I33
stroke4  318  60 I33
stroke4  318  64 I33
stroke4  318  69 I33
stroke4  319  74 I33
stroke4  320  79 I33
stroke4  320  83 I33
stroke4  321  86 I33
stroke4  322  89 I33
stroke4  323  90 I33
stroke4  324  91 I33
stroke4  325  91 I33
stroke4  326  90 I33
stroke4  326  88 I33
stroke5  308  23 B53
stroke5  304  20 I53
stroke5  300  18 I53
stroke5  296  17 I53
stroke5  293  16 I53
stroke5  291  16 I53
stroke5  289  16 I53
stroke5  288  17 I53
stroke5  289  18 I53
stroke5  290  18 I53
stroke5  293  17 I53
stroke5  295  16 I53
stroke5  298  15 I53
stroke5  301  12 I53
stroke5  303  10 I53
stroke5  305  8 I53
stroke5  307  5 I53
stroke5  308  3 I53
stroke5  309  2 I53
stroke5  310  0 I53
stroke5  309  0 I53
stroke5  309  1 I53
stroke5  309  3 I53
stroke5  309  6 I53
stroke5  309  10 I53
stroke5  310  15 I53
stroke5  311  20 I53
stroke5  312  25 I53
stroke5  314  31 I53
stroke5  316  35 I53
stroke5  318  39 I53
stroke5  320  43 I53
stroke5  323  46 I53
stroke5  325  48 I53
stroke6  355  54 B36
stroke6  354  52 I36
stroke6  352  50 I36
stroke6  350  49 I36
stroke6  349  47 I36
stroke6  347  47 I36
stroke6  346  47 I36
stroke6  345  47 I36
stroke6  344  48 I36
stroke6  343  49 I36
stroke6  342  51 I36
stroke6  348  64 I36
stroke6  351  66 I36
stroke6  354  68 I36
stroke6  358  70 I36
stroke6  361  70 I36
stroke6  364  70 I36
stroke6  367  68 I36
stroke6  370  66 I36
stroke6  372  64 I36
stroke6  374  62 I36
stroke6  376  60 I36
stroke6  377  58 I36
stroke6  378  57 I36
stroke6  378  56 I36
stroke6  379  55 I36
stroke6  379  56 I36
stroke6  379  57 I36
stroke6  379  59 I36
stroke6  378  61 I36
stroke6  378  64 I36
stroke6  378  68 I36
stroke6  377  72 I36
stroke6  376  76 I36
stroke6  375  80 I36
stroke6  373  84 I36
stroke6  370  87 I36
stroke6  366  89 I36
stroke6  362  90 I36
stroke6  357  90 I36
stroke6  351  90 I36
stroke6  346  88 I36
stroke6  342  87 I36
stroke6  338  85 I36
stroke6  335  82 I36
stroke6  333  80 I36
stroke6  332  79 I36
stroke6  332  77 I36
stroke6  333  76 I36
stroke7  415  87 B2
stroke7  413  87 I2
stroke7  412  87 I2
stroke7  410  87 I2
stroke7  408  87 I2
stroke7  406  88 I2
stroke7  403  88 I2
stroke7  401  89 I2
stroke7  400  89 I2
stroke7  398  90 I2
stroke7  399  90 I2
stroke7  401  89 I2
stroke7  403  87 I2
stroke7  404  85 I2
stroke7  406  82 I2
stroke7  407  78 I2
stroke7  408  74 I2
stroke7  408  70 I2
stroke7  408  66 I2
stroke7  407  61 I2
stroke7  405  58 I2
stroke7  404  55 I2
stroke7  402  52 I2
stroke7  401  50 I2
stroke7  401  49 I2
stroke7  400  48 I2
stroke7  400  49 I2
stroke7  400  51 I2
stroke7  401  53 I2
stroke7  403  56 I2
stroke7  405  60 I2
stroke7  408  63 I2
stroke7  410  67 I2
stroke7  413  70 I2
stroke7  415  73 I2
stroke7  417  75 I2
stroke7  419  77 I2
stroke7  421  79 I2
stroke7  422  81 I2
stroke7  423  83 I2
stroke7  424  85 I2
stroke7  424  88 I2
stroke7  424  91 I2
stroke8  434  161 B65
stroke8  435  164 I65
stroke8  436  167 I65
stroke8  436  168 I65
stroke8  436  167 I65
stroke8  436  165 I65
stroke8  435  161 I65
stroke8  435  156 I65
stroke8  435  150 I65
stroke8  435  143 I65
stroke8  435  136 I65
stroke8  435  128 I65
stroke8  435  121 I65
stroke8  435  113 I65
stroke9  432  75 B47
stroke9  431  73 I47
stroke9  429  70 I47
stroke9  428  69 I47
stroke9  428  68 I47
stroke9  427  68 I47
stroke9  427  69 I47
stroke9  428  71 I47
stroke9  429  73 I47
stroke9  431  75 I47
stroke9  433  77 I47
stroke9  436  79 I47
stroke9  438  81 I47
stroke9  441  82 I47
stroke9  444  83 I47
stroke9  446  82 I47
stroke9  448  81 I47
stroke9  449  79 I47
stroke9  450  77 I47
stroke9  450  74 I47
stroke9  450  71 I47
stroke9  449  67 I47
stroke9  448  64 I47
stroke9  447  60 I47
stroke9  447  57 I47
stroke9  446  54 I47
stroke9  446  52 I47
stroke9  446  49 I47
stroke9  447  48 I47
stroke9  449  47 I47
stroke9  451  47 I47
stroke9  453  47 I47
stroke10  487  62 B37
stroke10  486  61 I37
stroke10  484  60 I37
stroke10  483  58 I37
stroke10  481  56 I37
stroke10  480  55 I37
stroke10  479  53 I37
stroke10  478  51 I37
stroke10  479  50 I37
stroke10  479  49 I37
stroke10  480  49 I37
stroke10  481  49 I37
stroke10  483  50 I37
stroke10  485  52 I37
stroke10  487  54 I37
stroke10  488  57 I37
stroke10  490  59 I37
stroke10  491  63 I37
stroke10  491  67 I37
stroke10  491  71 I37
stroke10  490  76 I37
stroke10  488  79 I37
stroke10  486  83 I37
stroke10  483  85 I37
stroke10  479  86 I37
stroke10  475  86 I37
stroke10  472  86 I37
stroke10  469  85 I37
stroke10  467  84 I37
stroke10  465  82 I37
stroke10  464  81 I37
stroke10  464  79 I37
stroke10  464  77 I37
stroke11  526  66 B40
stroke11  526  65 I40
stroke11  526  63 I40
stroke11  525  61 I40
stroke11  525  58 I40
stroke11  524  54 I40
stroke11  523  50 I40
stroke11  522  47 I40
stroke11  520  44 I40
stroke11  519  41 I40
stroke11  517  39 I40
stroke11  516  37 I40
stroke11  514  36 I40
stroke11  513  37 I40
stroke11  511  38 I40
stroke11  510  39 I40
stroke11  509  42 I40
stroke11  508  45 I40
stroke11  508  48 I40
stroke11  508  52 I40
stroke11  509  56 I40
stroke11  511  60 I40
stroke11  513  62 I40
stroke11  516  64 I40
stroke11  519  65 I40
stroke11  522  65 I40
stroke11  526  65 I40
stroke11  529  63 I40
stroke11  532  61 I40
stroke11  536  59 I40
stroke11  539  56 I40
stroke11  541  54 I40
stroke11  543  52 I40
stroke11  545  51 I40
stroke11  546  50 I40
stroke11  547  49 I40
stroke11  547  50 I40
stroke11  547  51 I40
stroke11  547  52 I40
stroke11  546  54 I40
stroke11  545  57 I40
stroke11  544  60 I40
stroke11  543  64 I40
stroke11  541  69 I40
stroke11  540  73 I40
stroke11  537  78 I40
stroke11  535  82 I40
stroke11  532  85 I40
stroke11  528  87 I40
stroke11  525  89 I40
stroke11  521  90 I40
stroke11  518  89 I40
stroke11  516  88 I40
stroke11  514  87 I40
stroke11  513  85 I40
stroke11  513  83 I40
stroke11  514  81 I40
stroke11  516  80 I40
stroke11  518  80 I40
stroke11  522  80 I40
stroke11  526  81 I40
stroke11  530  82 I40
stroke11  535  84 I40
stroke11  539  87 I40
stroke11  543  89 I40
stroke11  547  92 I40
stroke11  551  95 I40
stroke11  555  97 I40
stroke11  558  99 I40
stroke11  561  101 I40
stroke11  563  101 I40
stroke11  565  101 I40
stroke11  566  101 I40
stroke11  567  100 I40
stroke11  567  98 I40
stroke11  566  95 I40
stroke12  562  71 B47
stroke12  561  68 I47
stroke12  560  66 I47
stroke12  560  64 I47
stroke12  559  63 I47
stroke12  558  63 I47
stroke12  558  64 I47
stroke12  559  65 I47
stroke12  560  67 I47
stroke12  561  70 I47
stroke12  563  73 I47
stroke12  565  75 I47
stroke12  568  78 I47
stroke12  570  80 I47
stroke12  573  81 I47
stroke12  575  81 I47
stroke12  577  80 I47
stroke12  578  79 I47
stroke12  579  76 I47
stroke12  579  73 I47
stroke12  579  70 I47
stroke12  578  66 I47
stroke12  578  62 I47
stroke12  577  59 I47
stroke12  576  55 I47
stroke12  575  52 I47
stroke12  575  50 I47
stroke12  575  48 I47
stroke12  576  46 I47
stroke12  576  45 I47
stroke12  578  45 I47
stroke12  579  44 I47
stroke12  581  45 I47
stroke12  583  45 I47
stroke12  586  46 I47
stroke13  608  52 B35
stroke13  609  52 I35
stroke13  610  51 I35
stroke13  610  52 I35
stroke13  611  53 I35
stroke13  612  54 I35
stroke13  613  56 I35
stroke13  614  58 I35
stroke13  615  60 I35
stroke13  615  62 I35
stroke13  615  65 I35
stroke13  614  67 I35
stroke13  612  70 I35
stroke13  610  72 I35
stroke13  607  74 I35
stroke13  604  76 I35
stroke13  602  78 I35
stroke13  600  79 I35
stroke13  598  81 I35
stroke13  597  82 I35
stroke13  597  83 I35
stroke13  597  84 I35
stroke13  598  86 I35
stroke13  600  87 I35
stroke13  602  89 I35
stroke13  605  90 I35
stroke13  608  91 I35
stroke13  611  92 I35
stroke13  615  93 I35
stroke13  617  94 I35
stroke13  620  94 I35
stroke13  622  94 I35
stroke13  624  94 I35
