stroke1  357  95 B9
stroke1  355  93 I9
stroke1  351  91 I9
stroke1  347  90 I9
stroke1  343  88 I9
stroke1  339  87 I9
stroke1  335  86 I9
stroke1  332  85 I9
stroke1  329  85 I9
stroke1  327  85 I9
stroke1  326  86 I9
stroke1  326  88 I9
stroke1  326  89 I9
stroke1  327  91 I9
stroke1  328  92 I9
stroke1  330  93 I9
stroke1  332  94 I9
stroke1  334  94 I9
stroke1  336  93 I9
stroke1  336  93 I9
stroke1  338  92 I9
stroke1  340  90 I9
stroke1  341  87 I9
stroke1  342  83 I9
stroke1  342  79 I9
stroke1  343  74 I9
stroke1  342  69 I9
stroke1  341  64 I9
stroke1  340  59 I9
stroke1  338  55 I9
stroke1  337  51 I9
stroke1  335  48 I9
stroke1  334  45 I9
stroke1  333  44 I9
stroke1  333  43 I9
stroke1  333  44 I9
stroke1  334  46 I9
stroke1  336  48 I9
stroke1  338  52 I9
stroke1  342  56 I9
stroke1  345  59 I9
stroke1  349  62 I9
stroke1  354  65 I9
stroke1  358  68 I9
stroke1  362  69 I9
stroke1  366  70 I9
stroke1  370  70 I9
stroke1  374  70 I9
stroke1  377  69 I9
stroke1  379  67 I9
stroke1  381  65 I9
stroke1  382  62 I9
stroke1  381  59 I9
stroke1  380  56 I9
stroke1  379  53 I9
stroke1  377  50 I9
stroke1  374  48 I9
stroke1  372  47 I9
stroke1  369  46 I9
stroke1  366  46 I9
stroke1  364  46 I9
stroke1  361  48 I9
stroke1  359  50 I9
stroke1  358  53 I9
stroke1  357  57 I9
stroke1  356  61 I9
stroke1  356  66 I9
stroke1  356  71 I9
stroke1  357  77 I9
stroke1  357  82 I9
stroke1  357  87 I9
stroke1  357  91 I9
stroke1  357  94 I9
stroke1  356  97 I9
stroke1  355  100 I9
stroke1  353  101 I9
stroke1  351  103 I9
stroke1  348  103 I9
stroke1  345  104 I9
stroke1  342  103 I9
stroke1  338  103 I9
stroke1  326  98 I9
stroke1  322  96 I9
stroke1  319  94 I9
stroke1  316  93 I9
stroke1  313  91 I9
stroke1  312  90 I9
stroke1  310  89 I9
stroke1  310  88 I9
stroke1  311  88 I9
stroke1  312  87 I9
stroke2  367  27 B52
stroke2  365  24 I52
stroke2  362  22 I52
stroke2  359  19 I52
stroke2  356  18 I52
stroke2  353  18 I52
stroke2  350  18 I52
stroke2  349  19 I52
stroke2  348  20 I52
stroke2  347  22 I52
stroke2  348  24 I52
stroke2  350  26 I52
stroke2  352  28 I52
stroke2  354  30 I52
stroke2  357  31 I52
stroke2  360  31 I52
stroke2  363  31 I52
stroke2  365  30 I52
stroke2  368  28 I52
stroke2  369  26 I52
stroke2  371  23 I52
stroke2  371  20 I52
stroke2  371  17 I52
stroke2  371  14 I52
stroke2  370  10 I52
stroke2  369  7 I52
stroke2  368  5 I52
stroke2  367  3 I52
stroke2  366  1 I52
stroke2  366  0 I52
stroke2  365  1 I52
stroke2  365  3 I52
stroke2  366  5 I52
stroke2  366  7 I52
stroke2  366  9 I52
stroke3  404  47 B1
stroke3  403  47 I1
stroke3  402  47 I1
stroke3  401  47 I1
stroke3  401  48 I1
stroke3  400  50 I1
stroke3  400  52 I1
stroke3  400  55 I1
stroke3  401  58 I1
stroke3  401  61 I1
stroke3  402  65 I1
stroke3  403  69 I1
stroke3  403  74 I1
stroke3  404  79 I1
stroke3  404  83 I1
stroke3  404  88 I1
stroke3  404  91 I1
stroke3  403  94 I1
stroke3  401  97 I1
stroke3  399  98 I1
stroke3  397  99 I1
stroke3  394  99 I1
stroke3  390  98 I1
stroke3  386  97 I1
stroke3  383  96 I1
stroke3  380  96 I1
stroke3  377  95 I1
stroke3  375  95 I1
stroke3  374  95 I1
stroke3  374  96 I1
stroke3  375  97 I1
stroke3  376  99 I1
stroke3  388  106 I1
stroke3  393  109 I1
stroke3  398  110 I1
stroke3  404  112 I1
stroke3  409  112 I1
stroke3  414  112 I1
stroke3  418  111 I1
stroke3  422  109 I1
stroke3  424  105 I1
stroke3  426  101 I1
stroke3  426  96 I1
stroke3  426  91 I1
stroke3  426  86 I1
stroke3  425  81 I1
stroke3  423  77 I1
stroke3  422  73 I1
stroke3  421  69 I1
stroke3  420  66 I1
stroke3  419  64 I1
stroke3  419  62 I1
stroke3  419  60 I1
stroke3  419  59 I1
stroke3  420  58 I1
stroke3  421  57 I1
stroke3  422  57 I1
stroke3  424  57 I1
stroke4  449  113 B54
stroke4  449  115 I54
stroke4  448  113 I54
stroke4  448  111 I54
stroke4  448  107 I54
stroke4  447  102 I54
stroke4  447  96 I54
stroke4  446  89 I54
stroke4  445  83 I54
stroke4  444  76 I54
stroke4  443  70 I54
stroke4  443  64 I54
stroke4  443  60 I54
stroke4  443  57 I54
stroke4  444  55 I54
stroke4  444  54 I54
stroke4  446  54 I54
stroke4  447  55 I54
stroke4  449  57 I54
stroke4  451  60 I54
stroke4  453  63 I54
stroke4  454  65 I54
stroke4  455  68 I54
stroke4  455  71 I54
stroke4  455  73 I54
stroke4  455  74 I54
stroke4  454  75 I54
stroke4  453  76 I54
stroke4  451  76 I54
stroke4  450  76 I54
stroke4  449  76 I54
stroke4  449  75 I54
stroke4  450  75 I54
stroke5  496  94 B9
stroke5  492  94 I9
stroke5  489  94 I9
stroke5  485  95 I9
stroke5  482  95 I9
stroke5  480  96 I9
stroke5  478  96 I9
stroke5  477  97 I9
stroke5  476  97 I9
stroke5  477  97 I9
stroke5  478  96 I9
stroke5  479  95 I9
stroke5  484  87 I9
stroke5  485  83 I9
stroke5  486  79 I9
stroke5  486  75 I9
stroke5  485  71 I9
stroke5  484  67 I9
stroke5  483  64 I9
stroke5  482  61 I9
stroke5  481  59 I9
stroke5  480  57 I9
stroke5  479  56 I9
stroke5  479  57 I9
stroke5  480  59 I9
stroke5  482  61 I9
stroke5  484  64 I9
stroke5  487  67 I9
stroke5  491  70 I9
stroke5  495  73 I9
stroke5  499  75 I9
stroke5  503  77 I9
stroke5  507  78 I9
stroke5  511  78 I9
stroke5  515  78 I9
stroke5  518  77 I9
stroke5  521  76 I9
stroke5  522  73 I9
stroke5  523  71 I9
stroke5  524  68 I9
stroke5  523  64 I9
stroke5  522  61 I9
stroke5  520  58 I9
stroke5  517  55 I9
stroke5  515  53 I9
stroke5  512  51 I9
stroke5  509  50 I9
stroke5  507  50 I9
stroke5  505  50 I9
stroke5  504  51 I9
stroke5  503  53 I9
stroke5  502  56 I9
stroke5  502  59 I9
stroke5  502  63 I9
stroke5  503  68 I9
stroke5  504  73 I9
stroke5  505  78 I9
stroke5  506  84 I9
stroke5  507  89 I9
stroke5  508  94 I9
stroke5  508  99 I9
stroke5  508  103 I9
stroke5  507  107 I9
stroke5  506  110 I9
stroke5  505  113 I9
stroke5  502  115 I9
stroke5  499  116 I9
stroke5  495  116 I9
stroke5  490  115 I9
stroke5  484  114 I9
stroke5  478  112 I9
stroke5  471  110 I9
stroke5  465  108 I9
stroke5  459  106 I9
stroke5  454  104 I9
stroke5  450  103 I9
stroke5  447  101 I9
stroke5  444  101 I9
stroke5  443  101 I9
stroke5  444  102 I9
stroke5  446  103 I9
stroke5  448  105 I9
stroke6  513  143 B48
stroke6  510  143 I48
stroke6  507  144 I48
stroke6  503  145 I48
stroke6  498  146 I48
stroke6  494  147 I48
stroke6  488  148 I48
stroke6  483  149 I48
stroke6  478  151 I48
stroke6  474  153 I48
stroke6  470  155 I48
stroke6  468  157 I48
stroke6  467  159 I48
stroke6  467  161 I48
stroke6  468  163 I48
stroke6  471  165 I48
stroke6  474  166 I48
stroke6  478  167 I48
stroke6  482  167 I48
stroke6  487  167 I48
stroke6  491  165 I48
stroke6  496  162 I48
stroke6  500  159 I48
stroke6  504  155 I48
stroke6  508  150 I48
stroke6  512  145 I48
stroke6  515  139 I48
stroke6  518  134 I48
stroke7  526  102 B25
stroke7  525  102 I25
stroke7  524  103 I25
stroke7  523  104 I25
stroke7  522  106 I25
stroke7  522  107 I25
stroke7  522  109 I25
stroke7  522  110 I25
stroke7  523  112 I25
stroke7  524  113 I25
stroke7  526  113 I25
stroke7  527  113 I25
stroke7  529  112 I25
stroke7  532  110 I25
stroke7  534  107 I25
stroke7  536  104 I25
stroke7  538  100 I25
stroke7  539  95 I25
stroke7  540  90 I25
stroke7  540  85 I25
stroke7  539  79 I25
stroke7  538  73 I25
stroke7  536  68 I25
stroke7  535  63 I25
stroke7  533  59 I25
stroke7  532  55 I25
stroke7  531  53 I25
stroke7  530  51 I25
stroke7  531  53 I25
stroke7  533  55 I25
stroke7  535  58 I25
stroke7  539  62 I25
stroke7  543  65 I25
stroke7  547  68 I25
stroke7  551  71 I25
stroke7  555  73 I25
stroke7  559  74 I25
stroke7  563  75 I25
stroke7  567  75 I25
stroke7  571  74 I25
stroke7  574  73 I25
stroke7  576  71 I25
stroke7  579  69 I25
stroke7  580  67 I25
stroke7  581  64 I25
stroke7  581  62 I25
stroke7  580  60 I25
stroke7  579  58 I25
stroke7  578  57 I25
stroke7  577  57 I25
stroke7  575  57 I25
stroke7  573  59 I25
stroke7  571  61 I25
stroke7  570  63 I25
stroke7  568  66 I25
stroke7  566  71 I25
stroke7  565  76 I25
stroke7  564  82 I25
stroke7  564  89 I25
stroke7  564  96 I25
stroke7  564  102 I25
stroke7  564  108 I25
stroke7  565  113 I25
stroke7  565  117 I25
stroke7  565  119 I25
stroke7  566  121 I25
stroke7  566  122 I25
stroke7  567  123 I25
stroke7  567  122 I25
stroke7  568  122 I25
