stroke1  319  44 B27
stroke1  318  43 I27
stroke1  315  42 I27
stroke1  312  41 I27
stroke1  309  40 I27
stroke1  305  40 I27
stroke1  302  39 I27
stroke1  299  40 I27
stroke1  296  40 I27
stroke1  294  41 I27
stroke1  293  42 I27
stroke1  293  44 I27
stroke1  295  46 I27
stroke1  297  48 I27
stroke1  306  50 I27
stroke1  309  49 I27
stroke1  312  48 I27
stroke1  315  46 I27
stroke1  317  43 I27
stroke1  317  43 I27
stroke1  319  40 I27
stroke1  320  36 I27
stroke1  320  32 I27
stroke1  319  27 I27
stroke1  317  22 I27
stroke1  315  18 I27
stroke1  312  13 I27
stroke1  309  9 I27
stroke1  305  6 I27
stroke1  303  3 I27
stroke1  300  1 I27
stroke1  298  0 I27
stroke1  300  1 I27
stroke1  302  1 I27
stroke1  305  2 I27
stroke1  309  2 I27
stroke1  312  2 I27
stroke1  316  2 I27
stroke1  321  2 I27
stroke1  325  3 I27
stroke1  329  4 I27
stroke1  332  5 I27
stroke1  335  7 I27
stroke1  338  8 I27
stroke1  339  10 I27
stroke1  340  13 I27
stroke1  341  16 I27
stroke1  340  19 I27
stroke1  339  24 I27
stroke1  339  29 I27
stroke1  338  36 I27
stroke1  337  44 I27
stroke1  337  53 I27
stroke1  337  63 I27
stroke1  338  72 I27
stroke1  339  82 I27
stroke1  340  90 I27
stroke1  341  97 I27
stroke1  342  103 I27
stroke1  342  107 I27
stroke1  343  111 I27
stroke1  343  113 I27
stroke1  343  115 I27
stroke1  344  116 I27
stroke1  344  115 I27
stroke1  344  113 I27
stroke1  345  111 I27
stroke1  345  107 I27
stroke2  379  25 B35
stroke2  377  24 I35
stroke2  375  22 I35
stroke2  373  21 I35
stroke2  370  19 I35
stroke2  368  17 I35
stroke2  366  14 I35
stroke2  364  12 I35
stroke2  362  10 I35
stroke2  362  8 I35
stroke2  362  7 I35
stroke2  363  6 I35
stroke2  364  5 I35
stroke2  366  5 I35
stroke2  368  6 I35
stroke2  370  7 I35
stroke2  372  9 I35
stroke2  374  11 I35
stroke2  376  14 I35
stroke2  377  16 I35
stroke2  377  19 I35
stroke2  376  21 I35
stroke2  375  24 I35
stroke2  373  26 I35
stroke2  370  28 I35
stroke2  366  30 I35
stroke2  362  32 I35
stroke2  358  33 I35
stroke2  354  35 I35
stroke2  351  36 I35
stroke2  348  38 I35
stroke2  346  39 I35
stroke2  345  41 I35
stroke2  345  43 I35
stroke2  346  45 I35
stroke2  349  47 I35
stroke2  353  49 I35
stroke2  358  50 I35
stroke2  363  52 I35
stroke2  369  53 I35
stroke2  375  53 I35
stroke2  382  54 I35
stroke2  388  54 I35
stroke2  394  54 I35
stroke2  399  54 I35
stroke2  403  54 I35
stroke3  410  47 B46
stroke3  408  46 I46
stroke3  405  45 I46
stroke3  403  43 I46
stroke3  401  42 I46
stroke3  399  40 I46
stroke3  398  39 I46
stroke3  398  38 I46
stroke3  399  37 I46
stroke3  400  37 I46
stroke3  402  37 I46
stroke3  404  38 I46
stroke3  407  40 I46
stroke3  410  42 I46
stroke3  413  44 I46
stroke3  416  47 I46
stroke3  418  49 I46
stroke3  419  51 I46
stroke3  420  52 I46
stroke3  420  53 I46
stroke3  419  53 I46
stroke3  417  53 I46
stroke3  416  51 I46
stroke3  415  49 I46
stroke3  413  47 I46
stroke3  412  44 I46
stroke3  410  41 I46
stroke3  400  23 I46
stroke3  399  22 I46
stroke3  399  21 I46
stroke3  400  20 I46
stroke3  400  19 I46
stroke3  401  18 I46
stroke3  402  18 I46
stroke3  404  18 I46
stroke3  405  18 I46
stroke3  407  18 I46
stroke3  410  19 I46
stroke3  412  21 I46
stroke3  415  22 I46
stroke3  417  24 I46
stroke3  420  26 I46
stroke3  423  28 I46
stroke3  426  30 I46
stroke3  428  32 I46
stroke3  430  33 I46
stroke3  432  34 I46
stroke3  433  35 I46
stroke3  435  36 I46
stroke4  466  46 B40
stroke4  465  46 I40
stroke4  465  45 I40
stroke4  464  44 I40
stroke4  464  41 I40
stroke4  463  39 I40
stroke4  462  36 I40
stroke4  461  32 I40
stroke4  460  29 I40
stroke4  459  25 I40
stroke4  457  22 I40
stroke4  456  19 I40
stroke4  454  16 I40
stroke4  452  14 I40
stroke4  450  12 I40
stroke4  448  11 I40
stroke4  446  11 I40
stroke4  444  11 I40
stroke4  442  11 I40
stroke4  441  13 I40
stroke4  440  15 I40
stroke4  439  17 I40
stroke4  440  20 I40
stroke4  441  24 I40
stroke4  443  27 I40
stroke4  446  30 I40
stroke4  450  33 I40
stroke4  454  35 I40
stroke4  459  36 I40
stroke4  463  36 I40
stroke4  468  35 I40
stroke4  472  34 I40
stroke4  476  32 I40
stroke4  479  30 I40
stroke4  481  28 I40
stroke4  482  26 I40
stroke4  483  24 I40
stroke4  484  22 I40
stroke4  485  21 I40
stroke4  485  23 I40
stroke4  486  24 I40
stroke4  486  27 I40
stroke4  486  30 I40
stroke4  487  34 I40
stroke4  487  38 I40
stroke4  487  42 I40
stroke4  486  47 I40
stroke4  485  51 I40
stroke4  483  55 I40
stroke4  480  58 I40
stroke4  475  60 I40
stroke4  470  62 I40
stroke4  465  63 I40
stroke4  459  63 I40
stroke4  453  64 I40
stroke4  447  64 I40
stroke4  442  64 I40
stroke4  439  64 I40
stroke4  436  64 I40
stroke4  435  64 I40
stroke4  435  65 I40
stroke4  436  65 I40
stroke4  439  66 I40
stroke4  443  67 I40
stroke4  448  69 I40
stroke4  453  70 I40
stroke4  460  72 I40
stroke4  466  75 I40
stroke4  472  77 I40
stroke4  478  80 I40
stroke5  483  82 B48
stroke5  487  84 I48
stroke5  489  86 I48
stroke5  490  88 I48
stroke5  490  90 I48
stroke5  488  91 I48
stroke5  486  93 I48
stroke5  481  94 I48
stroke5  476  95 I48
stroke5  470  96 I48
stroke5  464  98 I48
stroke5  458  99 I48
stroke5  452  101 I48
stroke5  447  103 I48
stroke5  443  104 I48
stroke5  440  106 I48
stroke5  438  107 I48
stroke5  438  109 I48
stroke5  439  111 I48
stroke5  442  113 I48
stroke5  446  115 I48
stroke5  450  117 I48
stroke5  456  118 I48
stroke5  462  118 I48
stroke5  468  118 I48
stroke5  473  116 I48
stroke5  477  113 I48
stroke5  481  110 I48
stroke5  483  106 I48
stroke5  485  101 I48
stroke5  486  96 I48
stroke5  487  92 I48
stroke5  487  87 I48
stroke5  488  83 I48
stroke5  488  79 I48
stroke6  511  43 B23
stroke6  509  43 I23
stroke6  508  43 I23
stroke6  506  44 I23
stroke6  504  45 I23
stroke6  503  46 I23
stroke6  502  48 I23
stroke6  502  49 I23
stroke6  502  51 I23
stroke6  503  52 I23
stroke6  504  52 I23
stroke6  506  51 I23
stroke6  509  50 I23
stroke6  511  47 I23
stroke6  513  43 I23
stroke6  515  39 I23
stroke6  516  34 I23
stroke6  517  29 I23
stroke6  517  23 I23
stroke6  516  18 I23
stroke6  514  13 I23
stroke6  513  9 I23
stroke6  511  6 I23
stroke6  509  3 I23
stroke6  508  1 I23
stroke6  507  0 I23
stroke6  506  0 I23
stroke6  506  2 I23
stroke6  507  5 I23
stroke6  508  9 I23
stroke6  510  13 I23
stroke6  513  19 I23
stroke6  516  24 I23
stroke6  519  30 I23
stroke6  522  34 I23
stroke6  525  38 I23
stroke6  527  41 I23
stroke6  529  43 I23
stroke6  530  45 I23
stroke6  532  46 I23
stroke6  533  45 I23
stroke6  536  40 I23
stroke6  536  36 I23
stroke6  536  32 I23
stroke6  537  28 I23
stroke6  537  23 I23
stroke6  537  19 I23
stroke6  537  15 I23
stroke6  538  11 I23
stroke6  539  8 I23
stroke6  540  5 I23
stroke6  542  4 I23
stroke6  543  3 I23
stroke6  545  3 I23
stroke6  547  4 I23
stroke7  566  37 B24
stroke7  566  38 I24
stroke7  565  38 I24
stroke7  564  37 I24
stroke7  563  35 I24
stroke7  562  33 I24
stroke7  561  30 I24
stroke7  559  27 I24
stroke7  558  23 I24
stroke7  556  19 I24
stroke7  555  15 I24
stroke7  555  11 I24
stroke7  555  8 I24
stroke7  556  6 I24
stroke7  557  4 I24
stroke7  559  3 I24
stroke7  561  3 I24
stroke7  563  4 I24
stroke7  566  6 I24
stroke7  568  8 I24
stroke7  570  11 I24
stroke7  572  14 I24
stroke7  573  18 I24
stroke7  573  22 I24
stroke7  573  26 I24
stroke7  572  31 I24
stroke7  571  35 I24
stroke7  568  38 I24
stroke7  565  42 I24
stroke7  562  44 I24
stroke7  558  46 I24
stroke7  554  48 I24
stroke7  552  49 I24
stroke7  549  50 I24
stroke7  548  51 I24
stroke7  548  52 I24
stroke7  548  53 I24
stroke7  550  55 I24
stroke7  553  56 I24
stroke7  557  58 I24
stroke7  561  60 I24
stroke7  565  62 I24
stroke7  568  64 I24
stroke7  572  66 I24
stroke7  574  68 I24
stroke7  576  70 I24
stroke8  577  72 B48
stroke8  577  74 I48
stroke8  576  77 I48
stroke8  574  79 I48
stroke8  572  82 I48
stroke8  568  85 I48
stroke8  564  88 I48
stroke8  558  90 I48
stroke8  553  92 I48
stroke8  548  95 I48
stroke8  544  97 I48
stroke8  540  99 I48
stroke8  538  101 I48
stroke8  537  103 I48
stroke8  537  105 I48
stroke8  538  108 I48
stroke8  540  110 I48
stroke8  543  111 I48
stroke8  547  112 I48
stroke8  551  112 I48
stroke8  555  111 I48
stroke8  559  110 I48
stroke8  563  108 I48
stroke8  567  105 I48
stroke8  570  101 I48
stroke8  573  97 I48
stroke8  575  93 I48
stroke8  577  88 I48
stroke8  579  83 I48
stroke8  581  78 I48
stroke9  602  20 B32
stroke9  601  17 I32
stroke9  599  14 I32
stroke9  598  11 I32
stroke9  597  9 I32
stroke9  596  7 I32
stroke9  596  5 I32
stroke9  597  4 I32
stroke9  600  3 I32
stroke9  601  4 I32
stroke9  602  6 I32
stroke9  603  8 I32
stroke9  604  11 I32
stroke9  605  14 I32
stroke9  605  18 I32
stroke9  604  22 I32
stroke9  604  27 I32
stroke9  603  32 I32
stroke9  602  37 I32
stroke9  601  42 I32
stroke9  601  46 I32
stroke9  602  49 I32
stroke9  603  52 I32
stroke9  604  55 I32
stroke9  606  57 I32
stroke9  609  58 I32
stroke9  612  59 I32
stroke9  615  59 I32
stroke9  619  58 I32
stroke9  623  56 I32
stroke9  626  53 I32
stroke9  629  48 I32
stroke9  632  44 I32
stroke9  634  39 I32
stroke9  636  34 I32
stroke9  637  28 I32
stroke9  638  24 I32
stroke9  638  19 I32
stroke9  638  16 I32
stroke9  638  13 I32
stroke9  638  11 I32
stroke9  638  9 I32
stroke9  638  8 I32
stroke9  638  9 I32
stroke10  639  34 B47
stroke10  639  37 I47
stroke10  639  40 I47
stroke10  640  44 I47
stroke10  642  47 I47
stroke10  644  51 I47
stroke10  647  54 I47
stroke10  649  56 I47
stroke10  652  58 I47
stroke10  655  59 I47
stroke10  657  59 I47
stroke10  660  59 I47
stroke10  662  58 I47
stroke10  663  56 I47
stroke10  665  53 I47
stroke10  666  49 I47
stroke10  666  44 I47
stroke10  667  39 I47
stroke10  666  34 I47
stroke10  666  29 I47
stroke10  666  24 I47
stroke10  665  19 I47
stroke10  664  15 I47
stroke10  664  12 I47
stroke10  664  9 I47
stroke10  663  8 I47
stroke10  664  6 I47
stroke10  665  7 I47
stroke10  666  9 I47
stroke11  675  46 B30
stroke11  675  48 I30
stroke11  675  50 I30
stroke11  675  51 I30
stroke11  676  51 I30
stroke11  677  51 I30
stroke11  678  50 I30
stroke11  679  48 I30
stroke11  680  44 I30
stroke11  681  40 I30
stroke11  681  36 I30
stroke11  681  31 I30
stroke11  682  26 I30
stroke11  682  22 I30
stroke11  682  18 I30
stroke11  681  15 I30
stroke11  681  13 I30
stroke11  681  11 I30
stroke11  680  11 I30
stroke11  680  12 I30
stroke11  680  14 I30
stroke11  681  17 I30
stroke11  682  21 I30
stroke11  683  25 I30
stroke11  685  30 I30
stroke11  688  35 I30
stroke11  690  39 I30
stroke11  693  42 I30
stroke11  695  45 I30
stroke11  697  46 I30
stroke11  699  46 I30
stroke11  700  44 I30
stroke11  701  42 I30
stroke11  702  39 I30
stroke11  703  35 I30
stroke11  704  31 I30
stroke11  704  27 I30
stroke11  705  24 I30
stroke11  706  21 I30
stroke11  707  18 I30
stroke11  709  14 I30
stroke11  710  16 I30
stroke11  710  17 I30
stroke11  710  20 I30
stroke11  711  24 I30
stroke11  711  29 I30
stroke11  712  35 I30
stroke11  712  42 I30
stroke11  714  48 I30
stroke11  715  54 I30
stroke11  716  59 I30
stroke11  717  63 I30
stroke11  718  66 I30
stroke11  719  68 I30
stroke11  720  69 I30
stroke11  720  70 I30
stroke11  721  71 I30
stroke11  722  72 I30
