stroke1  345  110 B31
stroke1  341  109 I31
stroke1  338  107 I31
stroke1  333  106 I31
stroke1  329  106 I31
stroke1  326  105 I31
stroke1  322  105 I31
stroke1  320  105 I31
stroke1  318  106 I31
stroke1  316  107 I31
stroke1  316  108 I31
stroke1  316  110 I31
stroke1  317  111 I31
stroke1  318  113 I31
stroke1  320  114 I31
stroke1  323  116 I31
stroke1  326  117 I31
stroke1  329  117 I31
stroke1  332  117 I31
stroke1  336  116 I31
stroke1  339  115 I31
stroke1  342  112 I31
stroke1  345  109 I31
stroke1  347  105 I31
stroke1  350  101 I31
stroke1  351  96 I31
stroke1  353  90 I31
stroke1  353  84 I31
stroke1  354  78 I31
stroke1  353  72 I31
stroke1  353  66 I31
stroke1  352  61 I31
stroke1  351  57 I31
stroke1  350  54 I31
stroke1  350  52 I31
stroke1  349  50 I31
stroke1  349  55 I31
stroke1  350  59 I31
stroke1  351  62 I31
stroke1  352  67 I31
stroke1  353  71 I31
stroke1  354  75 I31
stroke1  356  79 I31
stroke1  358  83 I31
stroke1  360  85 I31
stroke1  362  87 I31
stroke1  364  88 I31
stroke1  366  89 I31
stroke1  368  88 I31
stroke1  370  87 I31
stroke1  372  85 I31
stroke1  374  82 I31
stroke1  376  78 I31
stroke1  378  74 I31
stroke1  380  70 I31
stroke1  381  65 I31
stroke1  383  62 I31
stroke1  384  59 I31
stroke1  385  57 I31
stroke1  386  56 I31
stroke1  386  55 I31
stroke1  387  55 I31
stroke1  387  57 I31
stroke1  387  58 I31
stroke1  387  61 I31
stroke1  388  64 I31
stroke1  388  69 I31
stroke1  388  74 I31
stroke1  388  80 I31
stroke1  389  87 I31
stroke1  389  95 I31
stroke1  390  104 I31
stroke1  391  113 I31
stroke1  392  122 I31
stroke1  393  131 I31
stroke1  395  139 I31
stroke1  396  147 I31
stroke1  397  154 I31
stroke1  398  161 I31
stroke1  399  166 I31
stroke1  400  171 I31
stroke1  401  174 I31
stroke1  402  177 I31
stroke1  402  179 I31
stroke1  402  180 I31
stroke1  401  180 I31
stroke1  400  179 I31
stroke2  366  154 B51
stroke2  361  153 I51
stroke2  355  152 I51
stroke2  348  152 I51
stroke2  342  152 I51
stroke2  335  152 I51
stroke2  330  152 I51
stroke2  325  153 I51
stroke2  321  153 I51
stroke2  318  154 I51
stroke2  316  155 I51
stroke2  315  157 I51
stroke2  316  158 I51
stroke2  318  160 I51
stroke2  322  161 I51
stroke2  325  161 I51
stroke2  330  161 I51
stroke2  335  160 I51
stroke2  340  159 I51
stroke2  346  157 I51
stroke2  350  156 I51
stroke2  355  154 I51
stroke2  359  152 I51
stroke2  362  151 I51
stroke2  364  149 I51
stroke2  366  148 I51
stroke2  367  147 I51
stroke2  368  147 I51
stroke2  368  148 I51
stroke2  368  149 I51
stroke2  376  175 I51
stroke2  378  175 I51
stroke2  379  176 I51
stroke2  379  175 I51
stroke2  380  174 I51
stroke2  379  171 I51
stroke2  379  168 I51
stroke2  379  165 I51
stroke2  378  162 I51
stroke2  377  159 I51
stroke2  376  157 I51
stroke2  375  155 I51
stroke2  375  154 I51
stroke2  374  152 I51
stroke2  373  153 I51
stroke2  372  153 I51
stroke2  372  154 I51
stroke2  371  155 I51
stroke2  371  157 I51
stroke2  370  160 I51
stroke2  369  162 I51
stroke2  363  173 I51
stroke2  362  173 I51
stroke2  361  172 I51
stroke2  359  171 I51
stroke2  358  169 I51
stroke2  357  166 I51
stroke2  356  163 I51
stroke2  355  161 I51
stroke2  355  159 I51
stroke2  355  157 I51
stroke2  355  155 I51
stroke2  356  155 I51
stroke2  357  155 I51
stroke2  358  155 I51
stroke2  359  156 I51
stroke2  360  157 I51
stroke3  372  208 B66
stroke3  373  209 I66
stroke3  374  209 I66
stroke3  375  208 I66
stroke3  375  206 I66
stroke3  376  204 I66
stroke3  376  202 I66
stroke3  377  200 I66
stroke3  377  198 I66
stroke3  378  196 I66
stroke3  379  194 I66
stroke3  380  193 I66
stroke3  381  193 I66
stroke3  383  193 I66
stroke3  386  194 I66
stroke3  389  196 I66
stroke3  393  199 I66
stroke3  397  201 I66
stroke3  402  204 I66
stroke3  407  207 I66
stroke3  412  209 I66
stroke3  417  212 I66
stroke3  421  213 I66
stroke3  425  215 I66
stroke3  428  216 I66
stroke3  431  216 I66
stroke3  433  216 I66
stroke3  434  215 I66
stroke3  434  214 I66
stroke4  420  110 B25
stroke4  417  111 I25
stroke4  414  111 I25
stroke4  411  112 I25
stroke4  408  113 I25
stroke4  405  114 I25
stroke4  404  115 I25
stroke4  403  117 I25
stroke4  403  120 I25
stroke4  404  121 I25
stroke4  405  121 I25
stroke4  407  121 I25
stroke4  410  120 I25
stroke4  413  118 I25
stroke4  416  115 I25
stroke4  418  111 I25
stroke4  421  106 I25
stroke4  423  101 I25
stroke4  424  96 I25
stroke4  424  90 I25
stroke4  423  85 I25
stroke4  422  79 I25
stroke4  420  74 I25
stroke4  418  70 I25
stroke4  416  66 I25
stroke4  413  63 I25
stroke4  411  61 I25
stroke4  410  59 I25
stroke4  409  59 I25
stroke4  408  59 I25
stroke4  408  60 I25
stroke4  409  61 I25
stroke4  411  64 I25
stroke4  413  67 I25
stroke4  416  71 I25
stroke4  421  75 I25
stroke4  425  79 I25
stroke4  430  82 I25
stroke4  435  85 I25
stroke4  440  87 I25
stroke4  445  89 I25
stroke4  450  90 I25
stroke4  454  89 I25
stroke4  458  89 I25
stroke4  461  87 I25
stroke4  464  84 I25
stroke4  465  81 I25
stroke4  465  77 I25
stroke4  465  73 I25
stroke4  464  69 I25
stroke4  462  65 I25
stroke4  460  62 I25
stroke4  458  59 I25
stroke4  456  57 I25
stroke4  454  56 I25
stroke4  452  56 I25
stroke4  450  57 I25
stroke4  449  58 I25
stroke4  448  60 I25
stroke4  447  63 I25
stroke4  447  67 I25
stroke4  447  71 I25
stroke4  446  76 I25
stroke4  447  81 I25
stroke4  447  86 I25
stroke4  447  92 I25
stroke4  447  97 I25
stroke4  447  101 I25
stroke4  447  104 I25
stroke4  447  107 I25
stroke4  447  109 I25
stroke4  447  110 I25
stroke4  447  111 I25
stroke4  447  112 I25
stroke4  448  112 I25
stroke4  449  111 I25
stroke4  450  111 I25
stroke5  495  110 B31
stroke5  493  110 I31
stroke5  491  110 I31
stroke5  488  110 I31
stroke5  485  111 I31
stroke5  483  111 I31
stroke5  480  112 I31
stroke5  478  113 I31
stroke5  477  114 I31
stroke5  476  115 I31
stroke5  476  116 I31
stroke5  476  117 I31
stroke5  477  118 I31
stroke5  478  118 I31
stroke5  480  117 I31
stroke5  482  116 I31
stroke5  484  114 I31
stroke5  487  110 I31
stroke5  488  105 I31
stroke5  490  100 I31
stroke5  491  93 I31
stroke5  491  86 I31
stroke5  492  80 I31
stroke5  491  74 I31
stroke5  491  69 I31
stroke5  490  65 I31
stroke5  489  62 I31
stroke5  489  60 I31
stroke5  488  60 I31
stroke5  487  60 I31
stroke5  487  62 I31
stroke5  487  64 I31
stroke5  487  68 I31
stroke5  488  72 I31
stroke5  490  77 I31
stroke5  492  81 I31
stroke5  494  85 I31
stroke5  496  88 I31
stroke5  499  91 I31
stroke5  507  92 I31
stroke5  509  91 I31
stroke5  512  89 I31
stroke5  514  86 I31
stroke5  516  82 I31
stroke5  518  77 I31
stroke5  520  72 I31
stroke5  522  68 I31
stroke5  523  64 I31
stroke5  524  61 I31
stroke5  525  59 I31
stroke5  526  58 I31
stroke5  527  60 I31
stroke5  527  62 I31
stroke5  527  66 I31
stroke5  527  70 I31
stroke5  527  75 I31
stroke5  527  81 I31
stroke5  527  89 I31
stroke5  528  97 I31
stroke5  528  106 I31
stroke5  528  116 I31
stroke5  528  125 I31
stroke5  529  135 I31
stroke5  529  144 I31
stroke5  529  152 I31
stroke5  529  159 I31
stroke5  529  165 I31
stroke5  529  170 I31
stroke5  529  174 I31
stroke5  529  176 I31
stroke5  529  178 I31
stroke5  529  179 I31
stroke5  529  180 I31
stroke5  529  179 I31
stroke5  529  178 I31
stroke5  528  175 I31
stroke5  528  172 I31
stroke5  528  169 I31
stroke5  527  164 I31
stroke5  527  160 I31
stroke6  522  36 B53
stroke6  519  33 I53
stroke6  515  30 I53
stroke6  511  28 I53
stroke6  508  27 I53
stroke6  504  26 I53
stroke6  501  25 I53
stroke6  498  25 I53
stroke6  496  26 I53
stroke6  495  27 I53
stroke6  494  28 I53
stroke6  495  29 I53
stroke6  496  31 I53
stroke6  498  32 I53
stroke6  500  32 I53
stroke6  503  32 I53
stroke6  506  31 I53
stroke6  509  30 I53
stroke6  512  28 I53
stroke6  515  25 I53
stroke6  517  22 I53
stroke6  518  19 I53
stroke6  519  16 I53
stroke6  519  12 I53
stroke6  520  9 I53
stroke6  519  6 I53
stroke6  519  3 I53
stroke6  518  1 I53
stroke6  518  0 I53
stroke6  518  1 I53
stroke6  518  3 I53
stroke6  519  7 I53
stroke6  521  11 I53
stroke6  522  15 I53
stroke6  524  20 I53
stroke6  526  25 I53
stroke6  528  29 I53
stroke6  530  33 I53
stroke6  531  36 I53
stroke6  533  39 I53
stroke6  534  41 I53
stroke6  535  42 I53
stroke6  536  44 I53
stroke6  537  45 I53
stroke6  537  46 I53
stroke6  538  46 I53
stroke6  538  47 I53
