stroke1  151  1 B40
stroke1  150  1 I40
stroke1  150  2 I40
stroke1  150  3 I40
stroke1  151  3 I40
stroke1  151  4 I40
stroke1  152  4 I40
stroke1  152  5 I40
stroke1  153  6 I40
stroke1  154  6 I40
stroke1  155  7 I40
stroke1  156  7 I40
stroke1  157  7 I40
stroke1  158  7 I40
stroke1  159  7 I40
stroke1  160  6 I40
stroke1  161  5 I40
stroke1  161  4 I40
stroke1  162  4 I40
stroke1  162  4 I40
stroke1  161  3 I40
stroke1  161  2 I40
stroke1  161  1 I40
stroke1  160  1 I40
stroke1  159  0 I40
stroke1  158  0 I40
stroke1  157  0 I40
stroke1  156  0 I40
stroke1  155  1 I40
stroke1  154  2 I40
stroke1  154  3 I40
stroke1  153  4 I40
stroke1  153  5 I40
stroke1  152  7 I40
stroke1  152  8 I40
stroke1  152  10 I40
stroke1  151  12 I40
stroke1  151  14 I40
stroke1  151  15 I40
stroke1  150  17 I40
stroke1  150  19 I40
stroke1  150  21 I40
stroke1  150  23 I40
stroke1  151  25 I40
stroke1  151  27 I40
stroke1  151  29 I40
stroke1  152  30 I40
stroke1  152  32 I40
stroke1  152  33 I40
stroke1  153  34 I40
stroke1  154  35 I40
stroke1  155  36 I40
stroke1  156  36 I40
stroke1  157  36 I40
stroke1  158  36 I40
stroke1  159  35 I40
stroke1  161  35 I40
stroke1  162  34 I40
stroke1  163  33 I40
stroke1  164  32 I40
stroke1  166  31 I40
stroke1  167  29 I40
stroke1  169  28 I40
stroke1  170  26 I40
stroke1  171  25 I40
stroke1  172  23 I40
stroke1  173  21 I40
stroke1  174  20 I40
stroke1  175  18 I40
stroke1  176  16 I40
stroke1  177  15 I40
stroke1  177  14 I40
stroke1  178  13 I40
stroke1  178  12 I40
stroke1  178  11 I40
stroke1  179  11 I40
stroke1  179  10 I40
stroke1  179  11 I40
stroke1  178  11 I40
stroke1  178  12 I40
stroke1  178  13 I40
stroke1  178  15 I40
stroke1  178  17 I40
stroke1  177  19 I40
stroke1  177  22 I40
stroke1  177  26 I40
stroke1  176  29 I40
stroke1  176  32 I40
stroke1  175  35 I40
stroke1  175  38 I40
stroke1  174  40 I40
stroke1  174  42 I40
stroke1  173  44 I40
stroke1  172  45 I40
stroke1  172  47 I40
stroke1  171  48 I40
stroke1  170  50 I40
stroke1  169  51 I40
stroke1  168  52 I40
stroke1  167  53 I40
stroke1  166  54 I40
stroke1  165  54 I40
stroke1  163  55 I40
stroke1  162  55 I40
stroke1  160  55 I40
stroke1  159  55 I40
stroke1  157  55 I40
stroke1  156  54 I40
stroke1  154  53 I40
stroke1  152  52 I40
stroke1  150  51 I40
stroke1  149  50 I40
stroke1  147  49 I40
stroke1  146  48 I40
stroke1  145  47 I40
stroke1  144  46 I40
stroke1  144  47 I40
stroke1  144  48 I40
stroke1  145  49 I40
stroke1  167  56 I40
stroke1  166  56 I40
stroke1  167  57 I40
stroke1  167  59 I40
stroke1  168  61 I40
stroke1  169  63 I40
stroke1  170  65 I40
stroke1  171  68 I40
stroke1  173  70 I40
stroke1  174  72 I40
stroke1  176  74 I40
stroke1  177  76 I40
stroke1  178  78 I40
stroke1  179  79 I40
stroke1  180  79 I40
stroke1  180  80 I40
stroke1  181  81 I40
stroke1  181  82 I40
stroke1  180  82 I40
stroke2  146  85 B56
stroke2  144  85 I56
stroke2  143  85 I56
stroke2  142  86 I56
stroke2  141  86 I56
stroke2  140  86 I56
stroke2  140  87 I56
stroke2  141  87 I56
stroke2  142  88 I56
stroke2  143  88 I56
stroke2  144  89 I56
stroke2  146  89 I56
stroke2  147  89 I56
stroke2  149  89 I56
stroke2  150  88 I56
stroke2  152  88 I56
stroke2  153  87 I56
stroke2  154  86 I56
stroke2  155  85 I56
stroke2  155  84 I56
stroke2  156  83 I56
stroke2  155  82 I56
stroke2  155  81 I56
stroke2  154  80 I56
stroke2  153  80 I56
stroke2  153  79 I56
stroke2  152  79 I56
stroke2  151  79 I56
stroke2  150  79 I56
stroke2  149  80 I56
stroke2  148  80 I56
stroke2  147  81 I56
stroke2  147  82 I56
stroke2  148  83 I56
stroke2  149  83 I56
stroke2  150  84 I56
stroke2  151  84 I56
stroke3  179  49 B47
stroke3  179  48 I47
stroke3  178  48 I47
stroke3  179  49 I47
stroke3  179  50 I47
stroke3  180  51 I47
stroke3  180  52 I47
stroke3  181  53 I47
stroke3  182  54 I47
stroke3  183  55 I47
stroke3  184  55 I47
stroke3  185  56 I47
stroke3  186  56 I47
stroke3  187  56 I47
stroke3  188  56 I47
stroke3  189  55 I47
stroke3  190  55 I47
stroke3  191  54 I47
stroke3  192  53 I47
stroke3  193  51 I47
stroke3  193  50 I47
stroke3  194  48 I47
stroke3  195  45 I47
stroke3  196  43 I47
stroke3  196  40 I47
stroke3  197  37 I47
stroke3  197  34 I47
stroke3  198  31 I47
stroke3  199  28 I47
stroke3  199  25 I47
stroke3  200  22 I47
stroke3  200  19 I47
stroke3  201  17 I47
stroke3  201  14 I47
stroke3  202  12 I47
stroke3  202  10 I47
stroke3  202  8 I47
stroke3  203  7 I47
stroke3  203  6 I47
stroke3  203  4 I47
stroke3  204  3 I47
stroke3  204  2 I47
stroke3  203  1 I47
stroke3  203  0 I47
stroke3  203  1 I47
stroke3  203  2 I47
stroke3  202  3 I47
stroke4  232  44 B41
stroke4  232  43 I41
stroke4  231  42 I41
stroke4  230  42 I41
stroke4  229  42 I41
stroke4  228  41 I41
stroke4  227  41 I41
stroke4  225  41 I41
stroke4  224  41 I41
stroke4  223  41 I41
stroke4  222  40 I41
stroke4  221  40 I41
stroke4  219  41 I41
stroke4  218  41 I41
stroke4  217  41 I41
stroke4  215  42 I41
stroke4  214  43 I41
stroke4  214  44 I41
stroke4  213  45 I41
stroke4  213  46 I41
stroke4  212  47 I41
stroke4  212  48 I41
stroke4  213  50 I41
stroke4  213  51 I41
stroke4  214  52 I41
stroke4  214  53 I41
stroke4  215  54 I41
stroke4  216  55 I41
stroke4  217  55 I41
stroke4  218  56 I41
stroke4  219  56 I41
stroke4  220  56 I41
stroke4  222  56 I41
stroke4  223  56 I41
stroke4  224  55 I41
stroke4  225  54 I41
stroke4  225  53 I41
stroke4  226  52 I41
stroke4  227  50 I41
stroke4  228  49 I41
stroke4  228  47 I41
stroke4  229  44 I41
stroke4  229  42 I41
stroke4  229  39 I41
stroke4  229  36 I41
stroke4  229  33 I41
stroke4  229  30 I41
stroke4  229  26 I41
stroke4  229  23 I41
stroke4  229  20 I41
stroke4  229  18 I41
stroke4  228  15 I41
stroke4  228  12 I41
stroke4  228  10 I41
stroke4  228  8 I41
stroke4  228  6 I41
stroke4  228  5 I41
stroke4  228  4 I41
stroke4  228  3 I41
stroke4  228  4 I41
stroke4  229  4 I41
stroke4  229  6 I41
stroke4  229  7 I41
stroke4  230  9 I41
stroke4  231  12 I41
stroke4  232  14 I41
stroke4  233  17 I41
stroke4  235  20 I41
stroke4  236  24 I41
stroke4  237  27 I41
stroke4  239  31 I41
stroke4  241  34 I41
stroke4  242  37 I41
stroke4  244  40 I41
stroke4  245  43 I41
stroke4  246  45 I41
stroke4  247  47 I41
stroke4  248  49 I41
stroke4  248  50 I41
stroke4  248  51 I41
stroke4  248  52 I41
stroke4  248  53 I41
stroke4  248  54 I41
stroke4  247  55 I41
stroke4  246  56 I41
stroke4  245  56 I41
stroke4  244  56 I41
stroke4  243  56 I41
stroke4  242  56 I41
stroke4  241  55 I41
stroke4  240  54 I41
stroke4  239  53 I41
stroke4  238  52 I41
stroke4  237  51 I41
stroke4  236  50 I41
stroke4  236  49 I41
stroke4  236  48 I41
stroke4  236  47 I41
stroke4  236  46 I41
stroke4  237  45 I41
stroke4  238  44 I41
stroke4  239  44 I41
stroke4  241  43 I41
stroke4  242  42 I41
stroke4  243  41 I41
stroke4  244  41 I41
stroke4  245  40 I41
stroke4  247  39 I41
stroke4  247  38 I41
stroke4  248  37 I41
stroke4  249  36 I41
stroke4  249  35 I41
stroke4  250  33 I41
stroke4  250  31 I41
stroke4  251  29 I41
stroke4  251  27 I41
stroke4  251  24 I41
stroke4  251  21 I41
stroke4  251  18 I41
stroke4  252  15 I41
stroke4  252  13 I41
stroke4  252  10 I41
stroke4  252  8 I41
stroke4  253  6 I41
stroke4  253  4 I41
stroke4  253  3 I41
stroke4  253  2 I41
stroke4  253  1 I41
stroke4  254  1 I41
stroke4  253  2 I41
stroke4  253  3 I41
stroke4  252  4 I41
stroke5  285  12 B35
stroke5  286  11 I35
stroke5  286  12 I35
stroke5  285  12 I35
stroke5  285  13 I35
stroke5  285  14 I35
stroke5  284  14 I35
stroke5  284  15 I35
stroke5  283  15 I35
stroke5  282  15 I35
stroke5  281  15 I35
stroke5  280  14 I35
stroke5  279  14 I35
stroke5  278  13 I35
stroke5  277  13 I35
stroke5  276  12 I35
stroke5  276  11 I35
stroke5  275  10 I35
stroke5  275  9 I35
stroke5  274  8 I35
stroke5  274  7 I35
stroke5  275  6 I35
stroke5  275  5 I35
stroke5  275  4 I35
stroke5  276  4 I35
stroke5  277  4 I35
stroke5  278  3 I35
stroke5  279  3 I35
stroke5  280  3 I35
stroke5  281  4 I35
stroke5  283  4 I35
stroke5  284  5 I35
stroke5  285  6 I35
stroke5  286  8 I35
stroke5  286  9 I35
stroke5  287  10 I35
stroke5  287  12 I35
stroke5  287  14 I35
stroke5  287  16 I35
stroke5  287  18 I35
stroke5  287  20 I35
stroke5  287  22 I35
stroke5  286  25 I35
stroke5  286  27 I35
stroke5  286  30 I35
stroke5  285  32 I35
stroke5  285  35 I35
stroke5  284  37 I35
stroke5  284  38 I35
stroke5  283  40 I35
stroke5  283  41 I35
stroke5  282  43 I35
stroke5  282  44 I35
stroke5  281  44 I35
stroke5  280  45 I35
stroke5  279  46 I35
stroke5  278  46 I35
stroke5  276  47 I35
stroke5  275  47 I35
stroke5  273  48 I35
stroke5  272  49 I35
stroke5  270  49 I35
stroke5  269  50 I35
stroke5  268  50 I35
stroke5  267  51 I35
stroke5  267  52 I35
stroke5  266  52 I35
stroke5  266  53 I35
stroke5  266  54 I35
stroke5  267  55 I35
stroke5  267  56 I35
stroke5  268  57 I35
stroke5  268  58 I35
stroke5  269  59 I35
stroke5  270  60 I35
stroke5  271  60 I35
stroke5  273  60 I35
stroke5  274  61 I35
stroke5  275  61 I35
stroke5  277  61 I35
stroke5  278  60 I35
stroke5  279  60 I35
stroke5  280  60 I35
stroke5  282  59 I35
stroke5  283  58 I35
stroke5  284  58 I35
stroke5  285  57 I35
stroke5  286  56 I35
stroke5  287  55 I35
stroke5  288  55 I35
stroke5  287  56 I35
stroke6  281  76 B45
stroke6  280  77 I45
stroke6  280  78 I45
stroke6  279  79 I45
stroke6  279  80 I45
stroke6  279  81 I45
stroke6  278  82 I45
stroke6  277  83 I45
stroke6  276  84 I45
stroke6  275  84 I45
stroke6  274  85 I45
stroke6  273  85 I45
stroke6  272  85 I45
stroke6  271  84 I45
stroke6  270  84 I45
stroke6  269  83 I45
stroke6  268  83 I45
stroke6  268  82 I45
stroke6  268  81 I45
stroke6  269  80 I45
stroke6  270  79 I45
stroke6  271  79 I45
stroke6  273  79 I45
stroke6  274  80 I45
stroke6  276  80 I45
stroke6  278  81 I45
stroke6  279  82 I45
stroke6  281  83 I45
stroke6  282  84 I45
stroke6  283  85 I45
stroke6  284  86 I45
stroke6  285  87 I45
stroke6  285  88 I45
stroke6  286  88 I45
stroke6  285  88 I45
stroke7  320  50 B26
stroke7  320  49 I26
stroke7  319  48 I26
stroke7  319  47 I26
stroke7  318  47 I26
stroke7  318  46 I26
stroke7  317  46 I26
stroke7  316  45 I26
stroke7  315  45 I26
stroke7  314  45 I26
stroke7  313  44 I26
stroke7  312  44 I26
stroke7  310  43 I26
stroke7  308  43 I26
stroke7  307  43 I26
stroke7  305  43 I26
stroke7  303  43 I26
stroke7  302  44 I26
stroke7  300  44 I26
stroke7  299  45 I26
stroke7  298  46 I26
stroke7  298  47 I26
stroke7  298  49 I26
stroke7  298  50 I26
stroke7  298  51 I26
stroke7  299  52 I26
stroke7  300  54 I26
stroke7  301  55 I26
stroke7  302  56 I26
stroke7  303  57 I26
stroke7  304  57 I26
stroke7  306  58 I26
stroke7  307  58 I26
stroke7  308  58 I26
stroke7  309  58 I26
stroke7  311  58 I26
stroke7  312  57 I26
stroke7  313  56 I26
stroke7  314  55 I26
stroke7  315  54 I26
stroke7  315  53 I26
stroke7  316  51 I26
stroke7  316  49 I26
stroke7  317  47 I26
stroke7  317  44 I26
stroke7  317  42 I26
stroke7  317  39 I26
stroke7  317  37 I26
stroke7  317  34 I26
stroke7  317  31 I26
stroke7  317  29 I26
stroke7  316  26 I26
stroke7  316  23 I26
stroke7  316  20 I26
stroke7  316  17 I26
stroke7  316  15 I26
stroke7  316  12 I26
stroke7  316  10 I26
stroke7  317  8 I26
stroke7  317  7 I26
stroke7  317  6 I26
stroke7  317  5 I26
stroke7  317  4 I26
stroke7  317  5 I26
stroke7  318  5 I26
stroke7  319  5 I26
stroke7  319  6 I26
stroke7  320  6 I26
stroke7  321  6 I26
stroke7  322  6 I26
stroke7  324  7 I26
stroke7  325  7 I26
stroke7  327  7 I26
stroke7  328  7 I26
stroke7  330  7 I26
stroke7  332  7 I26
stroke7  333  7 I26
stroke7  335  7 I26
stroke7  336  6 I26
stroke7  338  6 I26
stroke7  339  6 I26
stroke7  340  6 I26
stroke7  341  7 I26
stroke7  342  7 I26
stroke7  343  8 I26
stroke7  343  9 I26
stroke7  344  11 I26
stroke7  344  13 I26
stroke7  344  15 I26
stroke7  344  17 I26
stroke7  344  20 I26
stroke7  343  23 I26
stroke7  343  26 I26
stroke7  343  28 I26
stroke7  342  31 I26
stroke7  342  34 I26
stroke7  342  37 I26
stroke7  341  40 I26
stroke7  341  43 I26
stroke7  341  46 I26
stroke7  340  48 I26
stroke7  340  51 I26
stroke7  340  53 I26
stroke7  340  54 I26
stroke7  340  55 I26
stroke7  340  56 I26
stroke7  340  57 I26
stroke7  339  57 I26
stroke7  339  58 I26
stroke7  338  58 I26
