stroke1  170  64 B54
stroke1  170  65 I54
stroke1  170  66 I54
stroke1  171  67 I54
stroke1  171  68 I54
stroke1  171  69 I54
stroke1  171  70 I54
stroke1  170  70 I54
stroke1  170  69 I54
stroke1  170  68 I54
stroke1  170  67 I54
stroke1  170  66 I54
stroke1  171  64 I54
stroke1  171  62 I54
stroke1  171  59 I54
stroke1  171  57 I54
stroke1  171  54 I54
stroke1  171  51 I54
stroke1  171  48 I54
stroke1  171  48 I54
stroke1  170  44 I54
stroke1  170  40 I54
stroke1  170  37 I54
stroke1  170  33 I54
stroke1  170  30 I54
stroke1  170  26 I54
stroke1  170  23 I54
stroke1  170  20 I54
stroke1  170  17 I54
stroke1  170  15 I54
stroke1  170  12 I54
stroke1  170  10 I54
stroke1  170  8 I54
stroke1  170  7 I54
stroke1  170  6 I54
stroke1  171  5 I54
stroke1  171  4 I54
stroke1  171  3 I54
stroke1  172  2 I54
stroke1  173  2 I54
stroke1  174  1 I54
stroke1  175  1 I54
stroke1  176  0 I54
stroke1  177  0 I54
stroke1  178  1 I54
stroke1  179  1 I54
stroke1  181  2 I54
stroke1  182  3 I54
stroke1  184  4 I54
stroke1  185  6 I54
stroke1  186  7 I54
stroke1  187  8 I54
stroke1  188  9 I54
stroke1  188  10 I54
stroke1  188  11 I54
stroke1  188  12 I54
stroke1  188  13 I54
stroke1  187  13 I54
stroke1  186  14 I54
stroke1  185  14 I54
stroke1  184  15 I54
stroke1  183  15 I54
stroke1  182  15 I54
stroke1  181  14 I54
stroke1  180  14 I54
stroke1  179  13 I54
stroke1  178  13 I54
stroke1  178  12 I54
stroke1  177  12 I54
stroke1  178  13 I54
stroke2  202  37 B43
stroke2  201  37 I43
stroke2  200  37 I43
stroke2  201  37 I43
stroke2  202  37 I43
stroke2  204  37 I43
stroke2  206  38 I43
stroke2  208  38 I43
stroke2  210  39 I43
stroke2  212  40 I43
stroke2  214  41 I43
stroke2  215  42 I43
stroke2  216  43 I43
stroke2  217  44 I43
stroke2  217  45 I43
stroke2  217  46 I43
stroke2  216  46 I43
stroke2  215  46 I43
stroke2  213  47 I43
stroke2  212  47 I43
stroke2  211  47 I43
stroke2  209  47 I43
stroke2  207  48 I43
stroke2  206  47 I43
stroke2  205  47 I43
stroke2  203  47 I43
stroke2  202  46 I43
stroke2  201  45 I43
stroke2  201  44 I43
stroke2  200  43 I43
stroke2  200  41 I43
stroke2  200  39 I43
stroke2  199  36 I43
stroke2  199  33 I43
stroke2  199  29 I43
stroke2  198  26 I43
stroke2  198  22 I43
stroke2  197  19 I43
stroke2  197  16 I43
stroke2  197  13 I43
stroke2  197  10 I43
stroke2  197  9 I43
stroke2  198  7 I43
stroke2  198  6 I43
stroke2  199  5 I43
stroke2  200  5 I43
stroke2  201  5 I43
stroke2  202  5 I43
stroke2  204  5 I43
stroke2  205  5 I43
stroke2  207  5 I43
stroke2  208  5 I43
stroke2  210  5 I43
stroke2  212  5 I43
stroke2  213  5 I43
stroke2  215  5 I43
stroke2  216  5 I43
stroke2  218  5 I43
stroke2  219  5 I43
stroke2  220  6 I43
stroke2  221  6 I43
stroke2  222  7 I43
stroke2  223  7 I43
stroke2  223  8 I43
stroke2  224  9 I43
stroke2  224  10 I43
stroke2  225  12 I43
stroke2  225  14 I43
stroke2  225  17 I43
stroke2  225  19 I43
stroke2  225  23 I43
stroke2  225  26 I43
stroke2  225  30 I43
stroke2  225  34 I43
stroke2  224  38 I43
stroke2  224  43 I43
stroke2  224  47 I43
stroke2  224  50 I43
stroke2  223  54 I43
stroke2  223  56 I43
stroke2  222  59 I43
stroke2  221  61 I43
stroke2  221  63 I43
stroke2  220  64 I43
stroke2  219  65 I43
stroke2  218  67 I43
stroke2  217  68 I43
stroke2  216  69 I43
stroke2  215  69 I43
stroke2  213  70 I43
stroke2  212  70 I43
stroke2  210  70 I43
stroke2  208  70 I43
stroke2  207  69 I43
stroke2  205  67 I43
stroke2  204  66 I43
stroke2  203  65 I43
stroke2  202  64 I43
stroke2  202  63 I43
stroke3  232  62 B47
stroke3  231  61 I47
stroke3  232  62 I47
stroke3  233  63 I47
stroke3  234  63 I47
stroke3  235  64 I47
stroke3  236  64 I47
stroke3  238  65 I47
stroke3  239  65 I47
stroke3  240  65 I47
stroke3  242  65 I47
stroke3  243  65 I47
stroke3  244  65 I47
stroke3  246  64 I47
stroke3  247  64 I47
stroke3  248  63 I47
stroke3  249  62 I47
stroke3  249  60 I47
stroke3  250  58 I47
stroke3  251  56 I47
stroke3  251  54 I47
stroke3  252  51 I47
stroke3  252  48 I47
stroke3  253  46 I47
stroke3  253  43 I47
stroke3  254  39 I47
stroke3  254  36 I47
stroke3  255  32 I47
stroke3  255  28 I47
stroke3  255  24 I47
stroke3  255  21 I47
stroke3  255  18 I47
stroke3  255  15 I47
stroke3  255  12 I47
stroke3  256  9 I47
stroke3  256  7 I47
stroke3  256  5 I47
stroke3  256  4 I47
stroke3  256  3 I47
stroke3  257  2 I47
stroke3  256  3 I47
stroke3  256  4 I47
stroke3  255  6 I47
stroke4  298  16 B60
stroke4  297  16 I60
stroke4  297  17 I60
stroke4  298  17 I60
stroke4  299  17 I60
stroke4  301  17 I60
stroke4  302  18 I60
stroke4  304  18 I60
stroke4  306  18 I60
stroke4  308  18 I60
stroke4  310  18 I60
stroke4  312  18 I60
stroke4  313  17 I60
stroke4  315  17 I60
stroke4  316  16 I60
stroke4  317  15 I60
stroke4  318  15 I60
stroke4  318  14 I60
stroke4  318  13 I60
stroke4  318  12 I60
stroke4  318  11 I60
stroke4  317  10 I60
stroke4  316  10 I60
stroke4  315  10 I60
stroke4  314  10 I60
stroke4  313  10 I60
stroke4  312  10 I60
stroke4  311  11 I60
stroke4  310  12 I60
stroke4  310  13 I60
stroke4  309  14 I60
stroke4  308  15 I60
stroke4  308  17 I60
stroke4  307  19 I60
stroke4  306  21 I60
stroke4  306  24 I60
stroke4  305  27 I60
stroke4  305  31 I60
stroke4  305  35 I60
stroke4  305  39 I60
stroke4  305  43 I60
stroke4  305  48 I60
stroke4  305  53 I60
stroke4  305  58 I60
stroke4  305  64 I60
stroke4  304  70 I60
stroke4  304  77 I60
stroke4  304  83 I60
stroke4  304  89 I60
stroke4  303  94 I60
stroke4  303  99 I60
stroke4  302  103 I60
stroke4  301  106 I60
stroke4  301  109 I60
stroke4  300  111 I60
stroke4  299  113 I60
stroke4  298  115 I60
stroke4  297  117 I60
stroke4  296  118 I60
stroke4  294  119 I60
stroke4  293  120 I60
stroke4  291  121 I60
stroke4  290  121 I60
stroke4  288  121 I60
stroke4  286  121 I60
stroke4  285  120 I60
stroke4  283  120 I60
stroke4  281  119 I60
stroke4  280  117 I60
stroke4  279  116 I60
stroke4  277  114 I60
stroke4  276  113 I60
stroke4  276  112 I60
stroke4  276  110 I60
stroke4  275  109 I60
stroke4  275  108 I60
stroke4  276  107 I60
stroke4  277  106 I60
stroke4  278  106 I60
stroke4  280  105 I60
stroke4  281  105 I60
stroke4  283  105 I60
stroke4  285  105 I60
stroke4  286  105 I60
stroke4  288  105 I60
stroke4  289  106 I60
stroke4  290  106 I60
stroke4  291  106 I60
stroke4  292  106 I60
stroke4  293  106 I60
stroke4  294  107 I60
stroke4  295  107 I60
stroke5  332  56 B8
stroke5  332  57 I8
stroke5  332  58 I8
stroke5  332  59 I8
stroke5  333  60 I8
stroke5  334  61 I8
stroke5  335  63 I8
stroke5  337  64 I8
stroke5  339  65 I8
stroke5  340  66 I8
stroke5  342  66 I8
stroke5  344  67 I8
stroke5  345  67 I8
stroke5  347  67 I8
stroke5  348  67 I8
stroke5  350  67 I8
stroke5  351  67 I8
stroke5  353  66 I8
stroke5  354  65 I8
stroke5  355  64 I8
stroke5  356  63 I8
stroke5  357  61 I8
stroke5  358  59 I8
stroke5  359  57 I8
stroke5  359  55 I8
stroke5  360  53 I8
stroke5  360  51 I8
stroke5  360  49 I8
stroke5  361  46 I8
stroke5  361  43 I8
stroke5  361  40 I8
stroke5  360  37 I8
stroke5  360  34 I8
stroke5  360  31 I8
stroke5  360  29 I8
stroke5  360  26 I8
stroke5  360  23 I8
stroke5  360  21 I8
stroke5  360  19 I8
stroke5  360  17 I8
stroke5  360  16 I8
stroke5  360  15 I8
stroke5  360  14 I8
stroke5  360  13 I8
stroke5  360  12 I8
stroke5  360  13 I8
stroke5  359  14 I8
stroke5  359  15 I8
stroke5  359  16 I8
stroke5  359  18 I8
stroke5  359  21 I8
stroke5  359  23 I8
stroke5  359  26 I8
stroke5  359  29 I8
stroke5  358  32 I8
stroke5  358  34 I8
stroke5  358  36 I8
stroke5  357  38 I8
stroke5  356  39 I8
stroke5  355  41 I8
stroke5  354  41 I8
stroke5  353  42 I8
stroke5  351  42 I8
stroke5  350  42 I8
stroke5  349  42 I8
stroke5  348  42 I8
stroke5  347  42 I8
stroke5  346  41 I8
stroke5  346  40 I8
stroke5  346  39 I8
stroke5  346  38 I8
stroke5  347  37 I8
stroke5  348  37 I8
stroke5  349  36 I8
stroke5  350  37 I8
stroke5  352  37 I8
stroke5  353  37 I8
stroke5  355  38 I8
stroke5  356  38 I8
stroke5  357  38 I8
stroke5  358  38 I8
stroke6  395  22 B60
stroke6  394  22 I60
stroke6  394  23 I60
stroke6  395  23 I60
stroke6  395  24 I60
stroke6  396  24 I60
stroke6  397  25 I60
stroke6  398  26 I60
stroke6  399  26 I60
stroke6  401  26 I60
stroke6  402  25 I60
stroke6  403  25 I60
stroke6  405  25 I60
stroke6  406  24 I60
stroke6  407  24 I60
stroke6  408  23 I60
stroke6  409  22 I60
stroke6  410  21 I60
stroke6  410  20 I60
stroke6  410  19 I60
stroke6  410  18 I60
stroke6  410  17 I60
stroke6  409  16 I60
stroke6  408  15 I60
stroke6  407  15 I60
stroke6  406  14 I60
stroke6  404  14 I60
stroke6  403  14 I60
stroke6  402  14 I60
stroke6  401  15 I60
stroke6  400  16 I60
stroke6  399  17 I60
stroke6  398  19 I60
stroke6  398  21 I60
stroke6  398  24 I60
stroke6  398  27 I60
stroke6  398  31 I60
stroke6  398  35 I60
stroke6  398  39 I60
stroke6  399  44 I60
stroke6  399  49 I60
stroke6  400  55 I60
stroke6  400  60 I60
stroke6  400  66 I60
stroke6  400  72 I60
stroke6  399  78 I60
stroke6  399  84 I60
stroke6  399  89 I60
stroke6  398  95 I60
stroke6  398  100 I60
stroke6  397  105 I60
stroke6  396  109 I60
stroke6  395  113 I60
stroke6  394  116 I60
stroke6  393  118 I60
stroke6  391  119 I60
stroke6  390  120 I60
stroke6  388  120 I60
stroke6  386  120 I60
stroke6  384  118 I60
stroke6  382  117 I60
stroke6  380  115 I60
stroke6  378  113 I60
stroke6  376  111 I60
stroke6  375  109 I60
stroke6  374  106 I60
stroke6  373  104 I60
stroke6  374  103 I60
stroke6  374  101 I60
stroke6  376  100 I60
stroke6  378  99 I60
stroke6  380  99 I60
stroke6  382  99 I60
stroke6  384  99 I60
stroke6  386  99 I60
stroke6  388  98 I60
stroke7  429  19 B40
stroke7  428  19 I40
stroke7  428  18 I40
stroke7  427  18 I40
stroke7  426  18 I40
stroke7  427  18 I40
stroke7  428  19 I40
stroke7  429  19 I40
stroke7  430  20 I40
stroke7  431  20 I40
stroke7  433  20 I40
stroke7  434  21 I40
stroke7  435  20 I40
stroke7  437  20 I40
stroke7  438  20 I40
stroke7  439  19 I40
stroke7  440  18 I40
stroke7  440  17 I40
stroke7  440  16 I40
stroke7  441  15 I40
stroke7  440  14 I40
stroke7  440  13 I40
stroke7  439  12 I40
stroke7  438  12 I40
stroke7  437  12 I40
stroke7  436  12 I40
stroke7  435  12 I40
stroke7  434  12 I40
stroke7  433  13 I40
stroke7  432  13 I40
stroke7  431  13 I40
stroke7  431  14 I40
stroke7  430  15 I40
stroke7  429  16 I40
stroke7  429  17 I40
stroke7  428  19 I40
stroke7  428  21 I40
stroke7  428  23 I40
stroke7  428  26 I40
stroke7  428  28 I40
stroke7  428  31 I40
stroke7  428  33 I40
stroke7  428  35 I40
stroke7  429  37 I40
stroke7  429  39 I40
stroke7  430  41 I40
stroke7  430  42 I40
stroke7  431  43 I40
stroke7  432  44 I40
stroke7  433  45 I40
stroke7  434  45 I40
stroke7  435  46 I40
stroke7  436  46 I40
stroke7  437  46 I40
stroke7  438  45 I40
stroke7  440  44 I40
stroke7  442  44 I40
stroke7  443  42 I40
stroke7  445  41 I40
stroke7  446  39 I40
stroke7  448  37 I40
stroke7  450  35 I40
stroke7  451  34 I40
stroke7  453  32 I40
stroke7  455  30 I40
stroke7  456  28 I40
stroke7  457  26 I40
stroke7  458  25 I40
stroke7  459  23 I40
stroke7  460  22 I40
stroke7  460  21 I40
stroke7  461  20 I40
stroke7  461  19 I40
stroke7  461  18 I40
stroke7  461  17 I40
stroke7  460  16 I40
stroke7  460  15 I40
stroke7  460  16 I40
stroke7  460  17 I40
stroke7  460  19 I40
stroke7  460  21 I40
stroke7  460  23 I40
stroke7  460  25 I40
stroke7  460  28 I40
stroke7  460  31 I40
stroke7  460  35 I40
stroke7  460  38 I40
stroke7  460  42 I40
stroke7  460  46 I40
stroke7  459  49 I40
stroke7  459  52 I40
stroke7  459  55 I40
stroke7  458  58 I40
stroke7  457  60 I40
stroke7  457  62 I40
stroke7  456  63 I40
stroke7  455  64 I40
stroke7  454  65 I40
stroke7  453  66 I40
stroke7  451  66 I40
stroke7  450  67 I40
stroke7  448  67 I40
stroke7  446  68 I40
stroke7  444  67 I40
stroke7  441  67 I40
stroke7  438  66 I40
stroke7  436  65 I40
stroke7  433  64 I40
stroke7  430  63 I40
stroke7  427  62 I40
stroke7  425  61 I40
stroke7  423  60 I40
stroke7  422  60 I40
stroke7  423  60 I40
stroke7  446  69 I40
stroke7  447  69 I40
stroke7  448  70 I40
stroke7  449  70 I40
stroke7  450  72 I40
stroke7  451  73 I40
stroke7  453  75 I40
stroke7  455  76 I40
stroke7  457  78 I40
stroke7  458  80 I40
stroke7  460  82 I40
stroke7  462  84 I40
stroke7  463  85 I40
stroke7  464  86 I40
stroke7  465  87 I40
stroke7  465  88 I40
stroke7  466  89 I40
stroke7  465  90 I40
stroke7  465  89 I40
stroke7  464  89 I40
stroke8  446  87 B65
stroke8  445  87 I65
stroke8  445  88 I65
stroke8  445  89 I65
stroke8  445  90 I65
stroke8  445  92 I65
stroke8  445  93 I65
stroke8  445  94 I65
stroke8  446  96 I65
stroke8  446  97 I65
stroke8  446  98 I65
stroke8  446  99 I65
stroke8  446  100 I65
stroke8  446  101 I65
stroke8  446  100 I65
