stroke1  189  42 B27
stroke1  188  42 I27
stroke1  187  42 I27
stroke1  186  41 I27
stroke1  185  41 I27
stroke1  184  41 I27
stroke1  183  40 I27
stroke1  182  40 I27
stroke1  181  40 I27
stroke1  180  40 I27
stroke1  179  41 I27
stroke1  178  41 I27
stroke1  177  41 I27
stroke1  176  41 I27
stroke1  175  42 I27
stroke1  174  42 I27
stroke1  173  43 I27
stroke1  172  44 I27
stroke1  171  45 I27
stroke1  171  45 I27
stroke1  171  46 I27
stroke1  170  47 I27
stroke1  170  48 I27
stroke1  170  50 I27
stroke1  171  52 I27
stroke1  171  53 I27
stroke1  172  55 I27
stroke1  173  56 I27
stroke1  174  58 I27
stroke1  175  59 I27
stroke1  176  60 I27
stroke1  178  61 I27
stroke1  179  61 I27
stroke1  180  61 I27
stroke1  181  62 I27
stroke1  183  61 I27
stroke1  184  61 I27
stroke1  185  60 I27
stroke1  186  60 I27
stroke1  186  59 I27
stroke1  187  57 I27
stroke1  188  55 I27
stroke1  188  54 I27
stroke1  188  52 I27
stroke1  189  50 I27
stroke1  189  47 I27
stroke1  189  45 I27
stroke1  189  43 I27
stroke1  188  40 I27
stroke1  188  37 I27
stroke1  188  34 I27
stroke1  188  31 I27
stroke1  187  27 I27
stroke1  187  24 I27
stroke1  187  21 I27
stroke1  187  18 I27
stroke1  186  15 I27
stroke1  186  13 I27
stroke1  186  11 I27
stroke1  186  9 I27
stroke1  186  7 I27
stroke1  186  5 I27
stroke1  186  4 I27
stroke1  186  3 I27
stroke1  186  2 I27
stroke1  186  1 I27
stroke1  187  1 I27
stroke1  187  0 I27
stroke1  188  0 I27
stroke1  189  0 I27
stroke1  190  0 I27
stroke1  192  0 I27
stroke1  193  0 I27
stroke1  194  0 I27
stroke1  196  0 I27
stroke1  197  0 I27
stroke1  199  0 I27
stroke1  200  1 I27
stroke1  201  1 I27
stroke1  202  1 I27
stroke1  203  1 I27
stroke1  204  1 I27
stroke1  204  2 I27
stroke1  205  3 I27
stroke1  205  4 I27
stroke1  206  6 I27
stroke1  206  8 I27
stroke1  207  10 I27
stroke1  208  13 I27
stroke1  208  17 I27
stroke1  209  21 I27
stroke1  209  26 I27
stroke1  210  32 I27
stroke1  210  37 I27
stroke1  211  44 I27
stroke1  212  50 I27
stroke1  213  56 I27
stroke1  214  62 I27
stroke1  215  68 I27
stroke1  216  73 I27
stroke1  217  78 I27
stroke1  217  82 I27
stroke1  218  86 I27
stroke1  219  89 I27
stroke1  219  91 I27
stroke1  219  92 I27
stroke1  219  94 I27
stroke1  219  95 I27
stroke1  219  96 I27
stroke1  219  95 I27
stroke1  219  93 I27
stroke2  244  21 B35
stroke2  244  20 I35
stroke2  243  21 I35
stroke2  242  21 I35
stroke2  241  21 I35
stroke2  241  22 I35
stroke2  240  23 I35
stroke2  239  23 I35
stroke2  238  24 I35
stroke2  237  24 I35
stroke2  236  23 I35
stroke2  235  23 I35
stroke2  234  22 I35
stroke2  233  21 I35
stroke2  232  20 I35
stroke2  231  19 I35
stroke2  230  17 I35
stroke2  230  16 I35
stroke2  229  14 I35
stroke2  229  13 I35
stroke2  229  12 I35
stroke2  229  10 I35
stroke2  229  9 I35
stroke2  229  8 I35
stroke2  230  8 I35
stroke2  231  7 I35
stroke2  232  7 I35
stroke2  233  7 I35
stroke2  234  7 I35
stroke2  235  8 I35
stroke2  236  9 I35
stroke2  238  10 I35
stroke2  238  11 I35
stroke2  240  13 I35
stroke2  240  15 I35
stroke2  241  17 I35
stroke2  242  20 I35
stroke2  242  22 I35
stroke2  242  25 I35
stroke2  242  28 I35
stroke2  242  31 I35
stroke2  242  33 I35
stroke2  241  35 I35
stroke2  241  37 I35
stroke2  240  39 I35
stroke2  239  40 I35
stroke2  238  42 I35
stroke2  237  43 I35
stroke2  236  43 I35
stroke2  234  44 I35
stroke2  233  44 I35
stroke2  231  45 I35
stroke2  230  45 I35
stroke2  229  46 I35
stroke2  227  46 I35
stroke2  226  46 I35
stroke2  225  47 I35
stroke2  225  48 I35
stroke2  224  49 I35
stroke2  224  50 I35
stroke2  225  51 I35
stroke2  225  52 I35
stroke2  226  53 I35
stroke2  227  54 I35
stroke2  229  56 I35
stroke2  230  57 I35
stroke2  231  57 I35
stroke2  233  58 I35
stroke2  234  58 I35
stroke2  235  58 I35
stroke2  236  58 I35
stroke2  237  58 I35
stroke2  239  57 I35
stroke2  240  57 I35
stroke2  240  56 I35
stroke2  241  56 I35
stroke2  242  55 I35
stroke2  243  55 I35
stroke2  244  54 I35
stroke2  244  53 I35
stroke2  245  53 I35
stroke3  275  41 B46
stroke3  274  41 I46
stroke3  274  42 I46
stroke3  273  43 I46
stroke3  273  44 I46
stroke3  273  45 I46
stroke3  272  46 I46
stroke3  272  47 I46
stroke3  271  47 I46
stroke3  270  48 I46
stroke3  269  48 I46
stroke3  268  48 I46
stroke3  267  47 I46
stroke3  265  47 I46
stroke3  264  47 I46
stroke3  263  46 I46
stroke3  262  45 I46
stroke3  262  44 I46
stroke3  263  43 I46
stroke3  264  43 I46
stroke3  265  43 I46
stroke3  266  43 I46
stroke3  268  44 I46
stroke3  269  44 I46
stroke3  271  45 I46
stroke3  273  47 I46
stroke3  275  49 I46
stroke3  276  51 I46
stroke3  278  53 I46
stroke3  279  54 I46
stroke3  280  55 I46
stroke3  281  56 I46
stroke3  281  55 I46
stroke3  280  54 I46
stroke3  278  23 I46
stroke3  278  22 I46
stroke3  277  22 I46
stroke3  276  23 I46
stroke3  275  23 I46
stroke3  274  23 I46
stroke3  273  24 I46
stroke3  272  24 I46
stroke3  271  24 I46
stroke3  270  23 I46
stroke3  269  23 I46
stroke3  268  22 I46
stroke3  266  21 I46
stroke3  265  20 I46
stroke3  265  19 I46
stroke3  264  19 I46
stroke3  265  18 I46
stroke3  266  18 I46
stroke3  267  18 I46
stroke3  268  19 I46
stroke3  270  20 I46
stroke3  272  21 I46
stroke3  274  22 I46
stroke3  276  23 I46
stroke3  278  24 I46
stroke3  280  25 I46
stroke3  281  26 I46
stroke3  282  27 I46
stroke3  283  29 I46
stroke3  284  30 I46
stroke3  285  30 I46
stroke3  285  31 I46
stroke3  286  32 I46
stroke3  285  32 I46
stroke4  311  8 B40
stroke4  310  9 I40
stroke4  309  9 I40
stroke4  308  9 I40
stroke4  307  10 I40
stroke4  306  10 I40
stroke4  306  11 I40
stroke4  307  12 I40
stroke4  308  13 I40
stroke4  309  13 I40
stroke4  310  13 I40
stroke4  312  14 I40
stroke4  313  13 I40
stroke4  315  13 I40
stroke4  316  13 I40
stroke4  318  12 I40
stroke4  319  12 I40
stroke4  320  11 I40
stroke4  320  10 I40
stroke4  321  9 I40
stroke4  320  8 I40
stroke4  319  7 I40
stroke4  318  6 I40
stroke4  317  6 I40
stroke4  316  5 I40
stroke4  315  5 I40
stroke4  314  5 I40
stroke4  313  5 I40
stroke4  312  5 I40
stroke4  311  6 I40
stroke4  311  7 I40
stroke4  310  8 I40
stroke4  310  10 I40
stroke4  309  12 I40
stroke4  309  14 I40
stroke4  309  16 I40
stroke4  309  19 I40
stroke4  309  22 I40
stroke4  309  25 I40
stroke4  309  28 I40
stroke4  309  31 I40
stroke4  310  34 I40
stroke4  310  36 I40
stroke4  310  38 I40
stroke4  311  40 I40
stroke4  311  41 I40
stroke4  311  42 I40
stroke4  312  42 I40
stroke4  313  43 I40
stroke4  314  42 I40
stroke4  316  42 I40
stroke4  317  41 I40
stroke4  319  40 I40
stroke4  321  39 I40
stroke4  323  37 I40
stroke4  325  35 I40
stroke4  327  33 I40
stroke4  329  30 I40
stroke4  331  28 I40
stroke4  333  25 I40
stroke4  335  23 I40
stroke4  336  20 I40
stroke4  337  18 I40
stroke4  338  16 I40
stroke4  339  14 I40
stroke4  339  12 I40
stroke4  340  10 I40
stroke4  340  9 I40
stroke4  340  8 I40
stroke4  340  7 I40
stroke4  341  7 I40
stroke4  340  8 I40
stroke4  340  9 I40
stroke4  340  11 I40
stroke4  340  13 I40
stroke4  340  15 I40
stroke4  340  18 I40
stroke4  340  21 I40
stroke4  340  25 I40
stroke4  340  29 I40
stroke4  340  33 I40
stroke4  340  36 I40
stroke4  339  39 I40
stroke4  338  42 I40
stroke4  337  44 I40
stroke4  336  46 I40
stroke4  334  48 I40
stroke4  332  50 I40
stroke4  330  51 I40
stroke4  327  52 I40
stroke4  325  54 I40
stroke4  323  55 I40
stroke4  321  56 I40
stroke4  319  56 I40
stroke4  316  56 I40
stroke4  314  56 I40
stroke4  313  56 I40
stroke4  311  56 I40
stroke4  310  55 I40
stroke4  309  54 I40
stroke4  310  54 I40
stroke4  334  53 I40
stroke4  333  53 I40
stroke4  333  54 I40
stroke4  332  55 I40
stroke4  332  56 I40
stroke4  332  57 I40
stroke4  332  58 I40
stroke4  333  60 I40
stroke4  334  61 I40
stroke4  334  62 I40
stroke4  335  64 I40
stroke4  337  65 I40
stroke4  338  67 I40
stroke4  340  69 I40
stroke4  342  70 I40
stroke4  344  72 I40
stroke4  347  74 I40
stroke4  349  76 I40
stroke4  351  77 I40
stroke4  353  79 I40
stroke4  355  80 I40
stroke4  356  82 I40
stroke4  357  83 I40
stroke4  358  83 I40
stroke4  358  84 I40
stroke4  358  85 I40
stroke4  357  85 I40
stroke4  356  84 I40
stroke4  355  84 I40
stroke5  342  82 B48
stroke5  340  82 I48
stroke5  338  82 I48
stroke5  335  83 I48
stroke5  332  84 I48
stroke5  329  84 I48
stroke5  326  86 I48
stroke5  323  87 I48
stroke5  319  88 I48
stroke5  316  89 I48
stroke5  313  90 I48
stroke5  310  91 I48
stroke5  308  92 I48
stroke5  306  93 I48
stroke5  305  93 I48
stroke5  304  94 I48
stroke5  303  94 I48
stroke5  304  95 I48
stroke5  305  95 I48
stroke5  307  95 I48
stroke5  308  95 I48
stroke5  311  94 I48
stroke5  313  93 I48
stroke5  316  92 I48
stroke5  318  91 I48
stroke5  320  89 I48
stroke5  322  88 I48
stroke5  324  86 I48
stroke5  326  84 I48
stroke5  327  83 I48
stroke5  328  82 I48
stroke5  329  81 I48
stroke5  330  81 I48
stroke5  330  80 I48
stroke5  331  80 I48
stroke6  368  46 B23
stroke6  367  45 I23
stroke6  366  45 I23
stroke6  365  44 I23
stroke6  364  44 I23
stroke6  363  44 I23
stroke6  362  43 I23
stroke6  361  43 I23
stroke6  360  43 I23
stroke6  359  43 I23
stroke6  357  44 I23
stroke6  356  44 I23
stroke6  355  44 I23
stroke6  353  45 I23
stroke6  352  45 I23
stroke6  351  46 I23
stroke6  350  47 I23
stroke6  349  49 I23
stroke6  349  50 I23
stroke6  348  51 I23
stroke6  349  53 I23
stroke6  349  54 I23
stroke6  350  55 I23
stroke6  351  56 I23
stroke6  352  56 I23
stroke6  353  57 I23
stroke6  354  57 I23
stroke6  355  56 I23
stroke6  357  56 I23
stroke6  358  55 I23
stroke6  359  54 I23
stroke6  360  53 I23
stroke6  361  51 I23
stroke6  362  49 I23
stroke6  362  47 I23
stroke6  362  44 I23
stroke6  363  42 I23
stroke6  363  39 I23
stroke6  363  35 I23
stroke6  363  32 I23
stroke6  363  28 I23
stroke6  362  25 I23
stroke6  362  21 I23
stroke6  362  18 I23
stroke6  362  15 I23
stroke6  361  12 I23
stroke6  361  10 I23
stroke6  361  8 I23
stroke6  361  6 I23
stroke6  361  5 I23
stroke6  360  4 I23
stroke6  360  3 I23
stroke6  360  4 I23
stroke6  360  5 I23
stroke6  359  7 I23
stroke6  359  9 I23
stroke6  359  11 I23
stroke6  359  14 I23
stroke6  359  17 I23
stroke6  360  21 I23
stroke6  361  25 I23
stroke6  362  30 I23
stroke6  364  34 I23
stroke6  365  38 I23
stroke6  367  42 I23
stroke6  369  45 I23
stroke6  371  48 I23
stroke6  372  50 I23
stroke6  374  52 I23
stroke6  375  53 I23
stroke6  376  54 I23
stroke6  377  55 I23
stroke6  378  55 I23
stroke6  379  55 I23
stroke6  380  55 I23
stroke6  381  55 I23
stroke6  382  54 I23
stroke6  382  53 I23
stroke6  383  52 I23
stroke6  384  51 I23
stroke6  385  49 I23
stroke6  385  47 I23
stroke6  385  45 I23
stroke6  386  42 I23
stroke6  386  39 I23
stroke6  385  36 I23
stroke6  385  33 I23
stroke6  385  30 I23
stroke6  385  26 I23
stroke6  384  23 I23
stroke6  384  20 I23
stroke6  384  17 I23
stroke6  383  14 I23
stroke6  383  12 I23
stroke6  383  10 I23
stroke6  383  9 I23
stroke6  383  8 I23
stroke6  383  7 I23
stroke6  384  8 I23
stroke6  383  10 I23
stroke7  407  34 B24
stroke7  407  33 I24
stroke7  407  32 I24
stroke7  407  31 I24
stroke7  407  30 I24
stroke7  407  28 I24
stroke7  407  26 I24
stroke7  407  24 I24
stroke7  407  22 I24
stroke7  406  19 I24
stroke7  406  17 I24
stroke7  406  14 I24
stroke7  405  12 I24
stroke7  405  10 I24
stroke7  405  8 I24
stroke7  404  7 I24
stroke7  405  6 I24
stroke7  405  5 I24
stroke7  406  5 I24
stroke7  407  5 I24
stroke7  408  5 I24
stroke7  409  5 I24
stroke7  410  5 I24
stroke7  411  5 I24
stroke7  413  5 I24
stroke7  414  5 I24
stroke7  416  5 I24
stroke7  417  5 I24
stroke7  418  5 I24
stroke7  420  5 I24
stroke7  421  6 I24
stroke7  422  6 I24
stroke7  423  7 I24
stroke7  424  9 I24
stroke7  424  10 I24
stroke7  424  12 I24
stroke7  425  15 I24
stroke7  425  18 I24
stroke7  426  22 I24
stroke7  426  25 I24
stroke7  426  29 I24
stroke7  427  32 I24
stroke7  427  35 I24
stroke7  427  38 I24
stroke7  427  40 I24
stroke7  427  42 I24
stroke7  426  44 I24
stroke7  426  45 I24
stroke7  425  47 I24
stroke7  424  48 I24
stroke7  423  49 I24
stroke7  421  50 I24
stroke7  419  52 I24
stroke7  417  53 I24
stroke7  414  53 I24
stroke7  412  54 I24
stroke7  409  55 I24
stroke7  407  56 I24
stroke7  406  56 I24
stroke7  404  57 I24
stroke7  403  57 I24
stroke7  403  58 I24
stroke7  404  59 I24
stroke7  405  60 I24
stroke7  406  60 I24
stroke7  408  60 I24
stroke7  410  61 I24
stroke7  412  61 I24
stroke7  414  61 I24
stroke7  416  61 I24
stroke7  418  60 I24
stroke7  420  60 I24
stroke7  422  59 I24
stroke7  423  58 I24
stroke7  424  57 I24
stroke7  424  56 I24
stroke7  425  56 I24
stroke8  428  71 B48
stroke8  427  72 I48
stroke8  427  73 I48
stroke8  426  74 I48
stroke8  425  75 I48
stroke8  424  77 I48
stroke8  422  78 I48
stroke8  420  80 I48
stroke8  418  82 I48
stroke8  416  84 I48
stroke8  413  85 I48
stroke8  411  87 I48
stroke8  409  89 I48
stroke8  407  91 I48
stroke8  405  92 I48
stroke8  404  93 I48
stroke8  403  94 I48
stroke8  402  95 I48
stroke8  402  96 I48
stroke8  403  96 I48
stroke8  403  97 I48
stroke8  405  96 I48
stroke8  406  96 I48
stroke8  408  95 I48
stroke8  410  95 I48
stroke8  413  93 I48
stroke8  415  92 I48
stroke8  417  90 I48
stroke8  419  88 I48
stroke8  420  86 I48
stroke8  421  84 I48
stroke8  422  82 I48
stroke8  423  80 I48
stroke8  424  79 I48
stroke8  424  78 I48
stroke8  425  77 I48
stroke8  425  76 I48
stroke9  455  15 B32
stroke9  455  16 I32
stroke9  454  16 I32
stroke9  453  16 I32
stroke9  452  17 I32
stroke9  451  17 I32
stroke9  450  18 I32
stroke9  449  18 I32
stroke9  448  18 I32
stroke9  447  19 I32
stroke9  446  19 I32
stroke9  445  19 I32
stroke9  444  18 I32
stroke9  443  17 I32
stroke9  441  16 I32
stroke9  440  15 I32
stroke9  439  14 I32
stroke9  438  13 I32
stroke9  438  12 I32
stroke9  438  11 I32
stroke9  438  10 I32
stroke9  439  9 I32
stroke9  441  8 I32
stroke9  442  8 I32
stroke9  444  9 I32
stroke9  446  9 I32
stroke9  448  9 I32
stroke9  450  10 I32
stroke9  451  11 I32
stroke9  453  12 I32
stroke9  454  13 I32
stroke9  455  14 I32
stroke9  455  15 I32
stroke9  456  16 I32
stroke9  456  18 I32
stroke9  456  21 I32
stroke9  456  23 I32
stroke9  456  26 I32
stroke9  456  30 I32
stroke9  456  33 I32
stroke9  456  37 I32
stroke9  456  40 I32
stroke9  455  42 I32
stroke9  455  45 I32
stroke9  454  47 I32
stroke9  453  48 I32
stroke9  451  50 I32
stroke9  450  51 I32
stroke9  449  52 I32
stroke9  448  53 I32
stroke9  447  54 I32
stroke9  446  55 I32
stroke9  446  56 I32
stroke9  447  56 I32
stroke9  447  57 I32
stroke9  449  57 I32
stroke9  450  58 I32
stroke9  452  58 I32
stroke9  454  59 I32
stroke9  456  59 I32
stroke9  458  59 I32
stroke9  460  59 I32
stroke9  462  59 I32
stroke9  465  59 I32
stroke9  467  58 I32
stroke9  469  58 I32
stroke9  472  57 I32
stroke9  474  57 I32
stroke9  477  56 I32
stroke9  479  55 I32
stroke9  481  53 I32
stroke9  482  51 I32
stroke9  483  49 I32
stroke9  483  46 I32
stroke9  484  43 I32
stroke9  484  39 I32
stroke9  483  36 I32
stroke9  483  32 I32
stroke9  483  29 I32
stroke9  482  25 I32
stroke9  482  22 I32
stroke9  482  19 I32
stroke9  481  17 I32
stroke9  481  15 I32
stroke9  482  14 I32
stroke9  482  13 I32
stroke9  482  14 I32
stroke9  481  15 I32
stroke10  491  40 B47
stroke10  491  41 I47
stroke10  491  42 I47
stroke10  492  42 I47
stroke10  492  43 I47
stroke10  493  44 I47
stroke10  493  45 I47
stroke10  494  46 I47
stroke10  496  47 I47
stroke10  497  48 I47
stroke10  499  49 I47
stroke10  501  50 I47
stroke10  503  51 I47
stroke10  505  52 I47
stroke10  507  52 I47
stroke10  509  52 I47
stroke10  511  52 I47
stroke10  513  51 I47
stroke10  515  50 I47
stroke10  516  49 I47
stroke10  517  48 I47
stroke10  518  46 I47
stroke10  519  45 I47
stroke10  519  43 I47
stroke10  520  41 I47
stroke10  520  38 I47
stroke10  520  36 I47
stroke10  520  33 I47
stroke10  520  30 I47
stroke10  520  26 I47
stroke10  520  23 I47
stroke10  520  20 I47
stroke10  520  17 I47
stroke10  520  14 I47
stroke10  520  11 I47
stroke10  520  9 I47
stroke10  520  7 I47
stroke10  520  6 I47
stroke10  520  5 I47
stroke10  520  6 I47
stroke10  519  8 I47
stroke11  547  42 B30
stroke11  547  41 I30
stroke11  546  41 I30
stroke11  545  41 I30
stroke11  544  41 I30
stroke11  543  41 I30
stroke11  542  41 I30
stroke11  541  42 I30
stroke11  540  42 I30
stroke11  539  43 I30
stroke11  538  44 I30
stroke11  537  45 I30
stroke11  536  46 I30
stroke11  536  48 I30
stroke11  536  49 I30
stroke11  536  50 I30
stroke11  536  51 I30
stroke11  537  52 I30
stroke11  537  53 I30
stroke11  538  53 I30
stroke11  539  54 I30
stroke11  540  55 I30
stroke11  542  55 I30
stroke11  543  55 I30
stroke11  544  54 I30
stroke11  545  53 I30
stroke11  546  52 I30
stroke11  547  50 I30
stroke11  548  48 I30
stroke11  548  46 I30
stroke11  548  44 I30
stroke11  549  41 I30
stroke11  549  38 I30
stroke11  548  35 I30
stroke11  548  32 I30
stroke11  548  28 I30
stroke11  547  24 I30
stroke11  546  20 I30
stroke11  545  17 I30
stroke11  545  13 I30
stroke11  544  11 I30
stroke11  544  8 I30
stroke11  544  7 I30
stroke11  544  6 I30
stroke11  544  5 I30
stroke11  545  5 I30
stroke11  545  6 I30
stroke11  546  6 I30
stroke11  546  7 I30
stroke11  547  8 I30
stroke11  548  10 I30
stroke11  550  11 I30
stroke11  551  12 I30
stroke11  552  14 I30
stroke11  554  15 I30
stroke11  555  16 I30
stroke11  556  16 I30
stroke11  557  17 I30
stroke11  558  17 I30
stroke11  559  17 I30
stroke11  560  16 I30
stroke11  561  15 I30
stroke11  561  14 I30
stroke11  562  13 I30
stroke11  563  12 I30
stroke11  564  11 I30
stroke11  565  10 I30
stroke11  566  9 I30
stroke11  567  7 I30
stroke11  567  6 I30
stroke11  568  5 I30
stroke11  569  4 I30
stroke11  570  3 I30
stroke11  571  3 I30
stroke11  571  4 I30
stroke11  572  6 I30
stroke11  572  8 I30
stroke11  573  11 I30
stroke11  573  14 I30
stroke11  573  18 I30
stroke11  574  23 I30
stroke11  574  27 I30
stroke11  575  32 I30
stroke11  575  36 I30
stroke11  575  40 I30
stroke11  575  43 I30
stroke11  575  46 I30
stroke11  575  49 I30
stroke11  575  52 I30
stroke11  574  54 I30
stroke11  574  55 I30
stroke11  574  57 I30
stroke11  574  58 I30
stroke11  574  59 I30
stroke11  574  60 I30
stroke11  574  61 I30
stroke11  574  60 I30
stroke11  573  59 I30
