stroke1  175  56 B54
stroke1  175  57 I54
stroke1  175  58 I54
stroke1  175  59 I54
stroke1  175  60 I54
stroke1  175  61 I54
stroke1  176  61 I54
stroke1  176  60 I54
stroke1  176  59 I54
stroke1  176  58 I54
stroke1  176  56 I54
stroke1  176  54 I54
stroke1  176  51 I54
stroke1  176  48 I54
stroke1  176  46 I54
stroke1  176  43 I54
stroke1  176  40 I54
stroke1  176  37 I54
stroke1  176  34 I54
stroke1  176  34 I54
stroke1  176  31 I54
stroke1  176  28 I54
stroke1  176  25 I54
stroke1  176  22 I54
stroke1  176  20 I54
stroke1  176  17 I54
stroke1  176  15 I54
stroke1  177  13 I54
stroke1  177  11 I54
stroke1  177  10 I54
stroke1  178  9 I54
stroke1  179  8 I54
stroke1  179  7 I54
stroke1  180  6 I54
stroke1  181  6 I54
stroke1  182  5 I54
stroke1  183  4 I54
stroke1  184  4 I54
stroke1  185  4 I54
stroke1  186  3 I54
stroke1  187  3 I54
stroke1  188  4 I54
stroke1  189  5 I54
stroke1  190  5 I54
stroke1  191  7 I54
stroke1  192  8 I54
stroke1  193  9 I54
stroke1  194  10 I54
stroke1  194  11 I54
stroke1  195  13 I54
stroke1  195  14 I54
stroke1  194  14 I54
stroke1  194  15 I54
stroke1  193  15 I54
stroke1  191  15 I54
stroke1  190  15 I54
stroke1  189  15 I54
stroke1  187  15 I54
stroke1  186  15 I54
stroke1  184  14 I54
stroke1  183  14 I54
stroke1  182  14 I54
stroke1  182  13 I54
stroke1  181  13 I54
stroke1  181  14 I54
stroke2  210  6 B36
stroke2  209  5 I36
stroke2  208  5 I36
stroke2  207  5 I36
stroke2  206  5 I36
stroke2  207  5 I36
stroke2  207  6 I36
stroke2  208  6 I36
stroke2  209  6 I36
stroke2  210  7 I36
stroke2  211  7 I36
stroke2  212  7 I36
stroke2  214  8 I36
stroke2  215  8 I36
stroke2  217  8 I36
stroke2  219  8 I36
stroke2  220  8 I36
stroke2  221  8 I36
stroke2  223  8 I36
stroke2  223  7 I36
stroke2  224  6 I36
stroke2  225  6 I36
stroke2  225  5 I36
stroke2  225  4 I36
stroke2  224  3 I36
stroke2  223  2 I36
stroke2  222  1 I36
stroke2  221  1 I36
stroke2  220  1 I36
stroke2  219  0 I36
stroke2  218  0 I36
stroke2  217  0 I36
stroke2  216  0 I36
stroke2  215  0 I36
stroke2  214  0 I36
stroke2  213  0 I36
stroke2  212  1 I36
stroke2  211  2 I36
stroke2  211  3 I36
stroke2  210  4 I36
stroke2  210  6 I36
stroke2  210  7 I36
stroke2  209  9 I36
stroke2  209  11 I36
stroke2  209  13 I36
stroke2  210  15 I36
stroke2  210  18 I36
stroke2  210  21 I36
stroke2  211  23 I36
stroke2  211  26 I36
stroke2  212  28 I36
stroke2  212  31 I36
stroke2  213  32 I36
stroke2  213  34 I36
stroke2  214  35 I36
stroke2  215  36 I36
stroke2  216  36 I36
stroke2  217  36 I36
stroke2  218  36 I36
stroke2  219  36 I36
stroke2  220  35 I36
stroke2  222  34 I36
stroke2  223  33 I36
stroke2  225  31 I36
stroke2  227  30 I36
stroke2  229  28 I36
stroke2  231  26 I36
stroke2  233  24 I36
stroke2  235  22 I36
stroke2  236  20 I36
stroke2  238  18 I36
stroke2  239  16 I36
stroke2  240  14 I36
stroke2  241  13 I36
stroke2  242  11 I36
stroke2  243  9 I36
stroke2  243  8 I36
stroke2  244  7 I36
stroke2  243  8 I36
stroke2  243  9 I36
stroke2  243  10 I36
stroke2  243  12 I36
stroke2  242  14 I36
stroke2  242  16 I36
stroke2  242  19 I36
stroke2  242  22 I36
stroke2  243  25 I36
stroke2  242  29 I36
stroke2  242  32 I36
stroke2  242  36 I36
stroke2  242  39 I36
stroke2  242  42 I36
stroke2  241  45 I36
stroke2  241  48 I36
stroke2  240  50 I36
stroke2  239  51 I36
stroke2  238  53 I36
stroke2  237  54 I36
stroke2  236  56 I36
stroke2  235  57 I36
stroke2  234  58 I36
stroke2  233  59 I36
stroke2  231  59 I36
stroke2  229  60 I36
stroke2  227  60 I36
stroke2  225  60 I36
stroke2  223  60 I36
stroke2  220  59 I36
stroke2  218  59 I36
stroke2  216  58 I36
stroke2  213  57 I36
stroke2  211  56 I36
stroke2  209  56 I36
stroke2  208  55 I36
stroke2  207  55 I36
stroke2  206  54 I36
stroke2  205  54 I36
stroke3  237  82 B51
stroke3  236  82 I51
stroke3  236  83 I51
stroke3  235  83 I51
stroke3  234  84 I51
stroke3  233  84 I51
stroke3  232  85 I51
stroke3  231  85 I51
stroke3  230  85 I51
stroke3  228  86 I51
stroke3  227  86 I51
stroke3  225  87 I51
stroke3  223  87 I51
stroke3  221  88 I51
stroke3  219  88 I51
stroke3  217  88 I51
stroke3  215  88 I51
stroke3  213  88 I51
stroke3  212  89 I51
stroke3  211  89 I51
stroke3  210  89 I51
stroke3  209  89 I51
stroke3  210  89 I51
stroke3  211  89 I51
stroke3  212  89 I51
stroke3  213  89 I51
stroke3  215  89 I51
stroke3  216  89 I51
stroke3  218  89 I51
stroke3  220  88 I51
stroke3  221  88 I51
stroke3  223  87 I51
stroke3  225  86 I51
stroke3  227  85 I51
stroke3  229  85 I51
stroke3  230  84 I51
stroke3  232  83 I51
stroke3  233  82 I51
stroke3  235  81 I51
stroke3  236  81 I51
stroke3  237  80 I51
stroke3  238  80 I51
stroke3  239  80 I51
stroke3  240  80 I51
stroke3  241  81 I51
stroke3  241  82 I51
stroke3  242  83 I51
stroke3  242  84 I51
stroke3  242  86 I51
stroke3  243  87 I51
stroke3  243  89 I51
stroke3  243  91 I51
stroke3  243  92 I51
stroke3  243  93 I51
stroke3  242  94 I51
stroke3  242  95 I51
stroke3  241  95 I51
stroke3  240  94 I51
stroke3  238  89 I51
stroke3  238  88 I51
stroke3  237  88 I51
stroke3  236  89 I51
stroke3  236  91 I51
stroke3  236  92 I51
stroke3  236  93 I51
stroke3  236  94 I51
stroke3  236  95 I51
stroke3  236  96 I51
stroke3  236  97 I51
stroke3  235  97 I51
stroke4  271  37 B43
stroke4  271  36 I43
stroke4  272  36 I43
stroke4  273  36 I43
stroke4  275  37 I43
stroke4  276  37 I43
stroke4  278  38 I43
stroke4  279  38 I43
stroke4  280  39 I43
stroke4  282  40 I43
stroke4  283  40 I43
stroke4  283  41 I43
stroke4  284  42 I43
stroke4  284  43 I43
stroke4  283  44 I43
stroke4  282  44 I43
stroke4  281  44 I43
stroke4  280  44 I43
stroke4  278  44 I43
stroke4  277  43 I43
stroke4  275  43 I43
stroke4  274  43 I43
stroke4  273  42 I43
stroke4  272  41 I43
stroke4  271  41 I43
stroke4  269  40 I43
stroke4  269  39 I43
stroke4  268  37 I43
stroke4  267  36 I43
stroke4  267  34 I43
stroke4  266  33 I43
stroke4  266  31 I43
stroke4  266  29 I43
stroke4  266  27 I43
stroke4  266  24 I43
stroke4  266  22 I43
stroke4  266  19 I43
stroke4  266  17 I43
stroke4  265  14 I43
stroke4  265  12 I43
stroke4  265  10 I43
stroke4  265  8 I43
stroke4  265  7 I43
stroke4  265  6 I43
stroke4  266  5 I43
stroke4  267  4 I43
stroke4  268  4 I43
stroke4  269  3 I43
stroke4  270  3 I43
stroke4  271  3 I43
stroke4  272  4 I43
stroke4  274  4 I43
stroke4  275  4 I43
stroke4  277  4 I43
stroke4  279  4 I43
stroke4  281  4 I43
stroke4  283  4 I43
stroke4  284  4 I43
stroke4  286  4 I43
stroke4  288  4 I43
stroke4  289  4 I43
stroke4  290  4 I43
stroke4  291  4 I43
stroke4  292  5 I43
stroke4  293  6 I43
stroke4  293  8 I43
stroke4  294  10 I43
stroke4  294  13 I43
stroke4  294  16 I43
stroke4  295  19 I43
stroke4  295  23 I43
stroke4  296  27 I43
stroke4  296  31 I43
stroke4  297  35 I43
stroke4  297  39 I43
stroke4  297  42 I43
stroke4  296  45 I43
stroke4  296  48 I43
stroke4  295  50 I43
stroke4  294  52 I43
stroke4  293  54 I43
stroke4  291  56 I43
stroke4  290  57 I43
stroke4  289  59 I43
stroke4  287  59 I43
stroke4  285  60 I43
stroke4  284  60 I43
stroke4  282  60 I43
stroke4  280  60 I43
stroke4  278  59 I43
stroke4  276  59 I43
stroke4  274  58 I43
stroke4  273  58 I43
stroke4  271  57 I43
stroke4  270  56 I43
stroke4  269  56 I43
stroke4  269  55 I43
stroke4  269  54 I43
stroke4  269  53 I43
stroke5  319  7 B1
stroke5  318  7 I1
stroke5  318  6 I1
stroke5  317  6 I1
stroke5  316  6 I1
stroke5  317  7 I1
stroke5  317  8 I1
stroke5  317  9 I1
stroke5  317  10 I1
stroke5  318  12 I1
stroke5  318  14 I1
stroke5  318  17 I1
stroke5  318  20 I1
stroke5  319  23 I1
stroke5  319  26 I1
stroke5  319  29 I1
stroke5  320  32 I1
stroke5  320  35 I1
stroke5  320  38 I1
stroke5  320  40 I1
stroke5  320  42 I1
stroke5  319  44 I1
stroke5  318  46 I1
stroke5  317  47 I1
stroke5  316  48 I1
stroke5  315  49 I1
stroke5  313  49 I1
stroke5  311  49 I1
stroke5  310  49 I1
stroke5  308  49 I1
stroke5  307  49 I1
stroke5  306  49 I1
stroke5  306  50 I1
stroke5  307  50 I1
stroke5  308  51 I1
stroke5  310  53 I1
stroke5  311  54 I1
stroke5  313  55 I1
stroke5  315  56 I1
stroke5  317  57 I1
stroke5  319  58 I1
stroke5  321  59 I1
stroke5  324  59 I1
stroke5  326  60 I1
stroke5  328  60 I1
stroke5  330  60 I1
stroke5  332  60 I1
stroke5  335  60 I1
stroke5  337  59 I1
stroke5  339  59 I1
stroke5  340  58 I1
stroke5  342  57 I1
stroke5  344  56 I1
stroke5  345  55 I1
stroke5  346  53 I1
stroke5  347  52 I1
stroke5  348  50 I1
stroke5  348  47 I1
stroke5  349  45 I1
stroke5  349  42 I1
stroke5  348  39 I1
stroke5  348  35 I1
stroke5  348  32 I1
stroke5  347  28 I1
stroke5  347  24 I1
stroke5  347  21 I1
stroke5  347  17 I1
stroke5  347  15 I1
stroke5  348  13 I1
stroke5  348  11 I1
stroke5  348  10 I1
stroke5  348  9 I1
stroke5  348  8 I1
stroke5  347  9 I1
stroke6  389  29 B21
stroke6  388  29 I21
stroke6  387  29 I21
stroke6  387  28 I21
stroke6  386  28 I21
stroke6  385  28 I21
stroke6  383  28 I21
stroke6  382  29 I21
stroke6  381  29 I21
stroke6  380  29 I21
stroke6  379  30 I21
stroke6  378  30 I21
stroke6  377  31 I21
stroke6  376  32 I21
stroke6  376  33 I21
stroke6  375  35 I21
stroke6  376  36 I21
stroke6  376  37 I21
stroke6  377  38 I21
stroke6  378  39 I21
stroke6  379  39 I21
stroke6  380  40 I21
stroke6  381  41 I21
stroke6  383  41 I21
stroke6  384  41 I21
stroke6  386  40 I21
stroke6  387  39 I21
stroke6  388  38 I21
stroke6  389  37 I21
stroke6  390  35 I21
stroke6  391  34 I21
stroke6  391  32 I21
stroke6  391  30 I21
stroke6  391  27 I21
stroke6  390  25 I21
stroke6  390  22 I21
stroke6  390  20 I21
stroke6  389  17 I21
stroke6  389  15 I21
stroke6  388  13 I21
stroke6  388  11 I21
stroke6  387  10 I21
stroke6  387  9 I21
stroke6  386  8 I21
stroke6  385  8 I21
stroke6  384  8 I21
stroke6  383  8 I21
stroke6  381  8 I21
stroke6  380  9 I21
stroke6  378  9 I21
stroke6  377  11 I21
stroke6  376  12 I21
stroke6  374  14 I21
stroke6  373  16 I21
stroke6  373  19 I21
stroke6  373  22 I21
stroke6  373  25 I21
stroke6  373  29 I21
stroke6  374  32 I21
stroke6  374  36 I21
stroke6  375  40 I21
stroke6  376  43 I21
stroke6  377  47 I21
stroke6  378  50 I21
stroke6  379  52 I21
stroke6  380  54 I21
stroke6  380  55 I21
stroke6  381  57 I21
stroke6  382  58 I21
stroke6  383  59 I21
stroke6  383  58 I21
stroke6  384  58 I21
stroke6  385  58 I21
stroke6  386  57 I21
stroke6  386  56 I21
stroke6  387  54 I21
stroke6  388  53 I21
stroke6  388  52 I21
stroke6  389  52 I21
stroke6  389  51 I21
stroke6  390  51 I21
stroke6  391  51 I21
stroke6  392  52 I21
stroke6  393  52 I21
stroke6  394  53 I21
stroke6  395  54 I21
stroke6  395  55 I21
stroke6  396  56 I21
stroke6  397  56 I21
stroke6  398  57 I21
stroke6  399  56 I21
stroke6  400  56 I21
stroke6  401  55 I21
stroke6  402  54 I21
stroke6  403  53 I21
stroke6  404  51 I21
stroke6  404  50 I21
stroke6  404  48 I21
stroke6  405  45 I21
stroke6  404  43 I21
stroke6  404  40 I21
stroke6  404  37 I21
stroke6  403  34 I21
stroke6  403  30 I21
stroke6  403  27 I21
stroke6  402  24 I21
stroke6  402  22 I21
stroke6  402  19 I21
stroke6  402  17 I21
stroke6  402  15 I21
stroke6  402  13 I21
stroke6  401  12 I21
stroke6  401  11 I21
stroke6  401  10 I21
stroke6  401  11 I21
stroke6  400  12 I21
stroke6  400  13 I21
stroke7  398  75 B45
stroke7  397  76 I45
stroke7  397  77 I45
stroke7  397  78 I45
stroke7  397  79 I45
stroke7  397  80 I45
stroke7  396  81 I45
stroke7  396  82 I45
stroke7  396  83 I45
stroke7  395  84 I45
stroke7  395  85 I45
stroke7  394  86 I45
stroke7  394  87 I45
stroke7  393  87 I45
stroke7  392  88 I45
stroke7  391  88 I45
stroke7  390  88 I45
stroke7  389  88 I45
stroke7  389  87 I45
stroke7  388  87 I45
stroke7  388  86 I45
stroke7  388  85 I45
stroke7  388  84 I45
stroke7  389  84 I45
stroke7  390  83 I45
stroke7  391  82 I45
stroke7  392  82 I45
stroke7  394  82 I45
stroke7  395  82 I45
stroke7  397  83 I45
stroke7  399  84 I45
stroke7  401  85 I45
stroke7  403  86 I45
stroke7  404  87 I45
stroke7  406  88 I45
stroke7  407  89 I45
stroke7  408  90 I45
stroke7  409  91 I45
stroke7  410  92 I45
stroke7  411  93 I45
stroke7  412  93 I45
stroke7  412  94 I45
stroke7  411  94 I45
stroke7  411  95 I45
stroke8  405  104 B66
stroke8  405  105 I66
stroke8  404  106 I66
stroke8  403  106 I66
stroke8  403  107 I66
stroke8  402  107 I66
stroke8  402  106 I66
stroke8  402  105 I66
stroke8  403  105 I66
stroke8  403  104 I66
stroke8  403  103 I66
stroke8  404  102 I66
stroke8  404  101 I66
stroke8  405  100 I66
stroke8  406  99 I66
stroke8  407  99 I66
stroke8  408  99 I66
stroke8  409  99 I66
stroke8  410  99 I66
stroke8  412  100 I66
stroke8  413  101 I66
stroke8  414  102 I66
stroke8  415  103 I66
stroke8  416  104 I66
stroke8  417  104 I66
stroke8  417  105 I66
stroke8  417  104 I66
stroke8  418  104 I66
stroke8  417  103 I66
stroke8  417  102 I66
stroke9  437  59 B7
stroke9  437  58 I7
stroke9  437  57 I7
stroke9  437  56 I7
stroke9  437  55 I7
stroke9  437  54 I7
stroke9  436  54 I7
stroke9  436  53 I7
stroke9  435  53 I7
stroke9  434  52 I7
stroke9  433  52 I7
stroke9  432  52 I7
stroke9  431  52 I7
stroke9  430  53 I7
stroke9  428  53 I7
stroke9  427  53 I7
stroke9  426  54 I7
stroke9  425  55 I7
stroke9  424  56 I7
stroke9  424  57 I7
stroke9  423  58 I7
stroke9  423  59 I7
stroke9  423  61 I7
stroke9  423  62 I7
stroke9  424  63 I7
stroke9  425  63 I7
stroke9  425  64 I7
stroke9  427  65 I7
stroke9  428  65 I7
stroke9  429  65 I7
stroke9  430  65 I7
stroke9  432  64 I7
stroke9  433  63 I7
stroke9  434  62 I7
stroke9  435  61 I7
stroke9  436  60 I7
stroke9  437  59 I7
stroke9  438  57 I7
stroke9  439  56 I7
stroke9  439  54 I7
stroke9  439  52 I7
stroke9  439  50 I7
stroke9  439  48 I7
stroke9  439  45 I7
stroke9  439  43 I7
stroke9  438  40 I7
stroke9  438  37 I7
stroke9  438  34 I7
stroke9  437  31 I7
stroke9  437  28 I7
stroke9  437  25 I7
stroke9  436  22 I7
stroke9  436  19 I7
stroke9  436  16 I7
stroke9  436  14 I7
stroke9  436  11 I7
stroke9  436  10 I7
stroke9  436  8 I7
stroke9  437  6 I7
stroke9  437  5 I7
stroke9  437  4 I7
stroke9  437  3 I7
stroke9  436  3 I7
stroke9  436  2 I7
stroke9  436  1 I7
stroke9  436  2 I7
stroke9  435  3 I7
stroke9  434  4 I7
stroke9  434  5 I7
stroke9  433  6 I7
stroke9  432  8 I7
stroke9  431  9 I7
stroke9  430  10 I7
stroke9  428  12 I7
stroke9  427  13 I7
stroke9  426  14 I7
stroke9  425  15 I7
stroke9  424  16 I7
stroke9  423  17 I7
stroke9  422  17 I7
stroke9  422  18 I7
stroke9  421  18 I7
stroke9  420  19 I7
