stroke1  204  80 B31
stroke1  203  80 I31
stroke1  202  80 I31
stroke1  201  79 I31
stroke1  200  79 I31
stroke1  199  79 I31
stroke1  198  79 I31
stroke1  197  78 I31
stroke1  196  79 I31
stroke1  195  79 I31
stroke1  194  79 I31
stroke1  193  79 I31
stroke1  192  80 I31
stroke1  191  80 I31
stroke1  190  81 I31
stroke1  189  82 I31
stroke1  188  83 I31
stroke1  187  84 I31
stroke1  186  85 I31
stroke1  186  85 I31
stroke1  185  86 I31
stroke1  185  87 I31
stroke1  185  88 I31
stroke1  185  89 I31
stroke1  185  90 I31
stroke1  185  92 I31
stroke1  186  93 I31
stroke1  187  94 I31
stroke1  187  96 I31
stroke1  188  97 I31
stroke1  189  98 I31
stroke1  190  99 I31
stroke1  191  99 I31
stroke1  192  99 I31
stroke1  193  100 I31
stroke1  194  100 I31
stroke1  195  99 I31
stroke1  196  99 I31
stroke1  197  99 I31
stroke1  197  98 I31
stroke1  198  97 I31
stroke1  198  96 I31
stroke1  199  95 I31
stroke1  199  93 I31
stroke1  200  92 I31
stroke1  200  91 I31
stroke1  200  89 I31
stroke1  201  87 I31
stroke1  201  85 I31
stroke1  201  83 I31
stroke1  201  81 I31
stroke1  201  79 I31
stroke1  201  76 I31
stroke1  201  74 I31
stroke1  201  72 I31
stroke1  201  70 I31
stroke1  202  69 I31
stroke1  202  67 I31
stroke1  202  65 I31
stroke1  202  63 I31
stroke1  203  61 I31
stroke1  203  60 I31
stroke1  203  58 I31
stroke1  203  57 I31
stroke1  203  56 I31
stroke1  203  55 I31
stroke1  203  54 I31
stroke1  203  53 I31
stroke1  203  52 I31
stroke1  203  53 I31
stroke1  204  53 I31
stroke1  204  54 I31
stroke1  204  55 I31
stroke1  204  56 I31
stroke1  204  57 I31
stroke1  204  59 I31
stroke1  205  60 I31
stroke1  205  62 I31
stroke1  206  64 I31
stroke1  207  66 I31
stroke1  208  68 I31
stroke1  208  71 I31
stroke1  209  73 I31
stroke1  210  75 I31
stroke1  211  77 I31
stroke1  211  78 I31
stroke1  211  79 I31
stroke1  212  80 I31
stroke1  212  81 I31
stroke1  213  80 I31
stroke1  213  79 I31
stroke1  214  78 I31
stroke1  215  77 I31
stroke1  215  76 I31
stroke1  216  75 I31
stroke1  217  73 I31
stroke1  218  72 I31
stroke1  219  70 I31
stroke1  220  68 I31
stroke1  221  66 I31
stroke1  223  64 I31
stroke1  224  63 I31
stroke1  225  61 I31
stroke1  226  59 I31
stroke1  227  58 I31
stroke1  228  57 I31
stroke1  229  56 I31
stroke1  230  55 I31
stroke1  231  55 I31
stroke1  231  56 I31
stroke1  231  57 I31
stroke1  231  59 I31
stroke1  231  60 I31
stroke1  231  62 I31
stroke1  231  64 I31
stroke1  231  67 I31
stroke1  231  70 I31
stroke1  231  73 I31
stroke1  231  76 I31
stroke1  231  79 I31
stroke1  231  83 I31
stroke1  231  87 I31
stroke1  230  91 I31
stroke1  230  95 I31
stroke1  230  99 I31
stroke1  230  103 I31
stroke1  230  106 I31
stroke1  230  110 I31
stroke1  231  113 I31
stroke1  231  117 I31
stroke1  232  120 I31
stroke1  232  123 I31
stroke1  233  126 I31
stroke1  233  128 I31
stroke1  234  130 I31
stroke1  234  132 I31
stroke1  234  134 I31
stroke1  234  135 I31
stroke1  234  136 I31
stroke1  234  137 I31
stroke1  234  138 I31
stroke1  235  138 I31
stroke1  234  138 I31
stroke2  213  131 B51
stroke2  212  131 I51
stroke2  211  131 I51
stroke2  210  131 I51
stroke2  209  131 I51
stroke2  209  132 I51
stroke2  207  132 I51
stroke2  206  132 I51
stroke2  204  132 I51
stroke2  203  133 I51
stroke2  201  133 I51
stroke2  199  133 I51
stroke2  197  133 I51
stroke2  196  133 I51
stroke2  194  133 I51
stroke2  193  133 I51
stroke2  191  134 I51
stroke2  190  134 I51
stroke2  189  134 I51
stroke2  188  134 I51
stroke2  188  135 I51
stroke2  189  135 I51
stroke2  189  136 I51
stroke2  190  136 I51
stroke2  191  137 I51
stroke2  192  137 I51
stroke2  193  137 I51
stroke2  194  137 I51
stroke2  196  137 I51
stroke2  198  137 I51
stroke2  200  136 I51
stroke2  202  136 I51
stroke2  204  135 I51
stroke2  206  134 I51
stroke2  208  133 I51
stroke2  210  132 I51
stroke2  212  131 I51
stroke2  213  130 I51
stroke2  215  130 I51
stroke2  216  129 I51
stroke2  217  129 I51
stroke2  218  129 I51
stroke2  219  130 I51
stroke2  219  131 I51
stroke2  219  132 I51
stroke2  219  134 I51
stroke2  220  135 I51
stroke2  220  137 I51
stroke2  220  139 I51
stroke2  220  140 I51
stroke2  220  142 I51
stroke2  220  143 I51
stroke2  220  144 I51
stroke2  220  145 I51
stroke2  220  146 I51
stroke2  220  147 I51
stroke2  220  146 I51
stroke2  219  146 I51
stroke2  212  137 I51
stroke2  212  136 I51
stroke2  211  137 I51
stroke2  211  136 I51
stroke2  211  137 I51
stroke2  211  138 I51
stroke2  211  139 I51
stroke2  211  140 I51
stroke2  211  141 I51
stroke2  211  142 I51
stroke2  211  143 I51
stroke2  212  143 I51
stroke2  212  144 I51
stroke2  212  145 I51
stroke3  219  164 B66
stroke3  218  164 I66
stroke3  218  165 I66
stroke3  218  166 I66
stroke3  219  166 I66
stroke3  219  165 I66
stroke3  220  164 I66
stroke3  220  163 I66
stroke3  220  162 I66
stroke3  221  161 I66
stroke3  221  160 I66
stroke3  221  158 I66
stroke3  221  157 I66
stroke3  222  156 I66
stroke3  222  155 I66
stroke3  223  154 I66
stroke3  224  155 I66
stroke3  225  155 I66
stroke3  226  156 I66
stroke3  227  156 I66
stroke3  228  157 I66
stroke3  229  158 I66
stroke3  230  158 I66
stroke3  231  159 I66
stroke3  232  159 I66
stroke3  233  160 I66
stroke3  234  160 I66
stroke3  234  161 I66
stroke3  235  160 I66
stroke3  234  160 I66
stroke4  267  101 B25
stroke4  267  100 I25
stroke4  267  99 I25
stroke4  266  99 I25
stroke4  265  99 I25
stroke4  265  98 I25
stroke4  264  98 I25
stroke4  263  97 I25
stroke4  262  96 I25
stroke4  261  96 I25
stroke4  260  95 I25
stroke4  259  94 I25
stroke4  258  94 I25
stroke4  257  93 I25
stroke4  255  93 I25
stroke4  254  93 I25
stroke4  253  93 I25
stroke4  251  93 I25
stroke4  249  93 I25
stroke4  248  93 I25
stroke4  247  94 I25
stroke4  246  94 I25
stroke4  245  95 I25
stroke4  245  96 I25
stroke4  245  98 I25
stroke4  245  99 I25
stroke4  245  100 I25
stroke4  246  102 I25
stroke4  247  103 I25
stroke4  248  104 I25
stroke4  249  105 I25
stroke4  250  105 I25
stroke4  251  106 I25
stroke4  252  106 I25
stroke4  253  106 I25
stroke4  254  107 I25
stroke4  255  106 I25
stroke4  256  106 I25
stroke4  257  105 I25
stroke4  259  104 I25
stroke4  260  103 I25
stroke4  261  102 I25
stroke4  262  101 I25
stroke4  262  99 I25
stroke4  263  97 I25
stroke4  263  95 I25
stroke4  264  92 I25
stroke4  264  90 I25
stroke4  264  87 I25
stroke4  264  84 I25
stroke4  264  81 I25
stroke4  264  78 I25
stroke4  264  75 I25
stroke4  264  72 I25
stroke4  264  69 I25
stroke4  264  67 I25
stroke4  264  64 I25
stroke4  264  62 I25
stroke4  264  60 I25
stroke4  264  57 I25
stroke4  264  55 I25
stroke4  264  53 I25
stroke4  264  51 I25
stroke4  264  50 I25
stroke4  263  48 I25
stroke4  263  47 I25
stroke4  263  46 I25
stroke4  263  47 I25
stroke4  264  47 I25
stroke4  264  48 I25
stroke4  264  49 I25
stroke4  264  50 I25
stroke4  265  52 I25
stroke4  265  53 I25
stroke4  266  55 I25
stroke4  267  58 I25
stroke4  268  60 I25
stroke4  270  62 I25
stroke4  271  64 I25
stroke4  273  65 I25
stroke4  274  67 I25
stroke4  276  68 I25
stroke4  278  69 I25
stroke4  279  70 I25
stroke4  281  70 I25
stroke4  282  70 I25
stroke4  284  70 I25
stroke4  285  69 I25
stroke4  286  69 I25
stroke4  288  69 I25
stroke4  289  68 I25
stroke4  290  68 I25
stroke4  292  68 I25
stroke4  293  67 I25
stroke4  294  66 I25
stroke4  295  65 I25
stroke4  295  64 I25
stroke4  296  63 I25
stroke4  296  62 I25
stroke4  296  61 I25
stroke4  297  60 I25
stroke4  297  59 I25
stroke4  296  58 I25
stroke4  296  57 I25
stroke4  296  56 I25
stroke4  295  55 I25
stroke4  295  54 I25
stroke4  294  53 I25
stroke4  293  52 I25
stroke4  292  51 I25
stroke4  291  51 I25
stroke4  290  50 I25
stroke4  289  49 I25
stroke4  288  49 I25
stroke4  287  49 I25
stroke4  287  48 I25
stroke4  286  48 I25
stroke4  285  48 I25
stroke4  284  49 I25
stroke4  284  50 I25
stroke4  284  51 I25
stroke4  284  53 I25
stroke4  284  55 I25
stroke4  284  58 I25
stroke4  284  61 I25
stroke4  284  64 I25
stroke4  285  68 I25
stroke4  285  71 I25
stroke4  285  75 I25
stroke4  285  78 I25
stroke4  284  81 I25
stroke4  284  85 I25
stroke4  284  88 I25
stroke4  284  91 I25
stroke4  284  93 I25
stroke4  283  96 I25
stroke4  283  97 I25
stroke4  283  99 I25
stroke4  283  100 I25
stroke4  282  101 I25
stroke4  282  102 I25
stroke4  282  103 I25
stroke5  319  92 B31
stroke5  318  93 I31
stroke5  317  93 I31
stroke5  316  93 I31
stroke5  315  92 I31
stroke5  314  92 I31
stroke5  313  91 I31
stroke5  312  91 I31
stroke5  311  91 I31
stroke5  310  90 I31
stroke5  309  90 I31
stroke5  308  90 I31
stroke5  306  91 I31
stroke5  305  91 I31
stroke5  304  92 I31
stroke5  303  93 I31
stroke5  302  94 I31
stroke5  302  95 I31
stroke5  301  96 I31
stroke5  301  97 I31
stroke5  301  98 I31
stroke5  301  99 I31
stroke5  302  101 I31
stroke5  302  102 I31
stroke5  303  103 I31
stroke5  304  104 I31
stroke5  305  104 I31
stroke5  306  105 I31
stroke5  307  105 I31
stroke5  308  105 I31
stroke5  310  104 I31
stroke5  311  104 I31
stroke5  312  104 I31
stroke5  313  103 I31
stroke5  315  102 I31
stroke5  316  101 I31
stroke5  316  99 I31
stroke5  317  97 I31
stroke5  317  95 I31
stroke5  317  93 I31
stroke5  318  90 I31
stroke5  318  88 I31
stroke5  318  86 I31
stroke5  318  84 I31
stroke5  319  82 I31
stroke5  319  80 I31
stroke5  319  77 I31
stroke5  319  74 I31
stroke5  319  72 I31
stroke5  319  69 I31
stroke5  319  67 I31
stroke5  319  64 I31
stroke5  319  62 I31
stroke5  319  60 I31
stroke5  319  58 I31
stroke5  319  57 I31
stroke5  319  55 I31
stroke5  319  54 I31
stroke5  319  52 I31
stroke5  319  51 I31
stroke5  319  50 I31
stroke5  319  49 I31
stroke5  319  48 I31
stroke5  319  47 I31
stroke5  320  47 I31
stroke5  320  48 I31
stroke5  320  49 I31
stroke5  321  51 I31
stroke5  321  53 I31
stroke5  321  55 I31
stroke5  322  57 I31
stroke5  322  60 I31
stroke5  323  63 I31
stroke5  324  66 I31
stroke5  324  68 I31
stroke5  325  70 I31
stroke5  325  72 I31
stroke5  326  73 I31
stroke5  326  74 I31
stroke5  326  75 I31
stroke5  326  76 I31
stroke5  327  76 I31
stroke5  327  77 I31
stroke5  328  77 I31
stroke5  328  76 I31
stroke5  329  75 I31
stroke5  330  75 I31
stroke5  331  73 I31
stroke5  333  72 I31
stroke5  335  70 I31
stroke5  336  68 I31
stroke5  338  66 I31
stroke5  340  63 I31
stroke5  342  61 I31
stroke5  343  59 I31
stroke5  345  57 I31
stroke5  347  56 I31
stroke5  348  54 I31
stroke5  349  52 I31
stroke5  350  51 I31
stroke5  351  50 I31
stroke5  352  50 I31
stroke5  353  50 I31
stroke5  353  51 I31
stroke5  353  53 I31
stroke5  354  55 I31
stroke5  354  57 I31
stroke5  354  60 I31
stroke5  354  64 I31
stroke5  354  68 I31
stroke5  354  72 I31
stroke5  354  77 I31
stroke5  354  82 I31
stroke5  354  87 I31
stroke5  354  92 I31
stroke5  354  97 I31
stroke5  354  102 I31
stroke5  354  106 I31
stroke5  354  110 I31
stroke5  354  114 I31
stroke5  354  117 I31
stroke5  354  120 I31
stroke5  354  123 I31
stroke5  354  126 I31
stroke5  355  129 I31
stroke5  355  131 I31
stroke5  355  133 I31
stroke5  355  134 I31
stroke5  355  136 I31
stroke5  355  137 I31
stroke5  355  136 I31
stroke5  355  135 I31
stroke5  355  134 I31
stroke5  354  133 I31
stroke6  339  17 B53
stroke6  339  16 I53
stroke6  338  15 I53
stroke6  337  15 I53
stroke6  336  15 I53
stroke6  335  14 I53
stroke6  334  15 I53
stroke6  333  15 I53
stroke6  331  15 I53
stroke6  330  16 I53
stroke6  329  16 I53
stroke6  328  17 I53
stroke6  327  18 I53
stroke6  327  19 I53
stroke6  326  20 I53
stroke6  326  21 I53
stroke6  326  22 I53
stroke6  326  23 I53
stroke6  327  24 I53
stroke6  328  24 I53
stroke6  329  24 I53
stroke6  330  24 I53
stroke6  331  23 I53
stroke6  332  22 I53
stroke6  333  21 I53
stroke6  334  20 I53
stroke6  334  19 I53
stroke6  335  18 I53
stroke6  335  16 I53
stroke6  335  15 I53
stroke6  335  13 I53
stroke6  335  11 I53
stroke6  334  9 I53
stroke6  334  7 I53
stroke6  334  6 I53
stroke6  333  4 I53
stroke6  333  3 I53
stroke6  333  2 I53
stroke6  333  1 I53
stroke6  333  0 I53
stroke6  334  0 I53
stroke6  335  0 I53
stroke6  336  0 I53
stroke6  337  0 I53
stroke6  339  0 I53
stroke6  340  0 I53
stroke6  341  0 I53
stroke6  342  0 I53
stroke6  343  1 I53
stroke6  344  1 I53
stroke6  344  2 I53
stroke6  345  2 I53
stroke6  346  3 I53
stroke6  346  4 I53
stroke6  346  5 I53
stroke6  346  6 I53
stroke6  347  7 I53
stroke6  347  9 I53
stroke6  347  11 I53
stroke6  346  12 I53
stroke6  346  14 I53
stroke6  346  15 I53
stroke6  346  16 I53
stroke6  346  17 I53
stroke6  346  18 I53
stroke6  346  19 I53
stroke6  345  19 I53
stroke6  345  20 I53
stroke6  345  21 I53
