stroke1  128  93 B34
stroke1  129  93 I34
stroke1  128  93 I34
stroke1  128  92 I34
stroke1  127  92 I34
stroke1  127  91 I34
stroke1  126  91 I34
stroke1  126  90 I34
stroke1  126  89 I34
stroke1  125  89 I34
stroke1  125  88 I34
stroke1  125  87 I34
stroke1  125  86 I34
stroke1  125  85 I34
stroke1  125  84 I34
stroke1  126  83 I34
stroke1  126  82 I34
stroke1  126  81 I34
stroke1  127  81 I34
stroke1  127  81 I34
stroke1  128  81 I34
stroke1  129  80 I34
stroke1  130  80 I34
stroke1  131  80 I34
stroke1  131  81 I34
stroke1  132  81 I34
stroke1  133  81 I34
stroke1  134  82 I34
stroke1  134  83 I34
stroke1  135  83 I34
stroke1  136  84 I34
stroke1  137  84 I34
stroke1  137  85 I34
stroke1  138  86 I34
stroke1  138  87 I34
stroke1  139  87 I34
stroke1  139  88 I34
stroke1  139  89 I34
stroke1  140  89 I34
stroke1  140  90 I34
stroke1  140  91 I34
stroke1  139  91 I34
stroke1  139  92 I34
stroke1  139  93 I34
stroke1  138  94 I34
stroke1  138  95 I34
stroke1  137  95 I34
stroke1  136  96 I34
stroke1  135  96 I34
stroke1  134  96 I34
stroke1  133  96 I34
stroke1  132  95 I34
stroke1  131  95 I34
stroke1  130  95 I34
stroke1  130  94 I34
stroke1  129  94 I34
stroke1  129  93 I34
stroke1  128  93 I34
stroke1  128  92 I34
stroke1  127  91 I34
stroke1  126  90 I34
stroke1  126  89 I34
stroke1  125  88 I34
stroke1  125  87 I34
stroke1  125  86 I34
stroke1  125  85 I34
stroke1  124  84 I34
stroke1  124  83 I34
stroke1  124  82 I34
stroke1  124  81 I34
stroke1  124  80 I34
stroke1  124  79 I34
stroke1  125  78 I34
stroke1  125  77 I34
stroke1  125  76 I34
stroke1  125  75 I34
stroke1  126  74 I34
stroke1  126  73 I34
stroke1  127  72 I34
stroke1  127  71 I34
stroke1  128  71 I34
stroke1  129  70 I34
stroke1  130  70 I34
stroke1  131  70 I34
stroke1  132  70 I34
stroke1  133  70 I34
stroke1  135  70 I34
stroke1  136  71 I34
stroke1  137  71 I34
stroke1  138  71 I34
stroke1  139  72 I34
stroke1  140  72 I34
stroke1  141  72 I34
stroke1  142  73 I34
stroke1  143  73 I34
stroke1  144  73 I34
stroke1  144  74 I34
stroke1  145  74 I34
stroke1  145  73 I34
stroke1  145  72 I34
stroke1  145  71 I34
stroke1  144  71 I34
stroke1  144  70 I34
stroke1  144  69 I34
stroke1  143  68 I34
stroke1  143  67 I34
stroke1  143  66 I34
stroke1  143  64 I34
stroke1  142  63 I34
stroke1  142  62 I34
stroke1  142  61 I34
stroke1  142  60 I34
stroke1  142  58 I34
stroke1  142  57 I34
stroke1  142  56 I34
stroke1  141  55 I34
stroke1  141  53 I34
stroke1  141  52 I34
stroke1  141  50 I34
stroke1  142  49 I34
stroke1  142  48 I34
stroke1  142  47 I34
stroke1  142  46 I34
stroke1  142  45 I34
stroke1  142  44 I34
stroke1  143  43 I34
stroke1  143  42 I34
stroke1  143  41 I34
stroke1  143  40 I34
stroke1  144  39 I34
stroke1  144  38 I34
stroke1  144  37 I34
stroke1  144  36 I34
stroke1  145  36 I34
stroke1  145  35 I34
stroke1  145  34 I34
stroke1  146  34 I34
stroke1  146  33 I34
stroke1  147  32 I34
stroke1  148  31 I34
stroke1  149  31 I34
stroke1  150  30 I34
stroke1  151  30 I34
stroke1  152  30 I34
stroke1  152  31 I34
stroke1  153  31 I34
stroke1  154  31 I34
stroke1  155  31 I34
stroke1  156  32 I34
stroke1  157  32 I34
stroke1  158  32 I34
stroke1  158  33 I34
stroke1  159  33 I34
stroke1  160  34 I34
stroke1  161  35 I34
stroke1  162  36 I34
stroke1  162  37 I34
stroke1  163  37 I34
stroke1  163  38 I34
stroke1  163  39 I34
stroke1  163  40 I34
stroke1  163  41 I34
stroke1  163  42 I34
stroke1  164  44 I34
stroke1  164  45 I34
stroke1  163  47 I34
stroke1  163  49 I34
stroke1  163  50 I34
stroke1  163  52 I34
stroke1  163  54 I34
stroke1  163  56 I34
stroke1  162  57 I34
stroke1  162  59 I34
stroke1  162  61 I34
stroke1  162  62 I34
stroke1  162  64 I34
stroke1  161  65 I34
stroke1  161  67 I34
stroke1  161  68 I34
stroke1  160  70 I34
stroke1  160  71 I34
stroke1  160  73 I34
stroke1  160  74 I34
stroke1  160  76 I34
stroke1  159  77 I34
stroke1  159  79 I34
stroke1  159  80 I34
stroke1  159  81 I34
stroke1  159  82 I34
stroke1  159  84 I34
stroke1  159  85 I34
stroke1  159  86 I34
stroke1  159  87 I34
stroke1  158  88 I34
stroke1  158  89 I34
stroke1  158  90 I34
stroke1  158  91 I34
stroke1  158  92 I34
stroke1  158  93 I34
stroke1  158  94 I34
stroke1  158  95 I34
stroke1  157  95 I34
stroke2  158  104 B48
stroke2  157  104 I48
stroke2  156  104 I48
stroke2  155  105 I48
stroke2  154  106 I48
stroke2  153  107 I48
stroke2  152  107 I48
stroke2  151  108 I48
stroke2  150  109 I48
stroke2  149  109 I48
stroke2  147  110 I48
stroke2  145  111 I48
stroke2  143  112 I48
stroke2  141  112 I48
stroke2  138  113 I48
stroke2  136  113 I48
stroke2  133  113 I48
stroke2  130  114 I48
stroke2  127  114 I48
stroke2  124  114 I48
stroke2  122  114 I48
stroke2  119  114 I48
stroke2  117  114 I48
stroke2  116  113 I48
stroke2  114  113 I48
stroke2  113  113 I48
stroke2  112  113 I48
stroke2  111  113 I48
stroke2  110  113 I48
stroke2  110  114 I48
stroke2  111  115 I48
stroke2  112  116 I48
stroke2  113  117 I48
stroke2  114  118 I48
stroke2  115  119 I48
stroke2  117  120 I48
stroke2  118  121 I48
stroke2  120  122 I48
stroke2  121  123 I48
stroke2  123  124 I48
stroke2  124  125 I48
stroke2  126  125 I48
stroke2  127  126 I48
stroke2  128  126 I48
stroke2  130  127 I48
stroke2  131  127 I48
stroke2  132  127 I48
stroke2  133  128 I48
stroke2  135  128 I48
stroke2  136  128 I48
stroke2  137  127 I48
stroke2  138  127 I48
stroke2  139  127 I48
stroke2  140  126 I48
stroke2  142  126 I48
stroke2  143  125 I48
stroke2  144  124 I48
stroke2  145  123 I48
stroke2  146  122 I48
stroke2  147  121 I48
stroke2  148  119 I48
stroke2  149  118 I48
stroke2  150  117 I48
stroke2  151  115 I48
stroke2  152  114 I48
stroke2  153  113 I48
stroke2  154  112 I48
stroke2  155  111 I48
stroke2  155  110 I48
stroke2  156  109 I48
stroke2  157  108 I48
stroke2  158  107 I48
stroke2  159  106 I48
stroke2  159  105 I48
stroke2  160  105 I48
stroke2  160  104 I48
stroke2  161  104 I48
stroke2  161  105 I48
stroke2  160  105 I48
stroke2  160  106 I48
stroke3  164  159 B65
stroke3  165  159 I65
stroke3  164  159 I65
stroke3  165  158 I65
stroke3  165  157 I65
stroke3  165  156 I65
stroke3  165  155 I65
stroke3  165  154 I65
stroke3  165  152 I65
stroke3  166  151 I65
stroke3  166  149 I65
stroke3  166  148 I65
stroke3  166  146 I65
stroke3  167  145 I65
stroke3  167  144 I65
stroke3  167  142 I65
stroke3  167  141 I65
stroke3  167  140 I65
stroke3  167  139 I65
stroke3  167  138 I65
stroke3  167  137 I65
stroke3  167  138 I65
stroke4  203  94 B7
stroke4  204  93 I7
stroke4  203  93 I7
stroke4  204  92 I7
stroke4  204  91 I7
stroke4  204  90 I7
stroke4  204  89 I7
stroke4  203  89 I7
stroke4  203  88 I7
stroke4  203  87 I7
stroke4  203  86 I7
stroke4  202  85 I7
stroke4  201  84 I7
stroke4  201  83 I7
stroke4  200  82 I7
stroke4  199  81 I7
stroke4  198  81 I7
stroke4  197  80 I7
stroke4  196  80 I7
stroke4  195  80 I7
stroke4  194  80 I7
stroke4  194  81 I7
stroke4  193  81 I7
stroke4  193  82 I7
stroke4  192  82 I7
stroke4  192  83 I7
stroke4  192  84 I7
stroke4  191  85 I7
stroke4  191  86 I7
stroke4  191  87 I7
stroke4  192  87 I7
stroke4  192  88 I7
stroke4  192  89 I7
stroke4  193  90 I7
stroke4  193  91 I7
stroke4  194  92 I7
stroke4  195  93 I7
stroke4  195  94 I7
stroke4  196  94 I7
stroke4  197  95 I7
stroke4  198  96 I7
stroke4  199  97 I7
stroke4  200  97 I7
stroke4  201  97 I7
stroke4  202  97 I7
stroke4  203  97 I7
stroke4  204  97 I7
stroke4  204  96 I7
stroke4  205  96 I7
stroke4  205  95 I7
stroke4  205  94 I7
stroke4  205  93 I7
stroke4  205  92 I7
stroke4  205  91 I7
stroke4  206  90 I7
stroke4  206  89 I7
stroke4  206  88 I7
stroke4  206  86 I7
stroke4  206  85 I7
stroke4  206  84 I7
stroke4  206  83 I7
stroke4  207  81 I7
stroke4  207  79 I7
stroke4  207  78 I7
stroke4  207  76 I7
stroke4  207  75 I7
stroke4  207  73 I7
stroke4  207  72 I7
stroke4  207  70 I7
stroke4  207  69 I7
stroke4  207  67 I7
stroke4  207  66 I7
stroke4  207  64 I7
stroke4  207  63 I7
stroke4  208  61 I7
stroke4  208  60 I7
stroke4  208  58 I7
stroke4  208  57 I7
stroke4  208  56 I7
stroke4  208  54 I7
stroke4  208  53 I7
stroke4  208  52 I7
stroke4  208  51 I7
stroke4  208  49 I7
stroke4  209  48 I7
stroke4  209  47 I7
stroke4  209  45 I7
stroke4  209  44 I7
stroke4  209  43 I7
stroke4  209  42 I7
stroke4  209  41 I7
stroke4  209  40 I7
stroke4  209  39 I7
stroke4  209  38 I7
stroke4  209  37 I7
stroke4  209  36 I7
stroke4  209  35 I7
stroke4  209  34 I7
stroke4  209  33 I7
stroke4  210  33 I7
stroke4  210  32 I7
stroke4  210  31 I7
stroke4  210  30 I7
stroke4  210  29 I7
stroke4  209  29 I7
stroke4  209  30 I7
stroke4  208  30 I7
stroke4  207  31 I7
stroke4  207  32 I7
stroke4  206  33 I7
stroke4  205  34 I7
stroke4  204  35 I7
stroke4  203  36 I7
stroke4  202  38 I7
stroke4  201  39 I7
stroke4  200  40 I7
stroke4  199  41 I7
stroke4  198  43 I7
stroke4  197  44 I7
stroke4  196  46 I7
stroke4  195  47 I7
stroke4  194  48 I7
stroke4  193  50 I7
stroke4  192  51 I7
stroke4  191  52 I7
stroke4  190  53 I7
stroke4  189  54 I7
stroke4  188  55 I7
stroke4  187  56 I7
stroke4  187  57 I7
stroke4  186  57 I7
stroke4  185  58 I7
stroke4  184  58 I7
stroke4  184  59 I7
stroke4  185  59 I7
stroke4  186  59 I7
stroke4  186  58 I7
stroke4  187  58 I7
stroke5  236  37 B60
stroke5  236  38 I60
stroke5  236  39 I60
stroke5  236  40 I60
stroke5  237  40 I60
stroke5  237  41 I60
stroke5  238  42 I60
stroke5  239  42 I60
stroke5  239  43 I60
stroke5  240  43 I60
stroke5  241  43 I60
stroke5  242  43 I60
stroke5  242  42 I60
stroke5  243  42 I60
stroke5  244  41 I60
stroke5  245  41 I60
stroke5  245  40 I60
stroke5  246  40 I60
stroke5  246  39 I60
stroke5  247  39 I60
stroke5  247  38 I60
stroke5  247  37 I60
stroke5  248  37 I60
stroke5  248  36 I60
stroke5  248  35 I60
stroke5  248  34 I60
stroke5  248  33 I60
stroke5  247  32 I60
stroke5  247  31 I60
stroke5  246  31 I60
stroke5  246  30 I60
stroke5  245  30 I60
stroke5  244  30 I60
stroke5  243  30 I60
stroke5  242  30 I60
stroke5  241  30 I60
stroke5  241  31 I60
stroke5  240  31 I60
stroke5  240  32 I60
stroke5  239  33 I60
stroke5  239  34 I60
stroke5  239  35 I60
stroke5  238  36 I60
stroke5  238  37 I60
stroke5  238  38 I60
stroke5  237  39 I60
stroke5  237  40 I60
stroke5  237  41 I60
stroke5  237  43 I60
stroke5  237  44 I60
stroke5  237  45 I60
stroke5  237  47 I60
stroke5  237  48 I60
stroke5  237  50 I60
stroke5  237  52 I60
stroke5  237  53 I60
stroke5  237  55 I60
stroke5  237  57 I60
stroke5  237  59 I60
stroke5  237  60 I60
stroke5  237  62 I60
stroke5  237  64 I60
stroke5  237  67 I60
stroke5  237  69 I60
stroke5  238  71 I60
stroke5  238  74 I60
stroke5  238  76 I60
stroke5  238  79 I60
stroke5  238  81 I60
stroke5  238  84 I60
stroke5  238  86 I60
stroke5  238  88 I60
stroke5  238  90 I60
stroke5  238  93 I60
stroke5  238  95 I60
stroke5  238  98 I60
stroke5  238  100 I60
stroke5  239  102 I60
stroke5  239  105 I60
stroke5  239  107 I60
stroke5  239  110 I60
stroke5  239  112 I60
stroke5  238  114 I60
stroke5  238  116 I60
stroke5  238  118 I60
stroke5  238  120 I60
stroke5  238  122 I60
stroke5  238  124 I60
stroke5  238  126 I60
stroke5  238  127 I60
stroke5  238  129 I60
stroke5  238  130 I60
stroke5  238  132 I60
stroke5  238  133 I60
stroke5  238  134 I60
stroke5  238  135 I60
stroke5  237  136 I60
stroke5  237  137 I60
stroke5  237  138 I60
stroke5  237  139 I60
stroke5  237  140 I60
stroke5  237  141 I60
stroke5  236  141 I60
stroke5  236  142 I60
stroke5  236  143 I60
stroke5  235  144 I60
stroke5  234  145 I60
stroke5  233  145 I60
stroke5  233  146 I60
stroke5  232  146 I60
stroke5  231  147 I60
stroke5  230  147 I60
stroke5  229  147 I60
stroke5  228  148 I60
stroke5  227  148 I60
stroke5  226  148 I60
stroke5  224  148 I60
stroke5  222  148 I60
stroke5  221  148 I60
stroke5  219  147 I60
stroke5  217  147 I60
stroke5  215  146 I60
stroke5  212  146 I60
stroke5  210  145 I60
stroke5  208  144 I60
stroke5  206  142 I60
stroke5  203  140 I60
stroke5  201  139 I60
stroke5  200  137 I60
stroke5  198  135 I60
stroke5  197  133 I60
stroke5  196  132 I60
stroke5  195  130 I60
stroke5  194  128 I60
stroke5  194  127 I60
stroke5  194  125 I60
stroke5  195  124 I60
stroke5  195  122 I60
stroke5  196  121 I60
stroke5  197  120 I60
stroke5  198  119 I60
stroke5  199  118 I60
stroke5  200  118 I60
stroke5  202  117 I60
stroke5  204  116 I60
stroke5  205  116 I60
stroke5  207  116 I60
stroke5  209  116 I60
stroke5  210  116 I60
stroke5  212  116 I60
stroke5  214  116 I60
stroke5  215  117 I60
stroke5  217  118 I60
stroke5  218  118 I60
stroke5  219  119 I60
stroke5  220  119 I60
stroke5  220  120 I60
stroke5  221  120 I60
stroke5  221  121 I60
stroke5  221  122 I60
stroke5  221  121 I60
stroke6  266  91 B41
stroke6  267  91 I41
stroke6  267  90 I41
stroke6  267  89 I41
stroke6  267  88 I41
stroke6  266  87 I41
stroke6  266  86 I41
stroke6  266  85 I41
stroke6  265  84 I41
stroke6  265  83 I41
stroke6  264  83 I41
stroke6  264  82 I41
stroke6  263  82 I41
stroke6  263  81 I41
stroke6  262  81 I41
stroke6  261  80 I41
stroke6  260  80 I41
stroke6  259  80 I41
stroke6  258  80 I41
stroke6  257  80 I41
stroke6  256  80 I41
stroke6  256  81 I41
stroke6  255  81 I41
stroke6  255  82 I41
stroke6  254  82 I41
stroke6  254  83 I41
stroke6  254  84 I41
stroke6  254  85 I41
stroke6  254  86 I41
stroke6  254  87 I41
stroke6  255  88 I41
stroke6  255  89 I41
stroke6  255  90 I41
stroke6  256  90 I41
stroke6  256  91 I41
stroke6  257  91 I41
stroke6  257  92 I41
stroke6  258  92 I41
stroke6  258  93 I41
stroke6  259  93 I41
stroke6  259  94 I41
stroke6  260  94 I41
stroke6  261  95 I41
stroke6  262  95 I41
stroke6  263  95 I41
stroke6  263  96 I41
stroke6  264  96 I41
stroke6  265  96 I41
stroke6  266  96 I41
stroke6  267  96 I41
stroke6  267  95 I41
stroke6  268  95 I41
stroke6  268  94 I41
stroke6  268  93 I41
stroke6  268  92 I41
stroke6  268  91 I41
stroke6  269  90 I41
stroke6  269  89 I41
stroke6  269  88 I41
stroke6  269  87 I41
stroke6  269  86 I41
stroke6  269  85 I41
stroke6  269  84 I41
stroke6  269  83 I41
stroke6  269  81 I41
stroke6  269  80 I41
stroke6  269  79 I41
stroke6  269  77 I41
stroke6  270  76 I41
stroke6  270  74 I41
stroke6  270  73 I41
stroke6  270  72 I41
stroke6  270  70 I41
stroke6  270  69 I41
stroke6  271  67 I41
stroke6  271  66 I41
stroke6  271  65 I41
stroke6  271  63 I41
stroke6  271  62 I41
stroke6  271  61 I41
stroke6  271  59 I41
stroke6  272  58 I41
stroke6  272  57 I41
stroke6  272  56 I41
stroke6  272  55 I41
stroke6  272  53 I41
stroke6  272  52 I41
stroke6  272  51 I41
stroke6  272  50 I41
stroke6  272  49 I41
stroke6  273  48 I41
stroke6  273  47 I41
stroke6  273  46 I41
stroke6  273  45 I41
stroke6  273  44 I41
stroke6  273  43 I41
stroke6  273  42 I41
stroke6  273  41 I41
stroke6  273  40 I41
stroke6  273  39 I41
stroke6  273  38 I41
stroke6  273  37 I41
stroke6  273  36 I41
stroke6  273  35 I41
stroke6  273  34 I41
stroke6  274  34 I41
stroke6  274  33 I41
stroke6  274  32 I41
stroke6  275  32 I41
stroke6  275  33 I41
stroke6  276  34 I41
stroke6  276  35 I41
stroke6  277  36 I41
stroke6  277  37 I41
stroke6  277  38 I41
stroke6  278  39 I41
stroke6  278  41 I41
stroke6  279  42 I41
stroke6  280  43 I41
stroke6  280  45 I41
stroke6  281  47 I41
stroke6  282  49 I41
stroke6  283  50 I41
stroke6  283  52 I41
stroke6  284  54 I41
stroke6  285  55 I41
stroke6  285  57 I41
stroke6  286  58 I41
stroke6  287  60 I41
stroke6  287  61 I41
stroke6  288  63 I41
stroke6  289  64 I41
stroke6  289  66 I41
stroke6  290  67 I41
stroke6  290  69 I41
stroke6  291  70 I41
stroke6  291  71 I41
stroke6  292  73 I41
stroke6  293  74 I41
stroke6  293  75 I41
stroke6  294  76 I41
stroke6  294  78 I41
stroke6  295  79 I41
stroke6  295  80 I41
stroke6  295  81 I41
stroke6  296  82 I41
stroke6  296  83 I41
stroke6  296  84 I41
stroke6  297  85 I41
stroke6  297  86 I41
stroke6  297  87 I41
stroke6  297  88 I41
stroke6  297  89 I41
stroke6  297  90 I41
stroke6  297  91 I41
stroke6  296  91 I41
stroke6  296  92 I41
stroke6  295  92 I41
stroke6  294  92 I41
stroke6  293  92 I41
stroke6  292  92 I41
stroke6  291  91 I41
stroke6  290  91 I41
stroke6  289  90 I41
stroke6  289  89 I41
stroke6  288  89 I41
stroke6  288  88 I41
stroke6  288  87 I41
stroke6  287  87 I41
stroke6  287  86 I41
stroke6  287  85 I41
stroke6  287  84 I41
stroke6  287  83 I41
stroke6  287  82 I41
stroke6  288  82 I41
stroke6  288  81 I41
stroke6  288  80 I41
stroke6  289  80 I41
stroke6  290  79 I41
stroke6  291  79 I41
stroke6  291  78 I41
stroke6  292  78 I41
stroke6  293  78 I41
stroke6  294  78 I41
stroke6  295  77 I41
stroke6  296  77 I41
stroke6  297  77 I41
stroke6  298  76 I41
stroke6  299  76 I41
stroke6  299  75 I41
stroke6  300  74 I41
stroke6  300  73 I41
stroke6  300  72 I41
stroke6  300  71 I41
stroke6  300  70 I41
stroke6  300  68 I41
stroke6  300  67 I41
stroke6  300  66 I41
stroke6  300  64 I41
stroke6  300  63 I41
stroke6  300  61 I41
stroke6  300  60 I41
stroke6  300  58 I41
stroke6  300  56 I41
stroke6  300  55 I41
stroke6  300  53 I41
stroke6  300  52 I41
stroke6  300  50 I41
stroke6  300  48 I41
stroke6  300  47 I41
stroke6  300  45 I41
stroke6  300  44 I41
stroke6  300  43 I41
stroke6  300  41 I41
stroke6  300  40 I41
stroke6  300  39 I41
stroke6  300  38 I41
stroke6  301  37 I41
stroke6  300  36 I41
stroke6  301  35 I41
stroke6  301  34 I41
stroke6  301  33 I41
stroke6  301  32 I41
stroke6  301  31 I41
stroke6  301  30 I41
stroke6  301  31 I41
stroke6  301  32 I41
stroke7  321  39 B13
stroke7  322  39 I13
stroke7  322  40 I13
stroke7  323  41 I13
stroke7  324  42 I13
stroke7  325  42 I13
stroke7  326  42 I13
stroke7  327  41 I13
stroke7  328  40 I13
stroke7  329  40 I13
stroke7  329  39 I13
stroke7  330  39 I13
stroke7  330  38 I13
stroke7  331  37 I13
stroke7  331  36 I13
stroke7  331  35 I13
stroke7  332  35 I13
stroke7  332  34 I13
stroke7  331  34 I13
stroke7  331  33 I13
stroke7  331  32 I13
stroke7  330  32 I13
stroke7  330  31 I13
stroke7  329  31 I13
stroke7  329  30 I13
stroke7  328  30 I13
stroke7  327  30 I13
stroke7  326  30 I13
stroke7  325  30 I13
stroke7  325  31 I13
stroke7  324  31 I13
stroke7  323  32 I13
stroke7  323  33 I13
stroke7  322  34 I13
stroke7  322  35 I13
stroke7  322  36 I13
stroke7  322  37 I13
stroke7  322  38 I13
stroke7  322  39 I13
stroke7  322  40 I13
stroke7  322  41 I13
stroke7  322  42 I13
stroke7  322  43 I13
stroke7  322  44 I13
stroke7  323  46 I13
stroke7  323  47 I13
stroke7  323  48 I13
stroke7  323  50 I13
stroke7  323  51 I13
stroke7  323  52 I13
stroke7  324  53 I13
stroke7  324  55 I13
stroke7  324  56 I13
stroke7  324  57 I13
stroke7  325  58 I13
stroke7  325  59 I13
stroke7  325  61 I13
stroke7  326  62 I13
stroke7  326  63 I13
stroke7  327  64 I13
stroke7  327  65 I13
stroke7  327  66 I13
stroke7  328  67 I13
stroke7  328  68 I13
stroke7  328  69 I13
stroke7  329  70 I13
stroke7  329  71 I13
stroke7  329  72 I13
stroke7  329  73 I13
stroke7  328  73 I13
stroke7  327  73 I13
stroke7  326  74 I13
stroke7  325  74 I13
stroke7  324  74 I13
stroke7  323  74 I13
stroke7  322  74 I13
stroke7  321  74 I13
stroke7  320  74 I13
stroke7  319  74 I13
stroke7  318  74 I13
stroke7  317  74 I13
stroke7  316  74 I13
stroke7  315  74 I13
stroke7  314  74 I13
stroke7  313  74 I13
stroke7  313  75 I13
stroke7  313  76 I13
stroke7  314  77 I13
stroke7  314  78 I13
stroke7  314  79 I13
stroke7  315  79 I13
stroke7  315  80 I13
stroke7  316  81 I13
stroke7  316  82 I13
stroke7  317  83 I13
stroke7  318  84 I13
stroke7  318  85 I13
stroke7  319  86 I13
stroke7  320  87 I13
stroke7  320  88 I13
stroke7  321  88 I13
stroke7  322  89 I13
stroke7  323  90 I13
stroke7  323  91 I13
stroke7  324  91 I13
stroke7  325  92 I13
stroke7  326  93 I13
stroke7  327  94 I13
stroke7  328  94 I13
stroke7  329  95 I13
stroke7  330  95 I13
stroke7  331  96 I13
stroke7  332  96 I13
stroke7  333  96 I13
stroke7  333  97 I13
stroke7  334  97 I13
stroke7  335  97 I13
stroke7  336  97 I13
stroke7  337  97 I13
stroke7  338  97 I13
stroke7  339  97 I13
stroke7  340  96 I13
stroke7  341  96 I13
stroke7  342  96 I13
stroke7  342  95 I13
stroke7  343  95 I13
stroke7  343  94 I13
stroke7  344  94 I13
stroke7  344  93 I13
stroke7  345  93 I13
stroke7  346  92 I13
stroke7  347  91 I13
stroke7  347  90 I13
stroke7  348  90 I13
stroke7  348  89 I13
stroke7  349  88 I13
stroke7  349  87 I13
stroke7  349  86 I13
stroke7  349  85 I13
stroke7  349  84 I13
stroke7  349  83 I13
stroke7  349  82 I13
stroke7  349  81 I13
stroke7  349  80 I13
stroke7  349  79 I13
stroke7  348  78 I13
stroke7  348  76 I13
stroke7  348  75 I13
stroke7  348  74 I13
stroke7  347  72 I13
stroke7  347  71 I13
stroke7  347  69 I13
stroke7  347  68 I13
stroke7  346  67 I13
stroke7  346  65 I13
stroke7  346  64 I13
stroke7  345  62 I13
stroke7  345  61 I13
stroke7  345  59 I13
stroke7  345  58 I13
stroke7  344  57 I13
stroke7  344  55 I13
stroke7  344  54 I13
stroke7  343  52 I13
stroke7  343  51 I13
stroke7  343  49 I13
stroke7  342  47 I13
stroke7  342  46 I13
stroke7  342  45 I13
stroke7  342  43 I13
stroke7  341  42 I13
stroke7  341  41 I13
stroke7  341  40 I13
stroke7  341  38 I13
stroke7  340  37 I13
stroke7  340  36 I13
stroke7  340  35 I13
stroke7  340  34 I13
stroke7  339  34 I13
stroke7  339  33 I13
stroke7  339  32 I13
stroke7  339  31 I13
stroke7  340  30 I13
stroke7  340  31 I13
stroke7  340  30 I13
stroke7  341  30 I13
stroke7  342  30 I13
stroke7  343  30 I13
stroke7  344  30 I13
stroke7  345  30 I13
stroke7  346  30 I13
stroke7  347  30 I13
stroke7  348  30 I13
stroke7  349  30 I13
stroke7  350  30 I13
stroke7  351  30 I13
stroke7  352  30 I13
stroke7  353  30 I13
stroke7  354  30 I13
stroke7  354  31 I13
stroke7  355  31 I13
stroke7  356  31 I13
stroke7  357  31 I13
stroke7  358  31 I13
stroke7  358  32 I13
stroke7  359  32 I13
stroke7  360  33 I13
stroke7  361  33 I13
stroke7  361  34 I13
stroke7  362  34 I13
stroke7  362  35 I13
stroke7  362  36 I13
stroke7  363  36 I13
stroke7  363  37 I13
stroke7  363  38 I13
stroke7  363  39 I13
stroke7  363  40 I13
stroke7  363  41 I13
stroke7  363  42 I13
stroke7  363  44 I13
stroke7  364  45 I13
stroke7  364  46 I13
stroke7  364  48 I13
stroke7  364  49 I13
stroke7  364  51 I13
stroke7  364  52 I13
stroke7  364  54 I13
stroke7  364  56 I13
stroke7  364  58 I13
stroke7  364  59 I13
stroke7  364  61 I13
stroke7  364  63 I13
stroke7  364  64 I13
stroke7  363  66 I13
stroke7  363  67 I13
stroke7  363  69 I13
stroke7  363  70 I13
stroke7  363  71 I13
stroke7  363  73 I13
stroke7  363  74 I13
stroke7  363  75 I13
stroke7  363  76 I13
stroke7  362  77 I13
stroke7  362  78 I13
stroke7  362  80 I13
stroke7  362  81 I13
stroke7  362  82 I13
stroke7  362  83 I13
stroke7  361  84 I13
stroke7  361  85 I13
stroke7  361  86 I13
stroke7  361  87 I13
stroke7  361  88 I13
stroke7  361  89 I13
stroke7  361  90 I13
stroke7  361  91 I13
stroke7  361  92 I13
stroke7  360  91 I13
stroke7  360  90 I13
stroke7  359  90 I13
stroke7  359  89 I13
stroke7  358  88 I13
stroke8  349  6 B71
stroke8  348  5 I71
stroke8  348  4 I71
stroke8  347  4 I71
stroke8  347  3 I71
stroke8  348  3 I71
stroke8  348  2 I71
stroke8  349  2 I71
stroke8  349  3 I71
stroke8  350  3 I71
stroke8  351  3 I71
stroke8  352  4 I71
stroke8  353  5 I71
stroke8  353  6 I71
stroke8  354  7 I71
stroke8  353  8 I71
stroke8  353  9 I71
stroke8  352  9 I71
stroke8  351  9 I71
stroke8  350  9 I71
stroke8  350  8 I71
stroke8  349  8 I71
stroke8  348  7 I71
stroke8  347  6 I71
stroke8  347  5 I71
stroke8  346  4 I71
stroke8  346  3 I71
stroke8  347  3 I71
stroke8  347  2 I71
stroke8  347  1 I71
stroke8  348  1 I71
stroke8  348  0 I71
stroke8  349  0 I71
stroke8  350  0 I71
stroke8  351  0 I71
stroke8  352  0 I71
stroke8  353  0 I71
stroke8  354  0 I71
stroke8  355  0 I71
stroke8  356  1 I71
stroke8  357  1 I71
stroke8  358  1 I71
stroke8  359  2 I71
stroke8  360  2 I71
stroke8  361  3 I71
stroke8  362  4 I71
stroke8  363  4 I71
stroke8  364  5 I71
stroke8  365  6 I71
stroke8  366  6 I71
stroke8  367  7 I71
stroke8  367  8 I71
stroke8  368  8 I71
stroke8  368  9 I71
stroke8  369  9 I71
stroke8  369  10 I71
stroke8  368  10 I71
stroke8  367  9 I71
stroke8  366  9 I71
stroke9  363  140 B65
stroke9  363  139 I65
stroke9  363  138 I65
stroke9  363  137 I65
stroke9  364  136 I65
stroke9  364  134 I65
stroke9  364  133 I65
stroke9  364  131 I65
stroke9  364  130 I65
stroke9  365  128 I65
stroke9  365  127 I65
stroke9  365  126 I65
stroke9  365  125 I65
stroke9  365  124 I65
stroke9  365  123 I65
stroke9  365  122 I65
stroke9  365  121 I65
