stroke1  62  16 B12
stroke1  63  16 I12
stroke1  63  17 I12
stroke1  63  18 I12
stroke1  64  18 I12
stroke1  64  19 I12
stroke1  65  19 I12
stroke1  65  20 I12
stroke1  66  21 I12
stroke1  67  21 I12
stroke1  68  21 I12
stroke1  69  20 I12
stroke1  70  20 I12
stroke1  70  19 I12
stroke1  71  19 I12
stroke1  71  18 I12
stroke1  72  18 I12
stroke1  72  17 I12
stroke1  73  16 I12
stroke1  73  16 I12
stroke1  73  15 I12
stroke1  74  15 I12
stroke1  74  14 I12
stroke1  74  13 I12
stroke1  75  13 I12
stroke1  75  12 I12
stroke1  75  11 I12
stroke1  75  10 I12
stroke1  75  9 I12
stroke1  75  8 I12
stroke1  74  8 I12
stroke1  74  7 I12
stroke1  73  7 I12
stroke1  72  7 I12
stroke1  71  7 I12
stroke1  70  7 I12
stroke1  70  8 I12
stroke1  69  9 I12
stroke1  69  10 I12
stroke1  68  10 I12
stroke1  68  11 I12
stroke1  68  12 I12
stroke1  67  13 I12
stroke1  67  14 I12
stroke1  67  15 I12
stroke1  67  16 I12
stroke1  67  17 I12
stroke1  67  18 I12
stroke1  67  19 I12
stroke1  67  20 I12
stroke1  67  21 I12
stroke1  67  22 I12
stroke1  68  23 I12
stroke1  68  24 I12
stroke1  68  25 I12
stroke1  68  26 I12
stroke1  68  27 I12
stroke1  68  28 I12
stroke1  69  29 I12
stroke1  69  30 I12
stroke1  69  31 I12
stroke1  69  32 I12
stroke1  70  33 I12
stroke1  70  34 I12
stroke1  70  35 I12
stroke1  70  36 I12
stroke1  71  37 I12
stroke1  71  38 I12
stroke1  71  39 I12
stroke1  72  40 I12
stroke1  72  41 I12
stroke1  72  42 I12
stroke1  73  43 I12
stroke1  73  44 I12
stroke1  73  45 I12
stroke1  74  45 I12
stroke1  74  46 I12
stroke1  74  47 I12
stroke1  74  48 I12
stroke1  75  48 I12
stroke1  74  48 I12
stroke1  74  49 I12
stroke1  73  49 I12
stroke1  73  50 I12
stroke1  72  50 I12
stroke1  71  50 I12
stroke1  70  50 I12
stroke1  69  50 I12
stroke1  68  50 I12
stroke1  67  50 I12
stroke1  66  50 I12
stroke1  65  49 I12
stroke1  64  49 I12
stroke1  63  49 I12
stroke1  62  49 I12
stroke1  61  49 I12
stroke1  60  49 I12
stroke1  59  48 I12
stroke1  58  49 I12
stroke1  59  49 I12
stroke1  59  50 I12
stroke1  60  51 I12
stroke1  60  52 I12
stroke1  61  53 I12
stroke1  61  54 I12
stroke1  62  55 I12
stroke1  63  56 I12
stroke1  64  57 I12
stroke1  65  58 I12
stroke1  65  59 I12
stroke1  66  60 I12
stroke1  67  61 I12
stroke1  68  61 I12
stroke1  69  62 I12
stroke1  70  63 I12
stroke1  71  64 I12
stroke1  72  65 I12
stroke1  73  65 I12
stroke1  73  66 I12
stroke1  74  66 I12
stroke1  75  67 I12
stroke1  76  67 I12
stroke1  77  68 I12
stroke1  78  68 I12
stroke1  79  68 I12
stroke1  80  68 I12
stroke1  81  68 I12
stroke1  82  68 I12
stroke1  83  68 I12
stroke1  83  67 I12
stroke1  84  67 I12
stroke1  85  67 I12
stroke1  86  67 I12
stroke1  86  66 I12
stroke1  87  66 I12
stroke1  88  66 I12
stroke1  89  66 I12
stroke1  89  65 I12
stroke1  90  65 I12
stroke1  91  65 I12
stroke1  92  65 I12
stroke1  93  64 I12
stroke1  94  64 I12
stroke1  94  63 I12
stroke1  94  62 I12
stroke1  94  61 I12
stroke1  95  60 I12
stroke1  95  59 I12
stroke1  95  58 I12
stroke1  95  56 I12
stroke1  95  55 I12
stroke1  95  53 I12
stroke1  95  52 I12
stroke1  95  50 I12
stroke1  95  49 I12
stroke1  95  47 I12
stroke1  95  45 I12
stroke1  95  44 I12
stroke1  95  42 I12
stroke1  95  41 I12
stroke1  95  39 I12
stroke1  95  38 I12
stroke1  95  36 I12
stroke1  95  34 I12
stroke1  95  33 I12
stroke1  95  31 I12
stroke1  95  29 I12
stroke1  95  28 I12
stroke1  95  26 I12
stroke1  95  24 I12
stroke1  95  23 I12
stroke1  95  21 I12
stroke1  95  20 I12
stroke1  95  19 I12
stroke1  95  17 I12
stroke1  95  16 I12
stroke1  95  15 I12
stroke1  95  14 I12
stroke1  95  13 I12
stroke1  95  12 I12
stroke1  95  11 I12
stroke1  95  10 I12
stroke1  95  9 I12
stroke1  95  8 I12
stroke1  95  7 I12
stroke1  94  7 I12
stroke1  94  6 I12
stroke1  93  6 I12
stroke1  92  6 I12
stroke1  92  7 I12
stroke1  91  7 I12
stroke1  90  7 I12
stroke1  90  8 I12
stroke1  89  8 I12
stroke1  89  9 I12
stroke1  88  10 I12
stroke1  88  11 I12
stroke1  87  12 I12
stroke1  87  13 I12
stroke1  87  14 I12
stroke1  88  15 I12
stroke1  88  16 I12
stroke1  88  17 I12
stroke1  88  18 I12
stroke1  89  19 I12
stroke1  89  20 I12
stroke1  89  21 I12
stroke1  90  21 I12
stroke1  90  22 I12
stroke1  91  23 I12
stroke1  92  24 I12
stroke1  93  24 I12
stroke1  94  25 I12
stroke1  95  25 I12
stroke1  96  25 I12
stroke1  97  24 I12
stroke1  99  25 I12
stroke1  100  24 I12
stroke1  102  24 I12
stroke1  103  24 I12
stroke1  104  24 I12
stroke1  105  23 I12
stroke1  106  23 I12
stroke1  107  23 I12
stroke1  107  22 I12
stroke1  108  22 I12
stroke1  108  21 I12
stroke1  108  20 I12
stroke1  109  20 I12
stroke1  109  19 I12
stroke1  109  18 I12
stroke1  110  18 I12
stroke1  110  17 I12
stroke1  111  17 I12
stroke1  111  16 I12
stroke1  111  15 I12
stroke1  112  14 I12
stroke1  112  13 I12
stroke1  113  13 I12
stroke1  113  12 I12
stroke1  113  11 I12
stroke1  114  11 I12
stroke1  114  10 I12
stroke1  115  10 I12
stroke1  115  9 I12
stroke1  116  8 I12
stroke1  116  7 I12
stroke1  117  6 I12
stroke1  117  7 I12
stroke1  116  8 I12
stroke1  116  9 I12
stroke1  117  10 I12
stroke1  116  11 I12
stroke1  116  13 I12
stroke1  116  14 I12
stroke1  116  16 I12
stroke1  116  17 I12
stroke1  116  19 I12
stroke1  116  21 I12
stroke1  116  22 I12
stroke1  115  24 I12
stroke1  115  26 I12
stroke1  115  27 I12
stroke1  115  29 I12
stroke1  115  31 I12
stroke1  115  32 I12
stroke1  115  34 I12
stroke1  115  36 I12
stroke1  115  37 I12
stroke1  115  39 I12
stroke1  115  40 I12
stroke1  115  42 I12
stroke1  114  43 I12
stroke1  115  44 I12
stroke1  115  46 I12
stroke1  114  47 I12
stroke1  114  49 I12
stroke1  114  50 I12
stroke1  114  51 I12
stroke1  114  53 I12
stroke1  114  54 I12
stroke1  114  55 I12
stroke1  114  56 I12
stroke1  114  57 I12
stroke1  114  58 I12
stroke1  114  59 I12
stroke1  114  60 I12
stroke1  113  61 I12
stroke1  113  62 I12
stroke1  113  63 I12
stroke1  113  64 I12
stroke1  113  65 I12
stroke1  112  66 I12
stroke1  112  67 I12
stroke1  112  68 I12
stroke1  112  69 I12
stroke1  111  69 I12
stroke1  111  68 I12
stroke1  110  67 I12
stroke2  126  54 B47
stroke2  127  55 I47
stroke2  126  55 I47
stroke2  126  56 I47
stroke2  127  56 I47
stroke2  127  57 I47
stroke2  127  58 I47
stroke2  128  58 I47
stroke2  128  59 I47
stroke2  128  60 I47
stroke2  129  61 I47
stroke2  130  62 I47
stroke2  131  63 I47
stroke2  132  64 I47
stroke2  133  65 I47
stroke2  133  66 I47
stroke2  134  66 I47
stroke2  135  67 I47
stroke2  136  68 I47
stroke2  137  68 I47
stroke2  137  69 I47
stroke2  138  69 I47
stroke2  139  70 I47
stroke2  140  70 I47
stroke2  141  70 I47
stroke2  142  71 I47
stroke2  143  71 I47
stroke2  143  70 I47
stroke2  144  70 I47
stroke2  145  70 I47
stroke2  146  70 I47
stroke2  146  69 I47
stroke2  147  69 I47
stroke2  148  69 I47
stroke2  148  68 I47
stroke2  149  68 I47
stroke2  150  67 I47
stroke2  151  66 I47
stroke2  152  65 I47
stroke2  152  64 I47
stroke2  153  64 I47
stroke2  153  63 I47
stroke2  153  62 I47
stroke2  154  61 I47
stroke2  154  60 I47
stroke2  155  59 I47
stroke2  155  58 I47
stroke2  155  56 I47
stroke2  155  55 I47
stroke2  155  53 I47
stroke2  155  52 I47
stroke2  155  50 I47
stroke2  155  49 I47
stroke2  155  47 I47
stroke2  155  46 I47
stroke2  155  44 I47
stroke2  154  42 I47
stroke2  154  41 I47
stroke2  154  39 I47
stroke2  154  38 I47
stroke2  154  36 I47
stroke2  154  35 I47
stroke2  154  33 I47
stroke2  153  32 I47
stroke2  153  30 I47
stroke2  153  29 I47
stroke2  153  27 I47
stroke2  153  26 I47
stroke2  153  24 I47
stroke2  152  23 I47
stroke2  152  21 I47
stroke2  152  20 I47
stroke2  152  19 I47
stroke2  152  18 I47
stroke2  152  17 I47
stroke2  152  16 I47
stroke2  152  15 I47
stroke2  152  14 I47
stroke2  152  13 I47
stroke2  152  12 I47
stroke2  152  11 I47
stroke2  152  10 I47
stroke2  152  9 I47
stroke2  152  8 I47
stroke2  152  7 I47
stroke2  152  6 I47
stroke2  152  7 I47
stroke2  152  8 I47
stroke2  152  9 I47
stroke3  181  66 B27
stroke3  181  67 I27
stroke3  181  68 I27
stroke3  181  67 I27
stroke3  180  67 I27
stroke3  180  66 I27
stroke3  180  65 I27
stroke3  180  64 I27
stroke3  180  63 I27
stroke3  180  62 I27
stroke3  180  61 I27
stroke3  179  60 I27
stroke3  179  59 I27
stroke3  178  58 I27
stroke3  178  57 I27
stroke3  177  57 I27
stroke3  177  56 I27
stroke3  176  56 I27
stroke3  176  55 I27
stroke3  175  55 I27
stroke3  174  54 I27
stroke3  173  54 I27
stroke3  172  54 I27
stroke3  172  55 I27
stroke3  171  55 I27
stroke3  170  56 I27
stroke3  170  57 I27
stroke3  169  57 I27
stroke3  169  58 I27
stroke3  169  59 I27
stroke3  169  60 I27
stroke3  169  61 I27
stroke3  169  62 I27
stroke3  169  63 I27
stroke3  169  64 I27
stroke3  169  65 I27
stroke3  170  66 I27
stroke3  170  67 I27
stroke3  170  68 I27
stroke3  171  68 I27
stroke3  171  69 I27
stroke3  172  70 I27
stroke3  173  71 I27
stroke3  174  71 I27
stroke3  174  72 I27
stroke3  175  72 I27
stroke3  176  72 I27
stroke3  176  71 I27
stroke3  177  71 I27
stroke3  178  71 I27
stroke3  179  71 I27
stroke3  179  70 I27
stroke3  180  70 I27
stroke3  180  69 I27
stroke3  180  68 I27
stroke3  180  67 I27
stroke3  180  66 I27
stroke3  180  65 I27
stroke3  180  64 I27
stroke3  180  63 I27
stroke3  180  62 I27
stroke3  180  61 I27
stroke3  180  60 I27
stroke3  180  59 I27
stroke3  180  58 I27
stroke3  180  57 I27
stroke3  180  56 I27
stroke3  180  55 I27
stroke3  180  54 I27
stroke3  180  53 I27
stroke3  180  51 I27
stroke3  179  50 I27
stroke3  179  49 I27
stroke3  179  48 I27
stroke3  179  46 I27
stroke3  179  45 I27
stroke3  178  44 I27
stroke3  178  43 I27
stroke3  178  42 I27
stroke3  178  41 I27
stroke3  178  40 I27
stroke3  178  39 I27
stroke3  178  38 I27
stroke3  177  37 I27
stroke3  178  36 I27
stroke3  177  35 I27
stroke3  177  34 I27
stroke3  177  33 I27
stroke3  177  32 I27
stroke3  177  30 I27
stroke3  177  29 I27
stroke3  177  28 I27
stroke3  177  27 I27
stroke3  177  26 I27
stroke3  177  25 I27
stroke3  176  24 I27
stroke3  176  23 I27
stroke3  176  22 I27
stroke3  176  21 I27
stroke3  176  20 I27
stroke3  176  19 I27
stroke3  176  18 I27
stroke3  176  17 I27
stroke3  176  16 I27
stroke3  176  15 I27
stroke3  176  14 I27
stroke3  175  13 I27
stroke3  175  12 I27
stroke3  175  11 I27
stroke3  175  10 I27
stroke3  175  9 I27
stroke3  175  8 I27
stroke3  175  7 I27
stroke3  175  6 I27
stroke3  176  6 I27
stroke3  176  5 I27
stroke3  177  5 I27
stroke3  177  6 I27
stroke3  178  6 I27
stroke3  179  6 I27
stroke3  180  6 I27
stroke3  181  6 I27
stroke3  182  6 I27
stroke3  183  6 I27
stroke3  184  6 I27
stroke3  185  6 I27
stroke3  186  6 I27
stroke3  187  6 I27
stroke3  188  6 I27
stroke3  189  6 I27
stroke3  190  6 I27
stroke3  191  5 I27
stroke3  192  5 I27
stroke3  193  6 I27
stroke3  194  5 I27
stroke3  195  5 I27
stroke3  196  5 I27
stroke3  197  5 I27
stroke3  198  5 I27
stroke3  199  5 I27
stroke3  200  5 I27
stroke3  200  6 I27
stroke3  201  6 I27
stroke3  202  6 I27
stroke3  203  6 I27
stroke3  204  6 I27
stroke3  204  7 I27
stroke3  205  7 I27
stroke3  205  8 I27
stroke3  206  8 I27
stroke3  206  9 I27
stroke3  206  10 I27
stroke3  206  11 I27
stroke3  207  12 I27
stroke3  207  13 I27
stroke3  207  14 I27
stroke3  206  15 I27
stroke3  206  16 I27
stroke3  206  18 I27
stroke3  206  20 I27
stroke3  205  22 I27
stroke3  205  24 I27
stroke3  205  26 I27
stroke3  205  28 I27
stroke3  205  30 I27
stroke3  204  32 I27
stroke3  204  34 I27
stroke3  204  36 I27
stroke3  204  38 I27
stroke3  204  40 I27
stroke3  204  42 I27
stroke3  204  45 I27
stroke3  204  47 I27
stroke3  204  49 I27
stroke3  204  52 I27
stroke3  203  54 I27
stroke3  203  56 I27
stroke3  203  58 I27
stroke3  203  60 I27
stroke3  203  61 I27
stroke3  203  63 I27
stroke3  203  65 I27
stroke3  203  67 I27
stroke3  203  68 I27
stroke3  202  70 I27
stroke3  202  72 I27
stroke3  202  74 I27
stroke3  202  75 I27
stroke3  202  77 I27
stroke3  202  78 I27
stroke3  202  80 I27
stroke3  202  81 I27
stroke3  202  82 I27
stroke3  202  84 I27
stroke3  202  85 I27
stroke3  202  86 I27
stroke3  202  87 I27
stroke3  202  88 I27
stroke3  201  89 I27
stroke3  201  90 I27
stroke3  201  91 I27
stroke3  201  92 I27
stroke3  201  93 I27
stroke3  201  94 I27
stroke3  201  95 I27
stroke3  200  95 I27
stroke3  200  96 I27
stroke3  200  97 I27
stroke3  200  96 I27
stroke3  199  96 I27
stroke4  225  68 B25
stroke4  226  67 I25
stroke4  226  66 I25
stroke4  226  65 I25
stroke4  226  64 I25
stroke4  226  63 I25
stroke4  226  62 I25
stroke4  226  61 I25
stroke4  225  60 I25
stroke4  225  59 I25
stroke4  225  58 I25
stroke4  225  57 I25
stroke4  224  56 I25
stroke4  224  55 I25
stroke4  224  54 I25
stroke4  223  54 I25
stroke4  222  53 I25
stroke4  221  52 I25
stroke4  220  52 I25
stroke4  219  52 I25
stroke4  218  52 I25
stroke4  217  52 I25
stroke4  216  52 I25
stroke4  216  53 I25
stroke4  216  54 I25
stroke4  215  55 I25
stroke4  215  56 I25
stroke4  215  57 I25
stroke4  215  58 I25
stroke4  216  59 I25
stroke4  216  60 I25
stroke4  216  61 I25
stroke4  217  62 I25
stroke4  217  63 I25
stroke4  218  63 I25
stroke4  218  64 I25
stroke4  219  65 I25
stroke4  220  66 I25
stroke4  221  66 I25
stroke4  221  67 I25
stroke4  222  67 I25
stroke4  223  67 I25
stroke4  224  67 I25
stroke4  225  67 I25
stroke4  226  66 I25
stroke4  227  66 I25
stroke4  227  65 I25
stroke4  228  65 I25
stroke4  229  64 I25
stroke4  229  63 I25
stroke4  230  63 I25
stroke4  230  62 I25
stroke4  230  61 I25
stroke4  230  60 I25
stroke4  230  59 I25
stroke4  230  58 I25
stroke4  230  57 I25
stroke4  230  56 I25
stroke4  229  55 I25
stroke4  229  53 I25
stroke4  229  52 I25
stroke4  229  51 I25
stroke4  229  49 I25
stroke4  229  48 I25
stroke4  229  46 I25
stroke4  229  45 I25
stroke4  229  43 I25
stroke4  229  42 I25
stroke4  229  40 I25
stroke4  229  39 I25
stroke4  229  37 I25
stroke4  228  36 I25
stroke4  228  34 I25
stroke4  228  33 I25
stroke4  228  32 I25
stroke4  227  30 I25
stroke4  227  29 I25
stroke4  227  28 I25
stroke4  227  26 I25
stroke4  226  25 I25
stroke4  226  23 I25
stroke4  226  22 I25
stroke4  226  21 I25
stroke4  226  20 I25
stroke4  225  18 I25
stroke4  225  17 I25
stroke4  225  16 I25
stroke4  225  15 I25
stroke4  225  14 I25
stroke4  225  13 I25
stroke4  225  12 I25
stroke4  224  11 I25
stroke4  224  10 I25
stroke4  224  9 I25
stroke4  224  8 I25
stroke4  224  7 I25
stroke4  224  6 I25
stroke4  224  5 I25
stroke4  224  4 I25
stroke4  224  3 I25
stroke4  224  4 I25
stroke4  224  5 I25
stroke4  225  5 I25
stroke4  225  6 I25
stroke4  225  7 I25
stroke4  225  8 I25
stroke4  226  9 I25
stroke4  226  10 I25
stroke4  227  11 I25
stroke4  228  12 I25
stroke4  229  13 I25
stroke4  230  14 I25
stroke4  231  15 I25
stroke4  232  16 I25
stroke4  233  17 I25
stroke4  234  18 I25
stroke4  235  19 I25
stroke4  236  20 I25
stroke4  238  20 I25
stroke4  239  21 I25
stroke4  240  22 I25
stroke4  241  22 I25
stroke4  241  23 I25
stroke4  242  23 I25
stroke4  243  24 I25
stroke4  244  24 I25
stroke4  245  25 I25
stroke4  246  25 I25
stroke4  247  25 I25
stroke4  248  26 I25
stroke4  249  26 I25
stroke4  250  26 I25
stroke4  251  26 I25
stroke4  252  26 I25
stroke4  253  26 I25
stroke4  254  26 I25
stroke4  255  25 I25
stroke4  256  25 I25
stroke4  257  25 I25
stroke4  258  25 I25
stroke4  258  24 I25
stroke4  259  24 I25
stroke4  259  23 I25
stroke4  260  23 I25
stroke4  260  22 I25
stroke4  261  21 I25
stroke4  261  20 I25
stroke4  262  20 I25
stroke4  262  19 I25
stroke4  262  18 I25
stroke4  262  17 I25
stroke4  262  16 I25
stroke4  262  15 I25
stroke4  262  14 I25
stroke4  262  13 I25
stroke4  261  12 I25
stroke4  261  11 I25
stroke4  261  10 I25
stroke4  260  10 I25
stroke4  260  9 I25
stroke4  259  9 I25
stroke4  259  8 I25
stroke4  258  8 I25
stroke4  258  7 I25
stroke4  257  7 I25
stroke4  257  6 I25
stroke4  256  6 I25
stroke4  255  5 I25
stroke4  254  5 I25
stroke4  253  5 I25
stroke4  253  6 I25
stroke4  253  7 I25
stroke4  253  8 I25
stroke4  253  9 I25
stroke4  253  10 I25
stroke4  253  11 I25
stroke4  253  12 I25
stroke4  252  13 I25
stroke4  252  14 I25
stroke4  253  15 I25
stroke4  253  16 I25
stroke4  253  17 I25
stroke4  253  18 I25
stroke4  253  19 I25
stroke4  253  21 I25
stroke4  253  22 I25
stroke4  253  23 I25
stroke4  253  24 I25
stroke4  254  26 I25
stroke4  254  27 I25
stroke4  254  29 I25
stroke4  254  30 I25
stroke4  254  32 I25
stroke4  254  33 I25
stroke4  254  35 I25
stroke4  255  36 I25
stroke4  255  38 I25
stroke4  255  39 I25
stroke4  255  41 I25
stroke4  255  42 I25
stroke4  255  44 I25
stroke4  255  45 I25
stroke4  255  46 I25
stroke4  255  48 I25
stroke4  255  49 I25
stroke4  255  50 I25
stroke4  255  51 I25
stroke4  255  52 I25
stroke4  255  54 I25
stroke4  255  55 I25
stroke4  255  56 I25
stroke4  255  57 I25
stroke4  254  58 I25
stroke4  254  59 I25
stroke4  254  60 I25
stroke4  254  61 I25
stroke4  254  62 I25
stroke4  254  63 I25
stroke4  255  63 I25
stroke4  255  64 I25
stroke4  255  65 I25
stroke4  255  64 I25
stroke5  278  6 B1
stroke5  279  6 I1
stroke5  278  6 I1
stroke5  278  7 I1
stroke5  278  8 I1
stroke5  278  9 I1
stroke5  278  10 I1
stroke5  279  10 I1
stroke5  279  11 I1
stroke5  279  12 I1
stroke5  279  13 I1
stroke5  279  15 I1
stroke5  278  16 I1
stroke5  278  17 I1
stroke5  279  18 I1
stroke5  279  20 I1
stroke5  279  22 I1
stroke5  279  23 I1
stroke5  279  25 I1
stroke5  279  27 I1
stroke5  279  28 I1
stroke5  280  30 I1
stroke5  280  31 I1
stroke5  280  33 I1
stroke5  280  34 I1
stroke5  280  35 I1
stroke5  281  36 I1
stroke5  281  37 I1
stroke5  281  38 I1
stroke5  281  39 I1
stroke5  281  40 I1
stroke5  281  41 I1
stroke5  280  41 I1
stroke5  280  42 I1
stroke5  279  42 I1
stroke5  278  42 I1
stroke5  277  42 I1
stroke5  276  42 I1
stroke5  275  43 I1
stroke5  274  42 I1
stroke5  273  42 I1
stroke5  272  42 I1
stroke5  271  42 I1
stroke5  270  42 I1
stroke5  269  42 I1
stroke5  268  42 I1
stroke5  269  42 I1
stroke5  269  43 I1
stroke5  269  44 I1
stroke5  270  44 I1
stroke5  270  45 I1
stroke5  271  46 I1
stroke5  271  47 I1
stroke5  272  48 I1
stroke5  273  49 I1
stroke5  273  50 I1
stroke5  274  51 I1
stroke5  275  52 I1
stroke5  275  53 I1
stroke5  276  54 I1
stroke5  277  54 I1
stroke5  277  55 I1
stroke5  278  56 I1
stroke5  279  57 I1
stroke5  279  58 I1
stroke5  280  59 I1
stroke5  281  60 I1
stroke5  282  61 I1
stroke5  282  62 I1
stroke5  283  62 I1
stroke5  283  63 I1
stroke5  284  64 I1
stroke5  285  64 I1
stroke5  286  65 I1
stroke5  287  65 I1
stroke5  287  66 I1
stroke5  288  66 I1
stroke5  289  66 I1
stroke5  290  66 I1
stroke5  291  66 I1
stroke5  292  66 I1
stroke5  293  66 I1
stroke5  294  65 I1
stroke5  295  65 I1
stroke5  295  64 I1
stroke5  296  64 I1
stroke5  297  63 I1
stroke5  298  63 I1
stroke5  298  62 I1
stroke5  299  62 I1
stroke5  299  61 I1
stroke5  300  60 I1
stroke5  300  59 I1
stroke5  300  58 I1
stroke5  301  57 I1
stroke5  301  56 I1
stroke5  301  55 I1
stroke5  301  54 I1
stroke5  302  53 I1
stroke5  302  52 I1
stroke5  302  50 I1
stroke5  302  49 I1
stroke5  302  48 I1
stroke5  302  46 I1
stroke5  302  45 I1
stroke5  302  43 I1
stroke5  302  42 I1
stroke5  302  40 I1
stroke5  302  38 I1
stroke5  302  37 I1
stroke5  302  35 I1
stroke5  302  34 I1
stroke5  302  32 I1
stroke5  301  30 I1
stroke5  301  29 I1
stroke5  301  27 I1
stroke5  301  25 I1
stroke5  301  24 I1
stroke5  301  22 I1
stroke5  301  21 I1
stroke5  301  19 I1
stroke5  301  18 I1
stroke5  301  17 I1
stroke5  301  15 I1
stroke5  301  14 I1
stroke5  301  13 I1
stroke5  300  12 I1
stroke5  300  11 I1
stroke5  300  10 I1
stroke5  300  9 I1
stroke5  300  8 I1
stroke5  300  7 I1
stroke5  300  6 I1
stroke5  300  5 I1
stroke5  300  4 I1
stroke5  300  3 I1
stroke5  300  2 I1
stroke5  300  1 I1
stroke5  300  0 I1
stroke5  300  1 I1
stroke5  301  1 I1
stroke5  301  2 I1
stroke5  301  3 I1
stroke5  300  4 I1
stroke6  299  82 B48
stroke6  300  83 I48
stroke6  300  84 I48
stroke6  299  84 I48
stroke6  298  84 I48
stroke6  297  84 I48
stroke6  296  85 I48
stroke6  295  85 I48
stroke6  295  86 I48
stroke6  294  86 I48
stroke6  293  87 I48
stroke6  292  88 I48
stroke6  291  88 I48
stroke6  290  89 I48
stroke6  289  90 I48
stroke6  288  91 I48
stroke6  286  91 I48
stroke6  285  92 I48
stroke6  284  93 I48
stroke6  282  93 I48
stroke6  281  94 I48
stroke6  280  94 I48
stroke6  278  95 I48
stroke6  277  95 I48
stroke6  276  95 I48
stroke6  275  95 I48
stroke6  274  95 I48
stroke6  273  95 I48
stroke6  272  95 I48
stroke6  271  95 I48
stroke6  271  94 I48
stroke6  270  94 I48
stroke6  269  94 I48
stroke6  269  95 I48
stroke6  270  95 I48
stroke6  270  96 I48
stroke6  271  96 I48
stroke6  272  97 I48
stroke6  273  98 I48
stroke6  274  99 I48
stroke6  275  100 I48
stroke6  277  100 I48
stroke6  278  101 I48
stroke6  279  102 I48
stroke6  280  102 I48
stroke6  281  103 I48
stroke6  282  103 I48
stroke6  283  103 I48
stroke6  284  104 I48
stroke6  285  103 I48
stroke6  286  103 I48
stroke6  287  103 I48
stroke6  288  103 I48
stroke6  288  102 I48
stroke6  289  102 I48
stroke6  290  101 I48
stroke6  291  100 I48
stroke6  291  99 I48
stroke6  292  98 I48
stroke6  293  97 I48
stroke6  294  96 I48
stroke6  295  94 I48
stroke6  296  93 I48
stroke6  297  91 I48
stroke6  297  90 I48
stroke6  298  89 I48
stroke6  298  88 I48
stroke6  299  87 I48
stroke6  299  86 I48
stroke6  300  86 I48
stroke6  300  85 I48
stroke6  300  84 I48
stroke6  301  84 I48
stroke6  301  83 I48
stroke6  301  82 I48
stroke6  302  83 I48
stroke6  301  83 I48
stroke7  334  40 B8
stroke7  335  41 I8
stroke7  335  40 I8
stroke7  334  40 I8
stroke7  334  39 I8
stroke7  333  39 I8
stroke7  333  38 I8
stroke7  332  38 I8
stroke7  331  38 I8
stroke7  331  37 I8
stroke7  330  37 I8
stroke7  329  37 I8
stroke7  328  36 I8
stroke7  327  36 I8
stroke7  326  37 I8
stroke7  325  37 I8
stroke7  324  37 I8
stroke7  324  38 I8
stroke7  323  38 I8
stroke7  323  39 I8
stroke7  322  40 I8
stroke7  322  41 I8
stroke7  322  42 I8
stroke7  322  43 I8
stroke7  323  43 I8
stroke7  323  44 I8
stroke7  323  45 I8
stroke7  324  45 I8
stroke7  324  46 I8
stroke7  325  47 I8
stroke7  326  47 I8
stroke7  326  48 I8
stroke7  327  48 I8
stroke7  328  48 I8
stroke7  329  48 I8
stroke7  330  48 I8
stroke7  331  48 I8
stroke7  332  48 I8
stroke7  332  47 I8
stroke7  333  47 I8
stroke7  334  46 I8
stroke7  335  45 I8
stroke7  335  44 I8
stroke7  335  43 I8
stroke7  336  43 I8
stroke7  336  42 I8
stroke7  336  41 I8
stroke7  336  40 I8
stroke7  337  39 I8
stroke7  337  38 I8
stroke7  338  37 I8
stroke7  338  36 I8
stroke7  338  34 I8
stroke7  338  33 I8
stroke7  339  32 I8
stroke7  339  30 I8
stroke7  339  29 I8
stroke7  340  28 I8
stroke7  340  27 I8
stroke7  340  25 I8
stroke7  341  24 I8
stroke7  341  23 I8
stroke7  341  21 I8
stroke7  341  20 I8
stroke7  342  19 I8
stroke7  342  18 I8
stroke7  342  17 I8
stroke7  342  16 I8
stroke7  343  15 I8
stroke7  343  14 I8
stroke7  343  13 I8
stroke7  343  12 I8
stroke7  343  11 I8
stroke7  343  10 I8
stroke7  343  9 I8
stroke7  344  8 I8
stroke7  344  7 I8
stroke7  344  6 I8
stroke7  344  5 I8
stroke7  344  4 I8
stroke7  344  3 I8
stroke7  345  3 I8
stroke7  345  4 I8
stroke7  346  5 I8
stroke7  346  6 I8
stroke7  346  7 I8
stroke7  346  8 I8
stroke7  347  9 I8
stroke7  347  10 I8
stroke7  347  11 I8
stroke7  348  12 I8
stroke7  348  14 I8
stroke7  348  15 I8
stroke7  348  16 I8
stroke7  349  18 I8
stroke7  349  20 I8
stroke7  349  21 I8
stroke7  349  23 I8
stroke7  349  25 I8
stroke7  350  27 I8
stroke7  350  28 I8
stroke7  350  30 I8
stroke7  350  32 I8
stroke7  351  34 I8
stroke7  351  36 I8
stroke7  351  37 I8
stroke7  351  39 I8
stroke7  352  41 I8
stroke7  352  42 I8
stroke7  352  44 I8
stroke7  352  45 I8
stroke7  352  46 I8
stroke7  352  48 I8
stroke7  353  49 I8
stroke7  353  50 I8
stroke7  353  51 I8
stroke7  353  53 I8
stroke7  353  54 I8
stroke7  353  55 I8
stroke7  353  57 I8
stroke7  352  58 I8
stroke7  352  59 I8
stroke7  352  60 I8
stroke7  352  61 I8
stroke7  352  62 I8
stroke7  351  63 I8
stroke7  351  64 I8
stroke7  351  65 I8
stroke7  350  65 I8
stroke7  350  66 I8
stroke7  349  66 I8
stroke7  348  67 I8
stroke7  347  67 I8
stroke7  346  67 I8
stroke7  346  68 I8
stroke7  345  68 I8
stroke7  344  68 I8
stroke7  343  68 I8
stroke7  342  68 I8
stroke7  341  68 I8
stroke7  340  68 I8
stroke7  339  68 I8
stroke7  338  68 I8
stroke7  337  68 I8
stroke7  336  68 I8
stroke7  335  67 I8
stroke7  334  67 I8
stroke7  333  67 I8
stroke7  332  67 I8
stroke7  331  67 I8
stroke7  330  66 I8
stroke7  329  66 I8
stroke7  328  65 I8
stroke7  327  65 I8
stroke7  327  64 I8
stroke7  326  64 I8
stroke7  325  63 I8
stroke7  325  62 I8
stroke7  324  62 I8
stroke7  323  61 I8
stroke7  322  61 I8
stroke7  322  60 I8
stroke7  321  60 I8
stroke7  321  59 I8
stroke7  320  59 I8
stroke7  320  58 I8
stroke7  320  57 I8
stroke7  321  57 I8
