stroke1  141  34 B1
stroke1  140  34 I1
stroke1  139  34 I1
stroke1  139  35 I1
stroke1  139  36 I1
stroke1  138  37 I1
stroke1  138  38 I1
stroke1  138  39 I1
stroke1  137  40 I1
stroke1  137  42 I1
stroke1  137  44 I1
stroke1  136  46 I1
stroke1  136  48 I1
stroke1  135  50 I1
stroke1  135  53 I1
stroke1  135  56 I1
stroke1  134  58 I1
stroke1  134  61 I1
stroke1  135  64 I1
stroke1  135  64 I1
stroke1  135  66 I1
stroke1  135  69 I1
stroke1  135  71 I1
stroke1  136  73 I1
stroke1  136  75 I1
stroke1  137  77 I1
stroke1  138  79 I1
stroke1  138  81 I1
stroke1  139  82 I1
stroke1  140  83 I1
stroke1  140  84 I1
stroke1  141  85 I1
stroke1  141  86 I1
stroke1  142  87 I1
stroke1  142  88 I1
stroke1  141  88 I1
stroke1  140  89 I1
stroke1  139  89 I1
stroke1  138  89 I1
stroke1  137  89 I1
stroke1  135  89 I1
stroke1  134  89 I1
stroke1  132  89 I1
stroke1  131  89 I1
stroke1  129  89 I1
stroke1  128  88 I1
stroke1  127  88 I1
stroke1  125  88 I1
stroke1  124  88 I1
stroke1  123  88 I1
stroke1  122  87 I1
stroke1  121  87 I1
stroke1  122  88 I1
stroke1  122  89 I1
stroke1  123  89 I1
stroke1  124  90 I1
stroke1  125  91 I1
stroke1  127  92 I1
stroke1  128  93 I1
stroke1  130  94 I1
stroke1  132  95 I1
stroke1  134  96 I1
stroke1  136  96 I1
stroke1  138  97 I1
stroke1  140  98 I1
stroke1  142  98 I1
stroke1  144  99 I1
stroke1  146  99 I1
stroke1  147  99 I1
stroke1  149  99 I1
stroke1  151  99 I1
stroke1  152  98 I1
stroke1  153  98 I1
stroke1  155  98 I1
stroke1  156  97 I1
stroke1  157  97 I1
stroke1  158  96 I1
stroke1  159  96 I1
stroke1  160  95 I1
stroke1  161  95 I1
stroke1  162  94 I1
stroke1  163  94 I1
stroke1  163  93 I1
stroke1  164  93 I1
stroke1  164  92 I1
stroke1  165  91 I1
stroke1  165  89 I1
stroke1  166  88 I1
stroke1  166  86 I1
stroke1  167  83 I1
stroke1  167  80 I1
stroke1  167  77 I1
stroke1  168  74 I1
stroke1  168  71 I1
stroke1  168  67 I1
stroke1  168  64 I1
stroke1  169  60 I1
stroke1  169  57 I1
stroke1  169  54 I1
stroke1  169  50 I1
stroke1  169  47 I1
stroke1  169  44 I1
stroke1  169  42 I1
stroke1  169  40 I1
stroke1  170  38 I1
stroke1  170  37 I1
stroke1  170  36 I1
stroke1  170  35 I1
stroke1  170  36 I1
stroke1  169  37 I1
stroke1  169  38 I1
stroke2  184  35 B14
stroke2  184  34 I14
stroke2  185  33 I14
stroke2  185  34 I14
stroke2  186  34 I14
stroke2  187  34 I14
stroke2  188  35 I14
stroke2  189  36 I14
stroke2  190  37 I14
stroke2  191  39 I14
stroke2  191  40 I14
stroke2  191  41 I14
stroke2  192  42 I14
stroke2  191  43 I14
stroke2  191  44 I14
stroke2  191  45 I14
stroke2  190  46 I14
stroke2  189  47 I14
stroke2  188  47 I14
stroke2  187  47 I14
stroke2  187  48 I14
stroke2  186  47 I14
stroke2  185  47 I14
stroke2  184  46 I14
stroke2  184  45 I14
stroke2  184  44 I14
stroke2  184  43 I14
stroke2  183  42 I14
stroke2  184  41 I14
stroke2  184  39 I14
stroke2  184  38 I14
stroke2  184  37 I14
stroke2  185  36 I14
stroke2  186  35 I14
stroke2  187  35 I14
stroke2  188  35 I14
stroke2  189  36 I14
stroke2  190  37 I14
stroke2  190  38 I14
stroke2  191  39 I14
stroke2  191  41 I14
stroke2  192  42 I14
stroke2  192  44 I14
stroke2  192  46 I14
stroke2  193  48 I14
stroke2  193  50 I14
stroke2  193  53 I14
stroke2  193  55 I14
stroke2  194  58 I14
stroke2  194  60 I14
stroke2  194  63 I14
stroke2  195  65 I14
stroke2  195  68 I14
stroke2  195  70 I14
stroke2  195  73 I14
stroke2  195  75 I14
stroke2  195  77 I14
stroke2  195  78 I14
stroke2  195  80 I14
stroke2  195  81 I14
stroke2  194  83 I14
stroke2  194  84 I14
stroke2  194  85 I14
stroke2  193  86 I14
stroke2  192  87 I14
stroke2  191  88 I14
stroke2  190  89 I14
stroke2  189  89 I14
stroke2  188  89 I14
stroke2  187  90 I14
stroke2  185  89 I14
stroke2  184  89 I14
stroke2  183  89 I14
stroke2  181  88 I14
stroke2  180  88 I14
stroke2  179  88 I14
stroke2  177  87 I14
stroke2  176  86 I14
stroke2  175  86 I14
stroke2  175  87 I14
stroke2  175  88 I14
stroke2  176  89 I14
stroke2  176  90 I14
stroke2  177  91 I14
stroke2  177  92 I14
stroke2  178  93 I14
stroke2  180  94 I14
stroke2  181  95 I14
stroke2  183  96 I14
stroke2  185  98 I14
stroke2  187  98 I14
stroke2  189  99 I14
stroke2  191  100 I14
stroke2  193  100 I14
stroke2  195  101 I14
stroke2  197  101 I14
stroke2  199  101 I14
stroke2  201  100 I14
stroke2  203  100 I14
stroke2  205  100 I14
stroke2  207  100 I14
stroke2  209  99 I14
stroke2  211  99 I14
stroke2  212  98 I14
stroke2  214  97 I14
stroke2  215  97 I14
stroke2  216  96 I14
stroke2  217  95 I14
stroke2  218  95 I14
stroke2  219  94 I14
stroke2  220  94 I14
stroke2  220  93 I14
stroke2  221  93 I14
stroke2  221  92 I14
stroke2  222  92 I14
stroke2  223  91 I14
stroke2  223  90 I14
stroke2  223  89 I14
stroke2  223  88 I14
stroke2  224  86 I14
stroke2  224  84 I14
stroke2  224  81 I14
stroke2  224  79 I14
stroke2  225  75 I14
stroke2  225  72 I14
stroke2  225  69 I14
stroke2  225  66 I14
stroke2  225  62 I14
stroke2  224  58 I14
stroke2  224  54 I14
stroke2  224  50 I14
stroke2  224  46 I14
stroke2  224  42 I14
stroke2  224  39 I14
stroke2  224  35 I14
stroke2  223  32 I14
stroke2  223  29 I14
stroke2  223  26 I14
stroke2  223  23 I14
stroke2  223  21 I14
stroke2  223  18 I14
stroke2  223  16 I14
stroke2  224  14 I14
stroke2  224  12 I14
stroke2  224  10 I14
stroke2  224  9 I14
stroke2  224  7 I14
stroke2  224  6 I14
stroke2  224  5 I14
stroke2  224  4 I14
stroke2  225  3 I14
stroke2  224  3 I14
stroke2  224  4 I14
stroke2  223  5 I14
stroke2  223  6 I14
stroke2  222  7 I14
stroke2  221  8 I14
stroke2  220  9 I14
stroke2  219  11 I14
stroke2  218  12 I14
stroke2  217  13 I14
stroke2  216  15 I14
stroke2  214  15 I14
stroke2  212  16 I14
stroke2  211  17 I14
stroke2  209  17 I14
stroke2  207  17 I14
stroke2  204  17 I14
stroke2  202  17 I14
stroke2  200  17 I14
stroke2  198  16 I14
stroke2  195  15 I14
stroke2  193  14 I14
stroke2  191  13 I14
stroke2  189  12 I14
stroke2  188  10 I14
stroke2  186  9 I14
stroke2  185  8 I14
stroke2  184  7 I14
stroke2  184  6 I14
stroke2  183  4 I14
stroke2  183  3 I14
stroke2  183  2 I14
stroke2  184  1 I14
stroke2  185  1 I14
stroke2  186  0 I14
stroke2  188  0 I14
stroke2  190  0 I14
stroke2  192  1 I14
stroke2  194  1 I14
stroke2  197  2 I14
stroke2  200  4 I14
stroke2  203  5 I14
stroke2  205  6 I14
stroke2  208  8 I14
stroke2  210  10 I14
stroke2  212  11 I14
stroke2  214  13 I14
stroke2  216  14 I14
stroke2  217  15 I14
stroke2  218  16 I14
stroke2  219  17 I14
stroke2  220  18 I14
stroke2  220  19 I14
stroke2  221  20 I14
stroke2  222  21 I14
stroke2  222  22 I14
stroke2  223  24 I14
stroke3  265  98 B41
stroke3  265  97 I41
stroke3  264  97 I41
stroke3  264  96 I41
stroke3  263  95 I41
stroke3  263  94 I41
stroke3  262  93 I41
stroke3  261  91 I41
stroke3  259  90 I41
stroke3  258  89 I41
stroke3  256  89 I41
stroke3  255  88 I41
stroke3  253  87 I41
stroke3  251  87 I41
stroke3  250  87 I41
stroke3  248  87 I41
stroke3  246  87 I41
stroke3  245  87 I41
stroke3  244  88 I41
stroke3  243  88 I41
stroke3  242  89 I41
stroke3  241  90 I41
stroke3  240  92 I41
stroke3  240  93 I41
stroke3  240  95 I41
stroke3  240  96 I41
stroke3  240  97 I41
stroke3  241  98 I41
stroke3  242  99 I41
stroke3  243  100 I41
stroke3  244  101 I41
stroke3  245  101 I41
stroke3  246  102 I41
stroke3  248  102 I41
stroke3  249  102 I41
stroke3  250  102 I41
stroke3  252  102 I41
stroke3  253  101 I41
stroke3  254  101 I41
stroke3  256  100 I41
stroke3  257  99 I41
stroke3  258  98 I41
stroke3  258  97 I41
stroke3  259  96 I41
stroke3  260  94 I41
stroke3  260  93 I41
stroke3  261  91 I41
stroke3  261  88 I41
stroke3  261  86 I41
stroke3  261  83 I41
stroke3  262  80 I41
stroke3  262  77 I41
stroke3  262  74 I41
stroke3  261  71 I41
stroke3  261  68 I41
stroke3  261  65 I41
stroke3  261  62 I41
stroke3  261  58 I41
stroke3  261  55 I41
stroke3  260  52 I41
stroke3  260  49 I41
stroke3  260  47 I41
stroke3  260  45 I41
stroke3  260  43 I41
stroke3  260  41 I41
stroke3  260  39 I41
stroke3  259  38 I41
stroke3  259  37 I41
stroke3  259  36 I41
stroke3  259  35 I41
stroke3  259  34 I41
stroke3  260  34 I41
stroke3  261  35 I41
stroke3  262  36 I41
stroke3  263  38 I41
stroke3  264  39 I41
stroke3  265  41 I41
stroke3  267  43 I41
stroke3  268  46 I41
stroke3  270  49 I41
stroke3  272  52 I41
stroke3  273  55 I41
stroke3  276  58 I41
stroke3  278  61 I41
stroke3  280  65 I41
stroke3  282  68 I41
stroke3  284  71 I41
stroke3  286  74 I41
stroke3  287  77 I41
stroke3  289  80 I41
stroke3  290  83 I41
stroke3  291  85 I41
stroke3  292  87 I41
stroke3  292  89 I41
stroke3  292  91 I41
stroke3  292  92 I41
stroke3  292  93 I41
stroke3  291  94 I41
stroke3  290  94 I41
stroke3  289  95 I41
stroke3  288  95 I41
stroke3  287  95 I41
stroke3  286  94 I41
stroke3  285  94 I41
stroke3  283  93 I41
stroke3  282  92 I41
stroke3  281  91 I41
stroke3  280  89 I41
stroke3  279  88 I41
stroke3  278  87 I41
stroke3  278  85 I41
stroke3  277  84 I41
stroke3  277  83 I41
stroke3  278  81 I41
stroke3  279  80 I41
stroke3  280  79 I41
stroke3  280  78 I41
stroke3  281  77 I41
stroke3  283  76 I41
stroke3  284  76 I41
stroke3  285  75 I41
stroke3  286  74 I41
stroke3  287  73 I41
stroke3  288  71 I41
stroke3  289  70 I41
stroke3  290  68 I41
stroke3  291  66 I41
stroke3  291  63 I41
stroke3  292  61 I41
stroke3  292  58 I41
stroke3  292  55 I41
stroke3  293  53 I41
stroke3  293  50 I41
stroke3  293  47 I41
stroke3  293  45 I41
stroke3  293  43 I41
stroke3  293  42 I41
stroke3  293  40 I41
stroke3  293  39 I41
stroke3  293  38 I41
stroke3  293  39 I41
stroke3  293  40 I41
stroke3  293  42 I41
stroke3  293  44 I41
stroke3  293  46 I41
stroke4  317  87 B33
stroke4  318  87 I33
stroke4  317  86 I33
stroke4  316  86 I33
stroke4  315  86 I33
stroke4  314  85 I33
stroke4  313  85 I33
stroke4  312  85 I33
stroke4  311  85 I33
stroke4  310  85 I33
stroke4  309  85 I33
stroke4  308  86 I33
stroke4  307  86 I33
stroke4  306  87 I33
stroke4  305  88 I33
stroke4  305  90 I33
stroke4  305  91 I33
stroke4  305  93 I33
stroke4  305  94 I33
stroke4  305  96 I33
stroke4  306  97 I33
stroke4  306  98 I33
stroke4  307  99 I33
stroke4  308  99 I33
stroke4  309  99 I33
stroke4  310  99 I33
stroke4  311  99 I33
stroke4  313  99 I33
stroke4  314  98 I33
stroke4  315  98 I33
stroke4  316  97 I33
stroke4  317  96 I33
stroke4  318  95 I33
stroke4  318  94 I33
stroke4  319  93 I33
stroke4  319  92 I33
stroke4  319  91 I33
stroke4  319  90 I33
stroke4  319  88 I33
stroke4  320  87 I33
stroke4  320  86 I33
stroke4  320  84 I33
stroke4  320  82 I33
stroke4  321  79 I33
stroke4  321  77 I33
stroke4  321  74 I33
stroke4  321  71 I33
stroke4  321  68 I33
stroke4  321  65 I33
stroke4  321  62 I33
stroke4  321  59 I33
stroke4  320  56 I33
stroke4  320  53 I33
stroke4  320  51 I33
stroke4  319  48 I33
stroke4  319  46 I33
stroke4  319  45 I33
stroke4  318  43 I33
stroke4  318  42 I33
stroke4  317  41 I33
stroke4  316  40 I33
stroke4  315  40 I33
stroke4  314  39 I33
stroke4  313  39 I33
stroke4  312  40 I33
stroke4  311  40 I33
stroke4  310  41 I33
stroke4  310  42 I33
stroke4  309  43 I33
stroke4  309  45 I33
stroke4  309  47 I33
stroke4  309  49 I33
stroke4  309  50 I33
stroke4  310  52 I33
stroke4  310  54 I33
stroke4  311  55 I33
stroke4  312  56 I33
stroke4  314  57 I33
stroke4  315  58 I33
stroke4  317  58 I33
stroke4  319  58 I33
stroke4  321  58 I33
stroke4  322  57 I33
stroke4  324  57 I33
stroke4  326  56 I33
stroke4  328  55 I33
stroke4  330  54 I33
stroke4  332  53 I33
stroke4  334  52 I33
stroke4  335  51 I33
stroke4  337  50 I33
stroke4  338  49 I33
stroke4  339  48 I33
stroke4  341  47 I33
stroke4  342  46 I33
stroke4  343  46 I33
stroke4  343  45 I33
stroke4  344  45 I33
stroke4  344  44 I33
stroke4  345  45 I33
stroke4  344  45 I33
stroke4  344  46 I33
stroke4  344  47 I33
stroke4  344  48 I33
stroke4  344  49 I33
stroke4  344  51 I33
stroke4  343  53 I33
stroke4  343  56 I33
stroke4  343  59 I33
stroke4  343  61 I33
stroke4  343  64 I33
stroke4  342  67 I33
stroke4  342  70 I33
stroke4  342  74 I33
stroke4  342  77 I33
stroke4  342  80 I33
stroke4  342  83 I33
stroke4  342  86 I33
stroke4  342  89 I33
stroke4  342  91 I33
stroke4  342  93 I33
stroke4  342  94 I33
stroke4  342  95 I33
stroke4  342  96 I33
stroke4  342  97 I33
stroke4  342  98 I33
stroke4  341  98 I33
stroke4  342  98 I33
stroke4  341  98 I33
stroke4  341  97 I33
stroke4  340  96 I33
stroke4  341  95 I33
stroke5  356  89 B47
stroke5  355  89 I47
stroke5  355  90 I47
stroke5  356  91 I47
stroke5  357  92 I47
stroke5  357  93 I47
stroke5  358  94 I47
stroke5  359  95 I47
stroke5  360  96 I47
stroke5  361  97 I47
stroke5  361  98 I47
stroke5  362  99 I47
stroke5  364  99 I47
stroke5  365  100 I47
stroke5  366  101 I47
stroke5  367  101 I47
stroke5  368  102 I47
stroke5  369  102 I47
stroke5  370  102 I47
stroke5  371  101 I47
stroke5  372  101 I47
stroke5  374  100 I47
stroke5  375  99 I47
stroke5  376  99 I47
stroke5  378  98 I47
stroke5  379  97 I47
stroke5  380  96 I47
stroke5  382  95 I47
stroke5  383  94 I47
stroke5  384  94 I47
stroke5  384  92 I47
stroke5  385  91 I47
stroke5  385  89 I47
stroke5  385  87 I47
stroke5  385  85 I47
stroke5  385  82 I47
stroke5  385  79 I47
stroke5  384  77 I47
stroke5  384  74 I47
stroke5  384  71 I47
stroke5  384  69 I47
stroke5  383  66 I47
stroke5  383  63 I47
stroke5  383  61 I47
stroke5  382  58 I47
stroke5  382  56 I47
stroke5  382  54 I47
stroke5  382  52 I47
stroke5  381  50 I47
stroke5  381  48 I47
stroke5  381  47 I47
stroke5  381  45 I47
stroke5  381  44 I47
stroke5  381  43 I47
stroke5  380  42 I47
stroke5  380  43 I47
stroke5  380  44 I47
stroke5  380  45 I47
stroke5  380  46 I47
stroke5  380  48 I47
stroke5  380  49 I47
stroke6  400  83 B34
stroke6  399  83 I34
stroke6  398  83 I34
stroke6  398  82 I34
stroke6  399  81 I34
stroke6  400  81 I34
stroke6  402  81 I34
stroke6  404  81 I34
stroke6  405  82 I34
stroke6  407  83 I34
stroke6  409  83 I34
stroke6  411  85 I34
stroke6  413  86 I34
stroke6  415  87 I34
stroke6  416  88 I34
stroke6  417  89 I34
stroke6  418  90 I34
stroke6  419  91 I34
stroke6  420  93 I34
stroke6  421  94 I34
stroke6  421  95 I34
stroke6  421  96 I34
stroke6  421  97 I34
stroke6  420  97 I34
stroke6  420  98 I34
stroke6  419  98 I34
stroke6  418  98 I34
stroke6  416  98 I34
stroke6  415  98 I34
stroke6  413  97 I34
stroke6  412  96 I34
stroke6  410  95 I34
stroke6  408  93 I34
stroke6  406  91 I34
stroke6  404  89 I34
stroke6  403  86 I34
stroke6  402  83 I34
stroke6  401  81 I34
stroke6  400  78 I34
stroke6  400  76 I34
stroke6  400  74 I34
stroke6  400  72 I34
stroke6  401  71 I34
stroke6  402  70 I34
stroke6  403  69 I34
stroke6  405  68 I34
stroke6  407  68 I34
stroke6  409  67 I34
stroke6  411  67 I34
stroke6  413  67 I34
stroke6  415  67 I34
stroke6  417  67 I34
stroke6  419  67 I34
stroke6  421  68 I34
stroke6  422  68 I34
stroke6  424  68 I34
stroke6  425  68 I34
stroke6  426  69 I34
stroke6  427  69 I34
stroke6  427  68 I34
stroke6  426  68 I34
stroke6  426  67 I34
stroke6  425  66 I34
stroke6  424  64 I34
stroke6  423  63 I34
stroke6  422  61 I34
stroke6  421  59 I34
stroke6  420  57 I34
stroke6  418  55 I34
stroke6  417  53 I34
stroke6  417  51 I34
stroke6  416  49 I34
stroke6  416  48 I34
stroke6  415  46 I34
stroke6  415  45 I34
stroke6  416  44 I34
stroke6  416  43 I34
stroke6  416  42 I34
stroke6  416  41 I34
stroke6  417  40 I34
stroke6  418  39 I34
stroke6  419  39 I34
stroke6  420  38 I34
stroke6  421  37 I34
stroke6  422  37 I34
stroke6  423  36 I34
stroke6  425  36 I34
stroke6  426  36 I34
stroke6  427  36 I34
stroke6  428  36 I34
stroke6  430  36 I34
stroke6  431  36 I34
stroke6  432  36 I34
stroke6  433  37 I34
stroke6  434  37 I34
stroke6  435  38 I34
stroke6  435  39 I34
stroke6  436  40 I34
stroke6  437  41 I34
stroke6  437  42 I34
stroke6  438  44 I34
stroke6  438  45 I34
stroke6  439  47 I34
stroke6  439  49 I34
stroke6  439  51 I34
stroke6  439  54 I34
stroke6  439  56 I34
stroke6  439  59 I34
stroke6  439  62 I34
stroke6  439  66 I34
stroke6  439  69 I34
stroke6  439  73 I34
stroke6  439  76 I34
stroke6  439  79 I34
stroke6  439  82 I34
stroke6  439  85 I34
stroke6  439  87 I34
stroke6  439  90 I34
stroke6  439  92 I34
stroke6  439  94 I34
stroke6  439  96 I34
stroke6  439  97 I34
stroke6  439  99 I34
stroke6  439  100 I34
stroke6  439  101 I34
stroke6  439  102 I34
stroke6  438  102 I34
stroke6  438  101 I34
stroke6  437  101 I34
stroke6  437  100 I34
