stroke1  83  9 B58
stroke1  83  10 I58
stroke1  83  11 I58
stroke1  83  12 I58
stroke1  83  13 I58
stroke1  84  14 I58
stroke1  85  15 I58
stroke1  86  15 I58
stroke1  87  15 I58
stroke1  88  15 I58
stroke1  89  15 I58
stroke1  90  14 I58
stroke1  91  14 I58
stroke1  92  13 I58
stroke1  93  13 I58
stroke1  93  12 I58
stroke1  94  11 I58
stroke1  94  10 I58
stroke1  94  9 I58
stroke1  94  9 I58
stroke1  95  8 I58
stroke1  94  7 I58
stroke1  94  6 I58
stroke1  94  5 I58
stroke1  94  4 I58
stroke1  93  4 I58
stroke1  93  3 I58
stroke1  92  3 I58
stroke1  91  3 I58
stroke1  90  3 I58
stroke1  89  4 I58
stroke1  88  5 I58
stroke1  87  6 I58
stroke1  87  8 I58
stroke1  87  9 I58
stroke1  86  11 I58
stroke1  86  13 I58
stroke1  85  16 I58
stroke1  85  19 I58
stroke1  85  22 I58
stroke1  84  25 I58
stroke1  84  29 I58
stroke1  83  33 I58
stroke1  83  37 I58
stroke1  83  41 I58
stroke1  82  45 I58
stroke1  82  49 I58
stroke1  82  53 I58
stroke1  82  57 I58
stroke1  82  61 I58
stroke1  82  64 I58
stroke1  81  68 I58
stroke1  81  71 I58
stroke1  81  74 I58
stroke1  81  77 I58
stroke1  81  80 I58
stroke1  81  83 I58
stroke1  81  85 I58
stroke1  81  87 I58
stroke1  81  89 I58
stroke1  81  91 I58
stroke1  81  92 I58
stroke1  81  94 I58
stroke1  81  95 I58
stroke1  81  96 I58
stroke1  81  97 I58
stroke1  81  98 I58
stroke1  80  98 I58
stroke1  79  98 I58
stroke1  79  99 I58
stroke1  78  99 I58
stroke1  77  99 I58
stroke1  76  100 I58
stroke1  74  100 I58
stroke1  73  100 I58
stroke1  71  100 I58
stroke1  69  101 I58
stroke1  66  100 I58
stroke1  64  100 I58
stroke1  61  100 I58
stroke1  58  100 I58
stroke1  55  99 I58
stroke1  52  98 I58
stroke1  49  98 I58
stroke1  47  97 I58
stroke1  44  96 I58
stroke1  42  96 I58
stroke1  41  95 I58
stroke1  40  95 I58
stroke1  39  95 I58
stroke1  38  95 I58
stroke1  39  95 I58
stroke1  39  96 I58
stroke1  40  97 I58
stroke1  41  99 I58
stroke1  42  100 I58
stroke1  44  102 I58
stroke1  45  104 I58
stroke1  47  105 I58
stroke1  49  106 I58
stroke1  52  108 I58
stroke1  54  108 I58
stroke1  56  109 I58
stroke1  58  109 I58
stroke1  61  108 I58
stroke1  63  108 I58
stroke1  65  108 I58
stroke1  67  107 I58
stroke1  69  106 I58
stroke1  71  105 I58
stroke1  73  104 I58
stroke1  75  103 I58
stroke1  77  102 I58
stroke1  79  101 I58
stroke1  81  101 I58
stroke1  82  100 I58
stroke1  83  100 I58
stroke1  84  100 I58
stroke1  85  100 I58
stroke1  86  100 I58
stroke1  87  101 I58
stroke1  88  101 I58
stroke1  89  102 I58
stroke1  89  103 I58
stroke1  90  104 I58
stroke1  90  105 I58
stroke1  91  105 I58
stroke2  110  51 B6
stroke2  109  52 I6
stroke2  110  52 I6
stroke2  110  53 I6
stroke2  111  54 I6
stroke2  112  54 I6
stroke2  113  54 I6
stroke2  115  53 I6
stroke2  116  53 I6
stroke2  117  52 I6
stroke2  118  52 I6
stroke2  119  51 I6
stroke2  120  50 I6
stroke2  121  49 I6
stroke2  121  48 I6
stroke2  122  47 I6
stroke2  122  46 I6
stroke2  122  45 I6
stroke2  121  44 I6
stroke2  120  43 I6
stroke2  119  43 I6
stroke2  118  43 I6
stroke2  118  44 I6
stroke2  117  45 I6
stroke2  116  46 I6
stroke2  115  48 I6
stroke2  115  50 I6
stroke2  114  52 I6
stroke2  114  54 I6
stroke2  113  56 I6
stroke2  113  58 I6
stroke2  113  60 I6
stroke2  114  61 I6
stroke2  114  62 I6
stroke2  115  63 I6
stroke2  116  64 I6
stroke2  117  64 I6
stroke2  118  64 I6
stroke2  119  63 I6
stroke2  120  63 I6
stroke2  122  63 I6
stroke2  123  62 I6
stroke2  124  62 I6
stroke2  125  61 I6
stroke2  126  61 I6
stroke2  127  61 I6
stroke2  128  60 I6
stroke2  129  60 I6
stroke2  130  60 I6
stroke2  131  60 I6
stroke2  132  61 I6
stroke2  133  61 I6
stroke2  133  62 I6
stroke2  134  62 I6
stroke2  134  63 I6
stroke2  135  63 I6
stroke2  136  64 I6
stroke2  136  65 I6
stroke2  137  65 I6
stroke2  137  66 I6
stroke2  138  66 I6
stroke2  138  65 I6
stroke2  139  65 I6
stroke2  139  64 I6
stroke2  140  63 I6
stroke2  140  61 I6
stroke2  141  60 I6
stroke2  141  58 I6
stroke2  142  56 I6
stroke2  142  54 I6
stroke2  143  52 I6
stroke2  143  49 I6
stroke2  144  46 I6
stroke2  144  43 I6
stroke2  145  40 I6
stroke2  145  37 I6
stroke2  146  34 I6
stroke2  146  30 I6
stroke2  147  28 I6
stroke2  147  25 I6
stroke2  147  22 I6
stroke2  148  20 I6
stroke2  148  18 I6
stroke2  148  16 I6
stroke2  148  14 I6
stroke2  148  12 I6
stroke2  148  11 I6
stroke2  148  9 I6
stroke2  148  8 I6
stroke2  148  7 I6
stroke2  148  6 I6
stroke2  147  5 I6
stroke2  146  5 I6
stroke2  145  5 I6
stroke2  144  5 I6
stroke2  143  5 I6
stroke2  142  5 I6
stroke2  142  6 I6
stroke2  141  6 I6
stroke2  140  7 I6
stroke2  140  9 I6
stroke2  140  10 I6
stroke2  139  11 I6
stroke2  139  13 I6
stroke2  140  14 I6
stroke2  140  16 I6
stroke2  140  18 I6
stroke2  141  19 I6
stroke2  141  20 I6
stroke2  142  22 I6
stroke2  143  23 I6
stroke2  144  24 I6
stroke2  145  25 I6
stroke2  146  25 I6
stroke2  147  25 I6
stroke2  149  25 I6
stroke2  150  25 I6
stroke2  151  24 I6
stroke2  153  23 I6
stroke2  154  22 I6
stroke2  155  21 I6
stroke2  157  20 I6
stroke2  158  19 I6
stroke2  159  18 I6
stroke2  161  17 I6
stroke2  162  16 I6
stroke2  163  15 I6
stroke2  164  14 I6
stroke2  165  13 I6
stroke2  166  12 I6
stroke2  167  11 I6
stroke2  168  11 I6
stroke2  168  10 I6
stroke2  169  10 I6
stroke2  169  11 I6
stroke2  168  12 I6
stroke2  168  13 I6
stroke2  168  15 I6
stroke2  168  17 I6
stroke2  167  20 I6
stroke2  166  22 I6
stroke2  166  25 I6
stroke2  165  29 I6
stroke2  164  32 I6
stroke2  163  35 I6
stroke2  163  38 I6
stroke2  162  42 I6
stroke2  161  45 I6
stroke2  161  48 I6
stroke2  160  51 I6
stroke2  160  53 I6
stroke2  160  56 I6
stroke2  160  58 I6
stroke2  160  60 I6
stroke2  159  62 I6
stroke2  159  63 I6
stroke2  159  64 I6
stroke2  159  65 I6
stroke2  159  66 I6
stroke2  158  66 I6
stroke2  158  67 I6
stroke2  158  66 I6
stroke2  158  65 I6
stroke2  158  64 I6
stroke3  190  60 B39
stroke3  190  59 I39
stroke3  191  58 I39
stroke3  191  57 I39
stroke3  191  55 I39
stroke3  191  54 I39
stroke3  191  53 I39
stroke3  191  51 I39
stroke3  190  50 I39
stroke3  190  49 I39
stroke3  190  48 I39
stroke3  189  47 I39
stroke3  188  46 I39
stroke3  187  46 I39
stroke3  186  45 I39
stroke3  185  45 I39
stroke3  184  44 I39
stroke3  184  45 I39
stroke3  183  45 I39
stroke3  182  45 I39
stroke3  182  46 I39
stroke3  181  47 I39
stroke3  181  49 I39
stroke3  180  51 I39
stroke3  180  52 I39
stroke3  180  54 I39
stroke3  180  56 I39
stroke3  180  58 I39
stroke3  181  59 I39
stroke3  181  60 I39
stroke3  182  61 I39
stroke3  183  62 I39
stroke3  184  63 I39
stroke3  185  64 I39
stroke3  186  64 I39
stroke3  187  64 I39
stroke3  188  64 I39
stroke3  189  64 I39
stroke3  190  64 I39
stroke3  190  63 I39
stroke3  191  63 I39
stroke3  192  63 I39
stroke3  192  62 I39
stroke3  193  61 I39
stroke3  193  60 I39
stroke3  194  59 I39
stroke3  194  58 I39
stroke3  194  57 I39
stroke3  195  56 I39
stroke3  195  54 I39
stroke3  196  52 I39
stroke3  196  50 I39
stroke3  196  48 I39
stroke3  197  45 I39
stroke3  197  43 I39
stroke3  197  40 I39
stroke3  197  37 I39
stroke3  198  34 I39
stroke3  198  31 I39
stroke3  198  28 I39
stroke3  198  25 I39
stroke3  199  22 I39
stroke3  199  19 I39
stroke3  199  17 I39
stroke3  199  14 I39
stroke3  199  12 I39
stroke3  199  10 I39
stroke3  199  8 I39
stroke3  199  7 I39
stroke3  199  6 I39
stroke3  200  5 I39
stroke3  200  4 I39
stroke3  200  3 I39
stroke3  201  2 I39
stroke3  202  3 I39
stroke3  203  3 I39
stroke3  204  3 I39
stroke3  205  3 I39
stroke3  206  3 I39
stroke3  207  3 I39
stroke3  208  3 I39
stroke3  210  3 I39
stroke3  212  3 I39
stroke3  213  3 I39
stroke3  215  3 I39
stroke3  217  3 I39
stroke3  218  3 I39
stroke3  220  3 I39
stroke3  221  3 I39
stroke3  223  2 I39
stroke3  224  3 I39
stroke3  225  2 I39
stroke3  226  2 I39
stroke3  227  3 I39
stroke3  228  3 I39
stroke3  228  4 I39
stroke3  229  5 I39
stroke3  229  6 I39
stroke3  229  8 I39
stroke3  228  10 I39
stroke3  228  12 I39
stroke3  227  15 I39
stroke3  227  18 I39
stroke3  226  21 I39
stroke3  225  24 I39
stroke3  224  28 I39
stroke3  224  32 I39
stroke3  223  36 I39
stroke3  222  39 I39
stroke3  222  43 I39
stroke3  221  46 I39
stroke3  221  50 I39
stroke3  220  53 I39
stroke3  219  56 I39
stroke3  219  58 I39
stroke3  219  61 I39
stroke3  218  63 I39
stroke3  218  64 I39
stroke3  218  66 I39
stroke3  217  67 I39
stroke3  217  68 I39
stroke3  217  69 I39
stroke3  217  70 I39
stroke3  216  69 I39
stroke3  216  68 I39
stroke3  215  67 I39
stroke3  215  66 I39
stroke3  207  33 I39
stroke3  207  32 I39
stroke3  207  31 I39
stroke3  207  30 I39
stroke3  208  30 I39
stroke3  208  29 I39
stroke3  209  29 I39
stroke3  210  29 I39
stroke3  211  29 I39
stroke3  212  30 I39
stroke3  213  31 I39
stroke3  214  31 I39
stroke3  214  33 I39
stroke3  215  33 I39
stroke3  215  35 I39
stroke3  215  36 I39
stroke3  215  37 I39
stroke3  215  38 I39
stroke3  214  38 I39
stroke3  214  39 I39
stroke3  213  39 I39
stroke3  212  39 I39
stroke3  211  39 I39
stroke3  211  38 I39
stroke3  210  37 I39
stroke3  210  36 I39
stroke3  210  35 I39
stroke3  210  33 I39
stroke3  210  32 I39
stroke3  211  30 I39
stroke3  212  29 I39
stroke3  213  28 I39
stroke3  215  27 I39
stroke3  216  26 I39
stroke3  218  26 I39
stroke3  220  26 I39
stroke3  222  26 I39
stroke3  223  26 I39
stroke3  225  27 I39
stroke3  226  27 I39
stroke3  227  28 I39
stroke3  228  29 I39
stroke3  229  30 I39
stroke3  230  31 I39
stroke3  231  32 I39
stroke3  231  33 I39
stroke3  232  34 I39
stroke3  232  36 I39
stroke3  233  37 I39
stroke3  233  38 I39
stroke3  233  39 I39
stroke3  233  40 I39
stroke3  233  41 I39
stroke3  233  42 I39
stroke4  253  8 B19
stroke4  253  9 I19
stroke4  254  9 I19
stroke4  254  10 I19
stroke4  255  11 I19
stroke4  256  11 I19
stroke4  257  11 I19
stroke4  259  11 I19
stroke4  260  11 I19
stroke4  261  11 I19
stroke4  262  11 I19
stroke4  263  10 I19
stroke4  264  9 I19
stroke4  264  8 I19
stroke4  265  7 I19
stroke4  265  6 I19
stroke4  264  5 I19
stroke4  264  4 I19
stroke4  263  4 I19
stroke4  263  3 I19
stroke4  262  3 I19
stroke4  261  3 I19
stroke4  260  3 I19
stroke4  259  4 I19
stroke4  258  4 I19
stroke4  258  5 I19
stroke4  257  6 I19
stroke4  256  8 I19
stroke4  256  10 I19
stroke4  255  12 I19
stroke4  255  14 I19
stroke4  254  16 I19
stroke4  254  18 I19
stroke4  254  21 I19
stroke4  255  24 I19
stroke4  255  26 I19
stroke4  256  29 I19
stroke4  257  31 I19
stroke4  257  34 I19
stroke4  258  36 I19
stroke4  259  39 I19
stroke4  259  41 I19
stroke4  260  43 I19
stroke4  260  45 I19
stroke4  260  46 I19
stroke4  260  48 I19
stroke4  259  49 I19
stroke4  259  50 I19
stroke4  259  51 I19
stroke4  258  51 I19
stroke4  257  51 I19
stroke4  256  52 I19
stroke4  255  51 I19
stroke4  254  51 I19
stroke4  253  51 I19
stroke4  252  51 I19
stroke4  251  51 I19
stroke4  250  50 I19
stroke4  249  50 I19
stroke4  248  50 I19
stroke4  247  50 I19
stroke4  246  50 I19
stroke4  245  51 I19
stroke4  246  52 I19
stroke4  246  53 I19
stroke4  246  54 I19
stroke4  247  56 I19
stroke4  248  57 I19
stroke4  249  58 I19
stroke4  250  60 I19
stroke4  252  61 I19
stroke4  253  62 I19
stroke4  254  63 I19
stroke4  256  64 I19
stroke4  258  65 I19
stroke4  259  65 I19
stroke4  261  66 I19
stroke4  263  66 I19
stroke4  265  66 I19
stroke4  266  65 I19
stroke4  268  65 I19
stroke4  269  64 I19
stroke4  271  64 I19
stroke4  272  63 I19
stroke4  273  62 I19
stroke4  275  61 I19
stroke4  276  60 I19
stroke4  276  59 I19
stroke4  277  57 I19
stroke4  278  56 I19
stroke4  279  54 I19
stroke4  279  51 I19
stroke4  280  49 I19
stroke4  280  46 I19
stroke4  281  42 I19
stroke4  281  39 I19
stroke4  282  36 I19
stroke4  282  33 I19
stroke4  283  30 I19
stroke4  283  27 I19
stroke4  283  24 I19
stroke4  284  21 I19
stroke4  284  18 I19
stroke4  284  15 I19
stroke4  284  13 I19
stroke4  284  10 I19
stroke4  284  9 I19
stroke4  284  7 I19
stroke4  284  6 I19
stroke4  284  5 I19
stroke4  284  4 I19
stroke4  284  3 I19
stroke4  285  3 I19
stroke4  285  4 I19
stroke4  286  5 I19
stroke4  286  6 I19
stroke4  287  7 I19
stroke4  288  9 I19
stroke4  289  10 I19
stroke4  290  11 I19
stroke4  291  13 I19
stroke4  293  14 I19
stroke4  294  15 I19
stroke4  295  16 I19
stroke4  297  17 I19
stroke4  298  17 I19
stroke4  300  18 I19
stroke4  301  18 I19
stroke4  303  18 I19
stroke4  304  18 I19
stroke4  305  18 I19
stroke4  306  17 I19
stroke4  307  17 I19
stroke4  309  16 I19
stroke4  310  15 I19
stroke4  311  15 I19
stroke4  311  14 I19
stroke4  312  13 I19
stroke4  313  12 I19
stroke4  314  11 I19
stroke4  314  10 I19
stroke4  315  9 I19
stroke4  315  8 I19
stroke4  314  7 I19
stroke4  314  6 I19
stroke4  313  6 I19
stroke4  313  5 I19
stroke4  312  4 I19
stroke4  311  4 I19
stroke4  310  3 I19
stroke4  310  2 I19
stroke4  309  2 I19
stroke4  308  1 I19
stroke4  307  1 I19
stroke4  306  2 I19
stroke4  305  3 I19
stroke4  304  4 I19
stroke4  304  5 I19
stroke4  303  7 I19
stroke4  303  9 I19
stroke4  302  11 I19
stroke4  302  14 I19
stroke4  301  17 I19
stroke4  301  20 I19
stroke4  300  23 I19
stroke4  300  27 I19
stroke4  299  30 I19
stroke4  298  34 I19
stroke4  298  38 I19
stroke4  297  41 I19
stroke4  297  44 I19
stroke4  296  47 I19
stroke4  296  50 I19
stroke4  295  52 I19
stroke4  295  54 I19
stroke4  295  55 I19
stroke4  294  57 I19
stroke4  294  58 I19
stroke4  294  59 I19
stroke4  294  60 I19
stroke4  293  60 I19
stroke4  293  59 I19
stroke4  293  58 I19
stroke5  316  54 B47
stroke5  316  55 I47
stroke5  317  56 I47
stroke5  318  56 I47
stroke5  318  57 I47
stroke5  319  58 I47
stroke5  320  60 I47
stroke5  321  61 I47
stroke5  322  62 I47
stroke5  323  63 I47
stroke5  324  64 I47
stroke5  325  64 I47
stroke5  326  65 I47
stroke5  327  65 I47
stroke5  329  65 I47
stroke5  330  65 I47
stroke5  331  65 I47
stroke5  332  65 I47
stroke5  334  64 I47
stroke5  335  64 I47
stroke5  336  64 I47
stroke5  338  63 I47
stroke5  339  63 I47
stroke5  340  62 I47
stroke5  341  62 I47
stroke5  342  61 I47
stroke5  343  60 I47
stroke5  344  60 I47
stroke5  344  59 I47
stroke5  345  58 I47
stroke5  346  58 I47
stroke5  346  57 I47
stroke5  347  57 I47
stroke5  347  56 I47
stroke5  348  55 I47
stroke5  348  54 I47
stroke5  348  53 I47
stroke5  349  51 I47
stroke5  349  49 I47
stroke5  349  47 I47
stroke5  349  44 I47
stroke5  350  41 I47
stroke5  350  39 I47
stroke5  350  36 I47
stroke5  350  32 I47
stroke5  350  29 I47
stroke5  350  26 I47
stroke5  350  22 I47
stroke5  350  19 I47
stroke5  350  16 I47
stroke5  350  14 I47
stroke5  350  11 I47
stroke5  350  9 I47
stroke5  350  7 I47
stroke5  350  6 I47
stroke5  350  4 I47
stroke5  350  3 I47
stroke5  350  2 I47
stroke5  350  1 I47
stroke5  350  0 I47
stroke5  350  1 I47
stroke5  350  2 I47
stroke5  350  3 I47
stroke5  349  4 I47
