stroke1  95  69 B30
stroke1  96  69 I30
stroke1  96  68 I30
stroke1  96  67 I30
stroke1  96  66 I30
stroke1  96  65 I30
stroke1  96  64 I30
stroke1  96  63 I30
stroke1  96  62 I30
stroke1  96  61 I30
stroke1  95  61 I30
stroke1  95  60 I30
stroke1  95  59 I30
stroke1  95  58 I30
stroke1  94  57 I30
stroke1  94  56 I30
stroke1  93  55 I30
stroke1  93  54 I30
stroke1  92  54 I30
stroke1  92  54 I30
stroke1  92  53 I30
stroke1  91  53 I30
stroke1  90  53 I30
stroke1  90  52 I30
stroke1  89  53 I30
stroke1  88  53 I30
stroke1  88  54 I30
stroke1  87  54 I30
stroke1  87  55 I30
stroke1  87  56 I30
stroke1  86  56 I30
stroke1  86  57 I30
stroke1  86  58 I30
stroke1  86  59 I30
stroke1  86  60 I30
stroke1  86  61 I30
stroke1  86  62 I30
stroke1  87  63 I30
stroke1  87  64 I30
stroke1  87  65 I30
stroke1  88  66 I30
stroke1  89  67 I30
stroke1  90  68 I30
stroke1  91  68 I30
stroke1  91  69 I30
stroke1  92  69 I30
stroke1  93  69 I30
stroke1  94  69 I30
stroke1  95  69 I30
stroke1  96  69 I30
stroke1  96  68 I30
stroke1  96  67 I30
stroke1  96  66 I30
stroke1  96  65 I30
stroke1  96  64 I30
stroke1  96  63 I30
stroke1  96  62 I30
stroke1  96  60 I30
stroke1  96  59 I30
stroke1  96  58 I30
stroke1  96  57 I30
stroke1  96  55 I30
stroke1  96  54 I30
stroke1  96  52 I30
stroke1  96  50 I30
stroke1  96  49 I30
stroke1  95  47 I30
stroke1  95  46 I30
stroke1  95  44 I30
stroke1  95  43 I30
stroke1  95  41 I30
stroke1  95  40 I30
stroke1  95  39 I30
stroke1  95  37 I30
stroke1  95  36 I30
stroke1  95  34 I30
stroke1  94  33 I30
stroke1  94  32 I30
stroke1  94  30 I30
stroke1  94  29 I30
stroke1  94  28 I30
stroke1  94  26 I30
stroke1  94  25 I30
stroke1  94  23 I30
stroke1  94  22 I30
stroke1  94  21 I30
stroke1  94  19 I30
stroke1  94  18 I30
stroke1  94  17 I30
stroke1  94  16 I30
stroke1  94  15 I30
stroke1  94  14 I30
stroke1  94  13 I30
stroke1  94  12 I30
stroke1  94  11 I30
stroke1  94  10 I30
stroke1  94  9 I30
stroke1  94  8 I30
stroke1  94  7 I30
stroke1  94  6 I30
stroke1  94  5 I30
stroke1  94  4 I30
stroke1  94  3 I30
stroke1  94  2 I30
stroke1  94  1 I30
stroke1  94  0 I30
stroke1  95  1 I30
stroke1  95  2 I30
stroke1  95  3 I30
stroke1  96  4 I30
stroke1  96  5 I30
stroke1  96  6 I30
stroke1  96  7 I30
stroke1  96  8 I30
stroke1  97  9 I30
stroke1  97  10 I30
stroke1  97  12 I30
stroke1  98  13 I30
stroke1  98  15 I30
stroke1  99  16 I30
stroke1  99  18 I30
stroke1  100  19 I30
stroke1  100  21 I30
stroke1  101  22 I30
stroke1  101  24 I30
stroke1  101  25 I30
stroke1  102  27 I30
stroke1  102  28 I30
stroke1  102  29 I30
stroke1  103  30 I30
stroke1  103  31 I30
stroke1  103  32 I30
stroke1  104  33 I30
stroke1  104  34 I30
stroke1  104  35 I30
stroke1  105  35 I30
stroke1  105  36 I30
stroke1  106  36 I30
stroke1  106  35 I30
stroke1  107  34 I30
stroke1  107  33 I30
stroke1  108  32 I30
stroke1  108  31 I30
stroke1  109  30 I30
stroke1  109  29 I30
stroke1  110  28 I30
stroke1  110  27 I30
stroke1  111  26 I30
stroke1  111  24 I30
stroke1  112  23 I30
stroke1  113  22 I30
stroke1  113  21 I30
stroke1  114  19 I30
stroke1  115  18 I30
stroke1  115  17 I30
stroke1  116  16 I30
stroke1  117  15 I30
stroke1  117  14 I30
stroke1  118  13 I30
stroke1  118  12 I30
stroke1  119  11 I30
stroke1  120  10 I30
stroke1  120  9 I30
stroke1  121  9 I30
stroke1  121  8 I30
stroke1  122  8 I30
stroke1  122  7 I30
stroke1  123  7 I30
stroke1  124  6 I30
stroke1  125  6 I30
stroke1  125  5 I30
stroke1  126  5 I30
stroke1  126  6 I30
stroke1  126  7 I30
stroke1  126  8 I30
stroke1  126  9 I30
stroke1  126  10 I30
stroke1  126  11 I30
stroke1  126  13 I30
stroke1  126  14 I30
stroke1  126  16 I30
stroke1  126  17 I30
stroke1  126  19 I30
stroke1  126  21 I30
stroke1  126  23 I30
stroke1  126  24 I30
stroke1  125  26 I30
stroke1  125  27 I30
stroke1  125  29 I30
stroke1  125  31 I30
stroke1  125  32 I30
stroke1  125  34 I30
stroke1  125  35 I30
stroke1  125  37 I30
stroke1  125  38 I30
stroke1  125  40 I30
stroke1  124  41 I30
stroke1  124  42 I30
stroke1  124  44 I30
stroke1  124  45 I30
stroke1  124  46 I30
stroke1  124  47 I30
stroke1  124  49 I30
stroke1  124  50 I30
stroke1  124  51 I30
stroke1  124  52 I30
stroke1  124  53 I30
stroke1  124  54 I30
stroke1  124  55 I30
stroke1  124  56 I30
stroke1  124  57 I30
stroke1  124  58 I30
stroke1  124  59 I30
stroke1  124  60 I30
stroke1  124  61 I30
stroke1  124  62 I30
stroke1  124  63 I30
stroke1  123  63 I30
stroke1  123  64 I30
stroke1  123  65 I30
stroke1  123  66 I30
stroke1  123  67 I30
stroke1  123  68 I30
stroke1  123  69 I30
stroke1  123  70 I30
stroke1  122  70 I30
stroke1  122  69 I30
stroke2  159  18 B35
stroke2  160  18 I35
stroke2  159  18 I35
stroke2  159  19 I35
stroke2  159  20 I35
stroke2  158  20 I35
stroke2  158  21 I35
stroke2  157  22 I35
stroke2  156  23 I35
stroke2  155  23 I35
stroke2  154  23 I35
stroke2  153  23 I35
stroke2  152  23 I35
stroke2  151  23 I35
stroke2  151  22 I35
stroke2  150  22 I35
stroke2  150  21 I35
stroke2  149  21 I35
stroke2  149  20 I35
stroke2  148  19 I35
stroke2  147  18 I35
stroke2  147  17 I35
stroke2  147  16 I35
stroke2  146  16 I35
stroke2  146  15 I35
stroke2  146  14 I35
stroke2  146  13 I35
stroke2  147  13 I35
stroke2  147  12 I35
stroke2  147  11 I35
stroke2  147  10 I35
stroke2  148  10 I35
stroke2  148  9 I35
stroke2  148  8 I35
stroke2  149  8 I35
stroke2  149  7 I35
stroke2  150  7 I35
stroke2  151  6 I35
stroke2  152  6 I35
stroke2  153  5 I35
stroke2  154  5 I35
stroke2  155  5 I35
stroke2  156  6 I35
stroke2  157  6 I35
stroke2  158  7 I35
stroke2  159  7 I35
stroke2  159  8 I35
stroke2  159  9 I35
stroke2  160  9 I35
stroke2  160  10 I35
stroke2  160  11 I35
stroke2  160  12 I35
stroke2  160  13 I35
stroke2  160  14 I35
stroke2  160  15 I35
stroke2  160  16 I35
stroke2  160  17 I35
stroke2  160  19 I35
stroke2  160  20 I35
stroke2  160  21 I35
stroke2  160  22 I35
stroke2  160  23 I35
stroke2  160  25 I35
stroke2  160  26 I35
stroke2  159  27 I35
stroke2  159  28 I35
stroke2  159  29 I35
stroke2  159  30 I35
stroke2  159  31 I35
stroke2  159  33 I35
stroke2  159  34 I35
stroke2  159  35 I35
stroke2  159  36 I35
stroke2  159  38 I35
stroke2  159  39 I35
stroke2  159  40 I35
stroke2  159  41 I35
stroke2  159  43 I35
stroke2  159  44 I35
stroke2  159  45 I35
stroke2  159  46 I35
stroke2  159  47 I35
stroke2  159  48 I35
stroke2  159  49 I35
stroke2  159  50 I35
stroke2  159  51 I35
stroke2  159  52 I35
stroke2  159  53 I35
stroke2  158  53 I35
stroke2  158  54 I35
stroke2  158  55 I35
stroke2  158  56 I35
stroke2  157  57 I35
stroke2  156  57 I35
stroke2  155  58 I35
stroke2  154  58 I35
stroke2  153  58 I35
stroke2  152  58 I35
stroke2  151  58 I35
stroke2  150  58 I35
stroke2  149  58 I35
stroke2  148  58 I35
stroke2  147  58 I35
stroke2  146  58 I35
stroke2  145  58 I35
stroke2  144  58 I35
stroke2  143  58 I35
stroke2  142  58 I35
stroke2  141  58 I35
stroke2  141  57 I35
stroke2  140  57 I35
stroke2  139  57 I35
stroke2  138  57 I35
stroke2  137  57 I35
stroke2  137  58 I35
stroke2  137  59 I35
stroke2  138  60 I35
stroke2  138  61 I35
stroke2  139  62 I35
stroke2  140  63 I35
stroke2  140  64 I35
stroke2  141  65 I35
stroke2  142  65 I35
stroke2  142  66 I35
stroke2  143  67 I35
stroke2  144  67 I35
stroke2  145  68 I35
stroke2  146  68 I35
stroke2  147  68 I35
stroke2  148  68 I35
stroke2  149  67 I35
stroke2  150  67 I35
stroke2  151  67 I35
stroke2  152  67 I35
stroke2  153  67 I35
stroke2  154  66 I35
stroke2  155  66 I35
stroke2  156  66 I35
stroke2  157  66 I35
stroke2  158  66 I35
stroke2  159  67 I35
stroke2  160  67 I35
stroke2  161  67 I35
stroke2  161  68 I35
stroke2  162  68 I35
stroke2  162  69 I35
stroke2  163  69 I35
stroke2  163  70 I35
stroke2  164  70 I35
stroke2  164  71 I35
stroke3  179  64 B46
stroke3  180  64 I46
stroke3  180  65 I46
stroke3  180  64 I46
stroke3  179  64 I46
stroke3  178  64 I46
stroke3  178  63 I46
stroke3  177  63 I46
stroke3  177  62 I46
stroke3  177  61 I46
stroke3  176  60 I46
stroke3  176  59 I46
stroke3  176  58 I46
stroke3  176  57 I46
stroke3  176  56 I46
stroke3  177  55 I46
stroke3  177  54 I46
stroke3  177  53 I46
stroke3  178  53 I46
stroke3  179  53 I46
stroke3  180  53 I46
stroke3  181  53 I46
stroke3  182  54 I46
stroke3  183  54 I46
stroke3  183  55 I46
stroke3  184  55 I46
stroke3  184  56 I46
stroke3  185  56 I46
stroke3  185  57 I46
stroke3  186  58 I46
stroke3  186  59 I46
stroke3  186  60 I46
stroke3  186  61 I46
stroke3  185  62 I46
stroke3  185  63 I46
stroke3  184  63 I46
stroke3  183  64 I46
stroke3  182  63 I46
stroke3  181  63 I46
stroke3  180  63 I46
stroke3  180  62 I46
stroke3  179  62 I46
stroke3  178  61 I46
stroke3  177  60 I46
stroke3  177  59 I46
stroke3  176  59 I46
stroke3  177  58 I46
stroke3  177  57 I46
stroke3  177  56 I46
stroke3  177  55 I46
stroke3  178  55 I46
stroke3  178  54 I46
stroke3  178  53 I46
stroke3  179  53 I46
stroke3  179  52 I46
stroke3  180  51 I46
stroke3  181  51 I46
stroke3  182  51 I46
stroke3  183  51 I46
stroke3  184  51 I46
stroke3  185  51 I46
stroke3  186  52 I46
stroke3  187  52 I46
stroke3  188  53 I46
stroke3  189  53 I46
stroke3  190  53 I46
stroke3  190  54 I46
stroke3  191  55 I46
stroke3  192  55 I46
stroke3  193  56 I46
stroke3  194  57 I46
stroke3  195  58 I46
stroke3  196  59 I46
stroke3  197  60 I46
stroke3  197  61 I46
stroke3  198  62 I46
stroke3  199  63 I46
stroke3  200  64 I46
stroke3  200  65 I46
stroke3  201  66 I46
stroke3  201  67 I46
stroke3  202  68 I46
stroke3  202  69 I46
stroke3  202  70 I46
stroke3  201  70 I46
stroke3  201  69 I46
stroke3  200  69 I46
stroke3  200  68 I46
stroke3  185  22 I46
stroke3  184  21 I46
stroke3  184  20 I46
stroke3  184  19 I46
stroke3  185  19 I46
stroke3  186  19 I46
stroke3  187  19 I46
stroke3  187  20 I46
stroke3  188  20 I46
stroke3  189  20 I46
stroke3  189  21 I46
stroke3  190  21 I46
stroke3  190  22 I46
stroke3  191  23 I46
stroke3  191  24 I46
stroke3  191  25 I46
stroke3  190  25 I46
stroke3  190  26 I46
stroke3  190  27 I46
stroke3  189  28 I46
stroke3  188  28 I46
stroke3  188  29 I46
stroke3  187  29 I46
stroke3  186  29 I46
stroke3  185  28 I46
stroke3  184  28 I46
stroke3  183  28 I46
stroke3  183  27 I46
stroke3  182  27 I46
stroke3  182  26 I46
stroke3  181  26 I46
stroke3  181  25 I46
stroke3  180  25 I46
stroke3  180  24 I46
stroke3  180  23 I46
stroke3  180  22 I46
stroke3  180  21 I46
stroke3  180  20 I46
stroke3  181  20 I46
stroke3  181  19 I46
stroke3  182  19 I46
stroke3  183  18 I46
stroke3  184  18 I46
stroke3  185  18 I46
stroke3  186  18 I46
stroke3  187  18 I46
stroke3  188  18 I46
stroke3  189  18 I46
stroke3  190  19 I46
stroke3  191  19 I46
stroke3  192  20 I46
stroke3  193  20 I46
stroke3  194  21 I46
stroke3  195  22 I46
stroke3  196  23 I46
stroke3  197  24 I46
stroke3  198  24 I46
stroke3  198  25 I46
stroke3  199  26 I46
stroke3  199  27 I46
stroke3  200  27 I46
stroke3  200  28 I46
stroke3  200  29 I46
stroke3  201  30 I46
stroke3  201  31 I46
stroke3  201  32 I46
stroke3  202  32 I46
stroke3  202  33 I46
stroke3  202  34 I46
stroke3  202  35 I46
stroke3  201  35 I46
stroke3  201  34 I46
stroke4  219  10 B40
stroke4  218  10 I40
stroke4  218  11 I40
stroke4  219  11 I40
stroke4  219  12 I40
stroke4  219  13 I40
stroke4  220  14 I40
stroke4  220  15 I40
stroke4  221  15 I40
stroke4  222  16 I40
stroke4  223  16 I40
stroke4  223  15 I40
stroke4  224  15 I40
stroke4  225  15 I40
stroke4  226  14 I40
stroke4  227  13 I40
stroke4  228  12 I40
stroke4  229  11 I40
stroke4  229  10 I40
stroke4  229  9 I40
stroke4  229  8 I40
stroke4  229  7 I40
stroke4  229  6 I40
stroke4  228  6 I40
stroke4  228  5 I40
stroke4  227  5 I40
stroke4  227  4 I40
stroke4  226  4 I40
stroke4  225  4 I40
stroke4  224  4 I40
stroke4  224  5 I40
stroke4  223  5 I40
stroke4  223  6 I40
stroke4  222  6 I40
stroke4  222  7 I40
stroke4  221  8 I40
stroke4  221  9 I40
stroke4  221  10 I40
stroke4  220  11 I40
stroke4  220  12 I40
stroke4  220  13 I40
stroke4  220  14 I40
stroke4  220  15 I40
stroke4  220  16 I40
stroke4  220  17 I40
stroke4  220  18 I40
stroke4  221  19 I40
stroke4  221  20 I40
stroke4  221  21 I40
stroke4  221  22 I40
stroke4  222  23 I40
stroke4  222  24 I40
stroke4  222  25 I40
stroke4  222  26 I40
stroke4  222  27 I40
stroke4  223  28 I40
stroke4  223  29 I40
stroke4  223  30 I40
stroke4  223  31 I40
stroke4  224  32 I40
stroke4  224  33 I40
stroke4  224  35 I40
stroke4  225  36 I40
stroke4  225  37 I40
stroke4  225  38 I40
stroke4  225  39 I40
stroke4  226  40 I40
stroke4  226  41 I40
stroke4  226  42 I40
stroke4  227  43 I40
stroke4  227  44 I40
stroke4  227  45 I40
stroke4  227  46 I40
stroke4  228  46 I40
stroke4  228  47 I40
stroke4  228  48 I40
stroke4  229  49 I40
stroke4  229  50 I40
stroke4  230  50 I40
stroke4  230  51 I40
stroke4  231  50 I40
stroke4  231  49 I40
stroke4  232  49 I40
stroke4  232  48 I40
stroke4  232  47 I40
stroke4  233  46 I40
stroke4  234  45 I40
stroke4  234  44 I40
stroke4  234  43 I40
stroke4  235  42 I40
stroke4  235  41 I40
stroke4  236  40 I40
stroke4  236  38 I40
stroke4  237  37 I40
stroke4  237  36 I40
stroke4  238  34 I40
stroke4  238  33 I40
stroke4  239  32 I40
stroke4  239  31 I40
stroke4  240  30 I40
stroke4  240  29 I40
stroke4  241  28 I40
stroke4  241  26 I40
stroke4  242  25 I40
stroke4  242  24 I40
stroke4  243  23 I40
stroke4  243  22 I40
stroke4  244  21 I40
stroke4  244  20 I40
stroke4  244  19 I40
stroke4  245  18 I40
stroke4  245  17 I40
stroke4  245  16 I40
stroke4  245  15 I40
stroke4  246  15 I40
stroke4  246  14 I40
stroke4  246  13 I40
stroke4  247  13 I40
stroke4  247  12 I40
stroke4  247  11 I40
stroke4  247  10 I40
stroke4  248  10 I40
stroke4  248  9 I40
stroke4  248  8 I40
stroke4  248  7 I40
stroke4  249  7 I40
stroke4  249  6 I40
stroke4  249  7 I40
stroke4  249  8 I40
stroke4  249  9 I40
stroke4  249  10 I40
stroke4  249  11 I40
stroke4  249  12 I40
stroke4  249  13 I40
stroke4  249  15 I40
stroke4  249  16 I40
stroke4  249  18 I40
stroke4  249  19 I40
stroke4  249  21 I40
stroke4  249  22 I40
stroke4  249  24 I40
stroke4  249  25 I40
stroke4  249  26 I40
stroke4  249  28 I40
stroke4  249  29 I40
stroke4  249  30 I40
stroke4  248  32 I40
stroke4  248  33 I40
stroke4  248  34 I40
stroke4  248  36 I40
stroke4  248  37 I40
stroke4  248  38 I40
stroke4  248  39 I40
stroke4  247  40 I40
stroke4  247  41 I40
stroke4  247  42 I40
stroke4  247  44 I40
stroke4  247  45 I40
stroke4  247  46 I40
stroke4  247  47 I40
stroke4  247  48 I40
stroke4  247  49 I40
stroke4  247  50 I40
stroke4  247  51 I40
stroke4  246  52 I40
stroke4  246  53 I40
stroke4  246  54 I40
stroke4  246  55 I40
stroke4  245  56 I40
stroke4  245  57 I40
stroke4  245  58 I40
stroke4  245  59 I40
stroke4  244  59 I40
stroke4  244  60 I40
stroke4  244  61 I40
stroke4  243  62 I40
stroke4  243  63 I40
stroke4  243  64 I40
stroke4  242  65 I40
stroke4  242  66 I40
stroke4  241  66 I40
stroke4  241  67 I40
stroke4  240  67 I40
stroke4  240  68 I40
stroke4  239  68 I40
stroke4  239  69 I40
stroke4  238  70 I40
stroke4  237  70 I40
stroke4  236  71 I40
stroke4  235  71 I40
stroke4  234  71 I40
stroke4  233  71 I40
stroke4  232  71 I40
stroke4  231  71 I40
stroke4  230  70 I40
stroke4  229  70 I40
stroke4  228  70 I40
stroke4  227  70 I40
stroke4  226  69 I40
stroke4  225  69 I40
stroke4  224  68 I40
stroke4  223  68 I40
stroke4  222  67 I40
stroke4  221  67 I40
stroke4  220  66 I40
stroke4  219  65 I40
stroke4  218  64 I40
stroke4  217  63 I40
stroke4  217  62 I40
stroke4  216  62 I40
stroke4  215  61 I40
stroke4  215  60 I40
stroke4  214  59 I40
stroke4  214  58 I40
stroke4  213  57 I40
stroke4  213  56 I40
stroke4  212  56 I40
stroke4  212  55 I40
stroke4  212  54 I40
stroke4  213  54 I40
stroke4  214  55 I40
stroke4  237  66 I40
stroke4  238  66 I40
stroke4  238  67 I40
stroke4  239  67 I40
stroke4  240  67 I40
stroke4  240  68 I40
stroke4  241  68 I40
stroke4  242  69 I40
stroke4  243  70 I40
stroke4  244  70 I40
stroke4  245  71 I40
stroke4  246  72 I40
stroke4  247  73 I40
stroke4  247  74 I40
stroke4  248  75 I40
stroke4  249  77 I40
stroke4  250  78 I40
stroke4  251  79 I40
stroke4  251  81 I40
stroke4  252  82 I40
stroke4  252  83 I40
stroke4  253  85 I40
stroke4  253  86 I40
stroke4  253  87 I40
stroke4  254  88 I40
stroke4  254  89 I40
stroke4  254  90 I40
stroke4  253  90 I40
stroke4  253  91 I40
stroke4  253  90 I40
stroke4  252  89 I40
stroke5  279  70 B7
stroke5  280  70 I7
stroke5  281  70 I7
stroke5  281  71 I7
stroke5  282  71 I7
stroke5  282  70 I7
stroke5  282  69 I7
stroke5  282  68 I7
stroke5  282  67 I7
stroke5  282  66 I7
stroke5  282  65 I7
stroke5  282  64 I7
stroke5  281  63 I7
stroke5  281  62 I7
stroke5  281  61 I7
stroke5  280  60 I7
stroke5  280  59 I7
stroke5  279  59 I7
stroke5  279  58 I7
stroke5  278  58 I7
stroke5  278  57 I7
stroke5  277  57 I7
stroke5  276  56 I7
stroke5  275  56 I7
stroke5  274  56 I7
stroke5  274  57 I7
stroke5  273  57 I7
stroke5  273  58 I7
stroke5  273  59 I7
stroke5  273  60 I7
stroke5  273  61 I7
stroke5  273  62 I7
stroke5  273  63 I7
stroke5  273  64 I7
stroke5  274  64 I7
stroke5  274  65 I7
stroke5  274  66 I7
stroke5  274  67 I7
stroke5  275  67 I7
stroke5  275  68 I7
stroke5  276  69 I7
stroke5  277  70 I7
stroke5  278  70 I7
stroke5  278  71 I7
stroke5  279  71 I7
stroke5  280  72 I7
stroke5  280  71 I7
stroke5  281  71 I7
stroke5  282  71 I7
stroke5  282  70 I7
stroke5  283  70 I7
stroke5  283  69 I7
stroke5  284  69 I7
stroke5  284  68 I7
stroke5  284  67 I7
stroke5  284  66 I7
stroke5  284  65 I7
stroke5  284  64 I7
stroke5  284  63 I7
stroke5  284  62 I7
stroke5  284  61 I7
stroke5  284  60 I7
stroke5  284  59 I7
stroke5  284  58 I7
stroke5  284  57 I7
stroke5  284  56 I7
stroke5  284  55 I7
stroke5  284  53 I7
stroke5  284  52 I7
stroke5  284  51 I7
stroke5  284  50 I7
stroke5  284  49 I7
stroke5  284  48 I7
stroke5  283  46 I7
stroke5  283  45 I7
stroke5  283  44 I7
stroke5  283  43 I7
stroke5  283  42 I7
stroke5  283  41 I7
stroke5  283  39 I7
stroke5  283  38 I7
stroke5  283  37 I7
stroke5  283  36 I7
stroke5  283  35 I7
stroke5  283  34 I7
stroke5  283  33 I7
stroke5  283  32 I7
stroke5  283  31 I7
stroke5  283  30 I7
stroke5  283  29 I7
stroke5  283  28 I7
stroke5  283  27 I7
stroke5  283  26 I7
stroke5  283  25 I7
stroke5  283  24 I7
stroke5  283  23 I7
stroke5  283  22 I7
stroke5  283  21 I7
stroke5  283  20 I7
stroke5  283  19 I7
stroke5  283  18 I7
stroke5  283  17 I7
stroke5  283  16 I7
stroke5  283  15 I7
stroke5  282  15 I7
stroke5  282  14 I7
stroke5  282  13 I7
stroke5  282  12 I7
stroke5  282  11 I7
stroke5  282  10 I7
stroke5  282  9 I7
stroke5  282  8 I7
stroke5  282  7 I7
stroke5  282  6 I7
stroke5  282  5 I7
stroke5  282  4 I7
stroke5  282  3 I7
stroke5  282  2 I7
stroke5  282  3 I7
stroke5  281  4 I7
stroke5  281  5 I7
stroke5  281  6 I7
stroke5  280  7 I7
stroke5  280  8 I7
stroke5  279  9 I7
stroke5  279  10 I7
stroke5  279  11 I7
stroke5  278  12 I7
stroke5  277  14 I7
stroke5  277  15 I7
stroke5  276  16 I7
stroke5  275  17 I7
stroke5  274  18 I7
stroke5  274  19 I7
stroke5  273  20 I7
stroke5  272  21 I7
stroke5  272  22 I7
stroke5  271  23 I7
stroke5  271  24 I7
stroke5  270  25 I7
stroke5  269  26 I7
stroke5  269  27 I7
stroke5  268  27 I7
stroke5  268  28 I7
stroke5  269  27 I7
stroke5  268  27 I7
stroke6  300  55 B6
stroke6  300  56 I6
stroke6  300  57 I6
stroke6  301  57 I6
stroke6  301  58 I6
stroke6  302  58 I6
stroke6  303  58 I6
stroke6  303  57 I6
stroke6  304  57 I6
stroke6  304  56 I6
stroke6  305  56 I6
stroke6  305  55 I6
stroke6  306  54 I6
stroke6  306  53 I6
stroke6  306  52 I6
stroke6  306  51 I6
stroke6  306  50 I6
stroke6  306  49 I6
stroke6  305  50 I6
stroke6  305  49 I6
stroke6  304  49 I6
stroke6  304  50 I6
stroke6  303  50 I6
stroke6  302  50 I6
stroke6  302  51 I6
stroke6  301  52 I6
stroke6  301  53 I6
stroke6  300  54 I6
stroke6  300  55 I6
stroke6  300  56 I6
stroke6  300  57 I6
stroke6  300  58 I6
stroke6  300  59 I6
stroke6  300  60 I6
stroke6  300  61 I6
stroke6  300  62 I6
stroke6  300  63 I6
stroke6  300  64 I6
stroke6  301  64 I6
stroke6  301  65 I6
stroke6  301  66 I6
stroke6  302  67 I6
stroke6  302  68 I6
stroke6  303  68 I6
stroke6  304  68 I6
stroke6  304  67 I6
stroke6  305  67 I6
stroke6  305  66 I6
stroke6  306  65 I6
stroke6  306  64 I6
stroke6  307  64 I6
stroke6  307  63 I6
stroke6  307  62 I6
stroke6  308  62 I6
stroke6  308  63 I6
stroke6  309  63 I6
stroke6  309  64 I6
stroke6  310  65 I6
stroke6  310  66 I6
stroke6  311  66 I6
stroke6  311  67 I6
stroke6  312  67 I6
stroke6  312  68 I6
stroke6  313  69 I6
stroke6  313  70 I6
stroke6  314  70 I6
stroke6  315  71 I6
stroke6  316  71 I6
stroke6  316  72 I6
stroke6  317  72 I6
stroke6  317  71 I6
stroke6  318  71 I6
stroke6  318  70 I6
stroke6  319  70 I6
stroke6  319  69 I6
stroke6  319  68 I6
stroke6  319  67 I6
stroke6  319  66 I6
stroke6  319  65 I6
stroke6  319  64 I6
stroke6  319  63 I6
stroke6  319  62 I6
stroke6  319  61 I6
stroke6  319  59 I6
stroke6  319  58 I6
stroke6  319  57 I6
stroke6  319  55 I6
stroke6  319  54 I6
stroke6  319  53 I6
stroke6  319  51 I6
stroke6  319  50 I6
stroke6  318  49 I6
stroke6  318  48 I6
stroke6  318  47 I6
stroke6  318  46 I6
stroke6  318  45 I6
stroke6  318  44 I6
stroke6  318  42 I6
stroke6  318  41 I6
stroke6  318  40 I6
stroke6  318  39 I6
stroke6  318  38 I6
stroke6  318  37 I6
stroke6  318  36 I6
stroke6  318  35 I6
stroke6  318  34 I6
stroke6  318  33 I6
stroke6  318  32 I6
stroke6  318  31 I6
stroke6  318  30 I6
stroke6  318  29 I6
stroke6  317  28 I6
stroke6  317  27 I6
stroke6  317  26 I6
stroke6  317  25 I6
stroke6  317  24 I6
stroke6  317  23 I6
stroke6  317  22 I6
stroke6  317  21 I6
stroke6  317  20 I6
stroke6  317  19 I6
stroke6  317  18 I6
stroke6  317  17 I6
stroke6  317  16 I6
stroke6  317  15 I6
stroke6  317  14 I6
stroke6  317  13 I6
stroke6  317  12 I6
stroke6  317  11 I6
stroke6  317  10 I6
stroke6  317  9 I6
stroke6  317  8 I6
stroke6  317  7 I6
stroke6  316  7 I6
stroke6  315  7 I6
stroke6  314  7 I6
stroke6  313  8 I6
stroke6  312  8 I6
stroke6  312  9 I6
stroke6  311  9 I6
stroke6  311  10 I6
stroke6  310  10 I6
stroke6  310  11 I6
stroke6  309  12 I6
stroke6  309  13 I6
stroke6  308  14 I6
stroke6  308  15 I6
stroke6  308  16 I6
stroke6  308  17 I6
stroke6  308  18 I6
stroke6  307  19 I6
stroke6  308  20 I6
stroke6  308  21 I6
stroke6  308  22 I6
stroke6  309  23 I6
stroke6  309  24 I6
stroke6  309  25 I6
stroke6  310  25 I6
stroke6  310  26 I6
stroke6  311  27 I6
stroke6  312  28 I6
stroke6  313  29 I6
stroke6  314  29 I6
stroke6  315  29 I6
stroke6  315  30 I6
stroke6  316  30 I6
stroke6  317  30 I6
stroke6  318  30 I6
stroke6  319  30 I6
stroke6  320  30 I6
stroke6  320  29 I6
stroke6  321  29 I6
stroke6  322  28 I6
stroke6  323  28 I6
stroke6  323  27 I6
stroke6  324  27 I6
stroke6  324  26 I6
stroke6  325  26 I6
stroke6  325  25 I6
stroke6  326  24 I6
stroke6  327  23 I6
stroke6  328  22 I6
stroke6  328  21 I6
stroke6  329  21 I6
stroke6  329  20 I6
stroke6  330  19 I6
stroke6  331  19 I6
stroke6  331  18 I6
stroke6  332  18 I6
stroke6  332  17 I6
stroke6  333  16 I6
stroke6  333  15 I6
stroke6  334  15 I6
stroke6  334  14 I6
stroke6  335  14 I6
stroke6  335  13 I6
stroke6  336  12 I6
stroke6  337  11 I6
stroke6  337  10 I6
stroke6  338  9 I6
stroke6  338  8 I6
stroke6  338  9 I6
stroke6  338  10 I6
stroke6  338  11 I6
stroke6  338  12 I6
stroke6  338  13 I6
stroke6  338  14 I6
stroke6  338  15 I6
stroke6  338  16 I6
stroke6  338  17 I6
stroke6  338  18 I6
stroke6  337  19 I6
stroke6  337  21 I6
stroke6  337  22 I6
stroke6  337  23 I6
stroke6  337  24 I6
stroke6  337  26 I6
stroke6  337  27 I6
stroke6  337  28 I6
stroke6  337  29 I6
stroke6  337  31 I6
stroke6  336  32 I6
stroke6  337  33 I6
stroke6  336  34 I6
stroke6  336  35 I6
stroke6  336  37 I6
stroke6  336  38 I6
stroke6  336  39 I6
stroke6  336  40 I6
stroke6  336  42 I6
stroke6  336  43 I6
stroke6  336  44 I6
stroke6  336  46 I6
stroke6  336  47 I6
stroke6  336  48 I6
stroke6  336  49 I6
stroke6  336  51 I6
stroke6  336  52 I6
stroke6  336  53 I6
stroke6  336  54 I6
stroke6  336  55 I6
stroke6  336  56 I6
stroke6  336  57 I6
stroke6  336  58 I6
stroke6  336  59 I6
stroke6  336  60 I6
stroke6  335  61 I6
stroke6  335  62 I6
stroke6  335  63 I6
stroke6  335  64 I6
stroke6  335  65 I6
stroke6  335  66 I6
stroke6  334  67 I6
stroke6  334  68 I6
stroke6  334  69 I6
stroke6  334  70 I6
stroke6  333  70 I6
stroke6  333  71 I6
stroke6  333  72 I6
stroke6  333  71 I6
stroke6  332  71 I6
stroke7  318  97 B64
stroke7  317  97 I64
stroke7  318  97 I64
stroke7  318  98 I64
stroke7  319  98 I64
stroke7  320  98 I64
stroke7  321  98 I64
stroke7  322  98 I64
stroke7  323  98 I64
stroke7  323  97 I64
stroke7  324  97 I64
stroke7  325  96 I64
stroke7  326  96 I64
stroke7  326  95 I64
stroke7  327  95 I64
stroke7  327  94 I64
stroke7  327  93 I64
stroke7  327  92 I64
stroke7  327  91 I64
stroke7  327  90 I64
stroke7  326  90 I64
stroke7  326  89 I64
stroke7  325  89 I64
stroke7  325  88 I64
stroke7  324  88 I64
stroke7  323  88 I64
stroke7  322  88 I64
stroke7  321  88 I64
stroke7  320  88 I64
stroke7  319  89 I64
stroke7  318  89 I64
stroke7  318  90 I64
stroke7  317  90 I64
stroke7  317  91 I64
stroke7  316  91 I64
stroke7  316  92 I64
stroke7  316  93 I64
stroke7  316  94 I64
stroke7  317  94 I64
stroke7  317  95 I64
stroke7  317  96 I64
stroke7  317  97 I64
stroke7  318  97 I64
stroke7  318  98 I64
stroke7  318  99 I64
stroke7  319  100 I64
stroke7  320  101 I64
stroke7  320  102 I64
stroke7  321  103 I64
stroke7  322  103 I64
stroke7  322  104 I64
stroke7  323  105 I64
stroke7  324  105 I64
stroke7  325  106 I64
stroke7  326  107 I64
stroke7  326  108 I64
stroke7  327  108 I64
stroke7  328  109 I64
stroke7  329  110 I64
stroke7  330  110 I64
stroke7  330  111 I64
stroke7  331  111 I64
stroke7  332  112 I64
stroke7  332  113 I64
stroke7  333  113 I64
stroke7  333  114 I64
stroke7  334  115 I64
stroke7  335  116 I64
stroke7  336  117 I64
stroke7  336  118 I64
stroke7  336  117 I64
stroke7  335  117 I64
