stroke1  107  9 B54
stroke1  107  10 I54
stroke1  107  11 I54
stroke1  108  12 I54
stroke1  108  13 I54
stroke1  109  13 I54
stroke1  109  14 I54
stroke1  110  15 I54
stroke1  110  16 I54
stroke1  111  16 I54
stroke1  111  17 I54
stroke1  112  17 I54
stroke1  113  17 I54
stroke1  114  17 I54
stroke1  115  16 I54
stroke1  116  15 I54
stroke1  117  15 I54
stroke1  117  14 I54
stroke1  117  13 I54
stroke1  117  13 I54
stroke1  118  13 I54
stroke1  118  12 I54
stroke1  118  11 I54
stroke1  118  10 I54
stroke1  118  9 I54
stroke1  118  8 I54
stroke1  118  7 I54
stroke1  117  6 I54
stroke1  116  5 I54
stroke1  116  4 I54
stroke1  115  4 I54
stroke1  114  4 I54
stroke1  114  3 I54
stroke1  113  3 I54
stroke1  112  3 I54
stroke1  111  3 I54
stroke1  110  3 I54
stroke1  109  4 I54
stroke1  109  5 I54
stroke1  109  6 I54
stroke1  109  7 I54
stroke1  109  8 I54
stroke1  108  9 I54
stroke1  109  10 I54
stroke1  109  11 I54
stroke1  109  12 I54
stroke1  109  13 I54
stroke1  109  14 I54
stroke1  109  15 I54
stroke1  109  16 I54
stroke1  109  17 I54
stroke1  109  18 I54
stroke1  109  19 I54
stroke1  109  21 I54
stroke1  109  22 I54
stroke1  109  23 I54
stroke1  109  24 I54
stroke1  109  25 I54
stroke1  109  26 I54
stroke1  109  27 I54
stroke1  109  28 I54
stroke1  109  29 I54
stroke1  109  30 I54
stroke1  109  32 I54
stroke1  109  33 I54
stroke1  109  34 I54
stroke1  109  35 I54
stroke1  109  37 I54
stroke1  109  38 I54
stroke1  109  39 I54
stroke1  109  41 I54
stroke1  109  42 I54
stroke1  109  43 I54
stroke1  109  44 I54
stroke1  109  45 I54
stroke1  109  47 I54
stroke1  109  48 I54
stroke1  109  49 I54
stroke1  109  50 I54
stroke1  109  51 I54
stroke1  109  52 I54
stroke1  109  53 I54
stroke1  108  54 I54
stroke1  108  55 I54
stroke1  108  56 I54
stroke1  108  57 I54
stroke1  108  58 I54
stroke1  108  59 I54
stroke1  108  60 I54
stroke1  108  61 I54
stroke1  108  62 I54
stroke1  108  63 I54
stroke1  108  64 I54
stroke1  108  65 I54
stroke1  108  66 I54
stroke1  108  65 I54
stroke1  107  65 I54
stroke2  139  10 B36
stroke2  140  10 I36
stroke2  139  10 I36
stroke2  139  11 I36
stroke2  139  12 I36
stroke2  140  12 I36
stroke2  140  13 I36
stroke2  140  14 I36
stroke2  140  15 I36
stroke2  141  16 I36
stroke2  141  17 I36
stroke2  142  17 I36
stroke2  142  18 I36
stroke2  143  18 I36
stroke2  144  18 I36
stroke2  145  18 I36
stroke2  146  17 I36
stroke2  147  17 I36
stroke2  147  16 I36
stroke2  148  16 I36
stroke2  148  15 I36
stroke2  149  14 I36
stroke2  149  13 I36
stroke2  150  13 I36
stroke2  150  12 I36
stroke2  151  12 I36
stroke2  151  11 I36
stroke2  151  10 I36
stroke2  152  9 I36
stroke2  151  9 I36
stroke2  152  9 I36
stroke2  151  8 I36
stroke2  151  7 I36
stroke2  151  6 I36
stroke2  151  5 I36
stroke2  150  5 I36
stroke2  150  4 I36
stroke2  149  4 I36
stroke2  148  4 I36
stroke2  147  4 I36
stroke2  146  4 I36
stroke2  146  5 I36
stroke2  145  5 I36
stroke2  145  6 I36
stroke2  144  6 I36
stroke2  144  7 I36
stroke2  143  7 I36
stroke2  143  8 I36
stroke2  142  9 I36
stroke2  142  10 I36
stroke2  142  11 I36
stroke2  141  12 I36
stroke2  141  13 I36
stroke2  141  14 I36
stroke2  141  15 I36
stroke2  140  16 I36
stroke2  140  17 I36
stroke2  140  18 I36
stroke2  140  19 I36
stroke2  140  20 I36
stroke2  140  21 I36
stroke2  140  22 I36
stroke2  140  23 I36
stroke2  140  24 I36
stroke2  140  25 I36
stroke2  140  27 I36
stroke2  140  28 I36
stroke2  140  29 I36
stroke2  140  30 I36
stroke2  140  32 I36
stroke2  140  33 I36
stroke2  140  34 I36
stroke2  141  35 I36
stroke2  141  37 I36
stroke2  141  38 I36
stroke2  141  39 I36
stroke2  141  40 I36
stroke2  142  42 I36
stroke2  142  43 I36
stroke2  142  44 I36
stroke2  142  45 I36
stroke2  143  46 I36
stroke2  143  47 I36
stroke2  143  48 I36
stroke2  143  49 I36
stroke2  144  49 I36
stroke2  144  50 I36
stroke2  144  51 I36
stroke2  145  51 I36
stroke2  146  50 I36
stroke2  146  49 I36
stroke2  147  49 I36
stroke2  148  48 I36
stroke2  148  47 I36
stroke2  149  46 I36
stroke2  149  45 I36
stroke2  150  44 I36
stroke2  151  43 I36
stroke2  151  42 I36
stroke2  152  41 I36
stroke2  153  40 I36
stroke2  154  39 I36
stroke2  155  38 I36
stroke2  155  37 I36
stroke2  156  36 I36
stroke2  157  35 I36
stroke2  157  34 I36
stroke2  158  32 I36
stroke2  159  31 I36
stroke2  159  30 I36
stroke2  160  29 I36
stroke2  160  27 I36
stroke2  161  26 I36
stroke2  162  25 I36
stroke2  162  24 I36
stroke2  163  22 I36
stroke2  163  21 I36
stroke2  164  20 I36
stroke2  164  19 I36
stroke2  165  18 I36
stroke2  165  17 I36
stroke2  166  16 I36
stroke2  166  15 I36
stroke2  167  14 I36
stroke2  167  13 I36
stroke2  168  12 I36
stroke2  168  11 I36
stroke2  168  10 I36
stroke2  169  10 I36
stroke2  169  9 I36
stroke2  169  8 I36
stroke2  170  7 I36
stroke2  170  6 I36
stroke2  170  5 I36
stroke2  171  6 I36
stroke2  171  7 I36
stroke2  171  8 I36
stroke2  171  9 I36
stroke2  171  10 I36
stroke2  171  11 I36
stroke2  171  12 I36
stroke2  171  14 I36
stroke2  170  15 I36
stroke2  170  16 I36
stroke2  170  18 I36
stroke2  170  19 I36
stroke2  170  21 I36
stroke2  170  23 I36
stroke2  170  24 I36
stroke2  170  26 I36
stroke2  170  28 I36
stroke2  170  29 I36
stroke2  170  31 I36
stroke2  169  33 I36
stroke2  169  34 I36
stroke2  169  36 I36
stroke2  169  37 I36
stroke2  169  39 I36
stroke2  169  40 I36
stroke2  168  42 I36
stroke2  168  43 I36
stroke2  168  45 I36
stroke2  168  46 I36
stroke2  168  48 I36
stroke2  167  49 I36
stroke2  167  50 I36
stroke2  167  52 I36
stroke2  167  53 I36
stroke2  167  54 I36
stroke2  166  55 I36
stroke2  166  56 I36
stroke2  166  57 I36
stroke2  165  58 I36
stroke2  165  59 I36
stroke2  164  60 I36
stroke2  164  61 I36
stroke2  163  61 I36
stroke2  162  62 I36
stroke2  161  63 I36
stroke2  160  63 I36
stroke2  160  64 I36
stroke2  159  64 I36
stroke2  158  64 I36
stroke2  157  64 I36
stroke2  156  64 I36
stroke2  155  65 I36
stroke2  154  65 I36
stroke2  153  64 I36
stroke2  152  64 I36
stroke2  151  64 I36
stroke2  150  64 I36
stroke2  149  64 I36
stroke2  148  63 I36
stroke2  147  63 I36
stroke2  146  63 I36
stroke2  145  62 I36
stroke2  144  62 I36
stroke2  143  62 I36
stroke2  142  61 I36
stroke2  141  61 I36
stroke2  140  60 I36
stroke2  139  60 I36
stroke2  138  59 I36
stroke2  137  58 I36
stroke2  136  58 I36
stroke2  136  57 I36
stroke2  135  57 I36
stroke2  134  56 I36
stroke2  133  56 I36
stroke2  132  56 I36
stroke2  132  55 I36
stroke2  131  55 I36
stroke2  132  55 I36
stroke2  133  55 I36
stroke3  165  85 B51
stroke3  164  85 I51
stroke3  163  86 I51
stroke3  162  86 I51
stroke3  161  86 I51
stroke3  160  87 I51
stroke3  159  87 I51
stroke3  158  88 I51
stroke3  157  88 I51
stroke3  156  88 I51
stroke3  154  89 I51
stroke3  153  89 I51
stroke3  151  89 I51
stroke3  149  90 I51
stroke3  148  90 I51
stroke3  146  90 I51
stroke3  144  90 I51
stroke3  143  90 I51
stroke3  141  90 I51
stroke3  140  90 I51
stroke3  138  90 I51
stroke3  137  90 I51
stroke3  135  90 I51
stroke3  134  89 I51
stroke3  133  89 I51
stroke3  132  89 I51
stroke3  131  89 I51
stroke3  130  89 I51
stroke3  130  90 I51
stroke3  130  91 I51
stroke3  130  92 I51
stroke3  131  92 I51
stroke3  131  93 I51
stroke3  131  94 I51
stroke3  131  95 I51
stroke3  132  96 I51
stroke3  133  97 I51
stroke3  134  98 I51
stroke3  134  99 I51
stroke3  135  100 I51
stroke3  136  100 I51
stroke3  136  101 I51
stroke3  137  101 I51
stroke3  138  101 I51
stroke3  139  101 I51
stroke3  140  101 I51
stroke3  141  101 I51
stroke3  142  101 I51
stroke3  143  100 I51
stroke3  144  100 I51
stroke3  145  99 I51
stroke3  146  99 I51
stroke3  147  98 I51
stroke3  148  98 I51
stroke3  150  97 I51
stroke3  151  96 I51
stroke3  153  96 I51
stroke3  154  95 I51
stroke3  155  94 I51
stroke3  156  94 I51
stroke3  158  93 I51
stroke3  159  92 I51
stroke3  160  92 I51
stroke3  161  91 I51
stroke3  162  91 I51
stroke3  163  90 I51
stroke3  164  90 I51
stroke3  165  89 I51
stroke3  166  89 I51
stroke3  166  88 I51
stroke3  167  88 I51
stroke3  168  88 I51
stroke3  168  87 I51
stroke3  169  87 I51
stroke3  169  88 I51
stroke3  169  89 I51
stroke3  169  90 I51
stroke3  169  91 I51
stroke3  169  93 I51
stroke3  169  94 I51
stroke3  169  95 I51
stroke3  169  97 I51
stroke3  169  98 I51
stroke3  170  100 I51
stroke3  169  101 I51
stroke3  169  103 I51
stroke3  169  104 I51
stroke3  169  105 I51
stroke3  169  106 I51
stroke3  169  107 I51
stroke3  169  108 I51
stroke3  169  109 I51
stroke3  169  110 I51
stroke3  169  109 I51
stroke3  168  109 I51
stroke3  168  108 I51
stroke3  161  90 I51
stroke3  160  90 I51
stroke3  160  91 I51
stroke3  160  92 I51
stroke3  160  93 I51
stroke3  160  94 I51
stroke3  160  95 I51
stroke3  160  96 I51
stroke3  160  97 I51
stroke3  160  98 I51
stroke3  160  99 I51
stroke3  159  100 I51
stroke3  159  101 I51
stroke3  159  102 I51
stroke3  159  103 I51
stroke3  159  104 I51
stroke3  159  105 I51
stroke3  159  106 I51
stroke3  159  105 I51
stroke3  160  104 I51
stroke4  197  36 B43
stroke4  197  35 I43
stroke4  197  34 I43
stroke4  198  34 I43
stroke4  198  33 I43
stroke4  199  33 I43
stroke4  200  33 I43
stroke4  201  32 I43
stroke4  202  33 I43
stroke4  203  33 I43
stroke4  204  33 I43
stroke4  204  34 I43
stroke4  205  34 I43
stroke4  206  34 I43
stroke4  206  35 I43
stroke4  207  36 I43
stroke4  208  37 I43
stroke4  209  38 I43
stroke4  209  39 I43
stroke4  210  40 I43
stroke4  210  41 I43
stroke4  210  42 I43
stroke4  210  43 I43
stroke4  210  44 I43
stroke4  209  45 I43
stroke4  208  46 I43
stroke4  207  47 I43
stroke4  206  47 I43
stroke4  205  47 I43
stroke4  204  47 I43
stroke4  204  46 I43
stroke4  203  46 I43
stroke4  202  46 I43
stroke4  201  45 I43
stroke4  200  45 I43
stroke4  200  44 I43
stroke4  199  44 I43
stroke4  199  43 I43
stroke4  198  43 I43
stroke4  198  42 I43
stroke4  197  41 I43
stroke4  197  40 I43
stroke4  197  39 I43
stroke4  197  38 I43
stroke4  197  37 I43
stroke4  197  36 I43
stroke4  197  35 I43
stroke4  197  34 I43
stroke4  197  33 I43
stroke4  197  32 I43
stroke4  197  31 I43
stroke4  197  30 I43
stroke4  197  29 I43
stroke4  197  28 I43
stroke4  198  27 I43
stroke4  198  26 I43
stroke4  198  25 I43
stroke4  198  24 I43
stroke4  198  23 I43
stroke4  198  22 I43
stroke4  198  20 I43
stroke4  198  19 I43
stroke4  198  18 I43
stroke4  198  17 I43
stroke4  198  16 I43
stroke4  198  15 I43
stroke4  198  14 I43
stroke4  198  13 I43
stroke4  198  12 I43
stroke4  198  11 I43
stroke4  199  11 I43
stroke4  199  10 I43
stroke4  199  9 I43
stroke4  199  8 I43
stroke4  199  7 I43
stroke4  199  6 I43
stroke4  200  6 I43
stroke4  200  5 I43
stroke4  200  4 I43
stroke4  200  3 I43
stroke4  201  3 I43
stroke4  202  3 I43
stroke4  202  4 I43
stroke4  203  4 I43
stroke4  204  4 I43
stroke4  205  4 I43
stroke4  206  4 I43
stroke4  207  4 I43
stroke4  208  4 I43
stroke4  209  4 I43
stroke4  210  3 I43
stroke4  211  3 I43
stroke4  212  3 I43
stroke4  213  3 I43
stroke4  214  3 I43
stroke4  215  2 I43
stroke4  216  2 I43
stroke4  217  2 I43
stroke4  218  2 I43
stroke4  219  2 I43
stroke4  220  2 I43
stroke4  221  2 I43
stroke4  222  2 I43
stroke4  223  2 I43
stroke4  223  3 I43
stroke4  224  4 I43
stroke4  224  5 I43
stroke4  224  6 I43
stroke4  224  7 I43
stroke4  223  8 I43
stroke4  224  9 I43
stroke4  223  10 I43
stroke4  223  11 I43
stroke4  223  13 I43
stroke4  223  14 I43
stroke4  223  15 I43
stroke4  223  17 I43
stroke4  223  18 I43
stroke4  223  20 I43
stroke4  223  21 I43
stroke4  223  23 I43
stroke4  223  25 I43
stroke4  223  26 I43
stroke4  223  27 I43
stroke4  223  29 I43
stroke4  223  30 I43
stroke4  222  32 I43
stroke4  222  33 I43
stroke4  222  34 I43
stroke4  222  35 I43
stroke4  222  37 I43
stroke4  222  38 I43
stroke4  221  39 I43
stroke4  221  40 I43
stroke4  221  42 I43
stroke4  221  43 I43
stroke4  220  44 I43
stroke4  220  45 I43
stroke4  220  46 I43
stroke4  220  47 I43
stroke4  219  48 I43
stroke4  219  50 I43
stroke4  219  51 I43
stroke4  218  52 I43
stroke4  218  53 I43
stroke4  217  54 I43
stroke4  217  55 I43
stroke4  216  55 I43
stroke4  215  56 I43
stroke4  215  57 I43
stroke4  214  58 I43
stroke4  213  59 I43
stroke4  212  59 I43
stroke4  211  60 I43
stroke4  210  61 I43
stroke4  209  61 I43
stroke4  208  62 I43
stroke4  207  62 I43
stroke4  206  62 I43
stroke4  205  63 I43
stroke4  204  63 I43
stroke4  203  63 I43
stroke4  202  63 I43
stroke4  201  63 I43
stroke4  200  62 I43
stroke4  199  62 I43
stroke4  198  62 I43
stroke4  197  62 I43
stroke4  196  62 I43
stroke4  195  61 I43
stroke4  194  61 I43
stroke4  193  60 I43
stroke4  191  60 I43
stroke4  190  59 I43
stroke4  190  58 I43
stroke4  189  58 I43
stroke4  188  57 I43
stroke4  187  57 I43
stroke4  186  56 I43
stroke4  186  55 I43
stroke4  185  55 I43
stroke4  185  54 I43
stroke4  184  54 I43
stroke4  184  53 I43
stroke4  183  52 I43
stroke4  184  52 I43
stroke4  185  53 I43
stroke5  240  1 B1
stroke5  241  1 I1
stroke5  241  2 I1
stroke5  241  3 I1
stroke5  241  4 I1
stroke5  241  5 I1
stroke5  240  5 I1
stroke5  240  6 I1
stroke5  240  7 I1
stroke5  240  8 I1
stroke5  240  9 I1
stroke5  240  10 I1
stroke5  240  11 I1
stroke5  239  13 I1
stroke5  239  14 I1
stroke5  239  15 I1
stroke5  239  17 I1
stroke5  239  18 I1
stroke5  239  20 I1
stroke5  239  22 I1
stroke5  239  24 I1
stroke5  239  26 I1
stroke5  239  27 I1
stroke5  239  29 I1
stroke5  239  31 I1
stroke5  239  32 I1
stroke5  239  33 I1
stroke5  239  35 I1
stroke5  239  36 I1
stroke5  240  37 I1
stroke5  240  38 I1
stroke5  240  39 I1
stroke5  240  40 I1
stroke5  240  41 I1
stroke5  240  42 I1
stroke5  240  43 I1
stroke5  240  44 I1
stroke5  240  45 I1
stroke5  240  46 I1
stroke5  239  47 I1
stroke5  238  48 I1
stroke5  237  48 I1
stroke5  236  48 I1
stroke5  235  48 I1
stroke5  234  48 I1
stroke5  233  48 I1
stroke5  232  48 I1
stroke5  231  48 I1
stroke5  230  48 I1
stroke5  230  47 I1
stroke5  229  47 I1
stroke5  228  47 I1
stroke5  227  47 I1
stroke5  226  47 I1
stroke5  227  48 I1
stroke5  227  49 I1
stroke5  228  50 I1
stroke5  228  51 I1
stroke5  229  52 I1
stroke5  230  53 I1
stroke5  230  54 I1
stroke5  231  55 I1
stroke5  231  56 I1
stroke5  232  57 I1
stroke5  233  57 I1
stroke5  233  58 I1
stroke5  234  59 I1
stroke5  235  60 I1
stroke5  235  61 I1
stroke5  236  61 I1
stroke5  237  62 I1
stroke5  237  63 I1
stroke5  238  63 I1
stroke5  238  64 I1
stroke5  239  65 I1
stroke5  240  65 I1
stroke5  241  66 I1
stroke5  242  67 I1
stroke5  243  68 I1
stroke5  244  68 I1
stroke5  244  69 I1
stroke5  245  69 I1
stroke5  246  69 I1
stroke5  246  70 I1
stroke5  247  70 I1
stroke5  248  70 I1
stroke5  248  71 I1
stroke5  249  71 I1
stroke5  250  71 I1
stroke5  250  72 I1
stroke5  251  72 I1
stroke5  252  72 I1
stroke5  252  71 I1
stroke5  253  71 I1
stroke5  254  71 I1
stroke5  255  71 I1
stroke5  255  70 I1
stroke5  256  70 I1
stroke5  257  70 I1
stroke5  258  69 I1
stroke5  259  69 I1
stroke5  260  68 I1
stroke5  261  68 I1
stroke5  261  67 I1
stroke5  262  66 I1
stroke5  262  65 I1
stroke5  262  64 I1
stroke5  263  63 I1
stroke5  263  62 I1
stroke5  263  61 I1
stroke5  263  60 I1
stroke5  264  59 I1
stroke5  264  58 I1
stroke5  264  56 I1
stroke5  264  55 I1
stroke5  264  54 I1
stroke5  264  52 I1
stroke5  264  50 I1
stroke5  264  49 I1
stroke5  264  47 I1
stroke5  265  45 I1
stroke5  265  44 I1
stroke5  265  42 I1
stroke5  265  41 I1
stroke5  265  39 I1
stroke5  265  37 I1
stroke5  265  36 I1
stroke5  265  34 I1
stroke5  265  32 I1
stroke5  265  31 I1
stroke5  265  29 I1
stroke5  265  27 I1
stroke5  265  26 I1
stroke5  265  24 I1
stroke5  265  22 I1
stroke5  265  20 I1
stroke5  265  19 I1
stroke5  265  17 I1
stroke5  265  16 I1
stroke5  265  14 I1
stroke5  265  13 I1
stroke5  265  12 I1
stroke5  265  11 I1
stroke5  265  10 I1
stroke5  265  9 I1
stroke5  265  7 I1
stroke5  265  6 I1
stroke5  265  5 I1
stroke5  265  4 I1
stroke5  265  3 I1
stroke5  265  2 I1
stroke5  266  2 I1
stroke5  266  1 I1
stroke5  266  0 I1
stroke5  266  1 I1
stroke5  266  2 I1
stroke5  266  3 I1
stroke5  266  4 I1
stroke6  295  41 B21
stroke6  295  40 I21
stroke6  295  39 I21
stroke6  295  38 I21
stroke6  294  38 I21
stroke6  294  37 I21
stroke6  294  36 I21
stroke6  293  36 I21
stroke6  293  35 I21
stroke6  292  34 I21
stroke6  291  34 I21
stroke6  291  33 I21
stroke6  290  33 I21
stroke6  289  33 I21
stroke6  288  33 I21
stroke6  288  32 I21
stroke6  287  33 I21
stroke6  286  33 I21
stroke6  286  34 I21
stroke6  285  34 I21
stroke6  285  35 I21
stroke6  284  36 I21
stroke6  284  37 I21
stroke6  284  38 I21
stroke6  284  39 I21
stroke6  284  40 I21
stroke6  284  41 I21
stroke6  285  42 I21
stroke6  285  43 I21
stroke6  285  44 I21
stroke6  286  45 I21
stroke6  287  46 I21
stroke6  287  47 I21
stroke6  288  47 I21
stroke6  289  48 I21
stroke6  290  48 I21
stroke6  291  48 I21
stroke6  291  49 I21
stroke6  292  48 I21
stroke6  293  48 I21
stroke6  294  48 I21
stroke6  294  47 I21
stroke6  295  47 I21
stroke6  295  46 I21
stroke6  296  46 I21
stroke6  296  45 I21
stroke6  296  44 I21
stroke6  296  43 I21
stroke6  296  42 I21
stroke6  296  41 I21
stroke6  295  40 I21
stroke6  295  39 I21
stroke6  295  38 I21
stroke6  295  37 I21
stroke6  295  36 I21
stroke6  294  35 I21
stroke6  294  34 I21
stroke6  294  33 I21
stroke6  294  32 I21
stroke6  294  31 I21
stroke6  293  30 I21
stroke6  293  29 I21
stroke6  293  28 I21
stroke6  292  27 I21
stroke6  292  26 I21
stroke6  292  25 I21
stroke6  292  24 I21
stroke6  291  23 I21
stroke6  291  22 I21
stroke6  291  21 I21
stroke6  291  20 I21
stroke6  291  19 I21
stroke6  290  18 I21
stroke6  290  17 I21
stroke6  290  16 I21
stroke6  290  15 I21
stroke6  290  14 I21
stroke6  290  13 I21
stroke6  289  12 I21
stroke6  289  11 I21
stroke6  289  10 I21
stroke6  289  9 I21
stroke6  289  8 I21
stroke6  288  7 I21
stroke6  288  6 I21
stroke6  288  5 I21
stroke6  288  4 I21
stroke6  288  3 I21
stroke6  287  3 I21
stroke6  286  4 I21
stroke6  286  5 I21
stroke6  285  6 I21
stroke6  284  7 I21
stroke6  284  8 I21
stroke6  283  9 I21
stroke6  283  10 I21
stroke6  282  10 I21
stroke6  282  11 I21
stroke6  281  12 I21
stroke6  280  13 I21
stroke6  280  14 I21
stroke6  280  15 I21
stroke6  279  16 I21
stroke6  279  17 I21
stroke6  279  18 I21
stroke6  278  19 I21
stroke6  278  20 I21
stroke6  278  21 I21
stroke6  278  22 I21
stroke6  277  23 I21
stroke6  277  24 I21
stroke6  277  25 I21
stroke6  277  26 I21
stroke6  276  27 I21
stroke6  276  28 I21
stroke6  276  29 I21
stroke6  276  31 I21
stroke6  276  32 I21
stroke6  276  33 I21
stroke6  276  34 I21
stroke6  276  36 I21
stroke6  276  37 I21
stroke6  277  38 I21
stroke6  277  39 I21
stroke6  277  40 I21
stroke6  277  42 I21
stroke6  278  43 I21
stroke6  278  44 I21
stroke6  278  45 I21
stroke6  279  46 I21
stroke6  279  48 I21
stroke6  279  49 I21
stroke6  280  50 I21
stroke6  280  51 I21
stroke6  281  52 I21
stroke6  281  53 I21
stroke6  282  54 I21
stroke6  282  55 I21
stroke6  283  56 I21
stroke6  283  57 I21
stroke6  284  58 I21
stroke6  284  59 I21
stroke6  285  59 I21
stroke6  285  60 I21
stroke6  285  61 I21
stroke6  286  62 I21
stroke6  287  63 I21
stroke6  288  64 I21
stroke6  289  65 I21
stroke6  289  66 I21
stroke6  290  66 I21
stroke6  290  67 I21
stroke6  291  67 I21
stroke6  291  68 I21
stroke6  292  67 I21
stroke6  293  67 I21
stroke6  293  66 I21
stroke6  294  66 I21
stroke6  294  65 I21
stroke6  295  64 I21
stroke6  295  63 I21
stroke6  296  62 I21
stroke6  296  61 I21
stroke6  296  60 I21
stroke6  297  60 I21
stroke6  297  59 I21
stroke6  297  58 I21
stroke6  298  58 I21
stroke6  298  57 I21
stroke6  298  56 I21
stroke6  299  57 I21
stroke6  299  58 I21
stroke6  300  58 I21
stroke6  300  59 I21
stroke6  301  60 I21
stroke6  301  61 I21
stroke6  302  61 I21
stroke6  302  62 I21
stroke6  303  62 I21
stroke6  303  63 I21
stroke6  304  63 I21
stroke6  304  64 I21
stroke6  305  64 I21
stroke6  305  65 I21
stroke6  306  65 I21
stroke6  306  66 I21
stroke6  307  66 I21
stroke6  308  66 I21
stroke6  309  66 I21
stroke6  309  65 I21
stroke6  310  65 I21
stroke6  311  65 I21
stroke6  311  64 I21
stroke6  312  63 I21
stroke6  312  62 I21
stroke6  312  61 I21
stroke6  312  60 I21
stroke6  312  59 I21
stroke6  312  58 I21
stroke6  312  57 I21
stroke6  312  56 I21
stroke6  312  55 I21
stroke6  312  54 I21
stroke6  312  52 I21
stroke6  312  51 I21
stroke6  312  50 I21
stroke6  312  48 I21
stroke6  312  47 I21
stroke6  312  45 I21
stroke6  312  44 I21
stroke6  312  43 I21
stroke6  311  41 I21
stroke6  311  40 I21
stroke6  312  39 I21
stroke6  311  37 I21
stroke6  311  36 I21
stroke6  311  35 I21
stroke6  311  33 I21
stroke6  311  32 I21
stroke6  311  31 I21
stroke6  311  30 I21
stroke6  311  28 I21
stroke6  311  27 I21
stroke6  311  26 I21
stroke6  311  24 I21
stroke6  311  23 I21
stroke6  311  22 I21
stroke6  311  20 I21
stroke6  311  19 I21
stroke6  311  18 I21
stroke6  311  17 I21
stroke6  311  16 I21
stroke6  311  15 I21
stroke6  311  14 I21
stroke6  311  13 I21
stroke6  311  12 I21
stroke6  311  11 I21
stroke6  311  10 I21
stroke6  311  9 I21
stroke6  311  8 I21
stroke6  311  7 I21
stroke6  311  6 I21
stroke6  311  5 I21
stroke6  311  6 I21
stroke6  311  7 I21
stroke6  311  8 I21
stroke6  310  9 I21
stroke7  307  94 B45
stroke7  307  93 I45
stroke7  307  92 I45
stroke7  308  92 I45
stroke7  308  91 I45
stroke7  309  91 I45
stroke7  309  92 I45
stroke7  310  92 I45
stroke7  311  92 I45
stroke7  312  93 I45
stroke7  313  93 I45
stroke7  313  94 I45
stroke7  314  94 I45
stroke7  314  95 I45
stroke7  315  95 I45
stroke7  315  96 I45
stroke7  316  96 I45
stroke7  316  97 I45
stroke7  316  98 I45
stroke7  316  99 I45
stroke7  315  100 I45
stroke7  314  100 I45
stroke7  314  101 I45
stroke7  313  101 I45
stroke7  312  101 I45
stroke7  311  101 I45
stroke7  310  101 I45
stroke7  309  100 I45
stroke7  308  100 I45
stroke7  307  99 I45
stroke7  306  98 I45
stroke7  306  97 I45
stroke7  305  97 I45
stroke7  305  96 I45
stroke7  305  95 I45
stroke7  305  94 I45
stroke7  305  93 I45
stroke7  305  92 I45
stroke7  306  92 I45
stroke7  306  91 I45
stroke7  307  91 I45
stroke7  308  90 I45
stroke7  309  90 I45
stroke7  310  89 I45
stroke7  311  89 I45
stroke7  312  89 I45
stroke7  313  89 I45
stroke7  314  89 I45
stroke7  315  89 I45
stroke7  316  90 I45
stroke7  317  90 I45
stroke7  318  91 I45
stroke7  319  91 I45
stroke7  320  92 I45
stroke7  321  92 I45
stroke7  321  93 I45
stroke7  322  93 I45
stroke7  323  94 I45
stroke7  323  95 I45
stroke7  324  96 I45
stroke7  325  96 I45
stroke7  325  97 I45
stroke7  326  98 I45
stroke7  326  99 I45
stroke7  327  99 I45
stroke7  327  100 I45
stroke7  327  101 I45
stroke7  328  101 I45
stroke7  328  102 I45
stroke7  328  103 I45
stroke7  329  104 I45
stroke7  329  105 I45
stroke7  329  106 I45
stroke7  329  107 I45
stroke7  330  107 I45
stroke7  329  107 I45
stroke7  330  107 I45
stroke7  329  107 I45
stroke7  328  106 I45
stroke8  323  130 B66
stroke8  322  130 I66
stroke8  322  129 I66
stroke8  321  129 I66
stroke8  320  129 I66
stroke8  319  129 I66
stroke8  319  130 I66
stroke8  319  131 I66
stroke8  319  132 I66
stroke8  319  133 I66
stroke8  320  134 I66
stroke8  321  134 I66
stroke8  322  134 I66
stroke8  323  134 I66
stroke8  323  133 I66
stroke8  323  132 I66
stroke8  324  132 I66
stroke8  324  131 I66
stroke8  323  130 I66
stroke8  323  129 I66
stroke8  323  128 I66
stroke8  323  127 I66
stroke8  322  126 I66
stroke8  322  125 I66
stroke8  321  124 I66
stroke8  321  123 I66
stroke8  320  123 I66
stroke8  320  122 I66
stroke8  319  121 I66
stroke8  319  120 I66
stroke8  318  120 I66
stroke8  319  120 I66
stroke8  320  120 I66
stroke8  320  121 I66
stroke8  321  121 I66
stroke8  321  122 I66
stroke8  322  122 I66
stroke8  323  123 I66
stroke8  324  123 I66
stroke8  325  124 I66
stroke8  326  125 I66
stroke8  327  126 I66
stroke8  329  127 I66
stroke8  330  128 I66
stroke8  331  129 I66
stroke8  332  130 I66
stroke8  333  131 I66
stroke8  333  132 I66
stroke8  334  133 I66
stroke8  335  134 I66
stroke8  336  134 I66
stroke8  336  135 I66
stroke8  336  136 I66
stroke8  337  137 I66
stroke8  337  138 I66
stroke8  337  139 I66
stroke8  336  138 I66
stroke8  336  137 I66
stroke8  336  136 I66
stroke8  335  136 I66
stroke9  351  64 B7
stroke9  351  63 I7
stroke9  350  62 I7
stroke9  350  61 I7
stroke9  350  60 I7
stroke9  349  59 I7
stroke9  349  58 I7
stroke9  349  57 I7
stroke9  348  57 I7
stroke9  348  56 I7
stroke9  347  55 I7
stroke9  346  55 I7
stroke9  346  54 I7
stroke9  345  53 I7
stroke9  344  53 I7
stroke9  344  52 I7
stroke9  343  52 I7
stroke9  342  51 I7
stroke9  341  51 I7
stroke9  340  51 I7
stroke9  339  51 I7
stroke9  339  52 I7
stroke9  338  52 I7
stroke9  337  52 I7
stroke9  337  53 I7
stroke9  336  54 I7
stroke9  336  55 I7
stroke9  336  56 I7
stroke9  336  57 I7
stroke9  337  58 I7
stroke9  337  59 I7
stroke9  337  60 I7
stroke9  338  61 I7
stroke9  339  62 I7
stroke9  340  63 I7
stroke9  340  64 I7
stroke9  341  64 I7
stroke9  342  65 I7
stroke9  342  66 I7
stroke9  343  66 I7
stroke9  344  67 I7
stroke9  345  68 I7
stroke9  346  68 I7
stroke9  347  68 I7
stroke9  347  69 I7
stroke9  348  68 I7
stroke9  349  68 I7
stroke9  350  68 I7
stroke9  351  68 I7
stroke9  351  67 I7
stroke9  352  67 I7
stroke9  353  67 I7
stroke9  353  66 I7
stroke9  353  65 I7
stroke9  353  64 I7
stroke9  353  63 I7
stroke9  353  62 I7
stroke9  353  61 I7
stroke9  353  60 I7
stroke9  353  59 I7
stroke9  353  58 I7
stroke9  353  57 I7
stroke9  353  55 I7
stroke9  353  54 I7
stroke9  353  52 I7
stroke9  353  51 I7
stroke9  353  49 I7
stroke9  353  48 I7
stroke9  353  46 I7
stroke9  353  45 I7
stroke9  353  43 I7
stroke9  353  42 I7
stroke9  353  40 I7
stroke9  353  39 I7
stroke9  353  37 I7
stroke9  353  36 I7
stroke9  353  34 I7
stroke9  353  33 I7
stroke9  353  31 I7
stroke9  353  29 I7
stroke9  353  28 I7
stroke9  353  26 I7
stroke9  353  24 I7
stroke9  353  23 I7
stroke9  353  21 I7
stroke9  353  20 I7
stroke9  353  18 I7
stroke9  353  17 I7
stroke9  353  16 I7
stroke9  353  14 I7
stroke9  353  13 I7
stroke9  353  12 I7
stroke9  353  11 I7
stroke9  353  9 I7
stroke9  353  8 I7
stroke9  353  7 I7
stroke9  353  6 I7
stroke9  353  5 I7
stroke9  353  4 I7
stroke9  353  3 I7
stroke9  353  2 I7
stroke9  353  1 I7
stroke9  353  0 I7
stroke9  353  1 I7
stroke9  352  1 I7
stroke9  352  2 I7
stroke9  352  3 I7
stroke9  351  3 I7
stroke9  351  4 I7
stroke9  351  5 I7
stroke9  350  5 I7
stroke9  350  6 I7
stroke9  349  8 I7
stroke9  348  9 I7
stroke9  347  10 I7
stroke9  346  12 I7
stroke9  345  13 I7
stroke9  344  15 I7
stroke9  343  16 I7
stroke9  342  18 I7
stroke9  341  19 I7
stroke9  340  21 I7
stroke9  339  22 I7
stroke9  338  23 I7
stroke9  337  24 I7
stroke9  336  25 I7
stroke9  335  26 I7
stroke9  334  27 I7
stroke9  334  28 I7
stroke9  333  28 I7
stroke9  333  29 I7
stroke9  332  29 I7
stroke9  333  29 I7
