stroke1  107  8 B37
stroke1  107  9 I37
stroke1  107  10 I37
stroke1  107  11 I37
stroke1  106  11 I37
stroke1  106  12 I37
stroke1  105  13 I37
stroke1  105  14 I37
stroke1  104  14 I37
stroke1  104  15 I37
stroke1  103  15 I37
stroke1  102  15 I37
stroke1  101  16 I37
stroke1  100  16 I37
stroke1  100  15 I37
stroke1  99  15 I37
stroke1  98  15 I37
stroke1  98  14 I37
stroke1  97  14 I37
stroke1  97  14 I37
stroke1  96  13 I37
stroke1  96  12 I37
stroke1  95  12 I37
stroke1  95  11 I37
stroke1  94  11 I37
stroke1  94  10 I37
stroke1  94  9 I37
stroke1  93  9 I37
stroke1  93  8 I37
stroke1  93  7 I37
stroke1  93  6 I37
stroke1  93  5 I37
stroke1  94  4 I37
stroke1  94  3 I37
stroke1  95  2 I37
stroke1  96  1 I37
stroke1  97  0 I37
stroke1  98  0 I37
stroke1  99  0 I37
stroke1  100  0 I37
stroke1  101  0 I37
stroke1  101  1 I37
stroke1  102  1 I37
stroke1  103  2 I37
stroke1  104  2 I37
stroke1  104  3 I37
stroke1  104  4 I37
stroke1  105  4 I37
stroke1  105  5 I37
stroke1  106  6 I37
stroke1  106  7 I37
stroke1  107  8 I37
stroke1  107  9 I37
stroke1  107  10 I37
stroke1  107  11 I37
stroke1  107  12 I37
stroke1  108  12 I37
stroke1  108  13 I37
stroke1  108  14 I37
stroke1  108  15 I37
stroke1  108  16 I37
stroke1  108  17 I37
stroke1  108  18 I37
stroke1  109  19 I37
stroke1  109  20 I37
stroke1  109  21 I37
stroke1  109  22 I37
stroke1  109  23 I37
stroke1  109  24 I37
stroke1  109  25 I37
stroke1  109  26 I37
stroke1  110  27 I37
stroke1  110  28 I37
stroke1  110  29 I37
stroke1  110  30 I37
stroke1  110  31 I37
stroke1  110  32 I37
stroke1  110  33 I37
stroke1  111  34 I37
stroke1  111  35 I37
stroke1  111  36 I37
stroke1  111  37 I37
stroke1  111  38 I37
stroke1  111  39 I37
stroke1  111  40 I37
stroke1  111  41 I37
stroke1  111  42 I37
stroke1  111  44 I37
stroke1  111  45 I37
stroke1  111  46 I37
stroke1  111  47 I37
stroke1  111  48 I37
stroke1  111  49 I37
stroke1  111  50 I37
stroke1  111  52 I37
stroke1  111  53 I37
stroke1  111  55 I37
stroke1  111  56 I37
stroke1  111  57 I37
stroke1  111  58 I37
stroke1  110  58 I37
stroke1  110  59 I37
stroke1  110  60 I37
stroke1  110  61 I37
stroke1  109  62 I37
stroke1  109  63 I37
stroke1  108  64 I37
stroke1  108  65 I37
stroke1  107  66 I37
stroke1  107  67 I37
stroke1  106  67 I37
stroke1  106  68 I37
stroke1  105  68 I37
stroke1  105  69 I37
stroke1  104  70 I37
stroke1  103  70 I37
stroke1  102  70 I37
stroke1  102  71 I37
stroke1  101  71 I37
stroke1  100  71 I37
stroke1  99  71 I37
stroke1  98  71 I37
stroke1  97  71 I37
stroke1  96  71 I37
stroke1  95  71 I37
stroke1  94  71 I37
stroke1  93  71 I37
stroke1  92  71 I37
stroke1  91  70 I37
stroke1  90  70 I37
stroke1  89  69 I37
stroke1  88  69 I37
stroke1  87  68 I37
stroke1  86  68 I37
stroke1  85  67 I37
stroke1  84  67 I37
stroke1  83  66 I37
stroke1  82  66 I37
stroke1  81  65 I37
stroke1  80  64 I37
stroke1  79  63 I37
stroke1  77  63 I37
stroke1  76  62 I37
stroke1  75  61 I37
stroke1  74  60 I37
stroke1  73  60 I37
stroke1  73  59 I37
stroke1  72  58 I37
stroke1  71  58 I37
stroke1  71  57 I37
stroke1  70  56 I37
stroke1  70  55 I37
stroke1  71  55 I37
stroke2  106  89 B45
stroke2  105  89 I45
stroke2  105  88 I45
stroke2  106  88 I45
stroke2  106  87 I45
stroke2  107  87 I45
stroke2  108  87 I45
stroke2  109  87 I45
stroke2  110  88 I45
stroke2  111  88 I45
stroke2  111  89 I45
stroke2  112  89 I45
stroke2  112  90 I45
stroke2  113  91 I45
stroke2  114  92 I45
stroke2  114  93 I45
stroke2  114  94 I45
stroke2  114  95 I45
stroke2  114  96 I45
stroke2  114  97 I45
stroke2  113  98 I45
stroke2  113  99 I45
stroke2  112  99 I45
stroke2  111  99 I45
stroke2  110  99 I45
stroke2  109  99 I45
stroke2  108  99 I45
stroke2  107  98 I45
stroke2  106  98 I45
stroke2  106  97 I45
stroke2  105  97 I45
stroke2  105  96 I45
stroke2  104  95 I45
stroke2  104  94 I45
stroke2  104  93 I45
stroke2  103  93 I45
stroke2  104  92 I45
stroke2  104  91 I45
stroke2  104  90 I45
stroke2  104  89 I45
stroke2  105  89 I45
stroke2  105  88 I45
stroke2  106  88 I45
stroke2  106  87 I45
stroke2  107  87 I45
stroke2  108  87 I45
stroke2  108  86 I45
stroke2  109  86 I45
stroke2  110  86 I45
stroke2  111  86 I45
stroke2  112  87 I45
stroke2  114  87 I45
stroke2  115  87 I45
stroke2  116  87 I45
stroke2  118  88 I45
stroke2  119  88 I45
stroke2  121  89 I45
stroke2  122  89 I45
stroke2  123  90 I45
stroke2  125  91 I45
stroke2  126  91 I45
stroke2  127  92 I45
stroke2  129  93 I45
stroke2  130  94 I45
stroke2  131  95 I45
stroke2  133  97 I45
stroke2  134  98 I45
stroke2  135  99 I45
stroke2  136  100 I45
stroke2  137  102 I45
stroke2  138  103 I45
stroke2  138  104 I45
stroke2  139  105 I45
stroke2  140  107 I45
stroke2  140  108 I45
stroke2  141  109 I45
stroke2  141  110 I45
stroke2  141  111 I45
stroke2  142  111 I45
stroke2  142  112 I45
stroke2  141  111 I45
stroke2  140  110 I45
stroke2  140  109 I45
stroke3  148  47 B18
stroke3  148  46 I18
stroke3  147  46 I18
stroke3  147  45 I18
stroke3  147  44 I18
stroke3  147  43 I18
stroke3  147  42 I18
stroke3  146  42 I18
stroke3  146  41 I18
stroke3  145  40 I18
stroke3  145  39 I18
stroke3  144  38 I18
stroke3  144  37 I18
stroke3  143  37 I18
stroke3  143  36 I18
stroke3  142  36 I18
stroke3  141  36 I18
stroke3  141  35 I18
stroke3  140  35 I18
stroke3  139  35 I18
stroke3  138  36 I18
stroke3  137  36 I18
stroke3  136  37 I18
stroke3  135  37 I18
stroke3  135  38 I18
stroke3  134  39 I18
stroke3  134  40 I18
stroke3  134  41 I18
stroke3  134  42 I18
stroke3  135  43 I18
stroke3  135  44 I18
stroke3  136  44 I18
stroke3  137  45 I18
stroke3  137  46 I18
stroke3  138  46 I18
stroke3  138  47 I18
stroke3  139  48 I18
stroke3  140  48 I18
stroke3  141  48 I18
stroke3  141  49 I18
stroke3  142  49 I18
stroke3  143  49 I18
stroke3  144  49 I18
stroke3  144  50 I18
stroke3  145  49 I18
stroke3  146  49 I18
stroke3  147  49 I18
stroke3  148  49 I18
stroke3  148  48 I18
stroke3  149  48 I18
stroke3  149  47 I18
stroke3  150  47 I18
stroke3  149  46 I18
stroke3  149  45 I18
stroke3  149  44 I18
stroke3  149  43 I18
stroke3  149  42 I18
stroke3  148  41 I18
stroke3  148  40 I18
stroke3  148  39 I18
stroke3  148  38 I18
stroke3  148  37 I18
stroke3  147  35 I18
stroke3  147  34 I18
stroke3  147  33 I18
stroke3  146  31 I18
stroke3  146  30 I18
stroke3  145  29 I18
stroke3  145  27 I18
stroke3  144  26 I18
stroke3  144  24 I18
stroke3  143  23 I18
stroke3  143  21 I18
stroke3  142  20 I18
stroke3  142  18 I18
stroke3  141  17 I18
stroke3  141  15 I18
stroke3  140  14 I18
stroke3  140  13 I18
stroke3  139  12 I18
stroke3  139  11 I18
stroke3  139  10 I18
stroke3  138  9 I18
stroke3  138  8 I18
stroke3  138  7 I18
stroke3  137  6 I18
stroke3  137  5 I18
stroke3  136  4 I18
stroke3  136  3 I18
stroke3  135  2 I18
stroke3  136  2 I18
stroke3  135  2 I18
stroke3  136  2 I18
stroke3  136  3 I18
stroke3  135  3 I18
stroke3  135  4 I18
stroke3  135  5 I18
stroke3  134  5 I18
stroke3  134  6 I18
stroke3  133  7 I18
stroke3  133  8 I18
stroke3  132  9 I18
stroke3  132  10 I18
stroke3  131  10 I18
stroke3  131  11 I18
stroke3  130  12 I18
stroke3  130  13 I18
stroke3  129  14 I18
stroke3  128  15 I18
stroke3  128  16 I18
stroke3  127  17 I18
stroke3  127  18 I18
stroke3  126  19 I18
stroke3  126  20 I18
stroke3  126  21 I18
stroke3  125  22 I18
stroke3  125  23 I18
stroke3  125  25 I18
stroke3  124  26 I18
stroke3  124  27 I18
stroke3  124  28 I18
stroke3  124  29 I18
stroke3  124  30 I18
stroke3  124  31 I18
stroke3  124  32 I18
stroke3  125  33 I18
stroke3  125  34 I18
stroke3  125  35 I18
stroke3  125  37 I18
stroke3  126  38 I18
stroke3  126  39 I18
stroke3  126  40 I18
stroke3  127  41 I18
stroke3  127  42 I18
stroke3  128  44 I18
stroke3  128  45 I18
stroke3  129  46 I18
stroke3  130  47 I18
stroke3  130  49 I18
stroke3  131  50 I18
stroke3  132  51 I18
stroke3  133  52 I18
stroke3  134  53 I18
stroke3  134  55 I18
stroke3  135  56 I18
stroke3  136  57 I18
stroke3  137  57 I18
stroke3  137  58 I18
stroke3  138  59 I18
stroke3  139  60 I18
stroke3  140  61 I18
stroke3  141  62 I18
stroke3  141  63 I18
stroke3  142  63 I18
stroke3  143  64 I18
stroke3  144  64 I18
stroke3  145  65 I18
stroke3  146  66 I18
stroke3  147  66 I18
stroke3  148  66 I18
stroke3  149  66 I18
stroke3  150  66 I18
stroke3  150  65 I18
stroke3  151  65 I18
stroke3  151  64 I18
stroke3  152  64 I18
stroke3  152  63 I18
stroke3  152  62 I18
stroke3  153  62 I18
stroke3  153  61 I18
stroke3  154  60 I18
stroke3  154  59 I18
stroke3  155  59 I18
stroke3  155  58 I18
stroke3  155  57 I18
stroke3  156  57 I18
stroke3  156  58 I18
stroke3  157  58 I18
stroke3  157  59 I18
stroke3  157  60 I18
stroke3  158  60 I18
stroke3  158  61 I18
stroke3  159  62 I18
stroke3  159  63 I18
stroke3  160  64 I18
stroke3  161  64 I18
stroke3  161  65 I18
stroke3  162  66 I18
stroke3  162  67 I18
stroke3  163  67 I18
stroke3  163  68 I18
stroke3  164  68 I18
stroke3  165  69 I18
stroke3  166  70 I18
stroke3  167  70 I18
stroke3  167  71 I18
stroke3  168  71 I18
stroke3  169  71 I18
stroke3  169  70 I18
stroke3  170  70 I18
stroke3  171  70 I18
stroke3  172  70 I18
stroke3  172  69 I18
stroke3  173  69 I18
stroke3  173  68 I18
stroke3  173  67 I18
stroke3  173  66 I18
stroke3  174  66 I18
stroke3  174  65 I18
stroke3  174  64 I18
stroke3  174  63 I18
stroke3  174  62 I18
stroke3  174  61 I18
stroke3  174  60 I18
stroke3  174  59 I18
stroke3  174  58 I18
stroke3  174  57 I18
stroke3  174  55 I18
stroke3  174  54 I18
stroke3  174  52 I18
stroke3  174  51 I18
stroke3  174  49 I18
stroke3  174  48 I18
stroke3  174  46 I18
stroke3  174  45 I18
stroke3  174  43 I18
stroke3  174  42 I18
stroke3  174  40 I18
stroke3  174  39 I18
stroke3  174  37 I18
stroke3  174  36 I18
stroke3  174  34 I18
stroke3  174  33 I18
stroke3  174  32 I18
stroke3  174  30 I18
stroke3  174  29 I18
stroke3  174  28 I18
stroke3  173  26 I18
stroke3  173  25 I18
stroke3  173  23 I18
stroke3  173  22 I18
stroke3  173  21 I18
stroke3  173  20 I18
stroke3  173  18 I18
stroke3  173  17 I18
stroke3  172  16 I18
stroke3  172  15 I18
stroke3  172  14 I18
stroke3  172  13 I18
stroke3  172  12 I18
stroke3  172  11 I18
stroke3  172  10 I18
stroke3  172  9 I18
stroke3  172  8 I18
stroke3  172  7 I18
stroke3  171  6 I18
stroke3  172  6 I18
stroke3  171  5 I18
stroke3  171  4 I18
stroke3  171  3 I18
stroke3  170  4 I18
stroke3  169  4 I18
stroke3  168  5 I18
stroke3  167  5 I18
stroke3  166  6 I18
stroke3  165  6 I18
stroke3  164  7 I18
stroke3  163  8 I18
stroke3  162  9 I18
stroke3  161  10 I18
stroke3  161  11 I18
stroke3  160  12 I18
stroke3  160  13 I18
stroke3  161  14 I18
stroke3  161  15 I18
stroke3  162  16 I18
stroke3  162  17 I18
stroke3  163  18 I18
stroke3  164  19 I18
stroke3  164  20 I18
stroke3  165  20 I18
stroke3  165  21 I18
stroke3  166  21 I18
stroke3  167  22 I18
stroke3  168  22 I18
stroke3  169  22 I18
stroke3  170  22 I18
stroke3  171  22 I18
stroke3  172  22 I18
stroke3  173  22 I18
stroke3  174  21 I18
stroke3  175  21 I18
stroke3  176  21 I18
stroke3  176  20 I18
stroke3  177  20 I18
stroke3  178  19 I18
stroke3  179  18 I18
stroke3  180  17 I18
stroke3  181  16 I18
stroke3  181  15 I18
stroke3  182  15 I18
stroke3  182  14 I18
stroke3  183  13 I18
stroke3  184  12 I18
stroke3  184  11 I18
stroke3  185  11 I18
stroke3  185  10 I18
stroke3  186  9 I18
stroke3  186  8 I18
stroke3  187  8 I18
stroke3  187  7 I18
stroke3  188  7 I18
stroke3  188  6 I18
stroke3  189  6 I18
stroke3  189  5 I18
stroke3  190  5 I18
stroke3  190  6 I18
stroke3  191  6 I18
stroke3  191  7 I18
stroke3  191  8 I18
stroke3  191  9 I18
stroke3  191  10 I18
stroke3  191  11 I18
stroke3  191  12 I18
stroke3  191  13 I18
stroke3  191  15 I18
stroke3  192  16 I18
stroke3  192  18 I18
stroke3  192  20 I18
stroke3  192  21 I18
stroke3  192  23 I18
stroke3  192  25 I18
stroke3  192  27 I18
stroke3  192  28 I18
stroke3  193  30 I18
stroke3  193  32 I18
stroke3  193  34 I18
stroke3  193  35 I18
stroke3  193  37 I18
stroke3  193  39 I18
stroke3  193  40 I18
stroke3  193  42 I18
stroke3  194  44 I18
stroke3  194  45 I18
stroke3  194  47 I18
stroke3  194  48 I18
stroke3  194  50 I18
stroke3  194  51 I18
stroke3  194  52 I18
stroke3  194  54 I18
stroke3  194  55 I18
stroke3  194  56 I18
stroke3  194  57 I18
stroke3  194  59 I18
stroke3  194  60 I18
stroke3  194  61 I18
stroke3  194  62 I18
stroke3  194  63 I18
stroke3  194  64 I18
stroke3  194  65 I18
stroke3  194  66 I18
stroke3  193  66 I18
stroke4  219  67 B25
stroke4  219  66 I25
stroke4  219  65 I25
stroke4  219  64 I25
stroke4  219  63 I25
stroke4  219  62 I25
stroke4  219  61 I25
stroke4  218  60 I25
stroke4  218  59 I25
stroke4  218  58 I25
stroke4  217  57 I25
stroke4  216  56 I25
stroke4  216  55 I25
stroke4  215  55 I25
stroke4  214  54 I25
stroke4  213  54 I25
stroke4  213  53 I25
stroke4  212  53 I25
stroke4  211  53 I25
stroke4  210  53 I25
stroke4  209  54 I25
stroke4  208  54 I25
stroke4  207  55 I25
stroke4  206  55 I25
stroke4  205  56 I25
stroke4  205  57 I25
stroke4  205  58 I25
stroke4  205  59 I25
stroke4  205  60 I25
stroke4  206  61 I25
stroke4  206  62 I25
stroke4  207  63 I25
stroke4  207  64 I25
stroke4  208  64 I25
stroke4  208  65 I25
stroke4  209  65 I25
stroke4  210  66 I25
stroke4  211  66 I25
stroke4  212  67 I25
stroke4  213  67 I25
stroke4  214  67 I25
stroke4  215  67 I25
stroke4  216  67 I25
stroke4  217  66 I25
stroke4  218  66 I25
stroke4  219  66 I25
stroke4  219  65 I25
stroke4  220  64 I25
stroke4  220  63 I25
stroke4  220  62 I25
stroke4  220  61 I25
stroke4  220  60 I25
stroke4  220  59 I25
stroke4  220  58 I25
stroke4  220  57 I25
stroke4  220  56 I25
stroke4  220  55 I25
stroke4  220  54 I25
stroke4  220  52 I25
stroke4  220  51 I25
stroke4  220  49 I25
stroke4  220  48 I25
stroke4  220  46 I25
stroke4  220  45 I25
stroke4  219  44 I25
stroke4  219  42 I25
stroke4  219  41 I25
stroke4  219  39 I25
stroke4  219  38 I25
stroke4  219  37 I25
stroke4  219  36 I25
stroke4  219  34 I25
stroke4  218  33 I25
stroke4  218  31 I25
stroke4  218  30 I25
stroke4  218  29 I25
stroke4  218  27 I25
stroke4  218  26 I25
stroke4  218  25 I25
stroke4  218  24 I25
stroke4  217  23 I25
stroke4  217  21 I25
stroke4  217  20 I25
stroke4  217  19 I25
stroke4  217  18 I25
stroke4  217  17 I25
stroke4  217  16 I25
stroke4  217  15 I25
stroke4  216  14 I25
stroke4  216  13 I25
stroke4  216  12 I25
stroke4  216  11 I25
stroke4  216  10 I25
stroke4  216  9 I25
stroke4  215  9 I25
stroke4  215  8 I25
stroke4  215  7 I25
stroke4  215  6 I25
stroke4  215  7 I25
stroke4  216  7 I25
stroke4  216  8 I25
stroke4  216  9 I25
stroke4  217  10 I25
stroke4  218  11 I25
stroke4  218  12 I25
stroke4  219  13 I25
stroke4  220  15 I25
stroke4  221  16 I25
stroke4  222  17 I25
stroke4  223  18 I25
stroke4  223  20 I25
stroke4  224  21 I25
stroke4  225  22 I25
stroke4  226  23 I25
stroke4  227  24 I25
stroke4  228  24 I25
stroke4  229  25 I25
stroke4  230  26 I25
stroke4  231  26 I25
stroke4  232  27 I25
stroke4  233  27 I25
stroke4  234  27 I25
stroke4  235  28 I25
stroke4  236  28 I25
stroke4  237  28 I25
stroke4  238  28 I25
stroke4  239  27 I25
stroke4  240  27 I25
stroke4  241  27 I25
stroke4  242  26 I25
stroke4  243  25 I25
stroke4  244  25 I25
stroke4  244  24 I25
stroke4  245  23 I25
stroke4  245  22 I25
stroke4  246  21 I25
stroke4  246  20 I25
stroke4  247  19 I25
stroke4  247  18 I25
stroke4  247  17 I25
stroke4  248  16 I25
stroke4  248  15 I25
stroke4  247  14 I25
stroke4  247  13 I25
stroke4  247  12 I25
stroke4  247  11 I25
stroke4  247  10 I25
stroke4  246  9 I25
stroke4  246  8 I25
stroke4  246  7 I25
stroke4  245  6 I25
stroke4  244  5 I25
stroke4  244  4 I25
stroke4  243  4 I25
stroke4  243  3 I25
stroke4  242  3 I25
stroke4  242  2 I25
stroke4  241  2 I25
stroke4  241  1 I25
stroke4  240  1 I25
stroke4  240  2 I25
stroke4  240  3 I25
stroke4  239  3 I25
stroke4  239  4 I25
stroke4  239  5 I25
stroke4  239  6 I25
stroke4  239  8 I25
stroke4  239  9 I25
stroke4  239  10 I25
stroke4  239  11 I25
stroke4  239  13 I25
stroke4  239  14 I25
stroke4  239  16 I25
stroke4  239  17 I25
stroke4  239  19 I25
stroke4  239  21 I25
stroke4  239  22 I25
stroke4  238  24 I25
stroke4  238  25 I25
stroke4  238  27 I25
stroke4  238  29 I25
stroke4  238  30 I25
stroke4  238  32 I25
stroke4  238  33 I25
stroke4  238  35 I25
stroke4  238  36 I25
stroke4  238  38 I25
stroke4  238  39 I25
stroke4  238  41 I25
stroke4  238  42 I25
stroke4  238  43 I25
stroke4  238  44 I25
stroke4  238  46 I25
stroke4  238  47 I25
stroke4  238  48 I25
stroke4  238  49 I25
stroke4  238  50 I25
stroke4  237  52 I25
stroke4  237  53 I25
stroke4  237  54 I25
stroke4  237  55 I25
stroke4  237  56 I25
stroke4  237  57 I25
stroke4  237  58 I25
stroke4  237  59 I25
stroke4  237  60 I25
stroke4  237  61 I25
stroke4  237  62 I25
stroke4  237  63 I25
stroke4  237  64 I25
stroke4  237  65 I25
stroke4  236  65 I25
stroke4  236  66 I25
stroke4  235  66 I25
stroke5  270  44 B24
stroke5  269  44 I24
stroke5  269  43 I24
stroke5  269  42 I24
stroke5  270  41 I24
stroke5  270  39 I24
stroke5  270  38 I24
stroke5  270  37 I24
stroke5  270  36 I24
stroke5  270  34 I24
stroke5  270  33 I24
stroke5  270  31 I24
stroke5  270  30 I24
stroke5  270  28 I24
stroke5  270  26 I24
stroke5  269  24 I24
stroke5  269  22 I24
stroke5  269  21 I24
stroke5  269  19 I24
stroke5  269  17 I24
stroke5  269  16 I24
stroke5  269  14 I24
stroke5  269  13 I24
stroke5  268  12 I24
stroke5  268  11 I24
stroke5  268  10 I24
stroke5  268  9 I24
stroke5  268  8 I24
stroke5  268  7 I24
stroke5  268  6 I24
stroke5  268  5 I24
stroke5  268  4 I24
stroke5  269  4 I24
stroke5  269  3 I24
stroke5  270  3 I24
stroke5  271  3 I24
stroke5  272  3 I24
stroke5  273  3 I24
stroke5  274  3 I24
stroke5  275  3 I24
stroke5  276  3 I24
stroke5  277  3 I24
stroke5  278  3 I24
stroke5  279  3 I24
stroke5  280  3 I24
stroke5  281  3 I24
stroke5  282  4 I24
stroke5  283  4 I24
stroke5  284  4 I24
stroke5  285  4 I24
stroke5  286  4 I24
stroke5  286  5 I24
stroke5  287  5 I24
stroke5  288  5 I24
stroke5  288  6 I24
stroke5  289  6 I24
stroke5  289  7 I24
stroke5  290  7 I24
stroke5  290  8 I24
stroke5  291  9 I24
stroke5  291  10 I24
stroke5  291  11 I24
stroke5  291  12 I24
stroke5  291  13 I24
stroke5  291  14 I24
stroke5  291  15 I24
stroke5  291  17 I24
stroke5  291  18 I24
stroke5  291  20 I24
stroke5  291  21 I24
stroke5  291  22 I24
stroke5  291  24 I24
stroke5  291  25 I24
stroke5  291  27 I24
stroke5  290  28 I24
stroke5  290  30 I24
stroke5  290  32 I24
stroke5  290  33 I24
stroke5  290  35 I24
stroke5  290  37 I24
stroke5  290  38 I24
stroke5  290  40 I24
stroke5  289  41 I24
stroke5  289  42 I24
stroke5  289  44 I24
stroke5  289  45 I24
stroke5  289  46 I24
stroke5  289  47 I24
stroke5  289  48 I24
stroke5  289  49 I24
stroke5  288  50 I24
stroke5  288  51 I24
stroke5  288  52 I24
stroke5  287  52 I24
stroke5  287  53 I24
stroke5  287  54 I24
stroke5  286  54 I24
stroke5  286  55 I24
stroke5  285  55 I24
stroke5  284  56 I24
stroke5  283  56 I24
stroke5  283  57 I24
stroke5  282  57 I24
stroke5  281  57 I24
stroke5  280  57 I24
stroke5  278  58 I24
stroke5  277  58 I24
stroke5  276  58 I24
stroke5  275  58 I24
stroke5  273  58 I24
stroke5  272  58 I24
stroke5  271  58 I24
stroke5  269  57 I24
stroke5  268  58 I24
stroke5  266  57 I24
stroke5  265  57 I24
stroke5  263  57 I24
stroke5  262  57 I24
stroke5  261  57 I24
stroke5  260  57 I24
stroke5  259  57 I24
stroke5  258  58 I24
stroke5  257  58 I24
stroke5  257  59 I24
stroke5  258  60 I24
stroke5  258  61 I24
stroke5  259  62 I24
stroke5  259  63 I24
stroke5  260  63 I24
stroke5  261  64 I24
stroke5  261  65 I24
stroke5  262  65 I24
stroke5  263  66 I24
stroke5  264  66 I24
stroke5  264  67 I24
stroke5  265  67 I24
stroke5  266  67 I24
stroke5  267  68 I24
stroke5  268  68 I24
stroke5  269  68 I24
stroke5  270  67 I24
stroke5  271  67 I24
stroke5  272  67 I24
stroke5  273  67 I24
stroke5  274  66 I24
stroke5  275  66 I24
stroke5  276  65 I24
stroke5  277  64 I24
stroke5  278  64 I24
stroke5  279  64 I24
stroke5  280  63 I24
stroke5  281  63 I24
stroke5  282  63 I24
stroke5  283  63 I24
stroke5  283  64 I24
stroke5  284  64 I24
stroke5  285  64 I24
stroke5  286  64 I24
stroke5  286  65 I24
stroke5  287  65 I24
stroke5  287  66 I24
stroke5  288  66 I24
stroke5  287  66 I24
stroke5  287  65 I24
stroke6  317  3 B35
stroke6  318  3 I35
stroke6  319  3 I35
stroke6  320  3 I35
stroke6  321  4 I35
stroke6  322  4 I35
stroke6  323  4 I35
stroke6  323  5 I35
stroke6  324  5 I35
stroke6  324  6 I35
stroke6  325  7 I35
stroke6  325  8 I35
stroke6  325  9 I35
stroke6  325  10 I35
stroke6  325  11 I35
stroke6  324  12 I35
stroke6  323  13 I35
stroke6  322  13 I35
stroke6  322  14 I35
stroke6  321  14 I35
stroke6  321  15 I35
stroke6  320  15 I35
stroke6  319  15 I35
stroke6  318  15 I35
stroke6  318  14 I35
stroke6  317  14 I35
stroke6  316  13 I35
stroke6  316  12 I35
stroke6  315  11 I35
stroke6  315  10 I35
stroke6  315  9 I35
stroke6  315  8 I35
stroke6  316  7 I35
stroke6  316  6 I35
stroke6  317  5 I35
stroke6  318  4 I35
stroke6  319  4 I35
stroke6  319  3 I35
stroke6  320  3 I35
stroke6  321  3 I35
stroke6  322  3 I35
stroke6  323  3 I35
stroke6  323  4 I35
stroke6  324  4 I35
stroke6  325  4 I35
stroke6  325  5 I35
stroke6  326  6 I35
stroke6  327  7 I35
stroke6  327  8 I35
stroke6  327  9 I35
stroke6  328  10 I35
stroke6  328  11 I35
stroke6  328  12 I35
stroke6  329  14 I35
stroke6  329  15 I35
stroke6  329  17 I35
stroke6  329  18 I35
stroke6  330  20 I35
stroke6  330  22 I35
stroke6  330  24 I35
stroke6  330  26 I35
stroke6  330  28 I35
stroke6  330  29 I35
stroke6  330  31 I35
stroke6  330  33 I35
stroke6  330  35 I35
stroke6  330  36 I35
stroke6  330  38 I35
stroke6  330  40 I35
stroke6  330  41 I35
stroke6  329  43 I35
stroke6  329  44 I35
stroke6  329  46 I35
stroke6  329  47 I35
stroke6  329  48 I35
stroke6  329  49 I35
stroke6  328  50 I35
stroke6  328  51 I35
stroke6  328  52 I35
stroke6  328  53 I35
stroke6  328  54 I35
stroke6  327  54 I35
stroke6  326  55 I35
stroke6  326  54 I35
stroke6  325  54 I35
stroke6  324  55 I35
stroke6  323  55 I35
stroke6  322  55 I35
stroke6  320  55 I35
stroke6  319  55 I35
stroke6  318  55 I35
stroke6  316  55 I35
stroke6  315  55 I35
stroke6  313  55 I35
stroke6  311  55 I35
stroke6  310  55 I35
stroke6  308  55 I35
stroke6  307  55 I35
stroke6  305  55 I35
stroke6  304  55 I35
stroke6  302  55 I35
stroke6  301  55 I35
stroke6  299  55 I35
stroke6  298  55 I35
stroke6  297  55 I35
stroke6  296  55 I35
stroke6  295  55 I35
stroke6  294  55 I35
stroke6  293  55 I35
stroke6  292  55 I35
stroke6  292  56 I35
stroke6  293  56 I35
stroke6  293  57 I35
stroke6  293  58 I35
stroke6  294  58 I35
stroke6  295  59 I35
stroke6  295  60 I35
stroke6  296  61 I35
stroke6  297  61 I35
stroke6  298  62 I35
stroke6  299  63 I35
stroke6  300  63 I35
stroke6  301  64 I35
stroke6  302  64 I35
stroke6  303  65 I35
stroke6  304  65 I35
stroke6  305  65 I35
stroke6  306  65 I35
stroke6  307  66 I35
stroke6  308  66 I35
stroke6  309  66 I35
stroke6  310  65 I35
stroke6  311  65 I35
stroke6  312  65 I35
stroke6  313  64 I35
stroke6  315  64 I35
stroke6  316  64 I35
stroke6  317  63 I35
stroke6  318  63 I35
stroke6  319  63 I35
stroke6  320  62 I35
stroke6  321  62 I35
stroke6  322  62 I35
stroke6  323  62 I35
stroke6  324  63 I35
stroke6  325  63 I35
stroke6  326  63 I35
stroke6  327  63 I35
stroke6  328  63 I35
stroke6  328  64 I35
stroke6  329  64 I35
stroke6  330  65 I35
stroke6  331  65 I35
stroke6  332  65 I35
stroke6  332  66 I35
stroke6  333  66 I35
stroke6  332  65 I35
stroke7  359  6 B35
stroke7  359  5 I35
stroke7  359  4 I35
stroke7  360  3 I35
stroke7  361  4 I35
stroke7  362  4 I35
stroke7  363  4 I35
stroke7  363  5 I35
stroke7  364  5 I35
stroke7  365  6 I35
stroke7  366  7 I35
stroke7  366  8 I35
stroke7  367  9 I35
stroke7  367  10 I35
stroke7  367  11 I35
stroke7  366  12 I35
stroke7  366  13 I35
stroke7  365  14 I35
stroke7  364  15 I35
stroke7  363  16 I35
stroke7  362  16 I35
stroke7  361  16 I35
stroke7  361  15 I35
stroke7  360  15 I35
stroke7  359  14 I35
stroke7  358  13 I35
stroke7  358  12 I35
stroke7  358  11 I35
stroke7  357  10 I35
stroke7  357  9 I35
stroke7  357  8 I35
stroke7  358  7 I35
stroke7  358  6 I35
stroke7  359  6 I35
stroke7  359  5 I35
stroke7  360  5 I35
stroke7  360  4 I35
stroke7  361  4 I35
stroke7  362  4 I35
stroke7  363  4 I35
stroke7  364  4 I35
stroke7  365  4 I35
stroke7  365  5 I35
stroke7  366  5 I35
stroke7  367  6 I35
stroke7  368  7 I35
stroke7  369  8 I35
stroke7  369  9 I35
stroke7  370  9 I35
stroke7  370  10 I35
stroke7  370  11 I35
stroke7  371  12 I35
stroke7  371  13 I35
stroke7  371  14 I35
stroke7  371  15 I35
stroke7  371  17 I35
stroke7  372  18 I35
stroke7  372  19 I35
stroke7  372  20 I35
stroke7  372  22 I35
stroke7  372  23 I35
stroke7  372  24 I35
stroke7  372  26 I35
stroke7  372  27 I35
stroke7  372  28 I35
stroke7  372  29 I35
stroke7  372  31 I35
stroke7  372  32 I35
stroke7  372  33 I35
stroke7  372  35 I35
stroke7  372  36 I35
stroke7  373  37 I35
stroke7  372  39 I35
stroke7  372  40 I35
stroke7  372  41 I35
stroke7  372  43 I35
stroke7  372  44 I35
stroke7  372  45 I35
stroke7  372  47 I35
stroke7  372  48 I35
stroke7  372  49 I35
stroke7  372  50 I35
stroke7  371  51 I35
stroke7  371  52 I35
stroke7  371  53 I35
stroke7  371  54 I35
stroke7  371  55 I35
stroke7  370  55 I35
stroke7  369  55 I35
stroke7  369  56 I35
stroke7  368  56 I35
stroke7  367  56 I35
stroke7  366  56 I35
stroke7  365  56 I35
stroke7  363  56 I35
stroke7  362  56 I35
stroke7  360  56 I35
stroke7  358  56 I35
stroke7  356  56 I35
stroke7  354  56 I35
stroke7  353  56 I35
stroke7  351  56 I35
stroke7  349  56 I35
stroke7  348  56 I35
stroke7  346  56 I35
stroke7  345  55 I35
stroke7  343  55 I35
stroke7  342  55 I35
stroke7  341  54 I35
stroke7  340  54 I35
stroke7  339  54 I35
stroke7  338  53 I35
stroke7  337  53 I35
stroke7  338  54 I35
stroke7  339  55 I35
stroke7  340  56 I35
stroke7  341  57 I35
stroke7  342  57 I35
stroke7  343  58 I35
stroke7  344  59 I35
stroke7  345  59 I35
stroke7  346  60 I35
stroke7  347  61 I35
stroke7  348  61 I35
stroke7  349  62 I35
stroke7  350  62 I35
stroke7  351  63 I35
stroke7  352  63 I35
stroke7  353  63 I35
stroke7  354  63 I35
stroke7  355  63 I35
stroke7  356  63 I35
stroke7  357  63 I35
stroke7  358  63 I35
stroke7  359  62 I35
stroke7  360  62 I35
stroke7  361  62 I35
stroke7  362  61 I35
stroke7  363  61 I35
stroke7  364  61 I35
stroke7  365  60 I35
stroke7  366  60 I35
stroke7  367  60 I35
stroke7  368  60 I35
stroke7  369  60 I35
stroke7  370  61 I35
stroke7  371  61 I35
stroke7  372  62 I35
stroke7  373  62 I35
stroke7  374  62 I35
stroke7  375  63 I35
stroke7  376  63 I35
stroke7  376  64 I35
stroke7  377  64 I35
stroke7  377  65 I35
stroke8  405  65 B33
stroke8  406  65 I33
stroke8  406  64 I33
stroke8  406  63 I33
stroke8  405  62 I33
stroke8  405  61 I33
stroke8  405  60 I33
stroke8  405  59 I33
stroke8  404  58 I33
stroke8  404  57 I33
stroke8  404  56 I33
stroke8  403  55 I33
stroke8  402  55 I33
stroke8  402  54 I33
stroke8  401  53 I33
stroke8  400  53 I33
stroke8  399  52 I33
stroke8  398  52 I33
stroke8  397  52 I33
stroke8  396  52 I33
stroke8  395  52 I33
stroke8  394  52 I33
stroke8  393  53 I33
stroke8  392  53 I33
stroke8  391  54 I33
stroke8  391  55 I33
stroke8  390  56 I33
stroke8  390  57 I33
stroke8  391  58 I33
stroke8  391  59 I33
stroke8  392  60 I33
stroke8  392  61 I33
stroke8  393  62 I33
stroke8  394  63 I33
stroke8  395  64 I33
stroke8  396  64 I33
stroke8  396  65 I33
stroke8  397  65 I33
stroke8  398  66 I33
stroke8  399  66 I33
stroke8  400  66 I33
stroke8  401  66 I33
stroke8  402  66 I33
stroke8  403  66 I33
stroke8  404  66 I33
stroke8  405  66 I33
stroke8  405  65 I33
stroke8  406  65 I33
stroke8  406  64 I33
stroke8  406  63 I33
stroke8  407  63 I33
stroke8  407  62 I33
stroke8  407  61 I33
stroke8  407  60 I33
stroke8  407  59 I33
stroke8  407  58 I33
stroke8  407  57 I33
stroke8  406  56 I33
stroke8  406  55 I33
stroke8  406  54 I33
stroke8  406  53 I33
stroke8  406  51 I33
stroke8  406  50 I33
stroke8  406  49 I33
stroke8  406  48 I33
stroke8  406  46 I33
stroke8  406  45 I33
stroke8  405  44 I33
stroke8  405  42 I33
stroke8  405  41 I33
stroke8  405  39 I33
stroke8  405  38 I33
stroke8  405  36 I33
stroke8  405  35 I33
stroke8  404  33 I33
stroke8  404  32 I33
stroke8  404  30 I33
stroke8  404  29 I33
stroke8  404  27 I33
stroke8  404  26 I33
stroke8  404  24 I33
stroke8  404  23 I33
stroke8  404  22 I33
stroke8  403  20 I33
stroke8  403  19 I33
stroke8  403  18 I33
stroke8  403  16 I33
stroke8  402  15 I33
stroke8  402  14 I33
stroke8  402  13 I33
stroke8  402  12 I33
stroke8  402  11 I33
stroke8  402  10 I33
stroke8  402  9 I33
stroke8  402  8 I33
stroke8  402  7 I33
stroke8  401  6 I33
stroke8  401  5 I33
stroke8  401  4 I33
stroke8  401  3 I33
stroke8  402  2 I33
stroke8  401  2 I33
stroke8  401  1 I33
stroke8  401  2 I33
stroke8  400  2 I33
stroke8  400  3 I33
stroke8  399  3 I33
stroke8  398  4 I33
stroke8  397  5 I33
stroke8  396  6 I33
stroke8  395  6 I33
stroke8  395  7 I33
stroke8  394  7 I33
stroke8  394  8 I33
stroke8  394  9 I33
stroke8  393  9 I33
stroke8  393  10 I33
stroke8  393  11 I33
stroke8  393  12 I33
stroke8  393  13 I33
stroke8  393  14 I33
stroke8  394  15 I33
stroke8  394  16 I33
stroke8  395  17 I33
stroke8  395  18 I33
stroke8  396  19 I33
stroke8  397  20 I33
stroke8  398  20 I33
stroke8  398  21 I33
stroke8  399  22 I33
stroke8  400  22 I33
stroke8  401  23 I33
stroke8  402  23 I33
stroke8  403  24 I33
stroke8  404  24 I33
stroke8  405  24 I33
stroke8  406  25 I33
stroke8  407  25 I33
stroke8  408  25 I33
stroke8  409  25 I33
stroke8  410  25 I33
stroke8  411  25 I33
stroke8  412  25 I33
stroke8  413  24 I33
stroke8  414  24 I33
stroke8  415  23 I33
stroke8  416  22 I33
stroke8  417  22 I33
stroke8  418  21 I33
stroke8  419  20 I33
stroke8  419  19 I33
stroke8  420  19 I33
stroke8  420  18 I33
stroke8  421  17 I33
stroke8  421  16 I33
stroke8  422  15 I33
stroke8  423  14 I33
stroke8  424  13 I33
stroke8  424  12 I33
stroke8  425  11 I33
stroke8  425  10 I33
stroke8  425  9 I33
stroke8  426  9 I33
stroke8  426  8 I33
stroke8  426  7 I33
stroke8  427  7 I33
stroke8  427  6 I33
stroke8  428  6 I33
stroke8  428  5 I33
stroke8  428  4 I33
stroke8  428  3 I33
stroke8  429  3 I33
stroke8  429  2 I33
stroke8  429  3 I33
stroke8  429  4 I33
stroke8  429  5 I33
stroke8  430  6 I33
stroke8  430  8 I33
stroke8  430  9 I33
stroke8  430  10 I33
stroke8  430  11 I33
stroke8  431  13 I33
stroke8  431  14 I33
stroke8  431  15 I33
stroke8  431  17 I33
stroke8  431  18 I33
stroke8  432  20 I33
stroke8  432  22 I33
stroke8  432  23 I33
stroke8  432  25 I33
stroke8  433  27 I33
stroke8  433  28 I33
stroke8  433  30 I33
stroke8  433  31 I33
stroke8  433  33 I33
stroke8  433  34 I33
stroke8  434  35 I33
stroke8  434  37 I33
stroke8  434  38 I33
stroke8  434  39 I33
stroke8  434  41 I33
stroke8  434  42 I33
stroke8  435  43 I33
stroke8  435  45 I33
stroke8  435  46 I33
stroke8  435  47 I33
stroke8  435  49 I33
stroke8  435  50 I33
stroke8  435  52 I33
stroke8  435  53 I33
stroke8  435  55 I33
stroke8  436  56 I33
stroke8  436  57 I33
stroke8  436  58 I33
stroke8  436  59 I33
stroke8  436  60 I33
stroke8  436  61 I33
stroke8  436  62 I33
stroke8  436  63 I33
stroke8  436  64 I33
stroke8  436  65 I33
stroke8  436  66 I33
stroke8  436  67 I33
stroke8  435  68 I33
stroke8  435  69 I33
stroke8  436  69 I33
stroke8  435  69 I33
stroke8  435  70 I33
stroke8  435  69 I33
stroke8  435  68 I33
stroke8  434  68 I33
stroke8  434  67 I33
