stroke1  93  67 B55
stroke1  92  67 I55
stroke1  92  66 I55
stroke1  92  65 I55
stroke1  92  64 I55
stroke1  92  63 I55
stroke1  92  62 I55
stroke1  92  61 I55
stroke1  92  59 I55
stroke1  92  58 I55
stroke1  92  57 I55
stroke1  91  55 I55
stroke1  91  54 I55
stroke1  91  52 I55
stroke1  91  50 I55
stroke1  91  49 I55
stroke1  91  47 I55
stroke1  91  45 I55
stroke1  91  44 I55
stroke1  91  44 I55
stroke1  91  42 I55
stroke1  91  41 I55
stroke1  90  39 I55
stroke1  90  38 I55
stroke1  90  36 I55
stroke1  90  35 I55
stroke1  90  33 I55
stroke1  90  32 I55
stroke1  90  30 I55
stroke1  90  29 I55
stroke1  90  27 I55
stroke1  90  26 I55
stroke1  90  25 I55
stroke1  90  23 I55
stroke1  90  22 I55
stroke1  90  20 I55
stroke1  90  19 I55
stroke1  90  18 I55
stroke1  89  16 I55
stroke1  89  15 I55
stroke1  89  14 I55
stroke1  89  13 I55
stroke1  89  12 I55
stroke1  90  12 I55
stroke1  90  11 I55
stroke1  90  10 I55
stroke1  91  9 I55
stroke1  91  8 I55
stroke1  92  8 I55
stroke1  92  7 I55
stroke1  93  6 I55
stroke1  94  6 I55
stroke1  95  5 I55
stroke1  96  5 I55
stroke1  97  5 I55
stroke1  97  6 I55
stroke1  98  6 I55
stroke1  99  6 I55
stroke1  99  7 I55
stroke1  100  7 I55
stroke1  100  8 I55
stroke1  101  8 I55
stroke1  101  9 I55
stroke1  101  10 I55
stroke1  102  10 I55
stroke1  102  11 I55
stroke1  102  12 I55
stroke1  102  13 I55
stroke1  102  14 I55
stroke1  102  15 I55
stroke1  101  16 I55
stroke1  100  16 I55
stroke1  99  17 I55
stroke1  98  16 I55
stroke1  97  16 I55
stroke1  96  16 I55
stroke1  95  16 I55
stroke1  94  15 I55
stroke1  93  14 I55
stroke1  92  13 I55
stroke1  92  12 I55
stroke1  92  11 I55
stroke1  92  10 I55
stroke1  93  10 I55
stroke1  93  11 I55
stroke1  110  63 I55
stroke1  110  64 I55
stroke1  110  65 I55
stroke1  110  66 I55
stroke1  109  66 I55
stroke1  109  65 I55
stroke1  109  64 I55
stroke1  109  63 I55
stroke1  109  62 I55
stroke1  109  60 I55
stroke1  109  59 I55
stroke1  108  57 I55
stroke1  108  55 I55
stroke1  108  53 I55
stroke1  108  51 I55
stroke1  108  49 I55
stroke1  108  47 I55
stroke1  108  45 I55
stroke1  108  43 I55
stroke1  108  41 I55
stroke1  108  40 I55
stroke1  108  38 I55
stroke1  108  36 I55
stroke1  107  35 I55
stroke1  107  33 I55
stroke1  107  31 I55
stroke1  108  30 I55
stroke1  108  29 I55
stroke1  108  27 I55
stroke1  108  26 I55
stroke1  108  25 I55
stroke1  108  24 I55
stroke1  108  23 I55
stroke1  108  22 I55
stroke1  108  21 I55
stroke1  108  19 I55
stroke1  108  18 I55
stroke1  108  17 I55
stroke1  109  17 I55
stroke1  109  16 I55
stroke1  109  15 I55
stroke1  109  14 I55
stroke1  109  13 I55
stroke1  109  12 I55
stroke1  109  11 I55
stroke1  110  10 I55
stroke1  110  9 I55
stroke1  110  8 I55
stroke1  111  8 I55
stroke1  111  7 I55
stroke1  111  6 I55
stroke1  112  6 I55
stroke1  113  5 I55
stroke1  114  5 I55
stroke1  115  5 I55
stroke1  116  5 I55
stroke1  117  6 I55
stroke1  118  6 I55
stroke1  119  7 I55
stroke1  120  8 I55
stroke1  120  9 I55
stroke1  121  10 I55
stroke1  121  11 I55
stroke1  121  12 I55
stroke1  121  13 I55
stroke1  121  14 I55
stroke1  120  15 I55
stroke1  120  16 I55
stroke1  119  17 I55
stroke1  118  17 I55
stroke1  117  17 I55
stroke1  116  17 I55
stroke1  115  16 I55
stroke1  114  16 I55
stroke1  114  15 I55
stroke1  113  14 I55
stroke1  112  13 I55
stroke1  112  12 I55
stroke1  111  11 I55
stroke1  111  10 I55
stroke1  111  9 I55
stroke1  112  9 I55
stroke1  113  10 I55
stroke2  141  35 B43
stroke2  141  34 I43
stroke2  140  34 I43
stroke2  141  34 I43
stroke2  140  33 I43
stroke2  141  33 I43
stroke2  141  32 I43
stroke2  142  31 I43
stroke2  143  31 I43
stroke2  144  30 I43
stroke2  144  31 I43
stroke2  145  31 I43
stroke2  146  31 I43
stroke2  146  32 I43
stroke2  147  32 I43
stroke2  148  33 I43
stroke2  149  34 I43
stroke2  149  35 I43
stroke2  149  36 I43
stroke2  150  36 I43
stroke2  150  37 I43
stroke2  149  37 I43
stroke2  149  38 I43
stroke2  149  39 I43
stroke2  148  39 I43
stroke2  148  40 I43
stroke2  147  40 I43
stroke2  146  40 I43
stroke2  146  41 I43
stroke2  145  40 I43
stroke2  144  40 I43
stroke2  143  39 I43
stroke2  143  38 I43
stroke2  142  38 I43
stroke2  142  37 I43
stroke2  142  36 I43
stroke2  142  35 I43
stroke2  141  34 I43
stroke2  141  33 I43
stroke2  141  32 I43
stroke2  141  31 I43
stroke2  141  30 I43
stroke2  140  29 I43
stroke2  140  28 I43
stroke2  140  27 I43
stroke2  140  25 I43
stroke2  140  24 I43
stroke2  140  23 I43
stroke2  140  22 I43
stroke2  140  20 I43
stroke2  140  19 I43
stroke2  140  18 I43
stroke2  140  16 I43
stroke2  140  15 I43
stroke2  140  14 I43
stroke2  140  13 I43
stroke2  140  12 I43
stroke2  140  11 I43
stroke2  141  10 I43
stroke2  141  9 I43
stroke2  142  8 I43
stroke2  142  7 I43
stroke2  143  7 I43
stroke2  144  6 I43
stroke2  145  6 I43
stroke2  146  6 I43
stroke2  147  5 I43
stroke2  148  5 I43
stroke2  149  5 I43
stroke2  151  5 I43
stroke2  152  5 I43
stroke2  153  5 I43
stroke2  154  5 I43
stroke2  155  5 I43
stroke2  156  5 I43
stroke2  158  5 I43
stroke2  159  5 I43
stroke2  160  6 I43
stroke2  161  6 I43
stroke2  162  7 I43
stroke2  163  8 I43
stroke2  164  8 I43
stroke2  164  9 I43
stroke2  165  10 I43
stroke2  166  11 I43
stroke2  166  12 I43
stroke2  167  14 I43
stroke2  167  15 I43
stroke2  168  16 I43
stroke2  169  18 I43
stroke2  169  19 I43
stroke2  169  20 I43
stroke2  170  22 I43
stroke2  170  23 I43
stroke2  170  25 I43
stroke2  171  26 I43
stroke2  171  28 I43
stroke2  171  29 I43
stroke2  171  31 I43
stroke2  172  32 I43
stroke2  172  34 I43
stroke2  172  35 I43
stroke2  172  36 I43
stroke2  172  38 I43
stroke2  172  39 I43
stroke2  172  41 I43
stroke2  172  42 I43
stroke2  172  43 I43
stroke2  172  45 I43
stroke2  172  46 I43
stroke2  172  47 I43
stroke2  172  48 I43
stroke2  172  49 I43
stroke2  172  50 I43
stroke2  171  51 I43
stroke2  171  52 I43
stroke2  171  53 I43
stroke2  171  54 I43
stroke2  171  55 I43
stroke2  171  56 I43
stroke2  170  57 I43
stroke2  170  58 I43
stroke2  169  59 I43
stroke2  169  60 I43
stroke2  169  61 I43
stroke2  168  62 I43
stroke2  167  63 I43
stroke2  166  64 I43
stroke2  165  64 I43
stroke2  165  65 I43
stroke2  164  65 I43
stroke2  163  66 I43
stroke2  162  66 I43
stroke2  161  66 I43
stroke2  160  67 I43
stroke2  159  67 I43
stroke2  158  68 I43
stroke2  157  68 I43
stroke2  156  68 I43
stroke2  155  68 I43
stroke2  154  68 I43
stroke2  152  69 I43
stroke2  151  68 I43
stroke2  150  68 I43
stroke2  148  68 I43
stroke2  147  68 I43
stroke2  145  67 I43
stroke2  143  66 I43
stroke2  142  65 I43
stroke2  140  64 I43
stroke2  139  63 I43
stroke2  137  62 I43
stroke2  136  61 I43
stroke2  135  60 I43
stroke2  134  59 I43
stroke2  134  58 I43
stroke2  133  56 I43
stroke2  132  55 I43
stroke2  132  53 I43
stroke2  132  51 I43
stroke2  131  49 I43
stroke3  196  5 B36
stroke3  195  5 I36
stroke3  194  5 I36
stroke3  194  6 I36
stroke3  193  6 I36
stroke3  193  7 I36
stroke3  193  8 I36
stroke3  193  9 I36
stroke3  193  10 I36
stroke3  193  11 I36
stroke3  193  12 I36
stroke3  194  12 I36
stroke3  194  13 I36
stroke3  195  14 I36
stroke3  196  15 I36
stroke3  197  15 I36
stroke3  198  16 I36
stroke3  199  16 I36
stroke3  200  16 I36
stroke3  200  15 I36
stroke3  201  15 I36
stroke3  202  15 I36
stroke3  202  14 I36
stroke3  203  13 I36
stroke3  203  12 I36
stroke3  203  11 I36
stroke3  203  10 I36
stroke3  203  9 I36
stroke3  202  8 I36
stroke3  202  7 I36
stroke3  201  7 I36
stroke3  201  6 I36
stroke3  200  6 I36
stroke3  199  6 I36
stroke3  198  6 I36
stroke3  197  6 I36
stroke3  197  7 I36
stroke3  196  8 I36
stroke3  195  9 I36
stroke3  194  10 I36
stroke3  194  11 I36
stroke3  194  13 I36
stroke3  193  14 I36
stroke3  193  16 I36
stroke3  193  17 I36
stroke3  192  19 I36
stroke3  192  21 I36
stroke3  192  23 I36
stroke3  192  25 I36
stroke3  192  27 I36
stroke3  192  28 I36
stroke3  192  30 I36
stroke3  192  32 I36
stroke3  193  34 I36
stroke3  193  35 I36
stroke3  193  37 I36
stroke3  193  39 I36
stroke3  193  40 I36
stroke3  194  41 I36
stroke3  194  42 I36
stroke3  194  43 I36
stroke3  194  44 I36
stroke3  195  46 I36
stroke3  195  47 I36
stroke3  196  47 I36
stroke3  196  48 I36
stroke3  196  49 I36
stroke3  197  50 I36
stroke3  197  51 I36
stroke3  198  51 I36
stroke3  199  51 I36
stroke3  200  51 I36
stroke3  201  50 I36
stroke3  202  50 I36
stroke3  202  49 I36
stroke3  203  48 I36
stroke3  204  47 I36
stroke3  205  45 I36
stroke3  207  44 I36
stroke3  208  42 I36
stroke3  209  41 I36
stroke3  210  39 I36
stroke3  212  37 I36
stroke3  213  35 I36
stroke3  214  34 I36
stroke3  215  32 I36
stroke3  216  30 I36
stroke3  217  29 I36
stroke3  218  27 I36
stroke3  219  26 I36
stroke3  220  24 I36
stroke3  221  23 I36
stroke3  222  21 I36
stroke3  223  19 I36
stroke3  224  18 I36
stroke3  224  16 I36
stroke3  225  15 I36
stroke3  225  14 I36
stroke3  226  13 I36
stroke3  226  12 I36
stroke3  227  11 I36
stroke3  227  10 I36
stroke3  227  9 I36
stroke3  228  8 I36
stroke3  228  7 I36
stroke3  228  6 I36
stroke3  228  7 I36
stroke3  228  8 I36
stroke3  228  10 I36
stroke3  228  11 I36
stroke3  228  13 I36
stroke3  228  15 I36
stroke3  228  18 I36
stroke3  229  20 I36
stroke3  229  22 I36
stroke3  229  24 I36
stroke3  229  26 I36
stroke3  229  28 I36
stroke3  229  31 I36
stroke3  229  32 I36
stroke3  229  34 I36
stroke3  229  36 I36
stroke3  229  38 I36
stroke3  229  39 I36
stroke3  229  41 I36
stroke3  229  42 I36
stroke3  229  44 I36
stroke3  229  46 I36
stroke3  229  47 I36
stroke3  229  49 I36
stroke3  228  50 I36
stroke3  228  51 I36
stroke3  228  52 I36
stroke3  228  54 I36
stroke3  228  55 I36
stroke3  227  56 I36
stroke3  227  57 I36
stroke3  227  58 I36
stroke3  226  59 I36
stroke3  226  60 I36
stroke3  225  61 I36
stroke3  224  62 I36
stroke3  224  63 I36
stroke3  223  64 I36
stroke3  222  65 I36
stroke3  221  65 I36
stroke3  220  66 I36
stroke3  219  66 I36
stroke3  218  67 I36
stroke3  217  67 I36
stroke3  216  68 I36
stroke3  215  68 I36
stroke3  214  68 I36
stroke3  212  68 I36
stroke3  211  68 I36
stroke3  209  69 I36
stroke3  208  69 I36
stroke3  206  68 I36
stroke3  204  68 I36
stroke3  203  68 I36
stroke3  201  68 I36
stroke3  199  67 I36
stroke3  197  66 I36
stroke3  196  66 I36
stroke3  194  65 I36
stroke3  193  64 I36
stroke3  191  63 I36
stroke3  190  62 I36
stroke3  189  60 I36
stroke3  188  59 I36
stroke3  187  57 I36
stroke3  186  56 I36
stroke3  185  54 I36
stroke3  184  52 I36
stroke4  260  5 B1
stroke4  260  4 I1
stroke4  261  4 I1
stroke4  261  3 I1
stroke4  260  3 I1
stroke4  260  4 I1
stroke4  259  5 I1
stroke4  259  6 I1
stroke4  259  7 I1
stroke4  259  8 I1
stroke4  259  10 I1
stroke4  259  12 I1
stroke4  259  14 I1
stroke4  260  16 I1
stroke4  260  18 I1
stroke4  260  20 I1
stroke4  260  23 I1
stroke4  261  25 I1
stroke4  261  28 I1
stroke4  261  30 I1
stroke4  261  33 I1
stroke4  261  35 I1
stroke4  261  38 I1
stroke4  261  40 I1
stroke4  261  43 I1
stroke4  261  45 I1
stroke4  260  46 I1
stroke4  260  48 I1
stroke4  260  49 I1
stroke4  259  50 I1
stroke4  259  52 I1
stroke4  259  53 I1
stroke4  259  54 I1
stroke4  258  54 I1
stroke4  258  55 I1
stroke4  258  56 I1
stroke4  258  57 I1
stroke4  257  57 I1
stroke4  256  56 I1
stroke4  255  56 I1
stroke4  254  55 I1
stroke4  253  55 I1
stroke4  253  54 I1
stroke4  252  54 I1
stroke4  251  54 I1
stroke4  251  53 I1
stroke4  250  53 I1
stroke4  250  54 I1
stroke4  250  55 I1
stroke4  251  56 I1
stroke4  251  57 I1
stroke4  252  58 I1
stroke4  252  59 I1
stroke4  253  60 I1
stroke4  254  61 I1
stroke4  255  62 I1
stroke4  257  63 I1
stroke4  258  64 I1
stroke4  259  65 I1
stroke4  260  66 I1
stroke4  262  67 I1
stroke4  263  67 I1
stroke4  264  68 I1
stroke4  266  68 I1
stroke4  267  68 I1
stroke4  269  69 I1
stroke4  270  69 I1
stroke4  271  69 I1
stroke4  273  69 I1
stroke4  274  68 I1
stroke4  275  68 I1
stroke4  277  68 I1
stroke4  278  68 I1
stroke4  279  67 I1
stroke4  281  66 I1
stroke4  282  65 I1
stroke4  283  64 I1
stroke4  284  63 I1
stroke4  285  62 I1
stroke4  287  61 I1
stroke4  288  60 I1
stroke4  289  59 I1
stroke4  290  58 I1
stroke4  291  56 I1
stroke4  292  55 I1
stroke4  292  53 I1
stroke4  293  51 I1
stroke4  293  49 I1
stroke4  294  47 I1
stroke4  294  45 I1
stroke4  294  43 I1
stroke4  294  41 I1
stroke4  295  39 I1
stroke4  295  37 I1
stroke4  295  35 I1
stroke4  295  33 I1
stroke4  295  31 I1
stroke4  295  29 I1
stroke4  295  27 I1
stroke4  295  25 I1
stroke4  295  23 I1
stroke4  294  21 I1
stroke4  294  19 I1
stroke4  294  17 I1
stroke4  294  15 I1
stroke4  294  14 I1
stroke4  293  12 I1
stroke4  293  10 I1
stroke4  293  9 I1
stroke4  293  8 I1
stroke4  293  7 I1
stroke4  293  6 I1
stroke4  293  5 I1
stroke4  293  4 I1
stroke4  293  3 I1
stroke4  293  2 I1
stroke4  293  1 I1
stroke4  293  0 I1
stroke4  294  0 I1
stroke4  294  1 I1
stroke4  294  3 I1
stroke4  294  4 I1
stroke5  315  32 B43
stroke5  314  31 I43
stroke5  314  32 I43
stroke5  314  31 I43
stroke5  313  31 I43
stroke5  314  31 I43
stroke5  314  30 I43
stroke5  315  30 I43
stroke5  315  29 I43
stroke5  316  29 I43
stroke5  317  29 I43
stroke5  318  29 I43
stroke5  319  30 I43
stroke5  320  31 I43
stroke5  321  32 I43
stroke5  322  33 I43
stroke5  322  34 I43
stroke5  322  35 I43
stroke5  323  35 I43
stroke5  323  36 I43
stroke5  323  37 I43
stroke5  322  37 I43
stroke5  322  38 I43
stroke5  321  38 I43
stroke5  320  38 I43
stroke5  319  38 I43
stroke5  318  38 I43
stroke5  317  37 I43
stroke5  316  36 I43
stroke5  316  35 I43
stroke5  315  34 I43
stroke5  315  33 I43
stroke5  314  32 I43
stroke5  314  31 I43
stroke5  314  29 I43
stroke5  313  28 I43
stroke5  313  27 I43
stroke5  313  25 I43
stroke5  313  24 I43
stroke5  313  23 I43
stroke5  313  21 I43
stroke5  313  20 I43
stroke5  313  19 I43
stroke5  313  17 I43
stroke5  313  16 I43
stroke5  313  15 I43
stroke5  313  13 I43
stroke5  314  12 I43
stroke5  314  11 I43
stroke5  314  10 I43
stroke5  314  9 I43
stroke5  314  8 I43
stroke5  314  7 I43
stroke5  315  6 I43
stroke5  315  5 I43
stroke5  316  4 I43
stroke5  317  4 I43
stroke5  318  4 I43
stroke5  319  4 I43
stroke5  321  4 I43
stroke5  322  4 I43
stroke5  323  4 I43
stroke5  325  4 I43
stroke5  326  4 I43
stroke5  327  4 I43
stroke5  329  4 I43
stroke5  330  4 I43
stroke5  331  5 I43
stroke5  332  5 I43
stroke5  333  5 I43
stroke5  334  6 I43
stroke5  335  6 I43
stroke5  336  7 I43
stroke5  337  8 I43
stroke5  338  8 I43
stroke5  339  9 I43
stroke5  339  10 I43
stroke5  340  11 I43
stroke5  341  13 I43
stroke5  341  14 I43
stroke5  342  15 I43
stroke5  342  17 I43
stroke5  343  18 I43
stroke5  343  20 I43
stroke5  343  21 I43
stroke5  344  23 I43
stroke5  344  25 I43
stroke5  344  26 I43
stroke5  345  28 I43
stroke5  345  29 I43
stroke5  345  31 I43
stroke5  345  33 I43
stroke5  346  34 I43
stroke5  346  35 I43
stroke5  346  37 I43
stroke5  346  38 I43
stroke5  346  40 I43
stroke5  346  41 I43
stroke5  346  43 I43
stroke5  346  44 I43
stroke5  345  45 I43
stroke5  345  47 I43
stroke5  345  48 I43
stroke5  345  49 I43
stroke5  345  50 I43
stroke5  344  51 I43
stroke5  344  52 I43
stroke5  344  53 I43
stroke5  344  54 I43
stroke5  343  55 I43
stroke5  343  56 I43
stroke5  343  57 I43
stroke5  342  58 I43
stroke5  342  59 I43
stroke5  342  60 I43
stroke5  341  60 I43
stroke5  341  61 I43
stroke5  340  62 I43
stroke5  339  63 I43
stroke5  338  63 I43
stroke5  337  64 I43
stroke5  336  64 I43
stroke5  335  65 I43
stroke5  334  65 I43
stroke5  333  65 I43
stroke5  332  65 I43
stroke5  331  66 I43
stroke5  330  66 I43
stroke5  329  66 I43
stroke5  328  66 I43
stroke5  327  66 I43
stroke5  325  67 I43
stroke5  324  67 I43
stroke5  322  67 I43
stroke5  320  67 I43
stroke5  319  66 I43
stroke5  317  66 I43
stroke5  316  66 I43
stroke5  314  66 I43
stroke5  313  65 I43
stroke5  311  64 I43
stroke5  310  64 I43
stroke5  308  63 I43
stroke5  307  62 I43
stroke5  306  61 I43
stroke5  305  60 I43
stroke5  304  58 I43
stroke5  302  57 I43
stroke5  301  56 I43
stroke5  301  54 I43
stroke5  300  53 I43
stroke5  300  51 I43
stroke5  300  49 I43
stroke5  300  47 I43
stroke5  300  46 I43
stroke5  300  44 I43
stroke6  369  33 B44
stroke6  368  32 I44
stroke6  368  31 I44
stroke6  369  31 I44
stroke6  370  31 I44
stroke6  371  31 I44
stroke6  372  31 I44
stroke6  373  32 I44
stroke6  374  32 I44
stroke6  375  33 I44
stroke6  376  34 I44
stroke6  376  35 I44
stroke6  376  36 I44
stroke6  377  36 I44
stroke6  377  37 I44
stroke6  377  38 I44
stroke6  376  38 I44
stroke6  376  39 I44
stroke6  375  39 I44
stroke6  374  39 I44
stroke6  374  40 I44
stroke6  373  40 I44
stroke6  372  39 I44
stroke6  371  39 I44
stroke6  370  39 I44
stroke6  370  38 I44
stroke6  369  38 I44
stroke6  369  37 I44
stroke6  368  36 I44
stroke6  368  35 I44
stroke6  368  34 I44
stroke6  368  33 I44
stroke6  367  31 I44
stroke6  367  30 I44
stroke6  367  29 I44
stroke6  367  28 I44
stroke6  367  26 I44
stroke6  367  25 I44
stroke6  367  24 I44
stroke6  367  22 I44
stroke6  367  21 I44
stroke6  367  20 I44
stroke6  367  18 I44
stroke6  367  17 I44
stroke6  367  15 I44
stroke6  367  14 I44
stroke6  367  13 I44
stroke6  367  12 I44
stroke6  368  11 I44
stroke6  368  10 I44
stroke6  368  9 I44
stroke6  368  8 I44
stroke6  369  8 I44
stroke6  369  7 I44
stroke6  370  6 I44
stroke6  371  6 I44
stroke6  372  6 I44
stroke6  373  5 I44
stroke6  374  5 I44
stroke6  375  5 I44
stroke6  376  5 I44
stroke6  378  4 I44
stroke6  379  4 I44
stroke6  381  4 I44
stroke6  382  5 I44
stroke6  383  5 I44
stroke6  385  5 I44
stroke6  386  5 I44
stroke6  387  6 I44
stroke6  388  6 I44
stroke6  389  6 I44
stroke6  390  7 I44
stroke6  391  8 I44
stroke6  392  8 I44
stroke6  393  9 I44
stroke6  393  10 I44
stroke6  394  10 I44
stroke6  394  11 I44
stroke6  395  12 I44
stroke6  395  13 I44
stroke6  396  14 I44
stroke6  396  15 I44
stroke6  397  16 I44
stroke6  397  18 I44
stroke6  398  19 I44
stroke6  398  21 I44
stroke6  399  22 I44
stroke6  399  24 I44
stroke6  400  25 I44
stroke6  400  27 I44
stroke6  400  28 I44
stroke6  400  30 I44
stroke6  401  31 I44
stroke6  401  33 I44
stroke6  401  34 I44
stroke6  401  35 I44
stroke6  401  37 I44
stroke6  402  38 I44
stroke6  402  39 I44
stroke6  402  41 I44
stroke6  402  42 I44
stroke6  402  43 I44
stroke6  402  45 I44
stroke6  401  46 I44
stroke6  401  47 I44
stroke6  401  48 I44
stroke6  401  49 I44
stroke6  401  51 I44
stroke6  401  52 I44
stroke6  401  53 I44
stroke6  401  54 I44
stroke6  400  55 I44
stroke6  400  56 I44
stroke6  400  57 I44
stroke6  399  58 I44
stroke6  399  59 I44
stroke6  399  60 I44
stroke6  398  60 I44
stroke6  398  61 I44
stroke6  397  62 I44
stroke6  396  63 I44
stroke6  395  64 I44
stroke6  394  64 I44
stroke6  393  65 I44
stroke6  392  65 I44
stroke6  391  66 I44
stroke6  390  66 I44
stroke6  389  66 I44
stroke6  387  66 I44
stroke6  386  67 I44
stroke6  385  67 I44
stroke6  383  67 I44
stroke6  382  67 I44
stroke6  380  67 I44
stroke6  379  68 I44
stroke6  378  67 I44
stroke6  376  67 I44
stroke6  375  67 I44
stroke6  374  67 I44
stroke6  373  67 I44
stroke6  371  67 I44
stroke6  370  67 I44
stroke6  369  67 I44
stroke6  368  66 I44
stroke6  367  66 I44
stroke6  366  65 I44
stroke6  365  65 I44
stroke6  364  64 I44
stroke6  363  63 I44
stroke6  362  62 I44
stroke6  361  61 I44
stroke6  361  60 I44
stroke6  360  60 I44
stroke6  360  59 I44
stroke6  360  58 I44
stroke6  360  57 I44
stroke6  360  56 I44
stroke6  361  55 I44
stroke6  362  55 I44
stroke6  363  54 I44
stroke6  364  54 I44
stroke6  365  54 I44
stroke6  366  54 I44
stroke6  367  54 I44
stroke6  369  55 I44
stroke6  370  55 I44
stroke6  372  55 I44
stroke6  373  56 I44
stroke6  375  56 I44
stroke6  377  57 I44
stroke6  379  57 I44
stroke6  381  58 I44
stroke6  383  59 I44
stroke6  385  59 I44
stroke6  387  60 I44
stroke6  389  61 I44
stroke6  391  62 I44
stroke6  393  63 I44
stroke6  395  64 I44
stroke6  396  65 I44
stroke6  398  66 I44
stroke6  399  67 I44
stroke6  400  68 I44
stroke6  401  69 I44
stroke6  402  70 I44
stroke6  403  71 I44
stroke6  404  72 I44
stroke6  405  73 I44
stroke6  406  73 I44
stroke6  406  72 I44
stroke7  423  35 B43
stroke7  423  34 I43
stroke7  422  34 I43
stroke7  422  33 I43
stroke7  422  32 I43
stroke7  423  32 I43
stroke7  424  32 I43
stroke7  425  32 I43
stroke7  426  33 I43
stroke7  427  33 I43
stroke7  428  33 I43
stroke7  429  33 I43
stroke7  430  33 I43
stroke7  431  33 I43
stroke7  432  34 I43
stroke7  433  34 I43
stroke7  434  35 I43
stroke7  435  36 I43
stroke7  436  37 I43
stroke7  436  38 I43
stroke7  437  39 I43
stroke7  437  40 I43
stroke7  436  40 I43
stroke7  436  41 I43
stroke7  435  42 I43
stroke7  434  42 I43
stroke7  434  43 I43
stroke7  433  43 I43
stroke7  432  43 I43
stroke7  431  43 I43
stroke7  430  42 I43
stroke7  429  42 I43
stroke7  428  41 I43
stroke7  427  40 I43
stroke7  426  40 I43
stroke7  426  39 I43
stroke7  425  38 I43
stroke7  425  37 I43
stroke7  424  36 I43
stroke7  424  35 I43
stroke7  423  33 I43
stroke7  423  32 I43
stroke7  423  31 I43
stroke7  422  30 I43
stroke7  422  29 I43
stroke7  422  27 I43
stroke7  422  26 I43
stroke7  422  24 I43
stroke7  422  23 I43
stroke7  422  22 I43
stroke7  422  20 I43
stroke7  422  18 I43
stroke7  422  17 I43
stroke7  423  16 I43
stroke7  423  14 I43
stroke7  423  13 I43
stroke7  423  12 I43
stroke7  424  11 I43
stroke7  424  10 I43
stroke7  424  9 I43
stroke7  425  8 I43
stroke7  425  7 I43
stroke7  426  7 I43
stroke7  427  6 I43
stroke7  428  6 I43
stroke7  429  5 I43
stroke7  430  5 I43
stroke7  431  5 I43
stroke7  432  5 I43
stroke7  433  4 I43
stroke7  434  4 I43
stroke7  435  4 I43
stroke7  436  4 I43
stroke7  437  4 I43
stroke7  439  4 I43
stroke7  440  4 I43
stroke7  441  4 I43
stroke7  442  5 I43
stroke7  443  5 I43
stroke7  444  5 I43
stroke7  445  6 I43
stroke7  446  6 I43
stroke7  447  7 I43
stroke7  448  7 I43
stroke7  448  8 I43
stroke7  449  9 I43
stroke7  450  10 I43
stroke7  450  11 I43
stroke7  451  12 I43
stroke7  451  13 I43
stroke7  452  14 I43
stroke7  452  15 I43
stroke7  453  16 I43
stroke7  453  17 I43
stroke7  453  19 I43
stroke7  454  20 I43
stroke7  454  21 I43
stroke7  454  23 I43
stroke7  454  24 I43
stroke7  455  26 I43
stroke7  455  27 I43
stroke7  455  29 I43
stroke7  456  30 I43
stroke7  456  32 I43
stroke7  456  33 I43
stroke7  456  34 I43
stroke7  456  36 I43
stroke7  456  37 I43
stroke7  456  38 I43
stroke7  456  39 I43
stroke7  456  41 I43
stroke7  456  42 I43
stroke7  456  43 I43
stroke7  455  44 I43
stroke7  455  45 I43
stroke7  455  47 I43
stroke7  455  48 I43
stroke7  454  49 I43
stroke7  454  50 I43
stroke7  454  51 I43
stroke7  453  51 I43
stroke7  453  52 I43
stroke7  453  53 I43
stroke7  452  54 I43
stroke7  452  55 I43
stroke7  451  55 I43
stroke7  451  56 I43
stroke7  450  57 I43
stroke7  450  58 I43
stroke7  449  58 I43
stroke7  448  59 I43
stroke7  447  60 I43
stroke7  446  60 I43
stroke7  446  61 I43
stroke7  445  61 I43
stroke7  444  61 I43
stroke7  443  62 I43
stroke7  442  62 I43
stroke7  441  62 I43
stroke7  440  63 I43
stroke7  439  63 I43
stroke7  437  63 I43
stroke7  436  63 I43
stroke7  435  63 I43
stroke7  433  63 I43
stroke7  432  63 I43
stroke7  431  63 I43
stroke7  429  63 I43
stroke7  427  62 I43
stroke7  426  62 I43
stroke7  424  61 I43
stroke7  422  60 I43
stroke7  421  59 I43
stroke7  419  58 I43
stroke7  418  57 I43
stroke7  416  55 I43
stroke7  415  54 I43
stroke7  414  52 I43
stroke7  413  50 I43
stroke7  413  49 I43
stroke7  413  47 I43
stroke7  412  45 I43
stroke7  412  44 I43
stroke7  413  42 I43
stroke8  478  5 B36
stroke8  477  5 I36
stroke8  476  5 I36
stroke8  475  6 I36
stroke8  474  6 I36
stroke8  474  7 I36
stroke8  474  8 I36
stroke8  474  9 I36
stroke8  474  10 I36
stroke8  474  11 I36
stroke8  475  11 I36
stroke8  475  12 I36
stroke8  476  12 I36
stroke8  477  12 I36
stroke8  478  13 I36
stroke8  479  13 I36
stroke8  480  13 I36
stroke8  481  13 I36
stroke8  482  12 I36
stroke8  483  12 I36
stroke8  483  11 I36
stroke8  484  10 I36
stroke8  484  9 I36
stroke8  484  8 I36
stroke8  483  7 I36
stroke8  483  6 I36
stroke8  482  5 I36
stroke8  481  4 I36
stroke8  480  4 I36
stroke8  479  3 I36
stroke8  479  4 I36
stroke8  478  4 I36
stroke8  477  4 I36
stroke8  476  5 I36
stroke8  476  6 I36
stroke8  475  7 I36
stroke8  474  8 I36
stroke8  474  9 I36
stroke8  473  11 I36
stroke8  473  12 I36
stroke8  473  14 I36
stroke8  472  16 I36
stroke8  472  18 I36
stroke8  472  20 I36
stroke8  472  22 I36
stroke8  472  23 I36
stroke8  472  25 I36
stroke8  472  27 I36
stroke8  472  29 I36
stroke8  473  31 I36
stroke8  473  32 I36
stroke8  473  34 I36
stroke8  474  35 I36
stroke8  474  37 I36
stroke8  475  38 I36
stroke8  475  39 I36
stroke8  476  40 I36
stroke8  476  41 I36
stroke8  477  41 I36
stroke8  477  42 I36
stroke8  478  43 I36
stroke8  479  44 I36
stroke8  480  44 I36
stroke8  480  45 I36
stroke8  481  45 I36
stroke8  482  45 I36
stroke8  483  45 I36
stroke8  484  45 I36
stroke8  485  45 I36
stroke8  485  44 I36
stroke8  486  44 I36
stroke8  487  43 I36
stroke8  488  42 I36
stroke8  489  41 I36
stroke8  490  40 I36
stroke8  491  39 I36
stroke8  492  38 I36
stroke8  494  37 I36
stroke8  495  36 I36
stroke8  496  34 I36
stroke8  497  33 I36
stroke8  498  31 I36
stroke8  499  29 I36
stroke8  500  28 I36
stroke8  502  26 I36
stroke8  503  25 I36
stroke8  504  23 I36
stroke8  505  21 I36
stroke8  506  20 I36
stroke8  507  18 I36
stroke8  508  17 I36
stroke8  508  15 I36
stroke8  509  13 I36
stroke8  510  12 I36
stroke8  510  10 I36
stroke8  511  9 I36
stroke8  511  8 I36
stroke8  512  7 I36
stroke8  512  6 I36
stroke8  512  5 I36
stroke8  512  4 I36
stroke8  512  3 I36
stroke8  512  2 I36
stroke8  512  3 I36
stroke8  512  4 I36
stroke8  511  5 I36
stroke8  511  6 I36
stroke8  511  8 I36
stroke8  511  9 I36
stroke8  511  11 I36
stroke8  512  12 I36
stroke8  512  14 I36
stroke8  512  16 I36
stroke8  512  18 I36
stroke8  512  20 I36
stroke8  512  22 I36
stroke8  512  24 I36
stroke8  512  25 I36
stroke8  512  27 I36
stroke8  511  29 I36
stroke8  511  30 I36
stroke8  511  32 I36
stroke8  511  34 I36
stroke8  511  35 I36
stroke8  511  37 I36
stroke8  511  38 I36
stroke8  511  40 I36
stroke8  511  41 I36
stroke8  511  43 I36
stroke8  511  44 I36
stroke8  510  46 I36
stroke8  510  47 I36
stroke8  510  48 I36
stroke8  509  49 I36
stroke8  509  50 I36
stroke8  509  51 I36
stroke8  509  52 I36
stroke8  508  53 I36
stroke8  508  54 I36
stroke8  507  54 I36
stroke8  507  55 I36
stroke8  506  56 I36
stroke8  505  56 I36
stroke8  504  57 I36
stroke8  503  57 I36
stroke8  502  58 I36
stroke8  501  58 I36
stroke8  500  59 I36
stroke8  499  59 I36
stroke8  497  60 I36
stroke8  496  60 I36
stroke8  494  60 I36
stroke8  493  60 I36
stroke8  491  61 I36
stroke8  489  61 I36
stroke8  488  61 I36
stroke8  486  61 I36
stroke8  484  61 I36
stroke8  482  60 I36
stroke8  480  60 I36
stroke8  478  59 I36
stroke8  476  58 I36
stroke8  474  57 I36
stroke8  472  56 I36
stroke8  470  55 I36
stroke8  468  54 I36
stroke8  466  52 I36
stroke8  464  50 I36
stroke8  463  49 I36
stroke8  462  47 I36
stroke8  461  46 I36
stroke8  460  45 I36
stroke8  459  44 I36
stroke9  489  75 B64
stroke9  490  76 I64
stroke9  489  76 I64
stroke9  489  77 I64
stroke9  490  78 I64
stroke9  490  79 I64
stroke9  491  79 I64
stroke9  491  80 I64
stroke9  492  80 I64
stroke9  493  80 I64
stroke9  493  81 I64
stroke9  494  81 I64
stroke9  495  81 I64
stroke9  495  80 I64
stroke9  496  80 I64
stroke9  497  80 I64
stroke9  498  80 I64
stroke9  498  79 I64
stroke9  498  78 I64
stroke9  497  78 I64
stroke9  497  77 I64
stroke9  496  77 I64
stroke9  495  76 I64
stroke9  494  76 I64
stroke9  493  76 I64
stroke9  492  76 I64
stroke9  491  76 I64
stroke9  490  76 I64
stroke9  490  77 I64
stroke9  489  77 I64
stroke9  489  78 I64
stroke9  488  79 I64
stroke9  488  80 I64
stroke9  489  81 I64
stroke9  489  82 I64
stroke9  489  83 I64
stroke9  489  84 I64
stroke9  490  86 I64
stroke9  490  87 I64
stroke9  491  88 I64
stroke9  492  89 I64
stroke9  493  90 I64
stroke9  493  91 I64
stroke9  494  92 I64
stroke9  494  93 I64
stroke9  495  94 I64
stroke9  496  95 I64
stroke9  496  97 I64
stroke9  497  98 I64
stroke9  498  99 I64
stroke9  499  100 I64
stroke9  499  101 I64
stroke9  500  102 I64
stroke9  501  103 I64
stroke9  502  104 I64
stroke9  503  105 I64
stroke9  504  106 I64
stroke9  505  107 I64
stroke9  506  108 I64
stroke9  507  109 I64
stroke9  508  110 I64
stroke9  509  111 I64
stroke9  510  113 I64
stroke9  511  114 I64
stroke9  512  115 I64
stroke9  513  116 I64
stroke9  514  117 I64
stroke9  515  118 I64
stroke9  516  119 I64
stroke9  517  120 I64
stroke9  517  121 I64
stroke9  518  122 I64
stroke9  518  123 I64
stroke9  518  124 I64
stroke9  518  125 I64
stroke9  517  126 I64
stroke9  517  127 I64
stroke9  515  128 I64
stroke9  514  128 I64
stroke9  512  129 I64
stroke9  510  130 I64
