stroke1  30  68 B27
stroke1  31  68 I27
stroke1  31  69 I27
stroke1  31  70 I27
stroke1  32  70 I27
stroke1  33  70 I27
stroke1  34  70 I27
stroke1  35  70 I27
stroke1  36  70 I27
stroke1  37  69 I27
stroke1  38  68 I27
stroke1  39  67 I27
stroke1  39  66 I27
stroke1  40  65 I27
stroke1  40  64 I27
stroke1  39  64 I27
stroke1  39  63 I27
stroke1  39  62 I27
stroke1  38  62 I27
stroke1  38  61 I27
stroke1  37  60 I27
stroke1  36  60 I27
stroke1  35  59 I27
stroke1  34  58 I27
stroke1  33  58 I27
stroke1  32  57 I27
stroke1  30  57 I27
stroke1  29  57 I27
stroke1  28  57 I27
stroke1  27  57 I27
stroke1  26  57 I27
stroke1  25  58 I27
stroke1  24  58 I27
stroke1  23  59 I27
stroke1  23  60 I27
stroke1  22  61 I27
stroke1  22  62 I27
stroke1  23  63 I27
stroke1  23  65 I27
stroke1  23  66 I27
stroke1  24  67 I27
stroke1  24  68 I27
stroke1  25  69 I27
stroke1  26  70 I27
stroke1  26  71 I27
stroke1  27  71 I27
stroke1  28  72 I27
stroke1  29  72 I27
stroke1  30  72 I27
stroke1  31  72 I27
stroke1  32  72 I27
stroke1  33  72 I27
stroke1  34  72 I27
stroke1  35  72 I27
stroke1  35  71 I27
stroke1  36  70 I27
stroke1  37  69 I27
stroke1  38  68 I27
stroke1  38  66 I27
stroke1  39  65 I27
stroke1  39  63 I27
stroke1  39  61 I27
stroke1  40  59 I27
stroke1  40  57 I27
stroke1  40  54 I27
stroke1  40  52 I27
stroke1  40  49 I27
stroke1  40  47 I27
stroke1  40  44 I27
stroke1  40  42 I27
stroke1  40  39 I27
stroke1  40  37 I27
stroke1  40  35 I27
stroke1  40  33 I27
stroke1  40  31 I27
stroke1  40  29 I27
stroke1  40  27 I27
stroke1  40  25 I27
stroke1  40  23 I27
stroke1  40  22 I27
stroke1  40  20 I27
stroke1  40  18 I27
stroke1  40  16 I27
stroke1  40  15 I27
stroke1  40  13 I27
stroke1  40  12 I27
stroke1  40  11 I27
stroke1  40  10 I27
stroke1  40  9 I27
stroke1  40  8 I27
stroke1  40  7 I27
stroke1  41  7 I27
stroke1  41  6 I27
stroke1  42  6 I27
stroke1  43  6 I27
stroke1  44  6 I27
stroke1  45  5 I27
stroke1  46  5 I27
stroke1  47  5 I27
stroke1  49  5 I27
stroke1  50  5 I27
stroke1  52  4 I27
stroke1  53  4 I27
stroke1  55  4 I27
stroke1  56  4 I27
stroke1  57  3 I27
stroke1  59  3 I27
stroke1  60  3 I27
stroke1  61  3 I27
stroke1  63  3 I27
stroke1  64  3 I27
stroke1  65  3 I27
stroke1  66  3 I27
stroke1  67  3 I27
stroke1  68  3 I27
stroke1  69  3 I27
stroke1  70  3 I27
stroke1  71  3 I27
stroke1  72  4 I27
stroke1  73  4 I27
stroke1  74  5 I27
stroke1  74  6 I27
stroke1  74  7 I27
stroke1  74  9 I27
stroke1  74  10 I27
stroke1  74  12 I27
stroke1  74  14 I27
stroke1  74  16 I27
stroke1  74  19 I27
stroke1  75  22 I27
stroke1  75  24 I27
stroke1  75  27 I27
stroke1  75  30 I27
stroke1  75  33 I27
stroke1  75  36 I27
stroke1  75  39 I27
stroke1  75  42 I27
stroke1  75  45 I27
stroke1  75  49 I27
stroke1  75  52 I27
stroke1  75  55 I27
stroke1  75  58 I27
stroke1  75  61 I27
stroke1  74  64 I27
stroke1  74  67 I27
stroke1  74  70 I27
stroke1  74  73 I27
stroke1  74  75 I27
stroke1  74  78 I27
stroke1  74  80 I27
stroke1  74  83 I27
stroke1  74  85 I27
stroke1  74  88 I27
stroke1  74  90 I27
stroke1  74  92 I27
stroke1  74  94 I27
stroke1  74  96 I27
stroke1  74  98 I27
stroke1  74  100 I27
stroke1  74  102 I27
stroke1  74  104 I27
stroke1  74  105 I27
stroke1  74  107 I27
stroke1  74  108 I27
stroke1  74  109 I27
stroke1  74  111 I27
stroke1  74  112 I27
stroke1  74  113 I27
stroke1  73  114 I27
stroke1  73  115 I27
stroke1  74  115 I27
stroke1  74  114 I27
stroke1  74  113 I27
stroke1  74  111 I27
stroke2  119  9 B35
stroke2  120  9 I35
stroke2  121  9 I35
stroke2  122  9 I35
stroke2  122  10 I35
stroke2  123  10 I35
stroke2  123  11 I35
stroke2  122  11 I35
stroke2  122  12 I35
stroke2  122  13 I35
stroke2  122  14 I35
stroke2  121  14 I35
stroke2  121  15 I35
stroke2  120  15 I35
stroke2  120  16 I35
stroke2  119  16 I35
stroke2  119  17 I35
stroke2  118  17 I35
stroke2  117  17 I35
stroke2  116  17 I35
stroke2  115  16 I35
stroke2  114  15 I35
stroke2  113  15 I35
stroke2  112  14 I35
stroke2  111  13 I35
stroke2  111  12 I35
stroke2  110  12 I35
stroke2  110  11 I35
stroke2  109  10 I35
stroke2  109  9 I35
stroke2  109  8 I35
stroke2  109  7 I35
stroke2  109  6 I35
stroke2  110  5 I35
stroke2  111  4 I35
stroke2  112  4 I35
stroke2  113  3 I35
stroke2  114  3 I35
stroke2  115  3 I35
stroke2  116  3 I35
stroke2  117  3 I35
stroke2  118  3 I35
stroke2  119  4 I35
stroke2  120  4 I35
stroke2  121  4 I35
stroke2  121  5 I35
stroke2  122  5 I35
stroke2  123  6 I35
stroke2  123  7 I35
stroke2  124  8 I35
stroke2  124  9 I35
stroke2  125  11 I35
stroke2  125  12 I35
stroke2  126  14 I35
stroke2  127  16 I35
stroke2  127  18 I35
stroke2  127  20 I35
stroke2  128  22 I35
stroke2  128  24 I35
stroke2  128  26 I35
stroke2  129  28 I35
stroke2  129  30 I35
stroke2  129  32 I35
stroke2  129  34 I35
stroke2  129  36 I35
stroke2  129  38 I35
stroke2  129  39 I35
stroke2  129  41 I35
stroke2  129  43 I35
stroke2  129  44 I35
stroke2  129  46 I35
stroke2  129  48 I35
stroke2  128  49 I35
stroke2  128  51 I35
stroke2  128  52 I35
stroke2  128  53 I35
stroke2  128  54 I35
stroke2  127  55 I35
stroke2  127  56 I35
stroke2  127  57 I35
stroke2  126  58 I35
stroke2  126  59 I35
stroke2  125  60 I35
stroke2  124  60 I35
stroke2  124  61 I35
stroke2  123  61 I35
stroke2  122  62 I35
stroke2  121  62 I35
stroke2  120  62 I35
stroke2  119  62 I35
stroke2  118  62 I35
stroke2  117  62 I35
stroke2  115  62 I35
stroke2  114  62 I35
stroke2  113  62 I35
stroke2  111  62 I35
stroke2  109  62 I35
stroke2  108  61 I35
stroke2  106  60 I35
stroke2  104  59 I35
stroke2  103  59 I35
stroke2  101  58 I35
stroke2  99  57 I35
stroke2  98  56 I35
stroke2  97  56 I35
stroke2  96  55 I35
stroke2  95  55 I35
stroke2  94  55 I35
stroke2  94  56 I35
stroke2  94  57 I35
stroke2  94  58 I35
stroke2  94  59 I35
stroke2  95  60 I35
stroke2  95  62 I35
stroke2  96  63 I35
stroke2  97  64 I35
stroke2  97  65 I35
stroke2  98  66 I35
stroke2  99  66 I35
stroke2  100  67 I35
stroke2  101  67 I35
stroke2  102  68 I35
stroke2  103  68 I35
stroke2  104  68 I35
stroke2  105  68 I35
stroke2  107  68 I35
stroke2  108  68 I35
stroke2  110  67 I35
stroke2  111  67 I35
stroke2  113  66 I35
stroke2  115  66 I35
stroke2  116  65 I35
stroke2  118  64 I35
stroke2  120  64 I35
stroke2  122  63 I35
stroke2  124  62 I35
stroke2  126  62 I35
stroke2  128  62 I35
stroke2  130  61 I35
stroke2  131  61 I35
stroke2  133  62 I35
stroke2  134  62 I35
stroke2  136  62 I35
stroke2  137  62 I35
stroke2  138  63 I35
stroke2  140  64 I35
stroke2  141  64 I35
stroke2  142  65 I35
stroke2  143  66 I35
stroke2  144  66 I35
stroke2  145  67 I35
stroke3  155  44 B46
stroke3  155  43 I46
stroke3  156  43 I46
stroke3  156  42 I46
stroke3  157  42 I46
stroke3  158  42 I46
stroke3  159  42 I46
stroke3  159  43 I46
stroke3  160  43 I46
stroke3  160  44 I46
stroke3  160  45 I46
stroke3  160  46 I46
stroke3  160  47 I46
stroke3  159  47 I46
stroke3  159  48 I46
stroke3  158  48 I46
stroke3  157  49 I46
stroke3  156  49 I46
stroke3  155  49 I46
stroke3  154  49 I46
stroke3  153  48 I46
stroke3  152  48 I46
stroke3  151  47 I46
stroke3  150  47 I46
stroke3  150  46 I46
stroke3  149  45 I46
stroke3  149  44 I46
stroke3  149  43 I46
stroke3  149  42 I46
stroke3  150  41 I46
stroke3  151  40 I46
stroke3  152  40 I46
stroke3  153  40 I46
stroke3  155  41 I46
stroke3  157  41 I46
stroke3  159  41 I46
stroke3  160  42 I46
stroke3  163  43 I46
stroke3  165  45 I46
stroke3  166  46 I46
stroke3  168  48 I46
stroke3  170  50 I46
stroke3  172  52 I46
stroke3  173  54 I46
stroke3  175  55 I46
stroke3  176  57 I46
stroke3  177  58 I46
stroke3  178  59 I46
stroke3  179  60 I46
stroke3  179  61 I46
stroke3  178  60 I46
stroke3  177  60 I46
stroke3  176  59 I46
stroke3  157  21 I46
stroke3  157  20 I46
stroke3  158  20 I46
stroke3  158  19 I46
stroke3  159  19 I46
stroke3  159  20 I46
stroke3  160  20 I46
stroke3  160  21 I46
stroke3  161  21 I46
stroke3  161  22 I46
stroke3  161  23 I46
stroke3  161  24 I46
stroke3  161  25 I46
stroke3  160  26 I46
stroke3  159  26 I46
stroke3  158  26 I46
stroke3  157  26 I46
stroke3  156  26 I46
stroke3  155  25 I46
stroke3  154  25 I46
stroke3  154  24 I46
stroke3  153  23 I46
stroke3  153  22 I46
stroke3  153  21 I46
stroke3  153  20 I46
stroke3  154  19 I46
stroke3  155  19 I46
stroke3  156  18 I46
stroke3  158  19 I46
stroke3  159  19 I46
stroke3  161  20 I46
stroke3  163  21 I46
stroke3  165  23 I46
stroke3  167  24 I46
stroke3  169  26 I46
stroke3  171  27 I46
stroke3  173  29 I46
stroke3  175  30 I46
stroke3  176  32 I46
stroke3  177  33 I46
stroke3  178  34 I46
stroke3  179  35 I46
stroke3  180  36 I46
stroke3  181  37 I46
stroke3  181  38 I46
stroke4  202  3 B40
stroke4  202  2 I40
stroke4  203  3 I40
stroke4  202  3 I40
stroke4  202  4 I40
stroke4  201  5 I40
stroke4  201  6 I40
stroke4  201  7 I40
stroke4  202  7 I40
stroke4  202  8 I40
stroke4  202  9 I40
stroke4  203  10 I40
stroke4  204  10 I40
stroke4  205  11 I40
stroke4  206  11 I40
stroke4  207  10 I40
stroke4  208  10 I40
stroke4  209  9 I40
stroke4  209  8 I40
stroke4  210  8 I40
stroke4  209  7 I40
stroke4  209  6 I40
stroke4  209  5 I40
stroke4  208  5 I40
stroke4  208  4 I40
stroke4  207  3 I40
stroke4  206  3 I40
stroke4  205  3 I40
stroke4  204  3 I40
stroke4  203  4 I40
stroke4  202  5 I40
stroke4  202  6 I40
stroke4  201  7 I40
stroke4  201  8 I40
stroke4  200  10 I40
stroke4  200  12 I40
stroke4  200  14 I40
stroke4  199  17 I40
stroke4  199  19 I40
stroke4  199  22 I40
stroke4  200  25 I40
stroke4  200  27 I40
stroke4  200  30 I40
stroke4  200  32 I40
stroke4  200  34 I40
stroke4  201  36 I40
stroke4  201  38 I40
stroke4  201  40 I40
stroke4  202  42 I40
stroke4  202  43 I40
stroke4  203  44 I40
stroke4  203  45 I40
stroke4  204  46 I40
stroke4  204  47 I40
stroke4  204  48 I40
stroke4  205  48 I40
stroke4  206  48 I40
stroke4  207  48 I40
stroke4  208  48 I40
stroke4  209  48 I40
stroke4  210  48 I40
stroke4  211  47 I40
stroke4  212  47 I40
stroke4  214  46 I40
stroke4  215  45 I40
stroke4  216  44 I40
stroke4  218  42 I40
stroke4  219  41 I40
stroke4  221  39 I40
stroke4  222  37 I40
stroke4  223  35 I40
stroke4  224  33 I40
stroke4  226  31 I40
stroke4  227  29 I40
stroke4  228  27 I40
stroke4  229  25 I40
stroke4  230  23 I40
stroke4  231  21 I40
stroke4  232  20 I40
stroke4  233  18 I40
stroke4  234  16 I40
stroke4  235  15 I40
stroke4  235  14 I40
stroke4  236  12 I40
stroke4  237  11 I40
stroke4  238  10 I40
stroke4  238  9 I40
stroke4  238  8 I40
stroke4  239  8 I40
stroke4  239  7 I40
stroke4  239  8 I40
stroke4  239  9 I40
stroke4  239  10 I40
stroke4  239  11 I40
stroke4  239  13 I40
stroke4  239  14 I40
stroke4  239  16 I40
stroke4  239  18 I40
stroke4  240  20 I40
stroke4  240  22 I40
stroke4  240  24 I40
stroke4  240  26 I40
stroke4  240  28 I40
stroke4  240  31 I40
stroke4  240  33 I40
stroke4  240  35 I40
stroke4  240  37 I40
stroke4  239  39 I40
stroke4  239  41 I40
stroke4  239  43 I40
stroke4  239  44 I40
stroke4  239  46 I40
stroke4  239  48 I40
stroke4  238  49 I40
stroke4  238  51 I40
stroke4  238  52 I40
stroke4  238  54 I40
stroke4  238  55 I40
stroke4  237  56 I40
stroke4  237  57 I40
stroke4  237  58 I40
stroke4  236  59 I40
stroke4  235  60 I40
stroke4  234  61 I40
stroke4  233  62 I40
stroke4  232  63 I40
stroke4  231  64 I40
stroke4  229  64 I40
stroke4  228  65 I40
stroke4  226  66 I40
stroke4  224  66 I40
stroke4  223  66 I40
stroke4  221  67 I40
stroke4  219  67 I40
stroke4  216  67 I40
stroke4  214  67 I40
stroke4  212  66 I40
stroke4  209  66 I40
stroke4  207  65 I40
stroke4  205  64 I40
stroke4  202  63 I40
stroke4  200  62 I40
stroke4  198  61 I40
stroke4  196  60 I40
stroke4  194  58 I40
stroke4  193  57 I40
stroke4  191  56 I40
stroke4  191  55 I40
stroke4  190  53 I40
stroke4  190  52 I40
stroke4  190  51 I40
stroke4  213  49 I40
stroke4  213  48 I40
stroke4  214  48 I40
stroke4  214  49 I40
stroke4  215  49 I40
stroke4  216  50 I40
stroke4  217  51 I40
stroke4  219  53 I40
stroke4  220  54 I40
stroke4  221  56 I40
stroke4  223  58 I40
stroke4  224  60 I40
stroke4  226  62 I40
stroke4  227  64 I40
stroke4  229  66 I40
stroke4  230  68 I40
stroke4  232  71 I40
stroke4  233  73 I40
stroke4  234  76 I40
stroke4  236  78 I40
stroke4  237  81 I40
stroke4  238  83 I40
stroke4  239  86 I40
stroke4  239  88 I40
stroke4  240  90 I40
stroke4  241  92 I40
stroke4  241  94 I40
stroke4  241  95 I40
stroke4  241  97 I40
stroke4  240  98 I40
stroke4  239  99 I40
stroke5  231  99 B48
stroke5  230  99 I48
stroke5  229  99 I48
stroke5  228  98 I48
stroke5  226  98 I48
stroke5  225  98 I48
stroke5  223  98 I48
stroke5  220  97 I48
stroke5  218  97 I48
stroke5  215  96 I48
stroke5  212  96 I48
stroke5  209  96 I48
stroke5  206  95 I48
stroke5  203  95 I48
stroke5  200  95 I48
stroke5  197  94 I48
stroke5  194  94 I48
stroke5  191  94 I48
stroke5  189  94 I48
stroke5  187  94 I48
stroke5  185  94 I48
stroke5  183  95 I48
stroke5  182  95 I48
stroke5  180  96 I48
stroke5  179  97 I48
stroke5  179  98 I48
stroke5  179  99 I48
stroke5  180  100 I48
stroke5  180  101 I48
stroke5  181  102 I48
stroke5  183  103 I48
stroke5  185  104 I48
stroke5  187  105 I48
stroke5  189  105 I48
stroke5  191  105 I48
stroke5  193  105 I48
stroke5  196  104 I48
stroke5  198  104 I48
stroke5  200  103 I48
stroke5  202  102 I48
stroke5  204  102 I48
stroke5  207  101 I48
stroke5  209  100 I48
stroke5  211  99 I48
stroke5  212  97 I48
stroke5  214  96 I48
stroke5  216  95 I48
stroke5  218  94 I48
stroke5  219  93 I48
stroke5  221  92 I48
stroke5  222  91 I48
stroke6  252  62 B23
stroke6  252  63 I23
stroke6  252  64 I23
stroke6  253  65 I23
stroke6  254  66 I23
stroke6  255  65 I23
stroke6  256  65 I23
stroke6  257  65 I23
stroke6  258  64 I23
stroke6  259  64 I23
stroke6  259  63 I23
stroke6  260  63 I23
stroke6  260  62 I23
stroke6  260  61 I23
stroke6  260  60 I23
stroke6  260  59 I23
stroke6  259  59 I23
stroke6  258  58 I23
stroke6  258  57 I23
stroke6  257  57 I23
stroke6  256  56 I23
stroke6  255  56 I23
stroke6  254  56 I23
stroke6  253  55 I23
stroke6  252  55 I23
stroke6  251  55 I23
stroke6  250  55 I23
stroke6  249  55 I23
stroke6  248  55 I23
stroke6  248  56 I23
stroke6  247  56 I23
stroke6  247  57 I23
stroke6  246  57 I23
stroke6  246  58 I23
stroke6  246  59 I23
stroke6  246  60 I23
stroke6  246  61 I23
stroke6  247  62 I23
stroke6  247  63 I23
stroke6  248  64 I23
stroke6  249  65 I23
stroke6  250  66 I23
stroke6  251  66 I23
stroke6  252  66 I23
stroke6  253  67 I23
stroke6  254  67 I23
stroke6  255  67 I23
stroke6  256  66 I23
stroke6  257  66 I23
stroke6  258  65 I23
stroke6  259  65 I23
stroke6  260  64 I23
stroke6  260  63 I23
stroke6  261  61 I23
stroke6  261  60 I23
stroke6  262  58 I23
stroke6  262  56 I23
stroke6  262  54 I23
stroke6  262  51 I23
stroke6  262  49 I23
stroke6  262  46 I23
stroke6  262  44 I23
stroke6  262  41 I23
stroke6  262  39 I23
stroke6  262  37 I23
stroke6  262  35 I23
stroke6  262  33 I23
stroke6  262  31 I23
stroke6  262  30 I23
stroke6  262  28 I23
stroke6  262  27 I23
stroke6  262  25 I23
stroke6  262  24 I23
stroke6  262  23 I23
stroke6  262  22 I23
stroke6  262  21 I23
stroke6  262  20 I23
stroke6  261  19 I23
stroke6  261  18 I23
stroke6  261  17 I23
stroke6  261  16 I23
stroke6  261  15 I23
stroke6  261  14 I23
stroke6  261  13 I23
stroke6  261  12 I23
stroke6  261  11 I23
stroke6  260  10 I23
stroke6  260  9 I23
stroke6  260  8 I23
stroke6  260  7 I23
stroke6  260  6 I23
stroke6  260  5 I23
stroke6  260  4 I23
stroke6  260  5 I23
stroke6  261  6 I23
stroke6  261  7 I23
stroke6  261  8 I23
stroke6  261  10 I23
stroke6  262  12 I23
stroke6  262  15 I23
stroke6  263  17 I23
stroke6  263  20 I23
stroke6  264  23 I23
stroke6  265  26 I23
stroke6  266  28 I23
stroke6  267  31 I23
stroke6  267  34 I23
stroke6  268  36 I23
stroke6  269  39 I23
stroke6  269  41 I23
stroke6  270  43 I23
stroke6  271  45 I23
stroke6  271  47 I23
stroke6  272  49 I23
stroke6  272  50 I23
stroke6  273  52 I23
stroke6  273  53 I23
stroke6  274  55 I23
stroke6  274  56 I23
stroke6  275  57 I23
stroke6  275  58 I23
stroke6  276  59 I23
stroke6  277  60 I23
stroke6  278  61 I23
stroke6  278  62 I23
stroke6  279  62 I23
stroke6  280  63 I23
stroke6  281  63 I23
stroke6  282  64 I23
stroke6  282  65 I23
stroke6  283  65 I23
stroke6  284  66 I23
stroke6  285  66 I23
stroke6  286  67 I23
stroke6  287  67 I23
stroke6  288  67 I23
stroke6  289  68 I23
stroke6  290  68 I23
stroke6  291  68 I23
stroke6  292  67 I23
stroke6  293  67 I23
stroke6  294  66 I23
stroke6  295  66 I23
stroke6  296  65 I23
stroke6  297  64 I23
stroke6  297  63 I23
stroke6  298  62 I23
stroke6  298  60 I23
stroke6  299  59 I23
stroke6  300  57 I23
stroke6  300  55 I23
stroke6  300  53 I23
stroke6  301  51 I23
stroke6  301  48 I23
stroke6  301  46 I23
stroke6  301  43 I23
stroke6  301  41 I23
stroke6  301  38 I23
stroke6  301  36 I23
stroke6  301  33 I23
stroke6  301  31 I23
stroke6  301  28 I23
stroke6  300  26 I23
stroke6  300  24 I23
stroke6  300  21 I23
stroke6  300  19 I23
stroke6  300  18 I23
stroke6  300  16 I23
stroke6  300  14 I23
stroke6  300  13 I23
stroke6  300  12 I23
stroke6  300  10 I23
stroke6  300  9 I23
stroke6  300  8 I23
stroke6  300  7 I23
stroke6  300  6 I23
stroke6  300  5 I23
stroke6  300  4 I23
stroke6  300  3 I23
stroke6  300  2 I23
stroke6  300  1 I23
stroke6  300  0 I23
stroke6  300  1 I23
stroke6  300  2 I23
stroke6  300  3 I23
stroke6  300  4 I23
stroke7  329  45 B24
stroke7  329  46 I24
stroke7  329  47 I24
stroke7  329  48 I24
stroke7  329  49 I24
stroke7  329  50 I24
stroke7  329  51 I24
stroke7  329  52 I24
stroke7  329  51 I24
stroke7  329  50 I24
stroke7  329  49 I24
stroke7  330  48 I24
stroke7  330  46 I24
stroke7  330  44 I24
stroke7  330  42 I24
stroke7  330  40 I24
stroke7  330  38 I24
stroke7  330  36 I24
stroke7  330  33 I24
stroke7  330  31 I24
stroke7  329  28 I24
stroke7  329  26 I24
stroke7  329  24 I24
stroke7  329  22 I24
stroke7  329  20 I24
stroke7  329  18 I24
stroke7  329  16 I24
stroke7  329  15 I24
stroke7  329  13 I24
stroke7  329  12 I24
stroke7  330  12 I24
stroke7  330  11 I24
stroke7  330  10 I24
stroke7  331  9 I24
stroke7  331  8 I24
stroke7  332  8 I24
stroke7  333  7 I24
stroke7  334  7 I24
stroke7  335  6 I24
stroke7  336  6 I24
stroke7  337  6 I24
stroke7  338  6 I24
stroke7  339  6 I24
stroke7  340  5 I24
stroke7  341  5 I24
stroke7  342  5 I24
stroke7  343  5 I24
stroke7  344  5 I24
stroke7  345  5 I24
stroke7  346  5 I24
stroke7  347  5 I24
stroke7  347  6 I24
stroke7  348  6 I24
stroke7  349  6 I24
stroke7  349  7 I24
stroke7  350  7 I24
stroke7  350  8 I24
stroke7  351  9 I24
stroke7  351  10 I24
stroke7  351  12 I24
stroke7  352  13 I24
stroke7  352  15 I24
stroke7  353  17 I24
stroke7  353  19 I24
stroke7  354  21 I24
stroke7  354  23 I24
stroke7  355  25 I24
stroke7  355  27 I24
stroke7  355  29 I24
stroke7  356  31 I24
stroke7  356  33 I24
stroke7  355  35 I24
stroke7  355  37 I24
stroke7  355  39 I24
stroke7  355  41 I24
stroke7  355  43 I24
stroke7  355  44 I24
stroke7  355  46 I24
stroke7  354  47 I24
stroke7  354  48 I24
stroke7  354  49 I24
stroke7  354  50 I24
stroke7  353  51 I24
stroke7  353  52 I24
stroke7  352  53 I24
stroke7  351  54 I24
stroke7  351  55 I24
stroke7  350  55 I24
stroke7  350  56 I24
stroke7  349  57 I24
stroke7  348  57 I24
stroke7  347  58 I24
stroke7  346  59 I24
stroke7  345  59 I24
stroke7  344  60 I24
stroke7  343  60 I24
stroke7  342  61 I24
stroke7  341  61 I24
stroke7  340  61 I24
stroke7  339  62 I24
stroke7  338  62 I24
stroke7  337  62 I24
stroke7  335  62 I24
stroke7  334  62 I24
stroke7  332  62 I24
stroke7  331  62 I24
stroke7  329  62 I24
stroke7  328  62 I24
stroke7  326  61 I24
stroke7  324  61 I24
stroke7  323  60 I24
stroke7  321  60 I24
stroke7  320  59 I24
stroke7  319  59 I24
stroke7  318  59 I24
stroke7  317  58 I24
stroke7  316  58 I24
stroke7  316  59 I24
stroke7  316  60 I24
stroke7  316  61 I24
stroke7  317  62 I24
stroke7  317  63 I24
stroke7  318  64 I24
stroke7  319  65 I24
stroke7  321  66 I24
stroke7  322  67 I24
stroke7  323  68 I24
stroke7  325  68 I24
stroke7  326  69 I24
stroke7  328  69 I24
stroke7  330  69 I24
stroke7  332  69 I24
stroke7  334  69 I24
stroke7  336  69 I24
stroke7  338  68 I24
stroke7  340  68 I24
stroke7  342  68 I24
stroke7  344  67 I24
stroke7  346  67 I24
stroke7  347  67 I24
stroke7  349  66 I24
stroke7  350  66 I24
stroke7  351  66 I24
stroke7  353  66 I24
stroke7  354  67 I24
stroke7  355  67 I24
stroke7  356  68 I24
stroke7  358  69 I24
stroke7  359  69 I24
stroke7  360  71 I24
stroke7  362  72 I24
stroke7  363  73 I24
stroke7  364  74 I24
stroke7  365  75 I24
stroke7  365  77 I24
stroke7  366  78 I24
stroke7  366  79 I24
stroke8  364  87 B48
stroke8  363  87 I48
stroke8  363  88 I48
stroke8  362  88 I48
stroke8  361  88 I48
stroke8  360  88 I48
stroke8  359  89 I48
stroke8  357  89 I48
stroke8  356  89 I48
stroke8  354  89 I48
stroke8  352  89 I48
stroke8  350  89 I48
stroke8  347  89 I48
stroke8  344  89 I48
stroke8  340  89 I48
stroke8  337  88 I48
stroke8  334  88 I48
stroke8  331  87 I48
stroke8  328  87 I48
stroke8  325  87 I48
stroke8  323  87 I48
stroke8  321  87 I48
stroke8  319  87 I48
stroke8  318  88 I48
stroke8  316  88 I48
stroke8  316  89 I48
stroke8  315  89 I48
stroke8  315  90 I48
stroke8  315  91 I48
stroke8  315  92 I48
stroke8  316  93 I48
stroke8  317  94 I48
stroke8  318  95 I48
stroke8  319  97 I48
stroke8  321  97 I48
stroke8  323  98 I48
stroke8  326  98 I48
stroke8  328  99 I48
stroke8  331  99 I48
stroke8  333  98 I48
stroke8  336  98 I48
stroke8  339  97 I48
stroke8  341  96 I48
stroke8  343  95 I48
stroke8  345  94 I48
stroke8  347  93 I48
stroke8  349  92 I48
stroke8  350  91 I48
stroke8  351  90 I48
stroke8  352  89 I48
stroke8  353  89 I48
stroke8  354  88 I48
stroke8  355  88 I48
stroke8  356  87 I48
stroke8  357  86 I48
stroke9  381  12 B32
stroke9  382  12 I32
stroke9  382  11 I32
stroke9  383  11 I32
stroke9  384  11 I32
stroke9  385  11 I32
stroke9  386  11 I32
stroke9  386  12 I32
stroke9  387  12 I32
stroke9  386  13 I32
stroke9  386  14 I32
stroke9  385  15 I32
stroke9  385  16 I32
stroke9  384  16 I32
stroke9  383  16 I32
stroke9  382  17 I32
stroke9  381  17 I32
stroke9  380  17 I32
stroke9  379  16 I32
stroke9  378  16 I32
stroke9  377  15 I32
stroke9  376  15 I32
stroke9  376  14 I32
stroke9  375  14 I32
stroke9  375  13 I32
stroke9  374  12 I32
stroke9  374  11 I32
stroke9  373  10 I32
stroke9  373  9 I32
stroke9  373  8 I32
stroke9  373  7 I32
stroke9  373  6 I32
stroke9  374  5 I32
stroke9  374  4 I32
stroke9  375  3 I32
stroke9  376  3 I32
stroke9  377  3 I32
stroke9  378  2 I32
stroke9  379  3 I32
stroke9  380  3 I32
stroke9  381  3 I32
stroke9  382  3 I32
stroke9  383  4 I32
stroke9  384  4 I32
stroke9  385  5 I32
stroke9  385  6 I32
stroke9  386  7 I32
stroke9  386  8 I32
stroke9  387  9 I32
stroke9  387  11 I32
stroke9  387  12 I32
stroke9  387  14 I32
stroke9  387  15 I32
stroke9  388  17 I32
stroke9  388  19 I32
stroke9  388  20 I32
stroke9  388  22 I32
stroke9  389  24 I32
stroke9  389  26 I32
stroke9  389  27 I32
stroke9  389  29 I32
stroke9  390  30 I32
stroke9  390  32 I32
stroke9  390  34 I32
stroke9  390  35 I32
stroke9  390  37 I32
stroke9  391  38 I32
stroke9  391  40 I32
stroke9  391  41 I32
stroke9  391  42 I32
stroke9  391  43 I32
stroke9  391  44 I32
stroke9  391  46 I32
stroke9  391  47 I32
stroke9  391  48 I32
stroke9  390  49 I32
stroke9  390  50 I32
stroke9  390  51 I32
stroke9  389  52 I32
stroke9  389  53 I32
stroke9  388  53 I32
stroke9  387  53 I32
stroke9  386  53 I32
stroke9  385  52 I32
stroke9  384  52 I32
stroke9  382  51 I32
stroke9  381  50 I32
stroke9  380  50 I32
stroke9  379  49 I32
stroke9  378  49 I32
stroke9  378  48 I32
stroke9  377  48 I32
stroke9  376  48 I32
stroke9  376  49 I32
stroke9  376  50 I32
stroke9  376  51 I32
stroke9  377  52 I32
stroke9  377  53 I32
stroke9  378  55 I32
stroke9  379  56 I32
stroke9  380  57 I32
stroke9  381  59 I32
stroke9  382  60 I32
stroke9  382  61 I32
stroke9  383  61 I32
stroke9  384  62 I32
stroke9  385  63 I32
stroke9  386  63 I32
stroke9  387  64 I32
stroke9  389  64 I32
stroke9  390  65 I32
stroke9  391  65 I32
stroke9  392  66 I32
stroke9  394  66 I32
stroke9  395  66 I32
stroke9  396  66 I32
stroke9  398  66 I32
stroke9  399  66 I32
stroke9  400  66 I32
stroke9  402  66 I32
stroke9  403  66 I32
stroke9  404  65 I32
stroke9  405  65 I32
stroke9  406  65 I32
stroke9  408  65 I32
stroke9  409  64 I32
stroke9  410  64 I32
stroke9  411  63 I32
stroke9  412  62 I32
stroke9  413  62 I32
stroke9  413  61 I32
stroke9  414  60 I32
stroke9  415  59 I32
stroke9  416  58 I32
stroke9  416  56 I32
stroke9  417  55 I32
stroke9  417  53 I32
stroke9  418  51 I32
stroke9  418  50 I32
stroke9  419  48 I32
stroke9  419  46 I32
stroke9  420  44 I32
stroke9  420  42 I32
stroke9  420  40 I32
stroke9  421  38 I32
stroke9  421  36 I32
stroke9  421  34 I32
stroke9  421  33 I32
stroke9  422  31 I32
stroke9  422  29 I32
stroke9  422  27 I32
stroke9  421  25 I32
stroke9  421  23 I32
stroke9  421  21 I32
stroke9  421  19 I32
stroke9  421  17 I32
stroke9  421  15 I32
stroke9  421  14 I32
stroke9  420  12 I32
stroke9  420  10 I32
stroke9  420  9 I32
stroke9  420  8 I32
stroke9  420  7 I32
stroke9  420  6 I32
stroke9  420  5 I32
stroke9  420  4 I32
stroke9  420  3 I32
stroke9  420  4 I32
stroke9  420  5 I32
stroke10  431  57 B47
stroke10  430  57 I47
stroke10  429  57 I47
stroke10  428  57 I47
stroke10  427  57 I47
stroke10  426  57 I47
stroke10  425  58 I47
stroke10  424  59 I47
stroke10  425  60 I47
stroke10  425  61 I47
stroke10  426  62 I47
stroke10  427  63 I47
stroke10  429  64 I47
stroke10  430  64 I47
stroke10  431  65 I47
stroke10  432  65 I47
stroke10  433  65 I47
stroke10  435  66 I47
stroke10  436  66 I47
stroke10  437  65 I47
stroke10  438  65 I47
stroke10  440  65 I47
stroke10  441  65 I47
stroke10  442  64 I47
stroke10  443  63 I47
stroke10  444  63 I47
stroke10  445  62 I47
stroke10  446  61 I47
stroke10  447  60 I47
stroke10  448  59 I47
stroke10  449  58 I47
stroke10  449  57 I47
stroke10  450  55 I47
stroke10  450  54 I47
stroke10  451  52 I47
stroke10  451  51 I47
stroke10  452  49 I47
stroke10  452  48 I47
stroke10  452  46 I47
stroke10  453  45 I47
stroke10  453  44 I47
stroke10  453  42 I47
stroke10  453  41 I47
stroke10  454  39 I47
stroke10  454  38 I47
stroke10  454  36 I47
stroke10  454  35 I47
stroke10  454  33 I47
stroke10  454  32 I47
stroke10  454  31 I47
stroke10  454  29 I47
stroke10  454  28 I47
stroke10  454  26 I47
stroke10  454  24 I47
stroke10  454  23 I47
stroke10  454  21 I47
stroke10  454  20 I47
stroke10  454  18 I47
stroke10  454  17 I47
stroke10  454  15 I47
stroke10  453  14 I47
stroke10  453  12 I47
stroke10  453  11 I47
stroke10  453  10 I47
stroke10  453  8 I47
stroke10  453  7 I47
stroke10  453  6 I47
stroke10  453  5 I47
stroke10  453  4 I47
stroke10  453  3 I47
stroke10  453  2 I47
stroke10  453  3 I47
stroke10  452  3 I47
stroke10  452  4 I47
stroke10  452  5 I47
stroke10  452  7 I47
stroke11  473  64 B30
stroke11  473  65 I30
stroke11  474  65 I30
stroke11  475  65 I30
stroke11  476  65 I30
stroke11  476  64 I30
stroke11  477  64 I30
stroke11  478  64 I30
stroke11  478  63 I30
stroke11  479  63 I30
stroke11  479  62 I30
stroke11  479  61 I30
stroke11  479  60 I30
stroke11  478  59 I30
stroke11  478  58 I30
stroke11  477  57 I30
stroke11  476  56 I30
stroke11  475  55 I30
stroke11  474  55 I30
stroke11  473  54 I30
stroke11  472  54 I30
stroke11  471  54 I30
stroke11  470  54 I30
stroke11  469  54 I30
stroke11  468  55 I30
stroke11  467  56 I30
stroke11  466  56 I30
stroke11  466  57 I30
stroke11  465  58 I30
stroke11  465  59 I30
stroke11  465  60 I30
stroke11  465  61 I30
stroke11  466  62 I30
stroke11  466  63 I30
stroke11  467  64 I30
stroke11  468  64 I30
stroke11  468  65 I30
stroke11  469  65 I30
stroke11  470  65 I30
stroke11  471  66 I30
stroke11  472  65 I30
stroke11  473  65 I30
stroke11  474  65 I30
stroke11  475  65 I30
stroke11  476  64 I30
stroke11  477  63 I30
stroke11  478  62 I30
stroke11  479  60 I30
stroke11  479  59 I30
stroke11  480  57 I30
stroke11  480  56 I30
stroke11  481  54 I30
stroke11  481  52 I30
stroke11  481  50 I30
stroke11  481  48 I30
stroke11  481  46 I30
stroke11  481  44 I30
stroke11  481  43 I30
stroke11  481  41 I30
stroke11  481  39 I30
stroke11  480  37 I30
stroke11  480  36 I30
stroke11  480  34 I30
stroke11  480  32 I30
stroke11  480  31 I30
stroke11  480  29 I30
stroke11  479  27 I30
stroke11  479  25 I30
stroke11  479  23 I30
stroke11  479  21 I30
stroke11  478  19 I30
stroke11  478  17 I30
stroke11  478  16 I30
stroke11  478  14 I30
stroke11  478  13 I30
stroke11  478  12 I30
stroke11  478  11 I30
stroke11  478  10 I30
stroke11  478  9 I30
stroke11  478  10 I30
stroke11  479  10 I30
stroke11  479  11 I30
stroke11  479  12 I30
stroke11  479  14 I30
stroke11  480  15 I30
stroke11  480  17 I30
stroke11  480  19 I30
stroke11  481  21 I30
stroke11  482  23 I30
stroke11  482  25 I30
stroke11  483  27 I30
stroke11  484  29 I30
stroke11  484  31 I30
stroke11  485  32 I30
stroke11  486  34 I30
stroke11  486  36 I30
stroke11  487  38 I30
stroke11  488  39 I30
stroke11  489  41 I30
stroke11  489  42 I30
stroke11  490  44 I30
stroke11  490  45 I30
stroke11  491  46 I30
stroke11  491  47 I30
stroke11  491  48 I30
stroke11  492  49 I30
stroke11  492  50 I30
stroke11  493  51 I30
stroke11  493  52 I30
stroke11  493  53 I30
stroke11  494  53 I30
stroke11  494  54 I30
stroke11  494  55 I30
stroke11  494  54 I30
stroke11  495  54 I30
stroke11  495  53 I30
stroke11  496  52 I30
stroke11  496  51 I30
stroke11  496  50 I30
stroke11  496  49 I30
stroke11  497  48 I30
stroke11  497  47 I30
stroke11  497  45 I30
stroke11  498  44 I30
stroke11  498  43 I30
stroke11  499  41 I30
stroke11  499  40 I30
stroke11  500  39 I30
stroke11  501  37 I30
stroke11  501  36 I30
stroke11  502  34 I30
stroke11  503  33 I30
stroke11  504  31 I30
stroke11  504  30 I30
stroke11  505  29 I30
stroke11  506  27 I30
stroke11  507  26 I30
stroke11  508  24 I30
stroke11  509  23 I30
stroke11  509  22 I30
stroke11  510  20 I30
stroke11  511  19 I30
stroke11  511  17 I30
stroke11  512  16 I30
stroke11  513  15 I30
stroke11  513  14 I30
stroke11  514  13 I30
stroke11  514  12 I30
stroke11  515  11 I30
stroke11  515  10 I30
stroke11  515  9 I30
stroke11  516  9 I30
stroke11  516  8 I30
stroke11  517  7 I30
stroke11  517  6 I30
stroke11  518  6 I30
stroke11  518  5 I30
stroke11  518  6 I30
stroke11  519  6 I30
stroke11  519  7 I30
stroke11  519  8 I30
stroke11  519  10 I30
stroke11  518  11 I30
stroke11  519  13 I30
stroke11  519  15 I30
stroke11  518  17 I30
stroke11  518  19 I30
stroke11  518  21 I30
stroke11  518  24 I30
stroke11  518  26 I30
stroke11  519  28 I30
stroke11  519  31 I30
stroke11  519  33 I30
stroke11  519  35 I30
stroke11  518  37 I30
stroke11  519  40 I30
stroke11  519  42 I30
stroke11  519  44 I30
stroke11  519  46 I30
stroke11  519  48 I30
stroke11  519  50 I30
stroke11  519  51 I30
stroke11  519  53 I30
stroke11  519  55 I30
stroke11  519  56 I30
stroke11  519  58 I30
stroke11  520  59 I30
stroke11  520  60 I30
stroke11  520  62 I30
stroke11  520  63 I30
stroke11  520  64 I30
stroke11  520  65 I30
stroke11  520  66 I30
stroke11  520  67 I30
stroke11  520  68 I30
stroke11  520  69 I30
stroke11  520  70 I30
stroke11  520  69 I30
stroke11  519  69 I30
