stroke1  226  40 B30
stroke1  226  39 I30
stroke1  227  38 I30
stroke1  226  37 I30
stroke1  226  36 I30
stroke1  225  35 I30
stroke1  224  34 I30
stroke1  223  32 I30
stroke1  221  31 I30
stroke1  219  30 I30
stroke1  218  28 I30
stroke1  216  27 I30
stroke1  214  27 I30
stroke1  212  26 I30
stroke1  211  27 I30
stroke1  210  27 I30
stroke1  209  28 I30
stroke1  208  29 I30
stroke1  207  31 I30
stroke1  207  31 I30
stroke1  207  33 I30
stroke1  207  35 I30
stroke1  208  37 I30
stroke1  208  38 I30
stroke1  209  40 I30
stroke1  210  42 I30
stroke1  212  43 I30
stroke1  214  44 I30
stroke1  216  45 I30
stroke1  219  46 I30
stroke1  221  45 I30
stroke1  224  44 I30
stroke1  226  43 I30
stroke1  229  40 I30
stroke1  230  37 I30
stroke1  232  33 I30
stroke1  232  28 I30
stroke1  233  23 I30
stroke1  233  19 I30
stroke1  232  15 I30
stroke1  232  11 I30
stroke1  231  8 I30
stroke1  230  6 I30
stroke1  230  5 I30
stroke1  230  4 I30
stroke1  230  3 I30
stroke1  229  4 I30
stroke1  229  5 I30
stroke1  230  7 I30
stroke1  231  10 I30
stroke1  232  13 I30
stroke1  234  17 I30
stroke1  236  20 I30
stroke1  239  23 I30
stroke1  242  26 I30
stroke1  245  29 I30
stroke1  248  30 I30
stroke1  250  31 I30
stroke1  253  31 I30
stroke1  255  30 I30
stroke1  256  29 I30
stroke1  258  28 I30
stroke1  259  26 I30
stroke1  260  23 I30
stroke1  261  21 I30
stroke1  261  19 I30
stroke1  261  16 I30
stroke1  262  14 I30
stroke1  262  13 I30
stroke1  262  12 I30
stroke1  262  11 I30
stroke1  261  10 I30
stroke1  261  11 I30
stroke1  261  13 I30
stroke1  261  16 I30
stroke1  260  19 I30
stroke1  261  22 I30
stroke1  261  26 I30
stroke1  261  30 I30
stroke1  262  33 I30
stroke1  262  36 I30
stroke1  262  38 I30
stroke1  262  40 I30
stroke1  262  41 I30
stroke1  262  42 I30
stroke1  262  43 I30
stroke1  262  44 I30
stroke1  262  45 I30
stroke1  262  46 I30
stroke2  261  65 B51
stroke2  260  65 I51
stroke2  259  65 I51
stroke2  258  65 I51
stroke2  257  64 I51
stroke2  255  63 I51
stroke2  254  63 I51
stroke2  252  62 I51
stroke2  249  61 I51
stroke2  246  60 I51
stroke2  242  59 I51
stroke2  239  59 I51
stroke2  234  58 I51
stroke2  230  58 I51
stroke2  225  58 I51
stroke2  221  58 I51
stroke2  216  59 I51
stroke2  212  60 I51
stroke2  209  62 I51
stroke2  205  63 I51
stroke2  203  65 I51
stroke2  202  67 I51
stroke2  201  69 I51
stroke2  200  70 I51
stroke2  201  72 I51
stroke2  203  73 I51
stroke2  205  74 I51
stroke2  208  74 I51
stroke2  212  75 I51
stroke2  217  74 I51
stroke2  222  73 I51
stroke2  227  72 I51
stroke2  233  70 I51
stroke2  238  68 I51
stroke2  244  66 I51
stroke2  249  64 I51
stroke2  253  62 I51
stroke2  256  59 I51
stroke2  285  85 I51
stroke2  286  86 I51
stroke2  286  88 I51
stroke2  286  89 I51
stroke2  285  88 I51
stroke2  285  87 I51
stroke2  284  85 I51
stroke2  283  83 I51
stroke2  282  80 I51
stroke2  281  77 I51
stroke2  279  74 I51
stroke2  278  71 I51
stroke2  276  68 I51
stroke2  274  66 I51
stroke2  272  64 I51
stroke2  270  62 I51
stroke2  269  61 I51
stroke2  267  61 I51
stroke2  266  62 I51
stroke2  264  63 I51
stroke2  263  65 I51
stroke2  262  68 I51
stroke2  262  71 I51
stroke2  261  75 I51
stroke2  261  78 I51
stroke2  260  81 I51
stroke2  260  83 I51
stroke2  260  85 I51
stroke2  259  86 I51
stroke2  259  87 I51
stroke2  258  88 I51
stroke2  258  89 I51
stroke3  265  109 B66
stroke3  264  110 I66
stroke3  262  112 I66
stroke3  261  113 I66
stroke3  261  114 I66
stroke3  260  114 I66
stroke3  260  115 I66
stroke3  260  114 I66
stroke3  261  114 I66
stroke3  263  113 I66
stroke3  264  111 I66
stroke3  266  110 I66
stroke3  268  108 I66
stroke3  269  106 I66
stroke3  270  104 I66
stroke3  271  103 I66
stroke3  272  102 I66
stroke3  273  102 I66
stroke3  274  101 I66
stroke3  276  102 I66
stroke3  277  103 I66
stroke3  280  104 I66
stroke3  282  107 I66
stroke3  286  109 I66
stroke3  290  112 I66
stroke3  293  114 I66
stroke3  297  116 I66
stroke3  300  118 I66
stroke3  302  119 I66
stroke3  304  119 I66
stroke4  317  36 B25
stroke4  317  35 I25
stroke4  316  35 I25
stroke4  315  34 I25
stroke4  314  34 I25
stroke4  313  33 I25
stroke4  311  33 I25
stroke4  309  33 I25
stroke4  308  32 I25
stroke4  306  32 I25
stroke4  304  32 I25
stroke4  303  32 I25
stroke4  301  33 I25
stroke4  299  33 I25
stroke4  298  34 I25
stroke4  296  35 I25
stroke4  295  36 I25
stroke4  294  38 I25
stroke4  294  39 I25
stroke4  294  41 I25
stroke4  295  43 I25
stroke4  297  45 I25
stroke4  299  47 I25
stroke4  301  48 I25
stroke4  304  49 I25
stroke4  307  49 I25
stroke4  310  49 I25
stroke4  312  48 I25
stroke4  314  46 I25
stroke4  316  44 I25
stroke4  317  41 I25
stroke4  317  38 I25
stroke4  317  34 I25
stroke4  317  31 I25
stroke4  316  27 I25
stroke4  316  23 I25
stroke4  315  20 I25
stroke4  314  16 I25
stroke4  313  13 I25
stroke4  311  11 I25
stroke4  310  8 I25
stroke4  309  6 I25
stroke4  308  5 I25
stroke4  307  3 I25
stroke4  307  4 I25
stroke4  308  5 I25
stroke4  309  7 I25
stroke4  310  9 I25
stroke4  312  12 I25
stroke4  315  14 I25
stroke4  317  17 I25
stroke4  319  19 I25
stroke4  322  21 I25
stroke4  324  23 I25
stroke4  327  24 I25
stroke4  330  25 I25
stroke4  332  25 I25
stroke4  335  25 I25
stroke4  338  25 I25
stroke4  341  24 I25
stroke4  343  23 I25
stroke4  345  22 I25
stroke4  346  20 I25
stroke4  347  17 I25
stroke4  347  15 I25
stroke4  347  12 I25
stroke4  346  9 I25
stroke4  344  6 I25
stroke4  342  4 I25
stroke4  339  2 I25
stroke4  337  1 I25
stroke4  334  0 I25
stroke4  332  0 I25
stroke4  331  1 I25
stroke4  330  3 I25
stroke4  329  5 I25
stroke4  329  8 I25
stroke4  330  12 I25
stroke4  332  17 I25
stroke4  334  22 I25
stroke4  337  27 I25
stroke4  341  32 I25
stroke4  344  36 I25
stroke4  347  40 I25
stroke4  349  43 I25
stroke4  351  45 I25
stroke4  353  46 I25
stroke4  354  46 I25
stroke4  355  46 I25
stroke4  355  45 I25
stroke4  356  44 I25
stroke4  356  43 I25
stroke4  356  41 I25
stroke5  388  37 B23
stroke5  387  37 I23
stroke5  385  36 I23
stroke5  383  36 I23
stroke5  381  35 I23
stroke5  379  35 I23
stroke5  377  35 I23
stroke5  375  35 I23
stroke5  372  35 I23
stroke5  371  35 I23
stroke5  369  36 I23
stroke5  368  37 I23
stroke5  368  38 I23
stroke5  367  39 I23
stroke5  367  40 I23
stroke5  368  42 I23
stroke5  368  43 I23
stroke5  369  44 I23
stroke5  371  46 I23
stroke5  372  47 I23
stroke5  374  47 I23
stroke5  375  48 I23
stroke5  377  47 I23
stroke5  379  47 I23
stroke5  380  45 I23
stroke5  382  44 I23
stroke5  383  42 I23
stroke5  384  39 I23
stroke5  385  36 I23
stroke5  385  33 I23
stroke5  385  30 I23
stroke5  385  26 I23
stroke5  384  23 I23
stroke5  383  20 I23
stroke5  382  17 I23
stroke5  381  15 I23
stroke5  381  13 I23
stroke5  380  11 I23
stroke5  379  10 I23
stroke5  379  11 I23
stroke5  380  12 I23
stroke5  381  14 I23
stroke5  382  17 I23
stroke5  384  20 I23
stroke5  385  23 I23
stroke5  388  26 I23
stroke5  390  30 I23
stroke5  393  34 I23
stroke5  396  37 I23
stroke5  398  40 I23
stroke5  401  42 I23
stroke5  403  44 I23
stroke5  406  46 I23
stroke5  408  47 I23
stroke5  410  48 I23
stroke5  413  48 I23
stroke5  415  48 I23
stroke5  416  47 I23
stroke5  418  45 I23
stroke5  418  43 I23
stroke5  419  41 I23
stroke5  419  38 I23
stroke5  419  35 I23
stroke5  418  32 I23
stroke5  418  28 I23
stroke5  417  25 I23
stroke5  417  22 I23
stroke5  417  19 I23
stroke5  416  16 I23
stroke5  416  14 I23
stroke5  416  12 I23
stroke5  416  10 I23
stroke5  416  9 I23
stroke5  416  8 I23
stroke6  424  71 B49
stroke6  424  72 I49
stroke6  423  72 I49
stroke6  422  71 I49
stroke6  421  70 I49
stroke6  419  69 I49
stroke6  417  68 I49
stroke6  414  68 I49
stroke6  411  67 I49
stroke6  407  67 I49
stroke6  403  66 I49
stroke6  398  67 I49
stroke6  393  67 I49
stroke6  388  68 I49
stroke6  382  69 I49
stroke6  377  71 I49
stroke6  372  73 I49
stroke6  367  75 I49
stroke6  363  77 I49
stroke6  360  80 I49
stroke6  358  82 I49
stroke6  356  84 I49
stroke6  356  87 I49
stroke6  356  89 I49
stroke6  358  91 I49
stroke6  362  93 I49
stroke6  367  95 I49
stroke6  373  96 I49
stroke6  379  95 I49
stroke6  385  94 I49
stroke6  391  92 I49
stroke6  397  89 I49
stroke6  402  85 I49
stroke6  406  81 I49
stroke6  409  78 I49
stroke6  412  74 I49
stroke6  414  72 I49
stroke6  415  70 I49
stroke6  429  103 I49
stroke6  429  104 I49
stroke6  429  105 I49
stroke6  428  106 I49
stroke6  428  108 I49
stroke6  428  109 I49
stroke6  427  110 I49
stroke6  428  110 I49
stroke6  428  109 I49
stroke6  428  108 I49
stroke6  428  106 I49
stroke6  428  104 I49
stroke6  428  101 I49
stroke6  428  99 I49
stroke6  428  96 I49
stroke6  428  93 I49
stroke6  428  90 I49
stroke6  429  87 I49
stroke6  430  85 I49
stroke6  430  83 I49
stroke6  431  82 I49
stroke6  432  81 I49
stroke7  433  154 B65
stroke7  432  157 I65
stroke7  432  159 I65
stroke7  432  161 I65
stroke7  431  162 I65
stroke7  431  163 I65
stroke7  431  164 I65
stroke7  430  163 I65
stroke7  430  161 I65
stroke7  431  159 I65
stroke7  431  156 I65
stroke7  431  152 I65
stroke7  432  147 I65
stroke7  433  143 I65
stroke7  433  139 I65
