stroke1  194  8 B35
stroke1  195  8 I35
stroke1  195  9 I35
stroke1  196  9 I35
stroke1  195  10 I35
stroke1  194  10 I35
stroke1  194  11 I35
stroke1  194  10 I35
stroke1  193  10 I35
stroke1  192  9 I35
stroke1  191  9 I35
stroke1  190  8 I35
stroke1  189  7 I35
stroke1  188  6 I35
stroke1  188  5 I35
stroke1  187  5 I35
stroke1  187  4 I35
stroke1  188  4 I35
stroke1  189  5 I35
stroke1  189  5 I35
stroke1  190  5 I35
stroke1  192  6 I35
stroke1  193  7 I35
stroke1  195  8 I35
stroke1  197  10 I35
stroke1  198  11 I35
stroke1  200  12 I35
stroke1  200  13 I35
stroke1  200  15 I35
stroke1  200  16 I35
stroke1  198  17 I35
stroke1  196  17 I35
stroke1  194  18 I35
stroke1  192  19 I35
stroke1  189  19 I35
stroke1  187  20 I35
stroke1  185  20 I35
stroke1  184  20 I35
stroke1  183  21 I35
stroke1  183  22 I35
stroke1  183  23 I35
stroke1  185  24 I35
stroke1  187  25 I35
stroke1  190  26 I35
stroke1  193  27 I35
stroke1  196  28 I35
stroke1  200  29 I35
stroke1  204  30 I35
stroke1  208  30 I35
stroke1  211  31 I35
stroke1  215  32 I35
stroke1  218  33 I35
stroke1  220  34 I35
stroke2  234  26 B47
stroke2  233  25 I47
stroke2  232  24 I47
stroke2  230  24 I47
stroke2  228  23 I47
stroke2  227  23 I47
stroke2  226  23 I47
stroke2  224  24 I47
stroke2  223  25 I47
stroke2  224  27 I47
stroke2  225  28 I47
stroke2  227  30 I47
stroke2  230  32 I47
stroke2  232  33 I47
stroke2  235  35 I47
stroke2  238  36 I47
stroke2  240  37 I47
stroke2  243  38 I47
stroke2  245  38 I47
stroke2  247  37 I47
stroke2  248  36 I47
stroke2  248  35 I47
stroke2  248  32 I47
stroke2  247  29 I47
stroke2  246  26 I47
stroke2  244  22 I47
stroke2  243  19 I47
stroke2  242  16 I47
stroke2  241  13 I47
stroke2  241  11 I47
stroke2  242  9 I47
stroke2  243  9 I47
stroke2  245  8 I47
stroke2  247  9 I47
stroke3  273  26 B34
stroke3  272  26 I34
stroke3  270  26 I34
stroke3  269  26 I34
stroke3  267  26 I34
stroke3  265  26 I34
stroke3  264  25 I34
stroke3  263  25 I34
stroke3  262  25 I34
stroke3  263  25 I34
stroke3  264  25 I34
stroke3  266  26 I34
stroke3  268  26 I34
stroke3  270  27 I34
stroke3  272  27 I34
stroke3  273  28 I34
stroke3  274  29 I34
stroke3  275  29 I34
stroke3  274  30 I34
stroke3  273  30 I34
stroke3  271  29 I34
stroke3  269  29 I34
stroke3  266  28 I34
stroke3  264  27 I34
stroke3  261  26 I34
stroke3  259  25 I34
stroke3  257  24 I34
stroke3  256  23 I34
stroke3  255  22 I34
stroke3  255  21 I34
stroke3  257  20 I34
stroke3  258  19 I34
stroke3  261  19 I34
stroke3  263  18 I34
stroke3  266  18 I34
stroke3  268  18 I34
stroke3  270  18 I34
stroke3  272  18 I34
stroke3  273  18 I34
stroke3  272  17 I34
stroke3  271  16 I34
stroke3  269  16 I34
stroke3  267  14 I34
stroke3  265  13 I34
stroke3  263  12 I34
stroke3  261  11 I34
stroke3  260  10 I34
stroke3  260  9 I34
stroke3  261  8 I34
stroke3  262  7 I34
stroke3  264  7 I34
stroke3  266  7 I34
stroke3  268  7 I34
stroke3  271  7 I34
stroke3  273  7 I34
stroke3  274  8 I34
stroke3  276  9 I34
stroke3  277  10 I34
stroke3  278  11 I34
stroke3  278  13 I34
stroke3  279  16 I34
stroke3  279  18 I34
stroke3  280  21 I34
stroke3  280  23 I34
stroke3  281  25 I34
stroke3  281  27 I34
stroke3  282  28 I34
stroke3  282  29 I34
stroke3  283  30 I34
stroke3  284  30 I34
stroke3  285  30 I34
stroke3  286  29 I34
stroke4  307  10 B36
stroke4  306  10 I36
stroke4  306  9 I36
stroke4  305  9 I36
stroke4  305  8 I36
stroke4  304  7 I36
stroke4  303  6 I36
stroke4  302  6 I36
stroke4  301  6 I36
stroke4  300  6 I36
stroke4  299  6 I36
stroke4  298  6 I36
stroke4  297  6 I36
stroke4  297  7 I36
stroke4  297  8 I36
stroke4  298  10 I36
stroke4  300  11 I36
stroke4  302  13 I36
stroke4  305  15 I36
stroke4  307  16 I36
stroke4  310  17 I36
stroke4  312  18 I36
stroke4  313  18 I36
stroke4  315  18 I36
stroke4  316  18 I36
stroke4  316  17 I36
stroke4  316  15 I36
stroke4  316  14 I36
stroke4  316  13 I36
stroke4  316  12 I36
stroke4  316  11 I36
stroke4  315  10 I36
stroke4  316  10 I36
stroke4  316  11 I36
stroke4  316  12 I36
stroke4  317  13 I36
stroke4  318  15 I36
stroke4  318  17 I36
stroke4  319  20 I36
stroke4  319  22 I36
stroke4  319  24 I36
stroke4  318  26 I36
stroke4  317  28 I36
stroke4  315  29 I36
stroke4  312  29 I36
stroke4  309  29 I36
stroke4  306  28 I36
stroke4  303  27 I36
stroke4  301  25 I36
stroke4  299  24 I36
stroke4  298  22 I36
stroke4  299  21 I36
stroke4  300  19 I36
stroke4  302  18 I36
stroke4  305  16 I36
stroke4  309  16 I36
stroke4  312  15 I36
stroke5  338  22 B46
stroke5  339  23 I46
stroke5  339  24 I46
stroke5  340  25 I46
stroke5  339  26 I46
stroke5  338  26 I46
stroke5  336  26 I46
stroke5  336  25 I46
stroke5  335  25 I46
stroke5  335  24 I46
stroke5  336  24 I46
stroke5  337  24 I46
stroke5  338  24 I46
stroke5  339  24 I46
stroke5  341  25 I46
stroke5  342  26 I46
stroke5  343  27 I46
stroke5  345  29 I46
stroke5  346  30 I46
stroke5  347  32 I46
stroke5  348  33 I46
stroke5  349  35 I46
stroke5  350  35 I46
stroke5  350  36 I46
stroke5  351  36 I46
stroke5  350  35 I46
stroke5  350  33 I46
stroke5  350  32 I46
stroke5  351  14 I46
stroke5  351  13 I46
stroke5  350  12 I46
stroke5  349  11 I46
stroke5  348  11 I46
stroke5  347  10 I46
stroke5  346  10 I46
stroke5  344  9 I46
stroke5  343  8 I46
stroke5  340  7 I46
stroke5  338  6 I46
stroke5  336  5 I46
stroke5  334  4 I46
stroke5  333  3 I46
stroke5  335  2 I46
stroke5  337  3 I46
stroke5  339  3 I46
stroke5  342  4 I46
stroke5  345  5 I46
stroke5  347  7 I46
stroke5  350  8 I46
stroke5  352  10 I46
stroke5  353  12 I46
stroke5  355  14 I46
stroke5  356  16 I46
stroke5  357  17 I46
stroke5  358  19 I46
stroke6  384  27 B54
stroke6  383  27 I54
stroke6  382  28 I54
stroke6  381  28 I54
stroke6  380  29 I54
stroke6  379  29 I54
stroke6  378  29 I54
stroke6  377  29 I54
stroke6  376  27 I54
stroke6  376  26 I54
stroke6  375  24 I54
stroke6  373  21 I54
stroke6  372  19 I54
stroke6  371  16 I54
stroke6  371  14 I54
stroke6  370  11 I54
stroke6  370  10 I54
stroke6  370  8 I54
stroke6  371  7 I54
stroke6  371  6 I54
stroke6  372  6 I54
stroke6  374  6 I54
stroke6  375  7 I54
stroke6  376  8 I54
stroke6  377  8 I54
stroke6  377  9 I54
stroke6  378  10 I54
stroke6  377  10 I54
stroke6  376  11 I54
stroke6  375  11 I54
stroke6  374  11 I54
stroke6  372  11 I54
stroke6  371  11 I54
stroke6  372  11 I54
stroke7  407  14 B43
stroke7  406  14 I43
stroke7  405  14 I43
stroke7  403  14 I43
stroke7  402  14 I43
stroke7  400  14 I43
stroke7  399  14 I43
stroke7  398  14 I43
stroke7  399  13 I43
stroke7  400  13 I43
stroke7  401  13 I43
stroke7  403  14 I43
stroke7  405  14 I43
stroke7  407  14 I43
stroke7  408  15 I43
stroke7  410  16 I43
stroke7  411  16 I43
stroke7  412  17 I43
stroke7  412  18 I43
stroke7  412  19 I43
stroke7  412  20 I43
stroke7  411  20 I43
stroke7  410  21 I43
stroke7  408  20 I43
stroke7  406  20 I43
stroke7  404  20 I43
stroke7  402  19 I43
stroke7  400  17 I43
stroke7  399  16 I43
stroke7  398  14 I43
stroke7  397  12 I43
stroke7  396  11 I43
stroke7  396  9 I43
stroke7  396  7 I43
stroke7  396  6 I43
stroke7  397  4 I43
stroke7  398  3 I43
stroke7  400  3 I43
stroke7  402  2 I43
stroke7  404  2 I43
stroke7  406  3 I43
stroke7  408  4 I43
stroke7  411  5 I43
stroke7  412  7 I43
stroke7  414  9 I43
stroke7  415  12 I43
stroke7  416  15 I43
stroke7  417  17 I43
stroke7  417  20 I43
stroke7  417  23 I43
stroke7  416  25 I43
stroke7  414  26 I43
stroke7  412  27 I43
stroke7  409  28 I43
stroke7  406  28 I43
stroke7  403  28 I43
stroke7  401  27 I43
stroke7  399  27 I43
stroke7  397  26 I43
stroke7  396  25 I43
stroke7  396  24 I43
stroke7  396  23 I43
stroke7  397  22 I43
stroke7  398  21 I43
stroke7  400  21 I43
stroke7  402  21 I43
stroke7  404  22 I43
stroke8  429  39 B49
stroke8  429  40 I49
stroke8  429  41 I49
stroke8  428  41 I49
stroke8  427  40 I49
stroke8  426  40 I49
stroke8  425  39 I49
stroke8  423  39 I49
stroke8  421  39 I49
stroke8  419  39 I49
stroke8  416  39 I49
stroke8  414  40 I49
stroke8  411  40 I49
stroke8  408  41 I49
stroke8  406  42 I49
stroke8  403  43 I49
stroke8  402  44 I49
stroke8  400  46 I49
stroke8  399  48 I49
stroke8  399  49 I49
stroke8  399  51 I49
stroke8  400  52 I49
stroke8  401  53 I49
stroke8  403  54 I49
stroke8  406  55 I49
stroke8  408  54 I49
stroke8  411  54 I49
stroke8  414  53 I49
stroke8  417  51 I49
stroke8  419  49 I49
stroke8  421  47 I49
stroke8  422  45 I49
stroke8  423  43 I49
stroke8  424  42 I49
stroke8  424  40 I49
stroke8  424  39 I49
stroke8  426  43 I49
stroke8  427  45 I49
stroke8  428  47 I49
stroke8  429  50 I49
stroke8  430  52 I49
stroke8  432  55 I49
stroke8  433  57 I49
stroke8  433  59 I49
stroke8  434  61 I49
stroke8  434  62 I49
stroke8  435  63 I49
stroke8  435  62 I49
stroke8  434  61 I49
stroke8  434  59 I49
stroke8  433  57 I49
stroke8  432  54 I49
stroke8  432  51 I49
stroke8  431  48 I49
stroke8  431  45 I49
stroke8  431  42 I49
stroke9  446  22 B34
stroke9  444  22 I34
stroke9  442  21 I34
stroke9  440  21 I34
stroke9  439  21 I34
stroke9  437  21 I34
stroke9  436  20 I34
stroke9  435  20 I34
stroke9  436  20 I34
stroke9  436  19 I34
stroke9  437  20 I34
stroke9  439  20 I34
stroke9  440  20 I34
stroke9  442  21 I34
stroke9  444  22 I34
stroke9  446  23 I34
stroke9  448  24 I34
stroke9  449  25 I34
stroke9  450  27 I34
stroke9  451  28 I34
stroke9  451  29 I34
stroke9  450  29 I34
stroke9  448  29 I34
stroke9  446  29 I34
stroke9  444  29 I34
stroke9  442  28 I34
stroke9  441  27 I34
stroke9  440  26 I34
stroke9  439  25 I34
stroke9  439  23 I34
stroke9  439  22 I34
stroke9  439  20 I34
stroke9  440  19 I34
stroke9  442  17 I34
stroke9  444  16 I34
stroke9  446  15 I34
stroke9  448  14 I34
stroke9  451  14 I34
stroke9  453  14 I34
stroke9  454  14 I34
stroke9  456  14 I34
stroke9  455  14 I34
stroke9  454  14 I34
stroke9  452  14 I34
stroke9  449  13 I34
stroke9  447  12 I34
stroke9  444  11 I34
stroke9  441  10 I34
stroke9  439  9 I34
stroke9  437  7 I34
stroke9  437  6 I34
stroke9  436  5 I34
stroke9  437  3 I34
stroke9  438  2 I34
stroke9  440  2 I34
stroke9  443  1 I34
stroke9  446  1 I34
stroke9  448  0 I34
stroke9  451  1 I34
stroke9  453  1 I34
stroke9  456  2 I34
stroke9  458  4 I34
stroke9  460  6 I34
stroke9  461  9 I34
stroke9  463  12 I34
stroke9  465  16 I34
stroke9  467  19 I34
stroke9  468  22 I34
stroke9  469  24 I34
stroke9  470  26 I34
stroke9  471  28 I34
stroke9  471  29 I34
stroke9  472  30 I34
stroke9  473  30 I34
stroke9  474  29 I34
stroke9  476  29 I34
stroke10  495  15 B20
stroke10  493  15 I20
stroke10  492  15 I20
stroke10  490  15 I20
stroke10  489  16 I20
stroke10  488  16 I20
stroke10  487  17 I20
stroke10  486  18 I20
stroke10  485  18 I20
stroke10  485  19 I20
stroke10  485  20 I20
stroke10  485  21 I20
stroke10  486  22 I20
stroke10  487  22 I20
stroke10  489  22 I20
stroke10  490  22 I20
stroke10  492  22 I20
stroke10  494  21 I20
stroke10  496  21 I20
stroke10  497  19 I20
stroke10  498  18 I20
stroke10  499  16 I20
stroke10  499  15 I20
stroke10  498  13 I20
stroke10  497  11 I20
stroke10  495  9 I20
stroke10  493  7 I20
stroke10  491  6 I20
stroke10  488  5 I20
stroke10  486  4 I20
stroke10  484  3 I20
stroke10  482  3 I20
stroke10  480  4 I20
stroke10  478  5 I20
stroke10  477  6 I20
stroke10  476  7 I20
stroke10  475  9 I20
stroke10  476  12 I20
stroke10  476  14 I20
stroke10  478  17 I20
stroke10  480  20 I20
stroke10  483  23 I20
stroke10  486  25 I20
stroke10  489  28 I20
stroke10  493  29 I20
stroke10  497  30 I20
stroke10  501  31 I20
stroke10  505  31 I20
stroke10  508  30 I20
stroke10  511  29 I20
stroke10  513  27 I20
stroke10  514  25 I20
stroke10  515  22 I20
stroke10  515  19 I20
stroke10  515  16 I20
stroke10  514  13 I20
stroke10  514  10 I20
stroke10  513  7 I20
stroke10  513  5 I20
stroke10  513  4 I20
