stroke1  195  43 B29
stroke1  194  42 I29
stroke1  194  41 I29
stroke1  194  40 I29
stroke1  195  40 I29
stroke1  196  39 I29
stroke1  197  40 I29
stroke1  198  40 I29
stroke1  199  41 I29
stroke1  200  41 I29
stroke1  201  43 I29
stroke1  203  44 I29
stroke1  204  46 I29
stroke1  206  48 I29
stroke1  208  50 I29
stroke1  209  53 I29
stroke1  210  55 I29
stroke1  211  57 I29
stroke1  211  59 I29
stroke1  211  59 I29
stroke1  211  60 I29
stroke1  211  61 I29
stroke1  210  62 I29
stroke1  209  63 I29
stroke1  207  63 I29
stroke1  206  64 I29
stroke1  204  63 I29
stroke1  203  63 I29
stroke1  201  62 I29
stroke1  200  61 I29
stroke1  198  60 I29
stroke1  197  58 I29
stroke1  196  55 I29
stroke1  195  52 I29
stroke1  194  48 I29
stroke1  193  44 I29
stroke1  193  41 I29
stroke1  193  37 I29
stroke1  193  33 I29
stroke1  193  29 I29
stroke1  194  25 I29
stroke1  194  22 I29
stroke1  195  19 I29
stroke1  196  17 I29
stroke1  197  16 I29
stroke1  198  15 I29
stroke1  199  14 I29
stroke1  201  15 I29
stroke1  202  15 I29
stroke1  203  16 I29
stroke1  204  18 I29
stroke1  205  20 I29
stroke1  206  22 I29
stroke1  207  25 I29
stroke1  208  28 I29
stroke1  209  31 I29
stroke1  210  33 I29
stroke1  211  36 I29
stroke1  211  37 I29
stroke1  212  38 I29
stroke1  212  39 I29
stroke1  212  40 I29
stroke1  212  39 I29
stroke1  212  38 I29
stroke1  213  36 I29
stroke1  213  34 I29
stroke1  213  31 I29
stroke1  214  28 I29
stroke1  215  25 I29
stroke1  216  22 I29
stroke1  217  19 I29
stroke1  219  17 I29
stroke1  220  15 I29
stroke1  222  13 I29
stroke1  224  13 I29
stroke1  225  12 I29
stroke1  226  12 I29
stroke1  228  13 I29
stroke1  229  14 I29
stroke1  229  15 I29
stroke1  230  17 I29
stroke1  231  20 I29
stroke1  231  23 I29
stroke1  232  28 I29
stroke1  232  33 I29
stroke1  233  39 I29
stroke1  233  45 I29
stroke1  234  53 I29
stroke1  235  61 I29
stroke1  236  69 I29
stroke1  236  77 I29
stroke1  236  84 I29
stroke1  237  90 I29
stroke1  236  95 I29
stroke1  236  99 I29
stroke1  236  102 I29
stroke1  235  104 I29
stroke1  235  106 I29
stroke1  234  107 I29
stroke1  234  108 I29
stroke1  233  108 I29
stroke1  232  107 I29
stroke1  232  106 I29
stroke1  231  106 I29
stroke1  231  104 I29
stroke2  207  93 B65
stroke2  207  95 I65
stroke2  207  97 I65
stroke2  207  99 I65
stroke2  207  100 I65
stroke2  207  102 I65
stroke2  207  103 I65
stroke2  206  104 I65
stroke2  206  105 I65
stroke2  206  106 I65
stroke2  206  105 I65
stroke2  206  103 I65
stroke2  207  101 I65
stroke2  207  99 I65
stroke2  207  96 I65
stroke2  207  93 I65
stroke2  207  90 I65
stroke2  208  87 I65
stroke2  208  84 I65
stroke3  246  46 B47
stroke3  246  47 I47
stroke3  245  48 I47
stroke3  246  50 I47
stroke3  246  51 I47
stroke3  246  52 I47
stroke3  247  54 I47
stroke3  248  55 I47
stroke3  249  57 I47
stroke3  251  59 I47
stroke3  253  60 I47
stroke3  254  61 I47
stroke3  256  62 I47
stroke3  258  63 I47
stroke3  259  63 I47
stroke3  260  63 I47
stroke3  261  62 I47
stroke3  262  61 I47
stroke3  263  59 I47
stroke3  264  56 I47
stroke3  264  53 I47
stroke3  264  49 I47
stroke3  264  45 I47
stroke3  264  40 I47
stroke3  264  34 I47
stroke3  264  29 I47
stroke3  263  23 I47
stroke3  263  18 I47
stroke3  263  13 I47
stroke3  264  10 I47
stroke3  264  7 I47
stroke3  265  5 I47
stroke3  266  5 I47
stroke3  267  5 I47
stroke3  268  6 I47
stroke4  295  52 B29
stroke4  294  51 I29
stroke4  293  51 I29
stroke4  293  50 I29
stroke4  293  49 I29
stroke4  293  48 I29
stroke4  293  47 I29
stroke4  293  46 I29
stroke4  294  46 I29
stroke4  295  46 I29
stroke4  295  47 I29
stroke4  296  48 I29
stroke4  297  49 I29
stroke4  298  50 I29
stroke4  299  51 I29
stroke4  300  52 I29
stroke4  300  54 I29
stroke4  301  55 I29
stroke4  301  57 I29
stroke4  301  59 I29
stroke4  301  60 I29
stroke4  301  61 I29
stroke4  300  62 I29
stroke4  300  63 I29
stroke4  299  63 I29
stroke4  298  62 I29
stroke4  296  61 I29
stroke4  295  59 I29
stroke4  293  56 I29
stroke4  292  53 I29
stroke4  290  49 I29
stroke4  289  44 I29
stroke4  288  40 I29
stroke4  288  35 I29
stroke4  287  30 I29
stroke4  288  26 I29
stroke4  289  22 I29
stroke4  290  18 I29
stroke4  291  15 I29
stroke4  292  13 I29
stroke4  294  11 I29
stroke4  296  11 I29
stroke4  297  11 I29
stroke4  299  12 I29
stroke4  301  14 I29
stroke4  304  16 I29
stroke4  306  18 I29
stroke4  308  22 I29
stroke4  310  25 I29
stroke4  312  28 I29
stroke4  314  31 I29
stroke4  315  34 I29
stroke4  316  36 I29
stroke4  317  37 I29
stroke4  318  38 I29
stroke4  318  37 I29
stroke4  318  36 I29
stroke4  319  34 I29
stroke4  319  32 I29
stroke4  320  29 I29
stroke4  321  26 I29
stroke4  322  24 I29
stroke4  324  21 I29
stroke4  325  18 I29
stroke4  327  16 I29
stroke4  329  15 I29
stroke4  331  14 I29
stroke4  333  13 I29
stroke4  335  13 I29
stroke4  336  14 I29
stroke4  337  16 I29
stroke4  338  18 I29
stroke4  338  20 I29
stroke4  338  24 I29
stroke4  339  28 I29
stroke4  339  34 I29
stroke4  338  40 I29
stroke4  338  46 I29
stroke4  338  54 I29
stroke4  338  62 I29
stroke4  338  70 I29
stroke4  338  78 I29
stroke4  338  86 I29
stroke4  338  93 I29
stroke4  338  98 I29
stroke4  337  103 I29
stroke4  337  106 I29
stroke4  337  109 I29
stroke4  337  111 I29
stroke4  337  112 I29
stroke4  337  111 I29
stroke5  338  98 B51
stroke5  337  103 I51
stroke5  337  106 I51
stroke5  337  109 I51
stroke5  337  111 I51
stroke5  337  112 I51
stroke5  337  111 I51
stroke5  338  98 I51
stroke5  337  97 I51
stroke5  336  96 I51
stroke5  334  96 I51
stroke5  332  95 I51
stroke5  330  95 I51
stroke5  327  94 I51
stroke5  323  93 I51
stroke5  319  93 I51
stroke5  313  92 I51
stroke5  307  91 I51
stroke5  300  89 I51
stroke5  293  88 I51
stroke5  286  88 I51
stroke5  280  88 I51
stroke5  274  88 I51
stroke5  269  89 I51
stroke5  265  91 I51
stroke5  262  93 I51
stroke5  260  94 I51
stroke5  258  96 I51
stroke5  257  98 I51
stroke5  257  100 I51
stroke5  258  101 I51
stroke5  259  103 I51
stroke5  261  105 I51
stroke5  264  106 I51
stroke5  268  107 I51
stroke5  272  108 I51
stroke5  277  108 I51
stroke5  282  106 I51
stroke5  287  104 I51
stroke5  291  101 I51
stroke5  296  97 I51
stroke5  300  94 I51
stroke5  303  90 I51
stroke5  306  87 I51
stroke5  308  84 I51
stroke5  309  82 I51
stroke5  310  81 I51
stroke5  311  80 I51
stroke5  353  118 I51
stroke5  354  118 I51
stroke5  353  116 I51
stroke5  353  114 I51
stroke5  352  111 I51
stroke5  350  108 I51
stroke5  349  105 I51
stroke5  347  102 I51
stroke5  345  100 I51
stroke5  343  98 I51
stroke5  341  96 I51
stroke5  339  94 I51
stroke5  338  93 I51
stroke5  336  92 I51
stroke5  334  92 I51
stroke5  332  92 I51
stroke5  330  93 I51
stroke5  329  94 I51
stroke5  327  95 I51
stroke5  325  98 I51
stroke5  323  101 I51
stroke5  322  105 I51
stroke5  320  110 I51
stroke5  319  115 I51
stroke5  318  119 I51
stroke5  316  124 I51
stroke5  316  127 I51
stroke5  315  130 I51
stroke5  315  132 I51
stroke5  314  133 I51
stroke5  314  132 I51
stroke5  315  131 I51
stroke5  316  129 I51
stroke5  317  126 I51
stroke6  385  56 B25
stroke6  383  54 I25
stroke6  380  53 I25
stroke6  377  53 I25
stroke6  374  53 I25
stroke6  371  53 I25
stroke6  368  54 I25
stroke6  366  55 I25
stroke6  364  56 I25
stroke6  363  57 I25
stroke6  362  59 I25
stroke6  361  61 I25
stroke6  362  62 I25
stroke6  363  64 I25
stroke6  365  66 I25
stroke6  367  68 I25
stroke6  370  69 I25
stroke6  373  69 I25
stroke6  376  69 I25
stroke6  379  68 I25
stroke6  381  67 I25
stroke6  384  64 I25
stroke6  386  60 I25
stroke6  387  56 I25
stroke6  388  51 I25
stroke6  388  45 I25
stroke6  388  39 I25
stroke6  388  33 I25
stroke6  387  27 I25
stroke6  386  21 I25
stroke6  385  16 I25
stroke6  384  11 I25
stroke6  383  7 I25
stroke6  382  4 I25
stroke6  381  1 I25
stroke6  380  0 I25
stroke6  381  1 I25
stroke6  382  3 I25
stroke6  383  6 I25
stroke6  384  10 I25
stroke6  386  14 I25
stroke6  388  18 I25
stroke6  390  22 I25
stroke6  393  26 I25
stroke6  395  30 I25
stroke6  398  33 I25
stroke6  401  35 I25
stroke6  404  38 I25
stroke6  407  39 I25
stroke6  410  40 I25
stroke6  413  41 I25
stroke6  416  41 I25
stroke6  418  40 I25
stroke6  420  38 I25
stroke6  421  35 I25
stroke6  422  32 I25
stroke6  421  28 I25
stroke6  420  24 I25
stroke6  419  20 I25
stroke6  417  17 I25
stroke6  415  14 I25
stroke6  413  11 I25
stroke6  411  10 I25
stroke6  409  8 I25
stroke6  406  8 I25
stroke6  404  8 I25
stroke6  401  8 I25
stroke6  399  10 I25
stroke6  398  12 I25
stroke6  397  15 I25
stroke6  396  19 I25
stroke6  396  24 I25
stroke6  396  30 I25
stroke6  397  36 I25
stroke6  398  42 I25
stroke6  399  48 I25
stroke6  400  53 I25
stroke6  401  58 I25
stroke6  401  61 I25
stroke6  402  64 I25
stroke6  402  66 I25
stroke6  403  67 I25
stroke6  403  68 I25
stroke6  404  69 I25
stroke6  404  68 I25
stroke6  404  67 I25
