stroke1  172  90 B23
stroke1  172  89 I23
stroke1  171  89 I23
stroke1  171  88 I23
stroke1  170  88 I23
stroke1  169  87 I23
stroke1  168  87 I23
stroke1  167  86 I23
stroke1  166  85 I23
stroke1  165  85 I23
stroke1  164  85 I23
stroke1  163  84 I23
stroke1  162  84 I23
stroke1  161  84 I23
stroke1  160  84 I23
stroke1  159  85 I23
stroke1  158  85 I23
stroke1  156  86 I23
stroke1  155  87 I23
stroke1  155  87 I23
stroke1  154  88 I23
stroke1  153  89 I23
stroke1  152  91 I23
stroke1  151  92 I23
stroke1  151  93 I23
stroke1  151  95 I23
stroke1  150  96 I23
stroke1  150  98 I23
stroke1  151  99 I23
stroke1  152  101 I23
stroke1  152  102 I23
stroke1  154  103 I23
stroke1  155  104 I23
stroke1  156  105 I23
stroke1  157  105 I23
stroke1  159  105 I23
stroke1  160  106 I23
stroke1  161  105 I23
stroke1  162  105 I23
stroke1  163  104 I23
stroke1  164  103 I23
stroke1  164  101 I23
stroke1  165  100 I23
stroke1  165  98 I23
stroke1  166  95 I23
stroke1  166  93 I23
stroke1  166  90 I23
stroke1  166  88 I23
stroke1  167  85 I23
stroke1  167  82 I23
stroke1  167  79 I23
stroke1  167  76 I23
stroke1  167  73 I23
stroke1  167  70 I23
stroke1  167  67 I23
stroke1  167  63 I23
stroke1  167  61 I23
stroke1  167  58 I23
stroke1  167  56 I23
stroke1  167  54 I23
stroke1  167  52 I23
stroke1  167  50 I23
stroke1  167  49 I23
stroke1  167  48 I23
stroke1  167  47 I23
stroke1  167  46 I23
stroke1  167  45 I23
stroke1  167  44 I23
stroke1  167  43 I23
stroke1  166  43 I23
stroke1  166  42 I23
stroke1  166  43 I23
stroke1  166  45 I23
stroke1  166  47 I23
stroke1  165  49 I23
stroke1  165  52 I23
stroke1  165  55 I23
stroke1  166  58 I23
stroke1  166  62 I23
stroke1  166  66 I23
stroke1  167  70 I23
stroke1  167  74 I23
stroke1  168  79 I23
stroke1  169  83 I23
stroke1  170  86 I23
stroke1  171  90 I23
stroke1  172  93 I23
stroke1  173  96 I23
stroke1  174  98 I23
stroke1  176  100 I23
stroke1  177  101 I23
stroke1  178  102 I23
stroke1  179  103 I23
stroke1  180  104 I23
stroke1  181  104 I23
stroke1  182  105 I23
stroke1  183  105 I23
stroke1  184  105 I23
stroke1  185  105 I23
stroke1  186  105 I23
stroke1  187  105 I23
stroke1  188  104 I23
stroke1  189  104 I23
stroke1  190  103 I23
stroke1  191  102 I23
stroke1  192  101 I23
stroke1  192  100 I23
stroke1  193  98 I23
stroke1  193  96 I23
stroke1  193  94 I23
stroke1  194  92 I23
stroke1  193  89 I23
stroke1  193  86 I23
stroke1  193  83 I23
stroke1  193  79 I23
stroke1  193  76 I23
stroke1  193  72 I23
stroke1  193  68 I23
stroke1  193  64 I23
stroke1  193  61 I23
stroke1  193  58 I23
stroke1  193  55 I23
stroke1  193  53 I23
stroke1  194  51 I23
stroke1  194  50 I23
stroke1  194  49 I23
stroke1  194  48 I23
stroke1  194  47 I23
stroke1  193  47 I23
stroke1  193  48 I23
stroke2  187  20 B53
stroke2  187  19 I53
stroke2  186  19 I53
stroke2  186  18 I53
stroke2  185  18 I53
stroke2  184  18 I53
stroke2  183  17 I53
stroke2  182  17 I53
stroke2  181  16 I53
stroke2  180  16 I53
stroke2  179  16 I53
stroke2  179  17 I53
stroke2  178  17 I53
stroke2  178  18 I53
stroke2  178  19 I53
stroke2  178  20 I53
stroke2  178  21 I53
stroke2  179  22 I53
stroke2  179  23 I53
stroke2  180  23 I53
stroke2  181  23 I53
stroke2  182  23 I53
stroke2  183  23 I53
stroke2  184  22 I53
stroke2  185  22 I53
stroke2  185  21 I53
stroke2  186  19 I53
stroke2  186  18 I53
stroke2  186  17 I53
stroke2  186  15 I53
stroke2  186  14 I53
stroke2  186  12 I53
stroke2  185  10 I53
stroke2  185  8 I53
stroke2  185  7 I53
stroke2  185  6 I53
stroke2  184  4 I53
stroke2  185  4 I53
stroke2  185  3 I53
stroke2  185  2 I53
stroke2  186  1 I53
stroke2  187  0 I53
stroke2  188  0 I53
stroke2  189  0 I53
stroke2  190  0 I53
stroke2  191  0 I53
stroke2  191  1 I53
stroke2  192  1 I53
stroke2  193  1 I53
stroke2  194  1 I53
stroke2  194  2 I53
stroke2  195  2 I53
stroke2  195  3 I53
stroke2  195  4 I53
stroke2  196  5 I53
stroke2  196  6 I53
stroke2  196  7 I53
stroke2  196  9 I53
stroke2  196  10 I53
stroke2  196  12 I53
stroke2  196  13 I53
stroke2  196  14 I53
stroke2  196  16 I53
stroke2  196  17 I53
stroke2  196  18 I53
stroke2  195  19 I53
stroke3  209  49 B36
stroke3  208  49 I36
stroke3  207  49 I36
stroke3  206  49 I36
stroke3  206  50 I36
stroke3  205  50 I36
stroke3  206  51 I36
stroke3  207  51 I36
stroke3  208  51 I36
stroke3  210  52 I36
stroke3  211  51 I36
stroke3  213  51 I36
stroke3  215  51 I36
stroke3  216  51 I36
stroke3  218  50 I36
stroke3  219  50 I36
stroke3  221  49 I36
stroke3  222  48 I36
stroke3  222  47 I36
stroke3  223  46 I36
stroke3  222  45 I36
stroke3  222  44 I36
stroke3  221  43 I36
stroke3  220  43 I36
stroke3  219  42 I36
stroke3  217  42 I36
stroke3  216  42 I36
stroke3  215  42 I36
stroke3  213  42 I36
stroke3  212  43 I36
stroke3  211  43 I36
stroke3  210  44 I36
stroke3  209  45 I36
stroke3  208  46 I36
stroke3  208  47 I36
stroke3  207  49 I36
stroke3  207  50 I36
stroke3  206  52 I36
stroke3  206  54 I36
stroke3  206  56 I36
stroke3  206  58 I36
stroke3  207  61 I36
stroke3  207  63 I36
stroke3  207  66 I36
stroke3  207  68 I36
stroke3  208  71 I36
stroke3  208  73 I36
stroke3  208  76 I36
stroke3  208  78 I36
stroke3  209  80 I36
stroke3  209  81 I36
stroke3  209  83 I36
stroke3  209  84 I36
stroke3  209  85 I36
stroke3  210  85 I36
stroke3  210  86 I36
stroke3  211  86 I36
stroke3  212  85 I36
stroke3  213  85 I36
stroke3  214  84 I36
stroke3  215  82 I36
stroke3  217  81 I36
stroke3  219  79 I36
stroke3  221  77 I36
stroke3  223  74 I36
stroke3  226  72 I36
stroke3  228  69 I36
stroke3  230  67 I36
stroke3  232  65 I36
stroke3  234  62 I36
stroke3  236  60 I36
stroke3  237  57 I36
stroke3  238  55 I36
stroke3  239  53 I36
stroke3  240  51 I36
stroke3  241  50 I36
stroke3  241  49 I36
stroke3  241  50 I36
stroke3  240  51 I36
stroke3  240  53 I36
stroke3  240  55 I36
stroke3  239  57 I36
stroke3  239  60 I36
stroke3  239  63 I36
stroke3  239  66 I36
stroke3  238  70 I36
stroke3  238  73 I36
stroke3  238  77 I36
stroke3  237  80 I36
stroke3  237  83 I36
stroke3  236  86 I36
stroke3  236  89 I36
stroke3  235  91 I36
stroke3  234  94 I36
stroke3  233  96 I36
stroke3  232  98 I36
stroke3  231  99 I36
stroke3  230  101 I36
stroke3  229  102 I36
stroke3  228  104 I36
stroke3  227  105 I36
stroke3  226  105 I36
stroke3  225  106 I36
stroke3  224  106 I36
stroke3  222  106 I36
stroke3  221  106 I36
stroke3  219  105 I36
stroke3  218  104 I36
stroke3  216  103 I36
stroke3  214  102 I36
stroke3  213  101 I36
stroke3  211  100 I36
stroke3  210  99 I36
stroke4  269  99 B54
stroke4  270  100 I54
stroke4  270  101 I54
stroke4  270  102 I54
stroke4  270  103 I54
stroke4  269  104 I54
stroke4  270  104 I54
stroke4  270  105 I54
stroke4  270  104 I54
stroke4  270  103 I54
stroke4  270  101 I54
stroke4  270  99 I54
stroke4  271  97 I54
stroke4  271  94 I54
stroke4  270  91 I54
stroke4  270  87 I54
stroke4  270  84 I54
stroke4  270  80 I54
stroke4  270  77 I54
stroke4  270  73 I54
stroke4  271  70 I54
stroke4  271  67 I54
stroke4  271  65 I54
stroke4  271  63 I54
stroke4  272  61 I54
stroke4  272  59 I54
stroke4  273  57 I54
stroke4  273  55 I54
stroke4  274  54 I54
stroke4  274  53 I54
stroke4  274  52 I54
stroke4  275  51 I54
stroke4  276  51 I54
stroke4  277  51 I54
stroke4  278  52 I54
stroke4  279  53 I54
stroke4  280  54 I54
stroke4  281  56 I54
stroke4  282  57 I54
stroke4  283  59 I54
stroke4  283  60 I54
stroke4  283  61 I54
stroke4  283  62 I54
stroke4  282  63 I54
stroke4  281  63 I54
stroke4  280  64 I54
stroke4  279  64 I54
stroke4  278  64 I54
stroke4  277  65 I54
stroke4  275  65 I54
stroke4  274  65 I54
stroke4  273  65 I54
stroke4  272  65 I54
stroke5  299  47 B1
stroke5  299  46 I1
stroke5  298  46 I1
stroke5  298  47 I1
stroke5  298  49 I1
stroke5  298  50 I1
stroke5  298  52 I1
stroke5  299  54 I1
stroke5  299  56 I1
stroke5  299  59 I1
stroke5  300  61 I1
stroke5  301  65 I1
stroke5  301  68 I1
stroke5  302  72 I1
stroke5  302  75 I1
stroke5  302  79 I1
stroke5  302  82 I1
stroke5  302  86 I1
stroke5  302  89 I1
stroke5  302  91 I1
stroke5  301  94 I1
stroke5  301  96 I1
stroke5  300  98 I1
stroke5  299  99 I1
stroke5  298  100 I1
stroke5  298  101 I1
stroke5  297  101 I1
stroke5  296  102 I1
stroke5  294  102 I1
stroke5  293  102 I1
stroke5  292  102 I1
stroke5  291  102 I1
stroke5  290  102 I1
stroke5  289  101 I1
stroke5  288  101 I1
stroke5  289  102 I1
stroke5  290  102 I1
stroke5  291  103 I1
stroke5  293  104 I1
stroke5  295  104 I1
stroke5  296  105 I1
stroke5  298  105 I1
stroke5  300  106 I1
stroke5  302  106 I1
stroke5  304  106 I1
stroke5  306  106 I1
stroke5  308  107 I1
stroke5  310  106 I1
stroke5  312  106 I1
stroke5  314  106 I1
stroke5  316  106 I1
stroke5  318  105 I1
stroke5  319  104 I1
stroke5  321  103 I1
stroke5  322  102 I1
stroke5  323  100 I1
stroke5  324  98 I1
stroke5  325  96 I1
stroke5  326  93 I1
stroke5  326  90 I1
stroke5  327  87 I1
stroke5  327  84 I1
stroke5  327  81 I1
stroke5  328  78 I1
stroke5  327  74 I1
stroke5  327  71 I1
stroke5  327  67 I1
stroke5  327  64 I1
stroke5  327  60 I1
stroke5  327  58 I1
stroke5  327  55 I1
stroke5  327  53 I1
stroke5  327  52 I1
stroke5  328  50 I1
stroke5  328  49 I1
stroke5  327  49 I1
stroke5  327  50 I1
stroke5  326  51 I1
stroke6  349  50 B36
stroke6  348  49 I36
stroke6  348  50 I36
stroke6  349  51 I36
stroke6  350  51 I36
stroke6  351  52 I36
stroke6  352  52 I36
stroke6  353  52 I36
stroke6  355  52 I36
stroke6  356  52 I36
stroke6  357  51 I36
stroke6  358  51 I36
stroke6  359  51 I36
stroke6  359  50 I36
stroke6  360  49 I36
stroke6  360  48 I36
stroke6  360  47 I36
stroke6  359  47 I36
stroke6  358  46 I36
stroke6  357  46 I36
stroke6  356  46 I36
stroke6  355  46 I36
stroke6  354  46 I36
stroke6  353  46 I36
stroke6  352  47 I36
stroke6  351  47 I36
stroke6  350  48 I36
stroke6  349  49 I36
stroke6  349  50 I36
stroke6  348  52 I36
stroke6  348  53 I36
stroke6  348  55 I36
stroke6  348  58 I36
stroke6  348  60 I36
stroke6  348  63 I36
stroke6  349  66 I36
stroke6  349  69 I36
stroke6  350  72 I36
stroke6  350  75 I36
stroke6  350  77 I36
stroke6  350  79 I36
stroke6  350  81 I36
stroke6  350  83 I36
stroke6  350  84 I36
stroke6  350  85 I36
stroke6  351  86 I36
stroke6  351  87 I36
stroke6  351  88 I36
stroke6  352  88 I36
stroke6  353  88 I36
stroke6  354  87 I36
stroke6  355  87 I36
stroke6  357  86 I36
stroke6  358  85 I36
stroke6  360  83 I36
stroke6  361  82 I36
stroke6  363  80 I36
stroke6  364  78 I36
stroke6  366  76 I36
stroke6  368  73 I36
stroke6  370  71 I36
stroke6  371  68 I36
stroke6  373  65 I36
stroke6  374  63 I36
stroke6  376  60 I36
stroke6  377  58 I36
stroke6  378  56 I36
stroke6  379  54 I36
stroke6  380  52 I36
stroke6  381  51 I36
stroke6  381  50 I36
stroke6  382  49 I36
stroke6  382  48 I36
stroke6  383  47 I36
stroke6  382  48 I36
stroke6  382  49 I36
stroke6  382  51 I36
stroke6  382  53 I36
stroke6  382  55 I36
stroke6  381  58 I36
stroke6  381  62 I36
stroke6  381  65 I36
stroke6  380  69 I36
stroke6  379  73 I36
stroke6  379  76 I36
stroke6  378  80 I36
stroke6  377  83 I36
stroke6  377  86 I36
stroke6  376  89 I36
stroke6  376  91 I36
stroke6  376  94 I36
stroke6  376  96 I36
stroke6  376  97 I36
stroke6  376  98 I36
stroke6  376  99 I36
stroke6  376  100 I36
stroke6  376  101 I36
stroke6  376  102 I36
stroke6  375  102 I36
stroke6  374  102 I36
stroke6  373  102 I36
stroke6  371  102 I36
stroke6  369  103 I36
stroke6  367  103 I36
stroke6  365  104 I36
stroke6  362  105 I36
stroke6  360  105 I36
stroke6  357  106 I36
stroke6  355  106 I36
stroke6  353  106 I36
stroke6  350  106 I36
stroke6  348  105 I36
stroke6  346  104 I36
stroke6  344  103 I36
stroke6  342  102 I36
stroke6  341  101 I36
stroke6  340  101 I36
stroke6  340  100 I36
stroke6  340  99 I36
stroke6  341  99 I36
stroke7  360  125 B66
stroke7  360  126 I66
stroke7  360  127 I66
stroke7  359  128 I66
stroke7  360  128 I66
stroke7  360  127 I66
stroke7  361  127 I66
stroke7  362  126 I66
stroke7  363  125 I66
stroke7  364  123 I66
stroke7  366  122 I66
stroke7  367  121 I66
stroke7  368  120 I66
stroke7  370  120 I66
stroke7  372  119 I66
stroke7  373  119 I66
stroke7  375  120 I66
stroke7  377  120 I66
stroke7  379  121 I66
stroke7  380  122 I66
stroke7  382  123 I66
stroke7  383  124 I66
stroke7  384  125 I66
stroke7  385  126 I66
stroke7  386  127 I66
stroke7  387  128 I66
stroke7  388  128 I66
stroke7  389  128 I66
stroke8  378  87 B47
stroke8  377  87 I47
stroke8  377  88 I47
stroke8  377  89 I47
stroke8  377  90 I47
stroke8  378  91 I47
stroke8  378  92 I47
stroke8  379  94 I47
stroke8  380  95 I47
stroke8  381  97 I47
stroke8  382  99 I47
stroke8  384  100 I47
stroke8  385  101 I47
stroke8  386  102 I47
stroke8  388  102 I47
stroke8  389  103 I47
stroke8  390  103 I47
stroke8  392  103 I47
stroke8  393  103 I47
stroke8  395  103 I47
stroke8  396  102 I47
stroke8  397  101 I47
stroke8  399  99 I47
stroke8  400  97 I47
stroke8  400  95 I47
stroke8  401  92 I47
stroke8  402  90 I47
stroke8  402  86 I47
stroke8  402  83 I47
stroke8  402  80 I47
stroke8  402  76 I47
stroke8  402  72 I47
stroke8  402  68 I47
stroke8  403  64 I47
stroke8  403  61 I47
stroke8  403  58 I47
stroke8  403  55 I47
stroke8  404  53 I47
stroke8  404  51 I47
stroke8  404  50 I47
stroke8  404  48 I47
stroke8  405  48 I47
stroke8  404  47 I47
stroke8  405  47 I47
stroke8  405  48 I47
stroke8  405  49 I47
stroke8  405  50 I47
stroke8  404  51 I47
stroke9  449  76 B69
stroke9  449  77 I69
stroke9  448  78 I69
stroke9  447  78 I69
stroke9  447  79 I69
stroke9  446  80 I69
stroke9  445  80 I69
stroke9  445  81 I69
stroke9  444  82 I69
stroke9  443  82 I69
stroke9  442  82 I69
stroke9  441  83 I69
stroke9  439  82 I69
stroke9  438  82 I69
stroke9  437  81 I69
stroke9  435  81 I69
stroke9  434  80 I69
stroke9  433  79 I69
stroke9  432  78 I69
stroke9  432  76 I69
stroke9  432  75 I69
stroke9  433  74 I69
stroke9  434  74 I69
stroke9  435  73 I69
stroke9  437  74 I69
stroke9  439  74 I69
stroke9  441  75 I69
stroke9  443  76 I69
stroke9  446  77 I69
stroke9  448  79 I69
stroke9  450  81 I69
stroke9  452  83 I69
stroke9  454  85 I69
stroke9  455  87 I69
stroke9  456  89 I69
stroke9  457  91 I69
stroke9  458  93 I69
stroke9  458  94 I69
stroke9  458  95 I69
stroke9  458  96 I69
stroke9  458  95 I69
stroke9  457  94 I69
stroke9  457  92 I69
stroke9  456  90 I69
stroke9  456  88 I69
stroke9  455  85 I69
stroke9  455  82 I69
stroke9  454  79 I69
stroke9  454  75 I69
stroke9  453  72 I69
stroke9  453  68 I69
stroke9  453  64 I69
stroke9  453  59 I69
stroke9  453  55 I69
stroke9  453  51 I69
stroke9  453  48 I69
stroke9  454  44 I69
stroke9  454  41 I69
stroke9  454  39 I69
stroke9  454  37 I69
stroke9  454  35 I69
stroke9  454  34 I69
stroke9  454  33 I69
stroke9  454  32 I69
stroke9  453  31 I69
stroke9  453  32 I69
stroke10  499  58 B22
stroke10  498  57 I22
stroke10  499  57 I22
stroke10  500  57 I22
stroke10  501  57 I22
stroke10  503  56 I22
stroke10  504  56 I22
stroke10  506  56 I22
stroke10  508  55 I22
stroke10  510  55 I22
stroke10  511  54 I22
stroke10  512  54 I22
stroke10  513  53 I22
stroke10  513  52 I22
stroke10  512  51 I22
stroke10  511  51 I22
stroke10  510  50 I22
stroke10  509  50 I22
stroke10  507  50 I22
stroke10  506  50 I22
stroke10  504  50 I22
stroke10  502  50 I22
stroke10  501  51 I22
stroke10  500  51 I22
stroke10  499  52 I22
stroke10  499  54 I22
stroke10  498  55 I22
stroke10  498  57 I22
stroke10  498  60 I22
stroke10  499  63 I22
stroke10  499  66 I22
stroke10  500  69 I22
stroke10  501  73 I22
stroke10  502  76 I22
stroke10  502  79 I22
stroke10  503  82 I22
stroke10  502  85 I22
stroke10  502  87 I22
stroke10  501  89 I22
stroke10  500  91 I22
stroke10  499  92 I22
stroke10  498  93 I22
stroke10  496  94 I22
stroke10  494  95 I22
stroke10  493  95 I22
stroke10  492  96 I22
stroke10  490  96 I22
stroke10  489  96 I22
stroke10  488  96 I22
stroke10  488  97 I22
stroke10  489  97 I22
stroke10  490  98 I22
stroke10  492  98 I22
stroke10  494  99 I22
stroke10  496  100 I22
stroke10  499  101 I22
stroke10  501  102 I22
stroke10  504  102 I22
stroke10  507  103 I22
stroke10  509  103 I22
stroke10  511  103 I22
stroke10  513  102 I22
stroke10  514  102 I22
stroke10  516  101 I22
stroke10  517  100 I22
stroke10  519  99 I22
stroke10  520  98 I22
stroke10  521  97 I22
stroke10  523  95 I22
stroke10  524  93 I22
stroke10  525  91 I22
stroke10  527  88 I22
stroke10  528  86 I22
stroke10  528  83 I22
stroke10  529  79 I22
stroke10  529  76 I22
stroke10  529  73 I22
stroke10  529  69 I22
stroke10  529  65 I22
stroke10  528  62 I22
stroke10  528  58 I22
stroke10  528  56 I22
stroke10  528  54 I22
stroke10  529  53 I22
stroke10  529  52 I22
stroke10  529  53 I22
stroke10  529  54 I22
stroke10  528  55 I22
stroke10  528  57 I22
stroke11  535  92 B37
stroke11  534  93 I37
stroke11  534  94 I37
stroke11  534  95 I37
stroke11  535  96 I37
stroke11  535  97 I37
stroke11  536  98 I37
stroke11  537  99 I37
stroke11  538  99 I37
stroke11  539  99 I37
stroke11  540  99 I37
stroke11  542  99 I37
stroke11  544  99 I37
stroke11  546  99 I37
stroke11  548  98 I37
stroke11  550  98 I37
stroke11  552  97 I37
stroke11  554  96 I37
stroke11  555  95 I37
stroke11  557  93 I37
stroke11  558  91 I37
stroke11  559  89 I37
stroke11  559  87 I37
stroke11  560  84 I37
stroke11  560  81 I37
stroke11  560  78 I37
stroke11  560  74 I37
stroke11  560  71 I37
stroke11  560  68 I37
stroke11  560  64 I37
stroke11  560  61 I37
stroke11  560  58 I37
stroke11  560  55 I37
stroke11  560  53 I37
stroke11  560  50 I37
stroke11  559  48 I37
stroke11  559  47 I37
stroke11  559  46 I37
stroke11  559  45 I37
stroke11  558  45 I37
stroke11  557  44 I37
stroke11  556  45 I37
stroke11  555  45 I37
stroke11  553  45 I37
stroke11  552  46 I37
stroke11  550  46 I37
stroke11  548  47 I37
stroke11  546  48 I37
stroke11  544  49 I37
stroke11  542  51 I37
stroke11  541  52 I37
stroke11  540  53 I37
stroke11  540  55 I37
stroke11  539  56 I37
stroke11  540  58 I37
stroke11  541  59 I37
stroke11  542  60 I37
stroke11  544  61 I37
stroke11  545  61 I37
stroke11  547  61 I37
stroke11  548  61 I37
stroke11  550  61 I37
stroke11  551  61 I37
stroke11  552  61 I37
stroke11  553  61 I37
stroke11  554  61 I37
stroke11  554  60 I37
stroke11  555  60 I37
stroke12  569  93 B47
stroke12  568  93 I47
stroke12  568  94 I47
stroke12  568  95 I47
stroke12  569  96 I47
stroke12  569  97 I47
stroke12  570  98 I47
stroke12  572  99 I47
stroke12  573  99 I47
stroke12  574  100 I47
stroke12  575  100 I47
stroke12  576  101 I47
stroke12  577  101 I47
stroke12  579  101 I47
stroke12  580  101 I47
stroke12  581  101 I47
stroke12  582  100 I47
stroke12  583  99 I47
stroke12  584  98 I47
stroke12  585  96 I47
stroke12  586  94 I47
stroke12  587  92 I47
stroke12  587  89 I47
stroke12  587  87 I47
stroke12  588  84 I47
stroke12  588  81 I47
stroke12  588  78 I47
stroke12  588  74 I47
stroke12  588  70 I47
stroke12  587  67 I47
stroke12  587  63 I47
stroke12  587  60 I47
stroke12  587  57 I47
stroke12  587  54 I47
stroke12  587  52 I47
stroke12  587  50 I47
stroke12  587  49 I47
stroke12  587  47 I47
stroke12  588  47 I47
stroke12  588  46 I47
stroke12  587  47 I47
stroke12  587  49 I47
stroke12  586  52 I47
stroke13  606  90 B34
stroke13  605  90 I34
stroke13  606  89 I34
stroke13  607  90 I34
stroke13  608  90 I34
stroke13  609  91 I34
stroke13  610  91 I34
stroke13  612  92 I34
stroke13  613  93 I34
stroke13  615  94 I34
stroke13  616  95 I34
stroke13  617  96 I34
stroke13  617  97 I34
stroke13  618  98 I34
stroke13  618  99 I34
stroke13  617  100 I34
stroke13  616  100 I34
stroke13  615  101 I34
stroke13  614  101 I34
stroke13  612  101 I34
stroke13  610  100 I34
stroke13  608  99 I34
stroke13  606  98 I34
stroke13  605  96 I34
stroke13  603  95 I34
stroke13  603  93 I34
stroke13  602  91 I34
stroke13  601  89 I34
stroke13  601  87 I34
stroke13  602  86 I34
stroke13  602  84 I34
stroke13  603  83 I34
stroke13  604  82 I34
stroke13  605  81 I34
stroke13  607  80 I34
stroke13  609  80 I34
stroke13  610  79 I34
stroke13  612  79 I34
stroke13  614  79 I34
stroke13  615  80 I34
stroke13  617  80 I34
stroke13  618  80 I34
stroke13  618  81 I34
stroke13  619  81 I34
stroke13  618  81 I34
stroke13  618  80 I34
stroke13  617  80 I34
stroke13  616  79 I34
stroke13  615  78 I34
stroke13  614  77 I34
stroke13  613  75 I34
stroke13  612  73 I34
stroke13  611  71 I34
stroke13  611  69 I34
stroke13  610  67 I34
stroke13  610  64 I34
stroke13  609  62 I34
stroke13  609  60 I34
stroke13  609  58 I34
stroke13  610  56 I34
stroke13  610  55 I34
stroke13  610  53 I34
stroke13  611  52 I34
stroke13  612  51 I34
stroke13  613  51 I34
stroke13  614  50 I34
stroke13  615  50 I34
stroke13  616  49 I34
stroke13  617  49 I34
stroke13  618  49 I34
stroke13  619  49 I34
stroke13  620  49 I34
stroke13  621  49 I34
stroke13  622  50 I34
stroke13  623  50 I34
stroke13  624  51 I34
stroke13  625  52 I34
stroke13  626  53 I34
stroke13  627  54 I34
stroke13  627  56 I34
stroke13  628  58 I34
stroke13  629  60 I34
stroke13  629  63 I34
stroke13  629  65 I34
stroke13  630  68 I34
stroke13  630  71 I34
stroke13  630  73 I34
stroke13  629  76 I34
stroke13  630  80 I34
stroke13  630  83 I34
stroke13  630  86 I34
stroke13  630  89 I34
stroke13  630  92 I34
stroke13  630  94 I34
stroke13  630  96 I34
stroke13  630  98 I34
stroke13  631  99 I34
stroke13  631  100 I34
stroke13  631  101 I34
stroke13  631  102 I34
stroke13  631  103 I34
