stroke1  176  34 B27
stroke1  175  34 I27
stroke1  174  34 I27
stroke1  173  34 I27
stroke1  172  34 I27
stroke1  171  34 I27
stroke1  170  35 I27
stroke1  169  35 I27
stroke1  168  35 I27
stroke1  166  35 I27
stroke1  165  36 I27
stroke1  163  36 I27
stroke1  162  36 I27
stroke1  160  37 I27
stroke1  159  38 I27
stroke1  158  38 I27
stroke1  157  40 I27
stroke1  156  41 I27
stroke1  156  42 I27
stroke1  156  42 I27
stroke1  155  44 I27
stroke1  155  45 I27
stroke1  156  47 I27
stroke1  156  49 I27
stroke1  157  50 I27
stroke1  158  51 I27
stroke1  159  52 I27
stroke1  160  53 I27
stroke1  162  54 I27
stroke1  163  54 I27
stroke1  165  55 I27
stroke1  166  54 I27
stroke1  168  54 I27
stroke1  169  53 I27
stroke1  171  53 I27
stroke1  172  52 I27
stroke1  173  50 I27
stroke1  174  49 I27
stroke1  174  47 I27
stroke1  175  45 I27
stroke1  175  43 I27
stroke1  175  40 I27
stroke1  175  37 I27
stroke1  175  34 I27
stroke1  175  31 I27
stroke1  174  28 I27
stroke1  174  25 I27
stroke1  174  21 I27
stroke1  174  18 I27
stroke1  174  15 I27
stroke1  175  13 I27
stroke1  175  11 I27
stroke1  175  9 I27
stroke1  175  7 I27
stroke1  175  6 I27
stroke1  175  5 I27
stroke1  175  4 I27
stroke1  175  3 I27
stroke1  175  2 I27
stroke1  175  1 I27
stroke1  175  0 I27
stroke1  176  0 I27
stroke1  177  0 I27
stroke1  178  1 I27
stroke1  179  1 I27
stroke1  180  1 I27
stroke1  181  1 I27
stroke1  183  1 I27
stroke1  184  1 I27
stroke1  186  1 I27
stroke1  188  1 I27
stroke1  190  1 I27
stroke1  191  1 I27
stroke1  192  1 I27
stroke1  194  1 I27
stroke1  195  1 I27
stroke1  196  1 I27
stroke1  196  2 I27
stroke1  196  3 I27
stroke1  197  4 I27
stroke1  197  6 I27
stroke1  197  9 I27
stroke1  197  12 I27
stroke1  197  16 I27
stroke1  198  20 I27
stroke1  198  25 I27
stroke1  198  30 I27
stroke1  198  36 I27
stroke1  198  41 I27
stroke1  198  46 I27
stroke1  197  51 I27
stroke1  197  56 I27
stroke1  197  60 I27
stroke1  196  65 I27
stroke1  196  69 I27
stroke1  196  73 I27
stroke1  196  77 I27
stroke1  196  80 I27
stroke1  196  83 I27
stroke1  196  86 I27
stroke1  196  88 I27
stroke1  197  90 I27
stroke1  197  91 I27
stroke1  196  92 I27
stroke1  196  91 I27
stroke1  196  90 I27
stroke1  196  88 I27
stroke2  225  12 B35
stroke2  225  13 I35
stroke2  224  13 I35
stroke2  224  14 I35
stroke2  223  15 I35
stroke2  223  16 I35
stroke2  223  17 I35
stroke2  222  17 I35
stroke2  221  18 I35
stroke2  220  18 I35
stroke2  219  18 I35
stroke2  218  18 I35
stroke2  217  17 I35
stroke2  216  16 I35
stroke2  215  15 I35
stroke2  214  14 I35
stroke2  214  12 I35
stroke2  213  11 I35
stroke2  213  10 I35
stroke2  213  9 I35
stroke2  213  8 I35
stroke2  214  7 I35
stroke2  215  6 I35
stroke2  217  6 I35
stroke2  218  6 I35
stroke2  219  6 I35
stroke2  221  7 I35
stroke2  222  7 I35
stroke2  223  8 I35
stroke2  224  10 I35
stroke2  225  11 I35
stroke2  226  13 I35
stroke2  226  15 I35
stroke2  227  17 I35
stroke2  227  19 I35
stroke2  227  22 I35
stroke2  227  24 I35
stroke2  227  27 I35
stroke2  227  29 I35
stroke2  227  32 I35
stroke2  226  34 I35
stroke2  226  37 I35
stroke2  225  39 I35
stroke2  224  40 I35
stroke2  223  41 I35
stroke2  222  43 I35
stroke2  221  44 I35
stroke2  220  44 I35
stroke2  219  45 I35
stroke2  218  46 I35
stroke2  217  47 I35
stroke2  216  47 I35
stroke2  215  48 I35
stroke2  215  49 I35
stroke2  215  50 I35
stroke2  214  51 I35
stroke2  215  52 I35
stroke2  216  53 I35
stroke2  217  53 I35
stroke2  218  54 I35
stroke2  219  54 I35
stroke2  220  54 I35
stroke2  222  54 I35
stroke2  223  54 I35
stroke2  224  54 I35
stroke2  226  54 I35
stroke2  227  54 I35
stroke2  228  53 I35
stroke2  229  53 I35
stroke2  230  53 I35
stroke2  231  52 I35
stroke2  232  52 I35
stroke3  261  38 B46
stroke3  261  39 I46
stroke3  260  40 I46
stroke3  260  41 I46
stroke3  259  42 I46
stroke3  259  43 I46
stroke3  258  43 I46
stroke3  258  44 I46
stroke3  257  44 I46
stroke3  256  44 I46
stroke3  255  44 I46
stroke3  253  44 I46
stroke3  252  43 I46
stroke3  251  43 I46
stroke3  250  42 I46
stroke3  249  41 I46
stroke3  249  40 I46
stroke3  249  39 I46
stroke3  249  38 I46
stroke3  250  38 I46
stroke3  252  38 I46
stroke3  253  39 I46
stroke3  255  39 I46
stroke3  258  40 I46
stroke3  260  41 I46
stroke3  262  42 I46
stroke3  264  44 I46
stroke3  265  45 I46
stroke3  267  46 I46
stroke3  268  47 I46
stroke3  269  48 I46
stroke3  269  49 I46
stroke3  269  50 I46
stroke3  269  49 I46
stroke3  268  49 I46
stroke3  268  48 I46
stroke3  269  19 I46
stroke3  269  18 I46
stroke3  268  18 I46
stroke3  267  18 I46
stroke3  267  19 I46
stroke3  266  20 I46
stroke3  265  20 I46
stroke3  265  21 I46
stroke3  264  22 I46
stroke3  263  22 I46
stroke3  262  22 I46
stroke3  261  22 I46
stroke3  259  22 I46
stroke3  258  21 I46
stroke3  257  20 I46
stroke3  256  19 I46
stroke3  256  18 I46
stroke3  256  17 I46
stroke3  257  17 I46
stroke3  259  17 I46
stroke3  260  17 I46
stroke3  262  17 I46
stroke3  264  18 I46
stroke3  266  19 I46
stroke3  268  20 I46
stroke3  269  21 I46
stroke3  271  22 I46
stroke3  272  23 I46
stroke3  273  24 I46
stroke3  273  25 I46
stroke3  273  26 I46
stroke3  273  27 I46
stroke4  300  12 B40
stroke4  299  12 I40
stroke4  300  12 I40
stroke4  301  11 I40
stroke4  302  11 I40
stroke4  304  10 I40
stroke4  305  10 I40
stroke4  306  9 I40
stroke4  307  8 I40
stroke4  308  8 I40
stroke4  309  7 I40
stroke4  310  7 I40
stroke4  310  6 I40
stroke4  309  6 I40
stroke4  308  6 I40
stroke4  307  6 I40
stroke4  306  7 I40
stroke4  305  8 I40
stroke4  304  9 I40
stroke4  303  10 I40
stroke4  303  11 I40
stroke4  302  13 I40
stroke4  301  14 I40
stroke4  301  15 I40
stroke4  301  17 I40
stroke4  301  18 I40
stroke4  301  20 I40
stroke4  301  22 I40
stroke4  302  24 I40
stroke4  303  26 I40
stroke4  304  28 I40
stroke4  305  30 I40
stroke4  306  31 I40
stroke4  307  32 I40
stroke4  308  32 I40
stroke4  309  32 I40
stroke4  311  32 I40
stroke4  312  32 I40
stroke4  313  32 I40
stroke4  315  31 I40
stroke4  316  30 I40
stroke4  318  28 I40
stroke4  319  27 I40
stroke4  321  25 I40
stroke4  322  23 I40
stroke4  323  21 I40
stroke4  324  19 I40
stroke4  325  17 I40
stroke4  326  15 I40
stroke4  327  14 I40
stroke4  327  13 I40
stroke4  327  12 I40
stroke4  328  11 I40
stroke4  329  11 I40
stroke4  329  12 I40
stroke4  329  13 I40
stroke4  329  14 I40
stroke4  329  16 I40
stroke4  329  18 I40
stroke4  329  20 I40
stroke4  329  23 I40
stroke4  328  25 I40
stroke4  328  28 I40
stroke4  327  32 I40
stroke4  327  35 I40
stroke4  326  39 I40
stroke4  326  42 I40
stroke4  325  46 I40
stroke4  324  48 I40
stroke4  323  51 I40
stroke4  322  52 I40
stroke4  320  54 I40
stroke4  319  55 I40
stroke4  318  55 I40
stroke4  316  56 I40
stroke4  314  56 I40
stroke4  312  56 I40
stroke4  311  55 I40
stroke4  309  55 I40
stroke4  307  54 I40
stroke4  305  53 I40
stroke4  304  52 I40
stroke4  302  51 I40
stroke4  302  50 I40
stroke4  315  52 I40
stroke4  316  53 I40
stroke4  317  55 I40
stroke4  319  57 I40
stroke4  321  59 I40
stroke4  323  61 I40
stroke4  325  64 I40
stroke4  328  66 I40
stroke4  330  68 I40
stroke4  332  70 I40
stroke4  334  72 I40
stroke4  336  74 I40
stroke4  338  76 I40
stroke4  339  77 I40
stroke4  340  79 I40
stroke4  341  80 I40
stroke4  342  81 I40
stroke4  341  81 I40
stroke4  341  82 I40
stroke4  340  82 I40
stroke4  339  82 I40
stroke5  322  84 B48
stroke5  321  85 I48
stroke5  319  85 I48
stroke5  317  85 I48
stroke5  315  86 I48
stroke5  313  87 I48
stroke5  311  87 I48
stroke5  309  88 I48
stroke5  307  88 I48
stroke5  305  89 I48
stroke5  302  90 I48
stroke5  300  91 I48
stroke5  298  91 I48
stroke5  296  92 I48
stroke5  295  92 I48
stroke5  293  92 I48
stroke5  293  93 I48
stroke5  292  93 I48
stroke5  293  94 I48
stroke5  294  94 I48
stroke5  295  94 I48
stroke5  296  94 I48
stroke5  298  94 I48
stroke5  300  94 I48
stroke5  302  94 I48
stroke5  304  94 I48
stroke5  305  94 I48
stroke5  307  93 I48
stroke5  309  92 I48
stroke5  310  92 I48
stroke5  311  91 I48
stroke5  313  90 I48
stroke5  314  89 I48
stroke5  315  88 I48
stroke5  316  87 I48
stroke5  317  87 I48
stroke6  368  43 B23
stroke6  367  43 I23
stroke6  366  42 I23
stroke6  365  42 I23
stroke6  364  42 I23
stroke6  363  41 I23
stroke6  362  41 I23
stroke6  361  41 I23
stroke6  360  41 I23
stroke6  358  41 I23
stroke6  357  41 I23
stroke6  355  41 I23
stroke6  354  42 I23
stroke6  352  42 I23
stroke6  350  42 I23
stroke6  349  43 I23
stroke6  347  44 I23
stroke6  346  45 I23
stroke6  345  46 I23
stroke6  344  48 I23
stroke6  344  49 I23
stroke6  345  51 I23
stroke6  346  52 I23
stroke6  347  54 I23
stroke6  348  55 I23
stroke6  350  56 I23
stroke6  352  56 I23
stroke6  353  56 I23
stroke6  355  57 I23
stroke6  356  56 I23
stroke6  358  56 I23
stroke6  359  55 I23
stroke6  360  54 I23
stroke6  361  53 I23
stroke6  361  51 I23
stroke6  362  49 I23
stroke6  362  47 I23
stroke6  362  45 I23
stroke6  362  42 I23
stroke6  362  39 I23
stroke6  362  36 I23
stroke6  362  32 I23
stroke6  362  29 I23
stroke6  361  25 I23
stroke6  362  22 I23
stroke6  362  19 I23
stroke6  362  16 I23
stroke6  362  14 I23
stroke6  362  12 I23
stroke6  362  10 I23
stroke6  362  9 I23
stroke6  362  7 I23
stroke6  362  6 I23
stroke6  361  6 I23
stroke6  361  7 I23
stroke6  362  8 I23
stroke6  362  9 I23
stroke6  362  12 I23
stroke6  363  14 I23
stroke6  363  17 I23
stroke6  364  21 I23
stroke6  364  25 I23
stroke6  365  28 I23
stroke6  366  32 I23
stroke6  367  36 I23
stroke6  369  39 I23
stroke6  370  43 I23
stroke6  371  46 I23
stroke6  373  48 I23
stroke6  374  50 I23
stroke6  375  52 I23
stroke6  376  53 I23
stroke6  378  54 I23
stroke6  379  55 I23
stroke6  380  55 I23
stroke6  382  56 I23
stroke6  383  55 I23
stroke6  384  55 I23
stroke6  385  54 I23
stroke6  386  53 I23
stroke6  386  51 I23
stroke6  387  50 I23
stroke6  387  48 I23
stroke6  388  46 I23
stroke6  388  44 I23
stroke6  388  42 I23
stroke6  388  39 I23
stroke6  388  36 I23
stroke6  387  32 I23
stroke6  387  28 I23
stroke6  387  25 I23
stroke6  386  21 I23
stroke6  386  18 I23
stroke6  385  16 I23
stroke6  386  13 I23
stroke6  386  12 I23
stroke6  386  10 I23
stroke6  386  9 I23
stroke6  385  10 I23
stroke7  405  33 B24
stroke7  405  32 I24
stroke7  405  31 I24
stroke7  405  30 I24
stroke7  405  29 I24
stroke7  405  28 I24
stroke7  405  26 I24
stroke7  405  24 I24
stroke7  405  22 I24
stroke7  404  20 I24
stroke7  404  17 I24
stroke7  403  15 I24
stroke7  403  13 I24
stroke7  403  11 I24
stroke7  403  10 I24
stroke7  403  9 I24
stroke7  404  8 I24
stroke7  405  7 I24
stroke7  406  7 I24
stroke7  408  8 I24
stroke7  409  8 I24
stroke7  410  8 I24
stroke7  411  8 I24
stroke7  413  9 I24
stroke7  414  9 I24
stroke7  416  9 I24
stroke7  417  10 I24
stroke7  419  10 I24
stroke7  420  11 I24
stroke7  421  11 I24
stroke7  422  12 I24
stroke7  422  13 I24
stroke7  423  13 I24
stroke7  423  15 I24
stroke7  423  16 I24
stroke7  424  18 I24
stroke7  424  21 I24
stroke7  424  23 I24
stroke7  423  26 I24
stroke7  423  29 I24
stroke7  423  31 I24
stroke7  423  34 I24
stroke7  423  36 I24
stroke7  423  39 I24
stroke7  422  40 I24
stroke7  422  42 I24
stroke7  421  44 I24
stroke7  420  45 I24
stroke7  418  46 I24
stroke7  417  47 I24
stroke7  415  48 I24
stroke7  413  49 I24
stroke7  411  50 I24
stroke7  409  51 I24
stroke7  407  52 I24
stroke7  406  53 I24
stroke7  404  53 I24
stroke7  403  54 I24
stroke7  403  55 I24
stroke7  403  56 I24
stroke7  404  56 I24
stroke7  405  57 I24
stroke7  406  57 I24
stroke7  408  57 I24
stroke7  410  57 I24
stroke7  412  57 I24
stroke7  414  56 I24
stroke7  415  56 I24
stroke7  417  55 I24
stroke7  418  54 I24
stroke7  419  54 I24
stroke7  420  54 I24
stroke7  421  53 I24
stroke8  422  64 B48
stroke8  421  65 I48
stroke8  421  66 I48
stroke8  420  67 I48
stroke8  419  68 I48
stroke8  417  69 I48
stroke8  416  71 I48
stroke8  415  72 I48
stroke8  413  73 I48
stroke8  412  75 I48
stroke8  410  76 I48
stroke8  408  78 I48
stroke8  407  79 I48
stroke8  405  81 I48
stroke8  405  82 I48
stroke8  404  83 I48
stroke8  404  84 I48
stroke8  404  85 I48
stroke8  405  85 I48
stroke8  406  85 I48
stroke8  407  85 I48
stroke8  408  84 I48
stroke8  409  83 I48
stroke8  411  82 I48
stroke8  412  81 I48
stroke8  414  79 I48
stroke8  415  78 I48
stroke8  416  76 I48
stroke8  417  75 I48
stroke8  418  73 I48
stroke8  418  72 I48
stroke8  419  70 I48
stroke8  419  69 I48
stroke8  420  69 I48
stroke9  458  15 B32
stroke9  457  15 I32
stroke9  457  16 I32
stroke9  456  16 I32
stroke9  455  17 I32
stroke9  454  17 I32
stroke9  453  17 I32
stroke9  451  17 I32
stroke9  450  17 I32
stroke9  449  17 I32
stroke9  448  16 I32
stroke9  447  16 I32
stroke9  446  15 I32
stroke9  445  13 I32
stroke9  444  12 I32
stroke9  444  11 I32
stroke9  444  9 I32
stroke9  444  8 I32
stroke9  444  7 I32
stroke9  445  7 I32
stroke9  446  6 I32
stroke9  447  6 I32
stroke9  448  5 I32
stroke9  449  5 I32
stroke9  450  6 I32
stroke9  452  6 I32
stroke9  453  7 I32
stroke9  454  8 I32
stroke9  455  10 I32
stroke9  456  12 I32
stroke9  457  14 I32
stroke9  458  16 I32
stroke9  459  19 I32
stroke9  459  22 I32
stroke9  460  25 I32
stroke9  460  28 I32
stroke9  461  31 I32
stroke9  461  34 I32
stroke9  461  37 I32
stroke9  460  39 I32
stroke9  460  41 I32
stroke9  458  43 I32
stroke9  457  44 I32
stroke9  456  45 I32
stroke9  454  45 I32
stroke9  453  46 I32
stroke9  452  46 I32
stroke9  451  46 I32
stroke9  450  46 I32
stroke9  450  47 I32
stroke9  449  47 I32
stroke9  450  48 I32
stroke9  451  49 I32
stroke9  453  50 I32
stroke9  454  50 I32
stroke9  456  51 I32
stroke9  458  52 I32
stroke9  461  52 I32
stroke9  463  52 I32
stroke9  465  52 I32
stroke9  467  52 I32
stroke9  469  51 I32
stroke9  471  51 I32
stroke9  473  50 I32
stroke9  475  49 I32
stroke9  476  48 I32
stroke9  478  47 I32
stroke9  480  46 I32
stroke9  481  45 I32
stroke9  482  43 I32
stroke9  483  41 I32
stroke9  484  39 I32
stroke9  484  36 I32
stroke9  484  34 I32
stroke9  484  31 I32
stroke9  484  28 I32
stroke9  484  25 I32
stroke9  484  22 I32
stroke9  484  19 I32
stroke9  484  17 I32
stroke9  484  15 I32
stroke9  484  14 I32
stroke9  484  12 I32
stroke9  484  11 I32
stroke9  483  11 I32
stroke10  491  42 B47
stroke10  491  43 I47
stroke10  490  43 I47
stroke10  490  44 I47
stroke10  491  45 I47
stroke10  491  46 I47
stroke10  492  46 I47
stroke10  493  47 I47
stroke10  494  48 I47
stroke10  495  49 I47
stroke10  497  49 I47
stroke10  499  50 I47
stroke10  502  50 I47
stroke10  504  50 I47
stroke10  507  51 I47
stroke10  509  51 I47
stroke10  512  51 I47
stroke10  514  50 I47
stroke10  516  49 I47
stroke10  518  48 I47
stroke10  519  46 I47
stroke10  521  44 I47
stroke10  521  42 I47
stroke10  522  40 I47
stroke10  522  37 I47
stroke10  523  35 I47
stroke10  523  32 I47
stroke10  523  29 I47
stroke10  523  25 I47
stroke10  523  22 I47
stroke10  523  19 I47
stroke10  523  16 I47
stroke10  523  13 I47
stroke10  523  11 I47
stroke10  523  9 I47
stroke10  523  8 I47
stroke10  523  7 I47
stroke10  523  8 I47
stroke10  523  9 I47
stroke11  551  40 B30
stroke11  550  39 I30
stroke11  549  39 I30
stroke11  548  38 I30
stroke11  547  38 I30
stroke11  546  37 I30
stroke11  545  37 I30
stroke11  544  38 I30
stroke11  543  38 I30
stroke11  542  38 I30
stroke11  541  39 I30
stroke11  540  39 I30
stroke11  539  40 I30
stroke11  538  41 I30
stroke11  537  41 I30
stroke11  537  42 I30
stroke11  536  43 I30
stroke11  536  44 I30
stroke11  536  45 I30
stroke11  537  46 I30
stroke11  537  47 I30
stroke11  538  48 I30
stroke11  539  48 I30
stroke11  540  49 I30
stroke11  541  49 I30
stroke11  542  49 I30
stroke11  544  49 I30
stroke11  545  48 I30
stroke11  546  48 I30
stroke11  547  47 I30
stroke11  548  45 I30
stroke11  549  44 I30
stroke11  549  42 I30
stroke11  550  40 I30
stroke11  550  38 I30
stroke11  550  36 I30
stroke11  550  33 I30
stroke11  549  31 I30
stroke11  549  28 I30
stroke11  548  24 I30
stroke11  547  21 I30
stroke11  547  18 I30
stroke11  546  16 I30
stroke11  546  14 I30
stroke11  546  12 I30
stroke11  545  11 I30
stroke11  545  10 I30
stroke11  545  9 I30
stroke11  546  9 I30
stroke11  546  10 I30
stroke11  547  12 I30
stroke11  548  13 I30
stroke11  549  15 I30
stroke11  550  17 I30
stroke11  551  19 I30
stroke11  553  21 I30
stroke11  554  23 I30
stroke11  555  24 I30
stroke11  556  25 I30
stroke11  557  26 I30
stroke11  558  27 I30
stroke11  559  28 I30
stroke11  559  27 I30
stroke11  560  27 I30
stroke11  561  27 I30
stroke11  562  26 I30
stroke11  562  25 I30
stroke11  563  24 I30
stroke11  564  23 I30
stroke11  565  21 I30
stroke11  566  20 I30
stroke11  567  19 I30
stroke11  568  17 I30
stroke11  569  16 I30
stroke11  569  15 I30
stroke11  570  13 I30
stroke11  571  12 I30
stroke11  571  11 I30
stroke11  572  10 I30
stroke11  572  9 I30
stroke11  573  8 I30
stroke11  573  9 I30
stroke11  574  9 I30
stroke11  574  10 I30
stroke11  574  12 I30
stroke11  574  13 I30
stroke11  575  15 I30
stroke11  575  18 I30
stroke11  575  20 I30
stroke11  575  24 I30
stroke11  575  27 I30
stroke11  575  31 I30
stroke11  575  34 I30
stroke11  575  37 I30
stroke11  575  40 I30
stroke11  575  43 I30
stroke11  575  45 I30
stroke11  575  47 I30
stroke11  575  48 I30
stroke11  575  50 I30
stroke11  575  51 I30
stroke11  575  52 I30
stroke11  575  53 I30
stroke11  575  54 I30
stroke11  575  55 I30
stroke11  575  54 I30
stroke11  574  54 I30
