stroke1  171  83 B30
stroke1  171  82 I30
stroke1  170  82 I30
stroke1  169  82 I30
stroke1  169  81 I30
stroke1  168  81 I30
stroke1  167  81 I30
stroke1  166  80 I30
stroke1  165  80 I30
stroke1  164  80 I30
stroke1  163  80 I30
stroke1  162  80 I30
stroke1  161  80 I30
stroke1  160  80 I30
stroke1  159  81 I30
stroke1  158  81 I30
stroke1  158  82 I30
stroke1  157  83 I30
stroke1  157  85 I30
stroke1  157  85 I30
stroke1  157  86 I30
stroke1  157  87 I30
stroke1  157  89 I30
stroke1  157  90 I30
stroke1  158  91 I30
stroke1  159  92 I30
stroke1  160  93 I30
stroke1  160  94 I30
stroke1  162  95 I30
stroke1  163  96 I30
stroke1  164  96 I30
stroke1  165  96 I30
stroke1  166  96 I30
stroke1  167  95 I30
stroke1  168  95 I30
stroke1  169  94 I30
stroke1  170  93 I30
stroke1  171  91 I30
stroke1  172  89 I30
stroke1  173  87 I30
stroke1  173  84 I30
stroke1  174  81 I30
stroke1  174  78 I30
stroke1  174  74 I30
stroke1  175  71 I30
stroke1  175  67 I30
stroke1  175  63 I30
stroke1  175  59 I30
stroke1  175  56 I30
stroke1  175  53 I30
stroke1  175  50 I30
stroke1  175  47 I30
stroke1  176  46 I30
stroke1  176  44 I30
stroke1  176  43 I30
stroke1  177  43 I30
stroke1  177  44 I30
stroke1  177  45 I30
stroke1  177  46 I30
stroke1  178  47 I30
stroke1  178  48 I30
stroke1  178  50 I30
stroke1  179  51 I30
stroke1  179  53 I30
stroke1  179  55 I30
stroke1  180  57 I30
stroke1  180  58 I30
stroke1  181  60 I30
stroke1  181  61 I30
stroke1  182  62 I30
stroke1  182  63 I30
stroke1  183  63 I30
stroke1  184  64 I30
stroke1  185  63 I30
stroke1  186  62 I30
stroke1  187  61 I30
stroke1  188  59 I30
stroke1  189  58 I30
stroke1  191  56 I30
stroke1  192  54 I30
stroke1  193  53 I30
stroke1  194  51 I30
stroke1  196  49 I30
stroke1  197  47 I30
stroke1  198  45 I30
stroke1  199  44 I30
stroke1  200  43 I30
stroke1  201  42 I30
stroke1  202  42 I30
stroke1  203  42 I30
stroke1  203  43 I30
stroke1  203  44 I30
stroke1  203  46 I30
stroke1  203  48 I30
stroke1  202  50 I30
stroke1  202  53 I30
stroke1  202  56 I30
stroke1  202  60 I30
stroke1  202  65 I30
stroke1  202  70 I30
stroke1  202  75 I30
stroke1  203  79 I30
stroke1  203  84 I30
stroke1  203  87 I30
stroke1  203  90 I30
stroke1  203  93 I30
stroke1  203  94 I30
stroke1  203  96 I30
stroke1  203  97 I30
stroke1  203  96 I30
stroke1  204  96 I30
stroke1  204  95 I30
stroke1  205  93 I30
stroke2  231  57 B35
stroke2  231  56 I35
stroke2  231  55 I35
stroke2  231  54 I35
stroke2  230  54 I35
stroke2  229  54 I35
stroke2  228  54 I35
stroke2  227  54 I35
stroke2  227  55 I35
stroke2  226  55 I35
stroke2  225  54 I35
stroke2  224  54 I35
stroke2  223  54 I35
stroke2  222  53 I35
stroke2  222  52 I35
stroke2  221  51 I35
stroke2  220  50 I35
stroke2  220  49 I35
stroke2  219  48 I35
stroke2  219  46 I35
stroke2  219  45 I35
stroke2  219  44 I35
stroke2  220  43 I35
stroke2  221  42 I35
stroke2  223  42 I35
stroke2  224  43 I35
stroke2  225  44 I35
stroke2  227  45 I35
stroke2  228  46 I35
stroke2  229  48 I35
stroke2  230  49 I35
stroke2  231  51 I35
stroke2  232  53 I35
stroke2  232  55 I35
stroke2  232  58 I35
stroke2  232  60 I35
stroke2  232  62 I35
stroke2  231  65 I35
stroke2  230  67 I35
stroke2  230  69 I35
stroke2  229  71 I35
stroke2  227  72 I35
stroke2  226  74 I35
stroke2  225  75 I35
stroke2  223  76 I35
stroke2  222  77 I35
stroke2  220  78 I35
stroke2  218  79 I35
stroke2  217  81 I35
stroke2  216  82 I35
stroke2  215  83 I35
stroke2  214  85 I35
stroke2  213  87 I35
stroke2  212  89 I35
stroke2  212  90 I35
stroke2  212  92 I35
stroke2  213  93 I35
stroke2  213  95 I35
stroke2  214  96 I35
stroke2  215  97 I35
stroke2  216  97 I35
stroke2  218  97 I35
stroke2  219  96 I35
stroke2  221  96 I35
stroke2  222  96 I35
stroke2  224  95 I35
stroke2  226  95 I35
stroke2  228  95 I35
stroke2  229  94 I35
stroke2  231  93 I35
stroke2  232  93 I35
stroke2  233  92 I35
stroke2  234  91 I35
stroke2  235  90 I35
stroke3  267  75 B46
stroke3  266  75 I46
stroke3  265  75 I46
stroke3  264  76 I46
stroke3  263  76 I46
stroke3  263  77 I46
stroke3  262  77 I46
stroke3  261  78 I46
stroke3  260  78 I46
stroke3  259  78 I46
stroke3  258  77 I46
stroke3  257  76 I46
stroke3  256  75 I46
stroke3  256  74 I46
stroke3  257  73 I46
stroke3  257  72 I46
stroke3  258  72 I46
stroke3  259  72 I46
stroke3  260  72 I46
stroke3  262  72 I46
stroke3  263  72 I46
stroke3  265  73 I46
stroke3  267  74 I46
stroke3  269  76 I46
stroke3  271  78 I46
stroke3  273  80 I46
stroke3  274  81 I46
stroke3  276  83 I46
stroke3  277  84 I46
stroke3  277  85 I46
stroke3  276  85 I46
stroke3  276  84 I46
stroke3  275  83 I46
stroke3  275  82 I46
stroke3  281  58 I46
stroke3  282  57 I46
stroke3  281  57 I46
stroke3  280  57 I46
stroke3  279  57 I46
stroke3  279  58 I46
stroke3  278  58 I46
stroke3  277  59 I46
stroke3  276  59 I46
stroke3  275  59 I46
stroke3  274  60 I46
stroke3  273  59 I46
stroke3  272  59 I46
stroke3  271  58 I46
stroke3  270  57 I46
stroke3  269  56 I46
stroke3  269  55 I46
stroke3  269  54 I46
stroke3  270  54 I46
stroke3  271  54 I46
stroke3  272  54 I46
stroke3  273  54 I46
stroke3  274  54 I46
stroke3  276  55 I46
stroke3  277  56 I46
stroke3  278  57 I46
stroke3  280  59 I46
stroke3  281  60 I46
stroke3  282  62 I46
stroke3  283  63 I46
stroke3  283  65 I46
stroke3  284  66 I46
stroke3  284  67 I46
stroke3  283  68 I46
stroke4  340  56 B35
stroke4  342  56 I35
stroke4  343  56 I35
stroke4  344  56 I35
stroke4  344  57 I35
stroke4  345  56 I35
stroke4  344  56 I35
stroke4  344  57 I35
stroke4  343  57 I35
stroke4  342  57 I35
stroke4  341  57 I35
stroke4  340  57 I35
stroke4  339  56 I35
stroke4  338  55 I35
stroke4  336  54 I35
stroke4  335  53 I35
stroke4  334  52 I35
stroke4  333  51 I35
stroke4  333  49 I35
stroke4  332  48 I35
stroke4  332  47 I35
stroke4  332  46 I35
stroke4  333  46 I35
stroke4  333  45 I35
stroke4  334  45 I35
stroke4  336  44 I35
stroke4  337  45 I35
stroke4  338  45 I35
stroke4  339  45 I35
stroke4  341  46 I35
stroke4  342  47 I35
stroke4  343  48 I35
stroke4  343  50 I35
stroke4  344  52 I35
stroke4  344  53 I35
stroke4  344  55 I35
stroke4  343  58 I35
stroke4  343  60 I35
stroke4  343  63 I35
stroke4  343  65 I35
stroke4  342  68 I35
stroke4  341  71 I35
stroke4  341  73 I35
stroke4  340  76 I35
stroke4  338  78 I35
stroke4  337  79 I35
stroke4  336  81 I35
stroke4  334  82 I35
stroke4  332  83 I35
stroke4  330  83 I35
stroke4  329  83 I35
stroke4  327  84 I35
stroke4  326  84 I35
stroke4  325  84 I35
stroke4  324  84 I35
stroke4  323  85 I35
stroke4  323  86 I35
stroke4  323  87 I35
stroke4  323  88 I35
stroke4  324  89 I35
stroke4  325  91 I35
stroke4  326  92 I35
stroke4  327  93 I35
stroke4  328  94 I35
stroke4  329  95 I35
stroke4  330  96 I35
stroke4  331  96 I35
stroke4  332  97 I35
stroke4  333  97 I35
stroke4  334  97 I35
stroke4  335  96 I35
stroke4  336  96 I35
stroke4  337  96 I35
stroke4  338  96 I35
stroke4  340  96 I35
stroke4  341  96 I35
stroke4  342  95 I35
stroke4  344  95 I35
stroke4  345  95 I35
stroke5  355  86 B47
stroke5  354  86 I47
stroke5  353  87 I47
stroke5  354  87 I47
stroke5  354  88 I47
stroke5  354  89 I47
stroke5  355  90 I47
stroke5  356  91 I47
stroke5  357  91 I47
stroke5  358  92 I47
stroke5  359  92 I47
stroke5  360  92 I47
stroke5  361  93 I47
stroke5  363  92 I47
stroke5  364  92 I47
stroke5  365  91 I47
stroke5  366  90 I47
stroke5  368  89 I47
stroke5  369  87 I47
stroke5  369  85 I47
stroke5  370  82 I47
stroke5  371  79 I47
stroke5  371  75 I47
stroke5  371  71 I47
stroke5  371  68 I47
stroke5  372  64 I47
stroke5  372  60 I47
stroke5  372  56 I47
stroke5  373  53 I47
stroke5  373  51 I47
stroke5  373  49 I47
stroke5  374  47 I47
stroke5  374  46 I47
stroke5  374  45 I47
stroke5  375  44 I47
stroke5  374  45 I47
stroke5  374  46 I47
stroke5  373  47 I47
stroke5  372  48 I47
stroke6  383  77 B10
stroke6  382  78 I10
stroke6  381  78 I10
stroke6  381  79 I10
stroke6  380  80 I10
stroke6  380  81 I10
stroke6  381  82 I10
stroke6  381  83 I10
stroke6  382  84 I10
stroke6  383  85 I10
stroke6  384  85 I10
stroke6  385  85 I10
stroke6  386  86 I10
stroke6  388  85 I10
stroke6  389  85 I10
stroke6  390  84 I10
stroke6  392  84 I10
stroke6  393  83 I10
stroke6  393  82 I10
stroke6  394  81 I10
stroke6  394  80 I10
stroke6  394  79 I10
stroke6  394  78 I10
stroke6  393  78 I10
stroke6  392  77 I10
stroke6  391  78 I10
stroke6  390  78 I10
stroke6  388  78 I10
stroke6  387  79 I10
stroke6  386  80 I10
stroke6  385  81 I10
stroke6  385  82 I10
stroke6  384  84 I10
stroke6  384  85 I10
stroke6  383  87 I10
stroke6  384  89 I10
stroke6  384  90 I10
stroke6  385  91 I10
stroke6  385  92 I10
stroke6  386  93 I10
stroke6  387  94 I10
stroke6  389  94 I10
stroke6  390  94 I10
stroke6  391  94 I10
stroke6  392  94 I10
stroke6  393  94 I10
stroke6  394  93 I10
stroke6  394  92 I10
stroke6  395  90 I10
stroke6  395  88 I10
stroke6  395  86 I10
stroke6  395  84 I10
stroke6  395  81 I10
stroke6  395  79 I10
stroke6  395  76 I10
stroke6  395  72 I10
stroke6  395  69 I10
stroke6  394  66 I10
stroke6  394  63 I10
stroke6  394  59 I10
stroke6  395  57 I10
stroke6  395  54 I10
stroke6  395  52 I10
stroke6  396  50 I10
stroke6  397  48 I10
stroke6  397  47 I10
stroke6  398  46 I10
stroke6  399  45 I10
stroke6  400  44 I10
stroke6  401  44 I10
stroke6  402  44 I10
stroke6  403  45 I10
stroke6  404  46 I10
stroke6  404  48 I10
stroke6  404  50 I10
stroke6  405  52 I10
stroke6  405  55 I10
stroke6  405  58 I10
stroke6  405  61 I10
stroke6  405  65 I10
stroke6  404  68 I10
stroke6  404  71 I10
stroke6  403  74 I10
stroke6  402  77 I10
stroke6  401  80 I10
stroke6  400  82 I10
stroke6  399  84 I10
stroke6  399  86 I10
stroke6  398  87 I10
stroke6  397  89 I10
stroke6  397  90 I10
stroke6  397  91 I10
stroke6  396  92 I10
stroke6  397  93 I10
stroke6  397  94 I10
stroke6  398  94 I10
stroke6  399  95 I10
stroke6  400  97 I10
stroke6  401  98 I10
stroke6  403  100 I10
stroke6  405  102 I10
stroke6  407  104 I10
stroke6  410  106 I10
stroke6  412  108 I10
stroke6  414  110 I10
stroke6  416  111 I10
stroke6  417  113 I10
stroke6  418  114 I10
stroke6  419  115 I10
stroke6  420  115 I10
stroke6  420  116 I10
stroke7  438  49 B1
stroke7  438  48 I1
stroke7  438  49 I1
stroke7  438  50 I1
stroke7  438  51 I1
stroke7  439  53 I1
stroke7  439  55 I1
stroke7  439  57 I1
stroke7  439  60 I1
stroke7  440  63 I1
stroke7  440  66 I1
stroke7  441  69 I1
stroke7  441  72 I1
stroke7  441  75 I1
stroke7  441  77 I1
stroke7  440  79 I1
stroke7  440  81 I1
stroke7  439  83 I1
stroke7  437  84 I1
stroke7  436  85 I1
stroke7  435  86 I1
stroke7  433  87 I1
stroke7  431  88 I1
stroke7  430  89 I1
stroke7  428  89 I1
stroke7  427  89 I1
stroke7  426  90 I1
stroke7  427  91 I1
stroke7  428  92 I1
stroke7  429  93 I1
stroke7  431  94 I1
stroke7  432  95 I1
stroke7  434  97 I1
stroke7  436  98 I1
stroke7  438  99 I1
stroke7  440  99 I1
stroke7  442  100 I1
stroke7  444  100 I1
stroke7  446  100 I1
stroke7  447  100 I1
stroke7  449  99 I1
stroke7  450  98 I1
stroke7  451  98 I1
stroke7  452  97 I1
stroke7  453  96 I1
stroke7  454  95 I1
stroke7  455  94 I1
stroke7  456  93 I1
stroke7  457  91 I1
stroke7  458  89 I1
stroke7  459  87 I1
stroke7  459  84 I1
stroke7  460  82 I1
stroke7  460  78 I1
stroke7  460  75 I1
stroke7  460  72 I1
stroke7  461  68 I1
stroke7  461  65 I1
stroke7  461  62 I1
stroke7  461  59 I1
stroke7  461  57 I1
stroke7  461  55 I1
stroke7  462  54 I1
stroke7  462  53 I1
stroke7  462  54 I1
stroke7  462  55 I1
stroke7  461  56 I1
stroke8  483  56 B61
stroke8  483  55 I61
stroke8  482  54 I61
stroke8  483  53 I61
stroke8  484  54 I61
stroke8  486  54 I61
stroke8  487  54 I61
stroke8  488  54 I61
stroke8  490  53 I61
stroke8  491  53 I61
stroke8  492  53 I61
stroke8  492  52 I61
stroke8  491  51 I61
stroke8  490  50 I61
stroke8  489  49 I61
stroke8  488  49 I61
stroke8  486  48 I61
stroke8  485  48 I61
stroke8  483  47 I61
stroke8  482  47 I61
stroke8  481  47 I61
stroke8  481  48 I61
stroke8  480  49 I61
stroke8  480  51 I61
stroke8  479  54 I61
stroke8  479  56 I61
stroke8  480  60 I61
stroke8  480  63 I61
stroke8  480  67 I61
stroke8  480  70 I61
stroke8  480  74 I61
stroke8  479  77 I61
stroke8  479  79 I61
stroke8  479  82 I61
stroke8  478  84 I61
stroke8  477  86 I61
stroke8  476  88 I61
stroke8  475  89 I61
stroke8  474  89 I61
stroke8  472  90 I61
stroke8  471  90 I61
stroke8  470  91 I61
stroke8  470  92 I61
stroke8  471  93 I61
stroke8  472  94 I61
stroke8  473  95 I61
stroke8  474  95 I61
stroke8  476  96 I61
stroke8  478  96 I61
stroke8  480  96 I61
stroke8  482  96 I61
stroke8  484  96 I61
stroke8  486  95 I61
stroke8  488  95 I61
stroke8  491  94 I61
stroke8  493  93 I61
stroke8  495  93 I61
stroke8  496  92 I61
stroke8  498  90 I61
stroke8  499  89 I61
stroke8  500  88 I61
stroke8  501  86 I61
stroke8  502  84 I61
stroke8  502  81 I61
stroke8  502  79 I61
stroke8  503  76 I61
stroke8  503  73 I61
stroke8  503  70 I61
stroke8  504  67 I61
stroke8  504  63 I61
stroke8  504  59 I61
stroke8  504  55 I61
stroke8  504  50 I61
stroke8  504  46 I61
stroke8  504  41 I61
stroke8  504  37 I61
stroke8  504  32 I61
stroke8  504  28 I61
stroke8  504  24 I61
stroke8  504  20 I61
stroke8  504  17 I61
stroke8  504  14 I61
stroke8  504  11 I61
stroke8  505  8 I61
stroke8  505  6 I61
stroke8  505  4 I61
stroke8  505  2 I61
stroke8  504  1 I61
stroke8  504  0 I61
stroke8  503  0 I61
stroke8  503  2 I61
stroke8  502  4 I61
stroke9  531  81 B39
stroke9  531  80 I39
stroke9  530  79 I39
stroke9  529  78 I39
stroke9  528  78 I39
stroke9  527  79 I39
stroke9  526  79 I39
stroke9  525  80 I39
stroke9  524  80 I39
stroke9  522  81 I39
stroke9  521  82 I39
stroke9  520  83 I39
stroke9  518  84 I39
stroke9  517  86 I39
stroke9  516  87 I39
stroke9  516  89 I39
stroke9  516  91 I39
stroke9  516  92 I39
stroke9  516  94 I39
stroke9  517  95 I39
stroke9  518  96 I39
stroke9  519  96 I39
stroke9  521  96 I39
stroke9  522  96 I39
stroke9  524  96 I39
stroke9  525  96 I39
stroke9  527  95 I39
stroke9  528  94 I39
stroke9  529  93 I39
stroke9  530  92 I39
stroke9  531  90 I39
stroke9  531  88 I39
stroke9  532  85 I39
stroke9  532  82 I39
stroke9  531  79 I39
stroke9  531  75 I39
stroke9  531  71 I39
stroke9  530  67 I39
stroke9  529  63 I39
stroke9  529  59 I39
stroke9  529  55 I39
stroke9  528  51 I39
stroke9  528  48 I39
stroke9  528  46 I39
stroke9  529  44 I39
stroke9  529  43 I39
stroke9  529  42 I39
stroke9  529  41 I39
stroke9  530  40 I39
stroke9  531  40 I39
stroke9  532  40 I39
stroke9  532  41 I39
stroke9  533  41 I39
stroke9  534  41 I39
stroke9  535  41 I39
stroke9  536  42 I39
stroke9  537  42 I39
stroke9  539  42 I39
stroke9  540  43 I39
stroke9  542  43 I39
stroke9  543  43 I39
stroke9  545  43 I39
stroke9  546  44 I39
stroke9  547  44 I39
stroke9  548  44 I39
stroke9  549  44 I39
stroke9  549  45 I39
stroke9  549  46 I39
stroke9  550  46 I39
stroke9  550  48 I39
stroke9  550  49 I39
stroke9  550  52 I39
stroke9  549  54 I39
stroke9  549  57 I39
stroke9  549  61 I39
stroke9  549  65 I39
stroke9  549  69 I39
stroke9  549  74 I39
stroke9  549  78 I39
stroke9  549  82 I39
stroke9  550  85 I39
stroke9  550  88 I39
stroke9  550  91 I39
stroke9  550  93 I39
stroke9  550  94 I39
stroke9  550  95 I39
stroke9  550  96 I39
stroke9  550  97 I39
stroke9  549  96 I39
stroke9  548  95 I39
stroke9  546  76 I39
stroke9  546  75 I39
stroke9  545  74 I39
stroke9  544  73 I39
stroke9  543  73 I39
stroke9  543  72 I39
stroke9  542  72 I39
stroke9  541  72 I39
stroke9  540  72 I39
stroke9  539  71 I39
stroke9  538  71 I39
stroke9  537  71 I39
stroke9  538  71 I39
stroke9  539  71 I39
stroke9  540  71 I39
stroke9  541  71 I39
stroke9  542  71 I39
stroke9  543  71 I39
stroke9  545  71 I39
stroke9  546  72 I39
stroke9  548  73 I39
stroke9  550  74 I39
stroke9  551  75 I39
stroke9  552  76 I39
stroke9  554  77 I39
stroke9  555  78 I39
stroke9  556  79 I39
stroke9  556  80 I39
stroke9  557  80 I39
stroke10  591  57 B14
stroke10  590  57 I14
stroke10  590  58 I14
stroke10  589  58 I14
stroke10  588  58 I14
stroke10  587  59 I14
stroke10  586  59 I14
stroke10  585  59 I14
stroke10  584  58 I14
stroke10  583  58 I14
stroke10  582  57 I14
stroke10  581  56 I14
stroke10  580  56 I14
stroke10  579  55 I14
stroke10  579  53 I14
stroke10  578  52 I14
stroke10  578  51 I14
stroke10  577  49 I14
stroke10  577  48 I14
stroke10  578  47 I14
stroke10  579  46 I14
stroke10  580  46 I14
stroke10  581  46 I14
stroke10  582  46 I14
stroke10  583  47 I14
stroke10  585  48 I14
stroke10  586  49 I14
stroke10  587  50 I14
stroke10  588  52 I14
stroke10  589  54 I14
stroke10  590  56 I14
stroke10  591  58 I14
stroke10  591  60 I14
stroke10  591  62 I14
stroke10  591  65 I14
stroke10  591  67 I14
stroke10  591  70 I14
stroke10  590  72 I14
stroke10  589  74 I14
stroke10  588  77 I14
stroke10  587  78 I14
stroke10  586  80 I14
stroke10  585  81 I14
stroke10  584  82 I14
stroke10  582  83 I14
stroke10  581  84 I14
stroke10  580  84 I14
stroke10  579  85 I14
stroke10  578  85 I14
stroke10  577  85 I14
stroke10  576  86 I14
stroke10  577  87 I14
stroke10  577  88 I14
stroke10  579  89 I14
stroke10  580  91 I14
stroke10  582  92 I14
stroke10  584  94 I14
stroke10  587  95 I14
stroke10  589  96 I14
stroke10  592  97 I14
stroke10  594  98 I14
stroke10  596  98 I14
stroke10  597  98 I14
stroke10  599  98 I14
stroke10  600  97 I14
stroke10  601  96 I14
stroke10  602  95 I14
stroke10  603  94 I14
stroke10  603  92 I14
stroke10  604  90 I14
stroke10  604  87 I14
stroke10  604  84 I14
stroke10  604  81 I14
stroke10  604  78 I14
stroke10  604  75 I14
stroke10  604  71 I14
stroke10  604  67 I14
stroke10  604  63 I14
stroke10  603  59 I14
stroke10  603  55 I14
stroke10  603  51 I14
stroke10  603  48 I14
stroke10  603  44 I14
stroke10  603  40 I14
stroke10  604  37 I14
stroke10  604  33 I14
stroke10  604  30 I14
stroke10  604  27 I14
stroke10  603  23 I14
stroke10  603  20 I14
stroke10  603  18 I14
stroke10  603  16 I14
stroke10  602  14 I14
stroke10  602  12 I14
stroke10  602  11 I14
stroke10  602  10 I14
stroke10  602  11 I14
stroke10  602  12 I14
stroke10  601  13 I14
stroke10  601  14 I14
stroke10  600  15 I14
stroke10  599  17 I14
stroke10  598  18 I14
stroke10  596  19 I14
stroke10  594  20 I14
stroke10  592  21 I14
stroke10  589  21 I14
stroke10  586  22 I14
stroke10  584  21 I14
stroke10  581  21 I14
stroke10  578  20 I14
stroke10  575  19 I14
stroke10  573  18 I14
stroke10  570  17 I14
stroke10  568  16 I14
stroke10  567  15 I14
stroke10  566  14 I14
stroke10  565  13 I14
stroke10  565  12 I14
stroke10  566  12 I14
stroke10  567  12 I14
stroke10  569  12 I14
stroke10  571  13 I14
stroke10  573  13 I14
stroke10  575  14 I14
stroke10  577  15 I14
stroke10  579  16 I14
stroke10  581  17 I14
stroke10  582  18 I14
stroke10  583  20 I14
stroke10  583  22 I14
stroke10  583  23 I14
stroke10  584  25 I14
stroke10  584  28 I14
stroke10  584  30 I14
stroke10  583  33 I14
stroke10  583  36 I14
stroke11  598  111 B49
stroke11  598  112 I49
stroke11  598  113 I49
stroke11  597  115 I49
stroke11  596  116 I49
stroke11  596  117 I49
stroke11  595  119 I49
stroke11  594  120 I49
stroke11  593  121 I49
stroke11  593  122 I49
stroke11  592  124 I49
stroke11  591  125 I49
stroke11  590  125 I49
stroke11  589  126 I49
stroke11  587  127 I49
stroke11  586  128 I49
stroke11  585  129 I49
stroke11  583  129 I49
stroke11  582  130 I49
stroke11  581  130 I49
stroke11  580  131 I49
stroke11  579  131 I49
stroke11  580  131 I49
stroke11  580  130 I49
stroke11  581  130 I49
stroke11  582  129 I49
stroke11  584  128 I49
stroke11  585  127 I49
stroke11  587  126 I49
stroke11  589  125 I49
stroke11  591  124 I49
stroke11  593  122 I49
stroke11  595  121 I49
stroke11  596  119 I49
stroke11  597  118 I49
stroke11  599  117 I49
stroke11  599  116 I49
stroke11  600  116 I49
stroke11  601  115 I49
stroke11  602  116 I49
stroke11  602  117 I49
stroke11  602  118 I49
stroke11  602  120 I49
stroke11  603  122 I49
stroke11  603  125 I49
stroke11  603  127 I49
stroke11  603  129 I49
stroke11  603  131 I49
stroke11  603  132 I49
stroke11  604  134 I49
stroke11  604  135 I49
stroke11  604  136 I49
stroke11  605  135 I49
stroke11  604  135 I49
stroke12  640  53 B1
stroke12  639  52 I1
stroke12  638  51 I1
stroke12  637  51 I1
stroke12  638  52 I1
stroke12  638  53 I1
stroke12  638  54 I1
stroke12  639  56 I1
stroke12  639  59 I1
stroke12  640  62 I1
stroke12  640  65 I1
stroke12  641  68 I1
stroke12  641  72 I1
stroke12  641  75 I1
stroke12  641  79 I1
stroke12  641  82 I1
stroke12  641  85 I1
stroke12  640  87 I1
stroke12  640  89 I1
stroke12  639  91 I1
stroke12  638  92 I1
stroke12  636  93 I1
stroke12  635  94 I1
stroke12  634  95 I1
stroke12  633  95 I1
stroke12  632  96 I1
stroke12  631  96 I1
stroke12  631  97 I1
stroke12  632  97 I1
stroke12  633  98 I1
stroke12  634  98 I1
stroke12  635  99 I1
stroke12  637  99 I1
stroke12  638  100 I1
stroke12  640  100 I1
stroke12  642  101 I1
stroke12  644  101 I1
stroke12  646  100 I1
stroke12  648  100 I1
stroke12  650  99 I1
stroke12  652  98 I1
stroke12  654  97 I1
stroke12  656  96 I1
stroke12  657  95 I1
stroke12  658  93 I1
stroke12  659  91 I1
stroke12  660  89 I1
stroke12  661  87 I1
stroke12  662  84 I1
stroke12  662  81 I1
stroke12  663  78 I1
stroke12  663  75 I1
stroke12  663  71 I1
stroke12  663  68 I1
stroke12  664  64 I1
stroke12  664  61 I1
stroke12  664  58 I1
stroke12  664  55 I1
stroke12  664  53 I1
stroke12  665  51 I1
stroke12  665  49 I1
stroke12  665  48 I1
stroke12  665  47 I1
stroke12  664  47 I1
stroke12  664  49 I1
stroke12  664  50 I1
stroke13  673  85 B47
stroke13  673  86 I47
stroke13  674  87 I47
stroke13  674  88 I47
stroke13  674  89 I47
stroke13  675  91 I47
stroke13  675  92 I47
stroke13  676  93 I47
stroke13  677  94 I47
stroke13  678  95 I47
stroke13  680  96 I47
stroke13  682  96 I47
stroke13  684  96 I47
stroke13  686  96 I47
stroke13  688  96 I47
stroke13  689  96 I47
stroke13  691  95 I47
stroke13  692  94 I47
stroke13  694  93 I47
stroke13  695  92 I47
stroke13  696  90 I47
stroke13  697  88 I47
stroke13  698  86 I47
stroke13  698  84 I47
stroke13  699  82 I47
stroke13  699  79 I47
stroke13  700  76 I47
stroke13  700  73 I47
stroke13  700  70 I47
stroke13  700  67 I47
stroke13  700  64 I47
stroke13  700  60 I47
stroke13  700  57 I47
stroke13  700  55 I47
stroke13  701  52 I47
stroke13  701  50 I47
stroke13  701  49 I47
stroke13  701  48 I47
stroke13  700  48 I47
stroke13  700  49 I47
