stroke1  188  64 B54
stroke1  188  65 I54
stroke1  188  64 I54
stroke1  188  63 I54
stroke1  188  61 I54
stroke1  188  60 I54
stroke1  188  57 I54
stroke1  188  55 I54
stroke1  187  53 I54
stroke1  187  50 I54
stroke1  187  47 I54
stroke1  187  44 I54
stroke1  187  42 I54
stroke1  187  39 I54
stroke1  187  36 I54
stroke1  187  34 I54
stroke1  187  32 I54
stroke1  187  29 I54
stroke1  187  27 I54
stroke1  187  27 I54
stroke1  187  24 I54
stroke1  187  22 I54
stroke1  187  19 I54
stroke1  187  17 I54
stroke1  187  15 I54
stroke1  187  13 I54
stroke1  188  11 I54
stroke1  188  9 I54
stroke1  188  8 I54
stroke1  188  7 I54
stroke1  188  6 I54
stroke1  188  5 I54
stroke1  189  4 I54
stroke1  189  3 I54
stroke1  190  2 I54
stroke1  190  1 I54
stroke1  191  1 I54
stroke1  192  1 I54
stroke1  193  1 I54
stroke1  194  1 I54
stroke1  196  2 I54
stroke1  197  3 I54
stroke1  198  4 I54
stroke1  200  5 I54
stroke1  201  6 I54
stroke1  202  7 I54
stroke1  203  9 I54
stroke1  203  10 I54
stroke1  203  11 I54
stroke1  203  12 I54
stroke1  203  13 I54
stroke1  202  14 I54
stroke1  201  15 I54
stroke1  200  15 I54
stroke1  199  15 I54
stroke1  198  15 I54
stroke1  196  15 I54
stroke1  195  15 I54
stroke1  194  14 I54
stroke1  192  14 I54
stroke1  191  14 I54
stroke1  190  14 I54
stroke1  190  15 I54
stroke1  191  15 I54
stroke2  222  11 B36
stroke2  221  11 I36
stroke2  220  11 I36
stroke2  219  11 I36
stroke2  220  11 I36
stroke2  222  12 I36
stroke2  223  11 I36
stroke2  224  11 I36
stroke2  226  11 I36
stroke2  228  10 I36
stroke2  229  10 I36
stroke2  231  9 I36
stroke2  232  8 I36
stroke2  233  7 I36
stroke2  234  6 I36
stroke2  234  5 I36
stroke2  234  4 I36
stroke2  234  3 I36
stroke2  233  2 I36
stroke2  232  1 I36
stroke2  231  1 I36
stroke2  230  0 I36
stroke2  229  0 I36
stroke2  228  0 I36
stroke2  227  0 I36
stroke2  226  0 I36
stroke2  225  0 I36
stroke2  224  0 I36
stroke2  223  1 I36
stroke2  222  2 I36
stroke2  222  4 I36
stroke2  221  5 I36
stroke2  221  7 I36
stroke2  221  9 I36
stroke2  221  11 I36
stroke2  221  14 I36
stroke2  221  16 I36
stroke2  222  19 I36
stroke2  222  21 I36
stroke2  223  24 I36
stroke2  224  26 I36
stroke2  224  28 I36
stroke2  225  30 I36
stroke2  226  31 I36
stroke2  227  32 I36
stroke2  227  33 I36
stroke2  228  33 I36
stroke2  229  34 I36
stroke2  230  33 I36
stroke2  231  33 I36
stroke2  232  33 I36
stroke2  234  32 I36
stroke2  236  31 I36
stroke2  237  30 I36
stroke2  239  29 I36
stroke2  241  27 I36
stroke2  243  26 I36
stroke2  245  24 I36
stroke2  247  22 I36
stroke2  249  20 I36
stroke2  251  18 I36
stroke2  252  16 I36
stroke2  253  14 I36
stroke2  254  12 I36
stroke2  254  10 I36
stroke2  255  9 I36
stroke2  255  8 I36
stroke2  256  7 I36
stroke2  256  6 I36
stroke2  256  7 I36
stroke2  256  8 I36
stroke2  255  9 I36
stroke2  255  11 I36
stroke2  255  13 I36
stroke2  255  15 I36
stroke2  255  18 I36
stroke2  255  21 I36
stroke2  254  25 I36
stroke2  254  28 I36
stroke2  254  32 I36
stroke2  253  35 I36
stroke2  253  38 I36
stroke2  252  40 I36
stroke2  252  43 I36
stroke2  251  45 I36
stroke2  250  46 I36
stroke2  249  48 I36
stroke2  249  49 I36
stroke2  248  51 I36
stroke2  247  52 I36
stroke2  246  54 I36
stroke2  245  55 I36
stroke2  244  56 I36
stroke2  242  57 I36
stroke2  241  58 I36
stroke2  239  58 I36
stroke2  238  58 I36
stroke2  236  58 I36
stroke2  233  57 I36
stroke2  231  57 I36
stroke2  229  56 I36
stroke2  227  55 I36
stroke2  225  54 I36
stroke2  223  53 I36
stroke2  221  53 I36
stroke2  220  53 I36
stroke2  219  53 I36
stroke3  253  72 B51
stroke3  252  72 I51
stroke3  251  72 I51
stroke3  250  72 I51
stroke3  249  73 I51
stroke3  247  73 I51
stroke3  246  74 I51
stroke3  244  75 I51
stroke3  243  76 I51
stroke3  241  77 I51
stroke3  239  78 I51
stroke3  237  79 I51
stroke3  235  80 I51
stroke3  233  82 I51
stroke3  230  83 I51
stroke3  228  85 I51
stroke3  226  86 I51
stroke3  224  87 I51
stroke3  222  88 I51
stroke3  221  88 I51
stroke3  220  88 I51
stroke3  220  89 I51
stroke3  219  89 I51
stroke3  220  89 I51
stroke3  221  89 I51
stroke3  223  89 I51
stroke3  224  88 I51
stroke3  226  87 I51
stroke3  227  86 I51
stroke3  229  85 I51
stroke3  231  84 I51
stroke3  233  83 I51
stroke3  235  82 I51
stroke3  237  81 I51
stroke3  239  80 I51
stroke3  241  78 I51
stroke3  242  77 I51
stroke3  244  77 I51
stroke3  245  76 I51
stroke3  247  76 I51
stroke3  248  76 I51
stroke3  249  76 I51
stroke3  250  77 I51
stroke3  251  79 I51
stroke3  251  81 I51
stroke3  252  83 I51
stroke3  252  85 I51
stroke3  252  87 I51
stroke3  253  89 I51
stroke3  252  90 I51
stroke3  252  92 I51
stroke3  252  93 I51
stroke3  251  94 I51
stroke3  250  95 I51
stroke3  249  95 I51
stroke3  248  94 I51
stroke3  245  88 I51
stroke3  245  87 I51
stroke3  244  87 I51
stroke3  243  87 I51
stroke3  243  88 I51
stroke3  243  89 I51
stroke3  243  90 I51
stroke3  243  91 I51
stroke3  243  93 I51
stroke3  243  94 I51
stroke3  243  95 I51
stroke3  243  96 I51
stroke3  243  97 I51
stroke3  244  97 I51
stroke3  244  96 I51
stroke4  279  32 B43
stroke4  280  33 I43
stroke4  281  33 I43
stroke4  283  33 I43
stroke4  284  34 I43
stroke4  286  34 I43
stroke4  287  35 I43
stroke4  288  36 I43
stroke4  290  37 I43
stroke4  291  38 I43
stroke4  291  39 I43
stroke4  292  40 I43
stroke4  292  41 I43
stroke4  292  42 I43
stroke4  291  43 I43
stroke4  290  43 I43
stroke4  290  44 I43
stroke4  289  44 I43
stroke4  287  45 I43
stroke4  286  45 I43
stroke4  284  44 I43
stroke4  283  44 I43
stroke4  282  43 I43
stroke4  281  43 I43
stroke4  280  42 I43
stroke4  279  40 I43
stroke4  278  39 I43
stroke4  277  37 I43
stroke4  276  35 I43
stroke4  275  33 I43
stroke4  275  30 I43
stroke4  275  28 I43
stroke4  274  25 I43
stroke4  274  22 I43
stroke4  275  20 I43
stroke4  275  17 I43
stroke4  275  15 I43
stroke4  275  13 I43
stroke4  276  12 I43
stroke4  276  10 I43
stroke4  276  9 I43
stroke4  277  8 I43
stroke4  278  8 I43
stroke4  278  7 I43
stroke4  279  7 I43
stroke4  281  7 I43
stroke4  282  7 I43
stroke4  283  7 I43
stroke4  285  7 I43
stroke4  286  6 I43
stroke4  288  6 I43
stroke4  289  6 I43
stroke4  291  6 I43
stroke4  292  6 I43
stroke4  294  6 I43
stroke4  295  7 I43
stroke4  296  7 I43
stroke4  297  8 I43
stroke4  298  10 I43
stroke4  299  11 I43
stroke4  300  13 I43
stroke4  301  16 I43
stroke4  301  19 I43
stroke4  301  22 I43
stroke4  302  25 I43
stroke4  302  29 I43
stroke4  302  33 I43
stroke4  302  37 I43
stroke4  301  41 I43
stroke4  301  44 I43
stroke4  301  48 I43
stroke4  300  51 I43
stroke4  299  53 I43
stroke4  298  56 I43
stroke4  297  58 I43
stroke4  295  59 I43
stroke4  294  60 I43
stroke4  292  61 I43
stroke4  291  62 I43
stroke4  289  62 I43
stroke4  287  63 I43
stroke4  285  63 I43
stroke4  284  62 I43
stroke4  282  62 I43
stroke4  280  61 I43
stroke4  279  61 I43
stroke4  278  60 I43
stroke4  277  59 I43
stroke4  277  58 I43
stroke5  322  10 B1
stroke5  322  9 I1
stroke5  321  9 I1
stroke5  320  10 I1
stroke5  320  11 I1
stroke5  321  12 I1
stroke5  321  13 I1
stroke5  321  15 I1
stroke5  322  17 I1
stroke5  323  19 I1
stroke5  323  22 I1
stroke5  324  25 I1
stroke5  325  29 I1
stroke5  325  32 I1
stroke5  326  36 I1
stroke5  326  39 I1
stroke5  326  42 I1
stroke5  326  45 I1
stroke5  326  47 I1
stroke5  325  49 I1
stroke5  324  51 I1
stroke5  323  52 I1
stroke5  322  53 I1
stroke5  321  54 I1
stroke5  319  55 I1
stroke5  318  55 I1
stroke5  316  55 I1
stroke5  315  56 I1
stroke5  314  56 I1
stroke5  314  57 I1
stroke5  315  57 I1
stroke5  315  58 I1
stroke5  316  58 I1
stroke5  317  58 I1
stroke5  318  59 I1
stroke5  320  59 I1
stroke5  322  59 I1
stroke5  324  59 I1
stroke5  326  59 I1
stroke5  328  59 I1
stroke5  330  58 I1
stroke5  333  58 I1
stroke5  335  58 I1
stroke5  338  57 I1
stroke5  339  56 I1
stroke5  341  55 I1
stroke5  343  54 I1
stroke5  344  53 I1
stroke5  345  51 I1
stroke5  346  50 I1
stroke5  347  48 I1
stroke5  347  46 I1
stroke5  348  43 I1
stroke5  348  41 I1
stroke5  348  38 I1
stroke5  349  35 I1
stroke5  349  31 I1
stroke5  349  28 I1
stroke5  349  25 I1
stroke5  349  22 I1
stroke5  350  20 I1
stroke5  350  17 I1
stroke5  350  15 I1
stroke5  350  13 I1
stroke5  350  12 I1
stroke5  350  11 I1
stroke5  350  10 I1
stroke5  350  9 I1
stroke5  349  10 I1
stroke6  395  35 B21
stroke6  394  35 I21
stroke6  393  35 I21
stroke6  392  36 I21
stroke6  391  36 I21
stroke6  390  36 I21
stroke6  389  37 I21
stroke6  388  37 I21
stroke6  387  37 I21
stroke6  386  37 I21
stroke6  385  38 I21
stroke6  383  38 I21
stroke6  382  38 I21
stroke6  381  39 I21
stroke6  380  39 I21
stroke6  379  40 I21
stroke6  379  41 I21
stroke6  379  42 I21
stroke6  379  43 I21
stroke6  380  44 I21
stroke6  381  45 I21
stroke6  383  46 I21
stroke6  384  46 I21
stroke6  386  46 I21
stroke6  387  46 I21
stroke6  389  46 I21
stroke6  391  45 I21
stroke6  392  45 I21
stroke6  393  44 I21
stroke6  394  42 I21
stroke6  395  40 I21
stroke6  396  38 I21
stroke6  396  36 I21
stroke6  396  34 I21
stroke6  395  31 I21
stroke6  394  28 I21
stroke6  394  25 I21
stroke6  393  23 I21
stroke6  392  20 I21
stroke6  391  18 I21
stroke6  390  16 I21
stroke6  389  14 I21
stroke6  389  13 I21
stroke6  388  12 I21
stroke6  387  12 I21
stroke6  386  11 I21
stroke6  384  11 I21
stroke6  383  11 I21
stroke6  382  11 I21
stroke6  380  11 I21
stroke6  378  12 I21
stroke6  377  12 I21
stroke6  375  14 I21
stroke6  374  16 I21
stroke6  372  18 I21
stroke6  371  20 I21
stroke6  370  23 I21
stroke6  370  26 I21
stroke6  369  29 I21
stroke6  369  32 I21
stroke6  369  36 I21
stroke6  370  40 I21
stroke6  371  43 I21
stroke6  372  47 I21
stroke6  373  51 I21
stroke6  375  54 I21
stroke6  376  57 I21
stroke6  378  59 I21
stroke6  379  61 I21
stroke6  380  62 I21
stroke6  381  62 I21
stroke6  381  63 I21
stroke6  382  63 I21
stroke6  382  62 I21
stroke6  383  62 I21
stroke6  383  61 I21
stroke6  384  59 I21
stroke6  384  58 I21
stroke6  385  57 I21
stroke6  385  55 I21
stroke6  386  54 I21
stroke6  386  53 I21
stroke6  387  52 I21
stroke6  388  52 I21
stroke6  389  52 I21
stroke6  390  53 I21
stroke6  391  54 I21
stroke6  392  56 I21
stroke6  392  57 I21
stroke6  393  58 I21
stroke6  394  59 I21
stroke6  395  60 I21
stroke6  396  61 I21
stroke6  397  61 I21
stroke6  398  61 I21
stroke6  399  61 I21
stroke6  400  60 I21
stroke6  401  60 I21
stroke6  402  59 I21
stroke6  403  58 I21
stroke6  404  56 I21
stroke6  405  55 I21
stroke6  406  53 I21
stroke6  406  51 I21
stroke6  406  49 I21
stroke6  407  46 I21
stroke6  407  43 I21
stroke6  406  40 I21
stroke6  406  37 I21
stroke6  406  34 I21
stroke6  405  31 I21
stroke6  405  27 I21
stroke6  405  24 I21
stroke6  405  21 I21
stroke6  405  19 I21
stroke6  405  17 I21
stroke6  405  14 I21
stroke6  405  13 I21
stroke6  404  11 I21
stroke6  404  10 I21
stroke6  404  9 I21
stroke6  403  8 I21
stroke6  403  9 I21
stroke6  402  9 I21
stroke6  402  11 I21
stroke6  402  13 I21
stroke7  403  78 B45
stroke7  402  79 I45
stroke7  402  80 I45
stroke7  402  81 I45
stroke7  401  82 I45
stroke7  401  83 I45
stroke7  400  84 I45
stroke7  400  85 I45
stroke7  400  86 I45
stroke7  399  87 I45
stroke7  399  88 I45
stroke7  398  89 I45
stroke7  397  89 I45
stroke7  396  89 I45
stroke7  395  89 I45
stroke7  394  89 I45
stroke7  393  88 I45
stroke7  392  87 I45
stroke7  392  86 I45
stroke7  392  85 I45
stroke7  392  84 I45
stroke7  392  83 I45
stroke7  393  83 I45
stroke7  394  83 I45
stroke7  396  83 I45
stroke7  398  83 I45
stroke7  399  83 I45
stroke7  401  84 I45
stroke7  403  85 I45
stroke7  405  86 I45
stroke7  407  87 I45
stroke7  408  88 I45
stroke7  410  89 I45
stroke7  411  90 I45
stroke7  412  91 I45
stroke7  412  92 I45
stroke7  412  93 I45
stroke8  406  105 B66
stroke8  405  105 I66
stroke8  405  106 I66
stroke8  404  106 I66
stroke8  404  107 I66
stroke8  405  107 I66
stroke8  405  106 I66
stroke8  406  105 I66
stroke8  406  104 I66
stroke8  406  103 I66
stroke8  406  102 I66
stroke8  406  101 I66
stroke8  407  100 I66
stroke8  408  99 I66
stroke8  409  99 I66
stroke8  411  99 I66
stroke8  412  99 I66
stroke8  413  100 I66
stroke8  414  100 I66
stroke8  415  101 I66
stroke8  416  102 I66
stroke8  417  102 I66
stroke8  418  103 I66
stroke8  419  103 I66
stroke8  420  104 I66
stroke8  419  103 I66
stroke9  447  49 B7
stroke9  446  48 I7
stroke9  446  47 I7
stroke9  445  46 I7
stroke9  445  45 I7
stroke9  444  45 I7
stroke9  443  44 I7
stroke9  442  44 I7
stroke9  441  44 I7
stroke9  440  44 I7
stroke9  438  43 I7
stroke9  436  44 I7
stroke9  435  44 I7
stroke9  433  44 I7
stroke9  432  45 I7
stroke9  431  46 I7
stroke9  430  47 I7
stroke9  430  48 I7
stroke9  429  50 I7
stroke9  429  51 I7
stroke9  430  52 I7
stroke9  430  53 I7
stroke9  431  54 I7
stroke9  432  55 I7
stroke9  433  56 I7
stroke9  435  57 I7
stroke9  436  58 I7
stroke9  438  58 I7
stroke9  439  58 I7
stroke9  441  57 I7
stroke9  442  57 I7
stroke9  443  56 I7
stroke9  445  55 I7
stroke9  445  53 I7
stroke9  446  52 I7
stroke9  447  50 I7
stroke9  447  47 I7
stroke9  447  45 I7
stroke9  447  42 I7
stroke9  447  40 I7
stroke9  447  37 I7
stroke9  447  34 I7
stroke9  447  31 I7
stroke9  446  28 I7
stroke9  446  25 I7
stroke9  446  22 I7
stroke9  446  19 I7
stroke9  446  16 I7
stroke9  446  14 I7
stroke9  446  11 I7
stroke9  446  9 I7
stroke9  445  7 I7
stroke9  445  5 I7
stroke9  445  4 I7
stroke9  445  3 I7
stroke9  445  2 I7
stroke9  444  3 I7
stroke9  443  4 I7
stroke9  442  5 I7
stroke9  441  6 I7
stroke9  440  8 I7
stroke9  439  9 I7
stroke9  437  11 I7
stroke9  435  13 I7
stroke9  433  15 I7
stroke9  431  16 I7
stroke9  429  18 I7
stroke9  428  19 I7
stroke9  426  20 I7
stroke9  425  20 I7
stroke9  425  21 I7
stroke9  424  21 I7
stroke9  425  22 I7
