stroke1  225  44 B30
stroke1  224  44 I30
stroke1  224  43 I30
stroke1  224  44 I30
stroke1  223  44 I30
stroke1  223  43 I30
stroke1  222  43 I30
stroke1  221  43 I30
stroke1  220  43 I30
stroke1  219  43 I30
stroke1  218  43 I30
stroke1  217  43 I30
stroke1  216  43 I30
stroke1  214  43 I30
stroke1  213  43 I30
stroke1  211  43 I30
stroke1  210  44 I30
stroke1  208  44 I30
stroke1  207  45 I30
stroke1  207  45 I30
stroke1  206  45 I30
stroke1  205  46 I30
stroke1  204  47 I30
stroke1  203  49 I30
stroke1  203  50 I30
stroke1  203  51 I30
stroke1  202  52 I30
stroke1  203  53 I30
stroke1  203  55 I30
stroke1  204  56 I30
stroke1  204  58 I30
stroke1  205  59 I30
stroke1  207  60 I30
stroke1  208  61 I30
stroke1  209  62 I30
stroke1  210  62 I30
stroke1  212  63 I30
stroke1  213  63 I30
stroke1  214  63 I30
stroke1  215  63 I30
stroke1  216  62 I30
stroke1  217  62 I30
stroke1  218  61 I30
stroke1  218  60 I30
stroke1  219  58 I30
stroke1  220  57 I30
stroke1  220  55 I30
stroke1  221  54 I30
stroke1  221  52 I30
stroke1  222  49 I30
stroke1  222  47 I30
stroke1  222  44 I30
stroke1  223  42 I30
stroke1  223  39 I30
stroke1  223  37 I30
stroke1  224  34 I30
stroke1  224  31 I30
stroke1  224  28 I30
stroke1  224  25 I30
stroke1  224  22 I30
stroke1  224  19 I30
stroke1  225  16 I30
stroke1  225  14 I30
stroke1  225  12 I30
stroke1  225  11 I30
stroke1  225  9 I30
stroke1  225  8 I30
stroke1  225  6 I30
stroke1  225  5 I30
stroke1  225  4 I30
stroke1  226  4 I30
stroke1  226  5 I30
stroke1  226  6 I30
stroke1  226  7 I30
stroke1  227  8 I30
stroke1  227  10 I30
stroke1  228  13 I30
stroke1  229  15 I30
stroke1  229  18 I30
stroke1  230  20 I30
stroke1  231  23 I30
stroke1  232  25 I30
stroke1  233  27 I30
stroke1  233  29 I30
stroke1  234  30 I30
stroke1  234  31 I30
stroke1  235  32 I30
stroke1  236  32 I30
stroke1  237  31 I30
stroke1  238  30 I30
stroke1  240  29 I30
stroke1  241  28 I30
stroke1  242  26 I30
stroke1  243  25 I30
stroke1  245  23 I30
stroke1  246  21 I30
stroke1  248  20 I30
stroke1  249  18 I30
stroke1  251  16 I30
stroke1  252  14 I30
stroke1  253  13 I30
stroke1  254  11 I30
stroke1  255  10 I30
stroke1  256  9 I30
stroke1  257  8 I30
stroke1  257  7 I30
stroke1  258  7 I30
stroke1  258  6 I30
stroke1  259  6 I30
stroke1  259  7 I30
stroke1  259  8 I30
stroke1  259  9 I30
stroke1  258  11 I30
stroke1  258  13 I30
stroke1  258  15 I30
stroke1  258  18 I30
stroke1  258  20 I30
stroke1  258  24 I30
stroke1  258  27 I30
stroke1  258  30 I30
stroke1  258  34 I30
stroke1  257  38 I30
stroke1  257  41 I30
stroke1  257  44 I30
stroke1  257  47 I30
stroke1  257  50 I30
stroke1  257  52 I30
stroke1  256  54 I30
stroke1  256  56 I30
stroke1  256  57 I30
stroke1  256  58 I30
stroke1  256  59 I30
stroke1  256  60 I30
stroke1  256  61 I30
stroke1  257  60 I30
stroke2  291  17 B35
stroke2  290  17 I35
stroke2  290  18 I35
stroke2  289  19 I35
stroke2  289  20 I35
stroke2  288  20 I35
stroke2  288  21 I35
stroke2  287  21 I35
stroke2  286  21 I35
stroke2  285  21 I35
stroke2  284  20 I35
stroke2  283  19 I35
stroke2  282  18 I35
stroke2  281  17 I35
stroke2  280  16 I35
stroke2  279  15 I35
stroke2  279  14 I35
stroke2  278  12 I35
stroke2  277  11 I35
stroke2  277  10 I35
stroke2  277  9 I35
stroke2  277  8 I35
stroke2  278  7 I35
stroke2  278  6 I35
stroke2  279  6 I35
stroke2  280  6 I35
stroke2  281  5 I35
stroke2  282  5 I35
stroke2  283  5 I35
stroke2  285  6 I35
stroke2  286  6 I35
stroke2  288  7 I35
stroke2  289  8 I35
stroke2  290  9 I35
stroke2  292  10 I35
stroke2  293  11 I35
stroke2  293  12 I35
stroke2  294  13 I35
stroke2  294  14 I35
stroke2  294  16 I35
stroke2  294  17 I35
stroke2  294  19 I35
stroke2  294  22 I35
stroke2  294  24 I35
stroke2  293  27 I35
stroke2  293  29 I35
stroke2  293  32 I35
stroke2  293  34 I35
stroke2  293  37 I35
stroke2  293  39 I35
stroke2  292  41 I35
stroke2  292  43 I35
stroke2  292  45 I35
stroke2  292  46 I35
stroke2  291  48 I35
stroke2  291  49 I35
stroke2  290  49 I35
stroke2  289  50 I35
stroke2  288  50 I35
stroke2  287  50 I35
stroke2  286  51 I35
stroke2  285  51 I35
stroke2  284  51 I35
stroke2  282  50 I35
stroke2  281  51 I35
stroke2  279  51 I35
stroke2  278  51 I35
stroke2  277  52 I35
stroke2  276  52 I35
stroke2  275  53 I35
stroke2  275  54 I35
stroke2  275  55 I35
stroke2  274  56 I35
stroke2  274  57 I35
stroke2  275  57 I35
stroke2  275  58 I35
stroke2  275  59 I35
stroke2  276  60 I35
stroke2  277  60 I35
stroke2  278  61 I35
stroke2  279  61 I35
stroke2  280  61 I35
stroke2  282  61 I35
stroke2  283  62 I35
stroke2  284  62 I35
stroke2  286  62 I35
stroke2  287  61 I35
stroke2  288  61 I35
stroke2  289  61 I35
stroke2  290  61 I35
stroke2  291  61 I35
stroke2  291  60 I35
stroke2  292  60 I35
stroke3  336  45 B46
stroke3  335  45 I46
stroke3  335  46 I46
stroke3  335  47 I46
stroke3  334  47 I46
stroke3  334  48 I46
stroke3  333  49 I46
stroke3  332  49 I46
stroke3  331  50 I46
stroke3  330  50 I46
stroke3  329  50 I46
stroke3  328  50 I46
stroke3  327  49 I46
stroke3  326  48 I46
stroke3  326  47 I46
stroke3  325  47 I46
stroke3  325  46 I46
stroke3  326  46 I46
stroke3  327  45 I46
stroke3  329  45 I46
stroke3  330  45 I46
stroke3  332  46 I46
stroke3  333  47 I46
stroke3  335  48 I46
stroke3  337  49 I46
stroke3  339  50 I46
stroke3  340  52 I46
stroke3  342  53 I46
stroke3  343  55 I46
stroke3  344  56 I46
stroke3  346  57 I46
stroke3  346  58 I46
stroke3  347  59 I46
stroke3  348  59 I46
stroke3  347  58 I46
stroke3  347  57 I46
stroke3  349  28 I46
stroke3  349  27 I46
stroke3  348  27 I46
stroke3  347  27 I46
stroke3  346  27 I46
stroke3  345  27 I46
stroke3  344  28 I46
stroke3  343  28 I46
stroke3  342  28 I46
stroke3  341  28 I46
stroke3  340  28 I46
stroke3  339  27 I46
stroke3  337  27 I46
stroke3  336  26 I46
stroke3  335  25 I46
stroke3  334  25 I46
stroke3  333  24 I46
stroke3  333  23 I46
stroke3  332  22 I46
stroke3  333  21 I46
stroke3  334  20 I46
stroke3  335  20 I46
stroke3  336  19 I46
stroke3  337  20 I46
stroke3  339  20 I46
stroke3  341  21 I46
stroke3  342  22 I46
stroke3  344  23 I46
stroke3  346  24 I46
stroke3  347  26 I46
stroke3  348  28 I46
stroke3  350  29 I46
stroke3  350  30 I46
stroke3  351  31 I46
stroke3  352  32 I46
stroke3  352  33 I46
stroke3  353  33 I46
stroke3  354  34 I46
stroke4  380  12 B40
stroke4  380  11 I40
stroke4  379  11 I40
stroke4  378  11 I40
stroke4  377  11 I40
stroke4  376  12 I40
stroke4  377  13 I40
stroke4  378  14 I40
stroke4  379  14 I40
stroke4  380  15 I40
stroke4  382  15 I40
stroke4  383  15 I40
stroke4  385  15 I40
stroke4  386  15 I40
stroke4  388  14 I40
stroke4  389  14 I40
stroke4  390  13 I40
stroke4  391  12 I40
stroke4  392  11 I40
stroke4  392  10 I40
stroke4  391  9 I40
stroke4  391  8 I40
stroke4  390  7 I40
stroke4  389  6 I40
stroke4  388  6 I40
stroke4  387  5 I40
stroke4  386  5 I40
stroke4  385  5 I40
stroke4  384  6 I40
stroke4  383  6 I40
stroke4  382  6 I40
stroke4  381  6 I40
stroke4  380  6 I40
stroke4  379  6 I40
stroke4  379  7 I40
stroke4  378  7 I40
stroke4  378  8 I40
stroke4  378  9 I40
stroke4  378  10 I40
stroke4  378  12 I40
stroke4  378  14 I40
stroke4  378  16 I40
stroke4  378  18 I40
stroke4  378  20 I40
stroke4  378  23 I40
stroke4  379  25 I40
stroke4  379  27 I40
stroke4  379  29 I40
stroke4  380  31 I40
stroke4  380  33 I40
stroke4  381  35 I40
stroke4  382  36 I40
stroke4  382  37 I40
stroke4  383  38 I40
stroke4  384  38 I40
stroke4  385  37 I40
stroke4  386  37 I40
stroke4  387  36 I40
stroke4  388  35 I40
stroke4  389  34 I40
stroke4  390  33 I40
stroke4  392  31 I40
stroke4  393  30 I40
stroke4  395  28 I40
stroke4  396  27 I40
stroke4  397  25 I40
stroke4  399  24 I40
stroke4  400  22 I40
stroke4  401  20 I40
stroke4  402  18 I40
stroke4  403  16 I40
stroke4  403  15 I40
stroke4  404  13 I40
stroke4  404  12 I40
stroke4  405  11 I40
stroke4  405  12 I40
stroke4  405  13 I40
stroke4  405  14 I40
stroke4  405  16 I40
stroke4  404  18 I40
stroke4  404  20 I40
stroke4  404  22 I40
stroke4  404  25 I40
stroke4  403  28 I40
stroke4  403  31 I40
stroke4  403  35 I40
stroke4  402  38 I40
stroke4  402  41 I40
stroke4  401  44 I40
stroke4  401  47 I40
stroke4  400  49 I40
stroke4  400  51 I40
stroke4  399  53 I40
stroke4  398  55 I40
stroke4  397  57 I40
stroke4  396  58 I40
stroke4  395  59 I40
stroke4  394  60 I40
stroke4  393  61 I40
stroke4  391  61 I40
stroke4  390  62 I40
stroke4  388  62 I40
stroke4  387  61 I40
stroke4  385  61 I40
stroke4  383  61 I40
stroke4  380  60 I40
stroke4  378  60 I40
stroke4  376  59 I40
stroke4  374  59 I40
stroke4  373  58 I40
stroke4  372  57 I40
stroke4  371  57 I40
stroke4  371  56 I40
stroke4  398  63 I40
stroke4  399  62 I40
stroke4  399  63 I40
stroke4  399  64 I40
stroke4  400  65 I40
stroke4  401  66 I40
stroke4  402  68 I40
stroke4  403  69 I40
stroke4  405  71 I40
stroke4  406  73 I40
stroke4  408  75 I40
stroke4  410  77 I40
stroke4  412  80 I40
stroke4  414  82 I40
stroke4  416  84 I40
stroke4  417  86 I40
stroke4  419  87 I40
stroke4  420  88 I40
stroke4  421  89 I40
stroke4  422  90 I40
stroke4  422  89 I40
stroke5  445  56 B7
stroke5  444  54 I7
stroke5  444  53 I7
stroke5  443  52 I7
stroke5  443  50 I7
stroke5  442  49 I7
stroke5  441  49 I7
stroke5  441  48 I7
stroke5  440  47 I7
stroke5  439  47 I7
stroke5  439  46 I7
stroke5  438  46 I7
stroke5  436  46 I7
stroke5  435  45 I7
stroke5  434  45 I7
stroke5  433  46 I7
stroke5  431  46 I7
stroke5  430  46 I7
stroke5  429  47 I7
stroke5  428  47 I7
stroke5  427  48 I7
stroke5  427  49 I7
stroke5  426  50 I7
stroke5  426  52 I7
stroke5  426  53 I7
stroke5  427  54 I7
stroke5  428  56 I7
stroke5  429  57 I7
stroke5  431  58 I7
stroke5  432  59 I7
stroke5  433  59 I7
stroke5  434  59 I7
stroke5  435  59 I7
stroke5  436  59 I7
stroke5  437  58 I7
stroke5  438  58 I7
stroke5  439  57 I7
stroke5  439  56 I7
stroke5  440  55 I7
stroke5  440  53 I7
stroke5  440  52 I7
stroke5  441  50 I7
stroke5  441  48 I7
stroke5  441  46 I7
stroke5  441  44 I7
stroke5  441  41 I7
stroke5  440  39 I7
stroke5  440  36 I7
stroke5  440  33 I7
stroke5  440  31 I7
stroke5  439  28 I7
stroke5  439  25 I7
stroke5  439  22 I7
stroke5  438  19 I7
stroke5  438  17 I7
stroke5  438  15 I7
stroke5  438  13 I7
stroke5  438  11 I7
stroke5  438  9 I7
stroke5  438  7 I7
stroke5  438  6 I7
stroke5  438  4 I7
stroke5  437  3 I7
stroke5  437  2 I7
stroke5  437  1 I7
stroke5  437  0 I7
stroke5  436  1 I7
stroke5  436  2 I7
stroke5  435  2 I7
stroke5  434  3 I7
stroke5  434  4 I7
stroke5  433  4 I7
stroke5  432  5 I7
stroke5  431  6 I7
stroke5  429  8 I7
stroke5  428  9 I7
stroke5  426  10 I7
stroke5  424  12 I7
stroke5  423  12 I7
stroke5  421  13 I7
stroke5  420  14 I7
stroke5  419  14 I7
stroke6  472  44 B6
stroke6  471  44 I6
stroke6  470  44 I6
stroke6  470  43 I6
stroke6  471  43 I6
stroke6  472  43 I6
stroke6  473  42 I6
stroke6  474  41 I6
stroke6  473  40 I6
stroke6  473  39 I6
stroke6  472  39 I6
stroke6  471  39 I6
stroke6  470  39 I6
stroke6  469  39 I6
stroke6  468  39 I6
stroke6  466  40 I6
stroke6  465  41 I6
stroke6  464  42 I6
stroke6  463  43 I6
stroke6  463  44 I6
stroke6  462  46 I6
stroke6  462  48 I6
stroke6  463  50 I6
stroke6  463  52 I6
stroke6  464  53 I6
stroke6  464  55 I6
stroke6  465  56 I6
stroke6  465  57 I6
stroke6  466  58 I6
stroke6  467  58 I6
stroke6  468  57 I6
stroke6  469  56 I6
stroke6  469  55 I6
stroke6  470  54 I6
stroke6  471  53 I6
stroke6  472  52 I6
stroke6  472  51 I6
stroke6  473  51 I6
stroke6  474  50 I6
stroke6  475  50 I6
stroke6  476  51 I6
stroke6  477  52 I6
stroke6  477  53 I6
stroke6  478  54 I6
stroke6  479  55 I6
stroke6  479  56 I6
stroke6  479  57 I6
stroke6  480  57 I6
stroke6  480  58 I6
stroke6  481  58 I6
stroke6  481  57 I6
stroke6  482  57 I6
stroke6  482  56 I6
stroke6  483  56 I6
stroke6  483  55 I6
stroke6  484  54 I6
stroke6  484  52 I6
stroke6  485  51 I6
stroke6  485  49 I6
stroke6  485  48 I6
stroke6  486  46 I6
stroke6  486  43 I6
stroke6  486  41 I6
stroke6  486  39 I6
stroke6  486  36 I6
stroke6  486  33 I6
stroke6  486  31 I6
stroke6  487  28 I6
stroke6  487  26 I6
stroke6  487  24 I6
stroke6  487  22 I6
stroke6  487  20 I6
stroke6  486  18 I6
stroke6  486  17 I6
stroke6  485  15 I6
stroke6  485  14 I6
stroke6  484  12 I6
stroke6  483  11 I6
stroke6  482  10 I6
stroke6  481  9 I6
stroke6  480  8 I6
stroke6  479  8 I6
stroke6  478  7 I6
stroke6  477  7 I6
stroke6  476  7 I6
stroke6  475  7 I6
stroke6  473  8 I6
stroke6  472  8 I6
stroke6  471  8 I6
stroke6  469  8 I6
stroke6  468  9 I6
stroke6  467  9 I6
stroke6  466  9 I6
stroke6  465  10 I6
stroke6  465  11 I6
stroke6  465  12 I6
stroke6  466  13 I6
stroke6  467  14 I6
stroke6  468  14 I6
stroke6  470  15 I6
stroke6  471  16 I6
stroke6  473  16 I6
stroke6  475  16 I6
stroke6  477  16 I6
stroke6  479  16 I6
stroke6  481  16 I6
stroke6  483  16 I6
stroke6  485  15 I6
stroke6  487  15 I6
stroke6  489  15 I6
stroke6  490  14 I6
stroke6  492  13 I6
stroke6  493  12 I6
stroke6  495  12 I6
stroke6  496  11 I6
stroke6  497  11 I6
stroke6  498  10 I6
stroke6  499  9 I6
stroke6  500  8 I6
stroke6  501  7 I6
stroke6  502  6 I6
stroke6  502  5 I6
stroke6  503  4 I6
stroke6  504  4 I6
stroke6  504  5 I6
stroke6  504  6 I6
stroke6  504  8 I6
stroke6  504  9 I6
stroke6  504  11 I6
stroke6  504  14 I6
stroke6  504  16 I6
stroke6  504  19 I6
stroke6  504  22 I6
stroke6  504  26 I6
stroke6  505  30 I6
stroke6  505  34 I6
stroke6  505  38 I6
stroke6  506  42 I6
stroke6  506  46 I6
stroke6  506  49 I6
stroke6  506  52 I6
stroke6  506  54 I6
stroke6  506  56 I6
stroke6  506  57 I6
stroke6  506  58 I6
stroke6  506  59 I6
stroke6  506  60 I6
stroke6  505  61 I6
stroke6  505  62 I6
stroke6  505  63 I6
stroke6  504  64 I6
stroke6  504  65 I6
stroke7  499  83 B64
stroke7  499  84 I64
stroke7  498  84 I64
stroke7  497  85 I64
stroke7  497  86 I64
stroke7  498  87 I64
stroke7  499  87 I64
stroke7  500  87 I64
stroke7  501  87 I64
stroke7  502  87 I64
stroke7  503  86 I64
stroke7  504  86 I64
stroke7  505  85 I64
stroke7  505  84 I64
stroke7  506  84 I64
stroke7  506  83 I64
stroke7  506  82 I64
stroke7  505  81 I64
stroke7  504  81 I64
stroke7  503  81 I64
stroke7  502  82 I64
stroke7  501  82 I64
stroke7  500  82 I64
stroke7  499  83 I64
stroke7  498  83 I64
stroke7  497  84 I64
stroke7  497  86 I64
stroke7  497  87 I64
stroke7  497  89 I64
stroke7  497  90 I64
stroke7  497  92 I64
stroke7  497  93 I64
stroke7  498  95 I64
stroke7  498  96 I64
stroke7  499  97 I64
stroke7  499  98 I64
stroke7  500  99 I64
stroke7  501  99 I64
stroke7  502  100 I64
stroke7  503  100 I64
stroke7  504  100 I64
stroke7  505  100 I64
stroke7  506  99 I64
stroke7  507  99 I64
stroke7  508  99 I64
stroke7  509  99 I64
stroke7  510  99 I64
stroke7  511  99 I64
stroke7  512  99 I64
stroke7  513  100 I64
stroke7  514  100 I64
stroke7  515  101 I64
stroke7  516  101 I64
stroke7  517  102 I64
stroke7  518  103 I64
stroke7  518  104 I64
stroke7  519  104 I64
stroke7  519  105 I64
stroke7  520  105 I64
