stroke1  203  41 B29
stroke1  204  41 I29
stroke1  205  41 I29
stroke1  206  41 I29
stroke1  208  42 I29
stroke1  209  42 I29
stroke1  211  43 I29
stroke1  212  43 I29
stroke1  214  44 I29
stroke1  215  45 I29
stroke1  217  46 I29
stroke1  218  47 I29
stroke1  219  48 I29
stroke1  220  49 I29
stroke1  221  51 I29
stroke1  221  52 I29
stroke1  221  53 I29
stroke1  222  55 I29
stroke1  221  56 I29
stroke1  221  56 I29
stroke1  220  57 I29
stroke1  220  58 I29
stroke1  219  58 I29
stroke1  218  59 I29
stroke1  217  59 I29
stroke1  216  60 I29
stroke1  215  60 I29
stroke1  214  60 I29
stroke1  213  60 I29
stroke1  212  61 I29
stroke1  211  60 I29
stroke1  210  60 I29
stroke1  209  60 I29
stroke1  208  59 I29
stroke1  207  59 I29
stroke1  207  58 I29
stroke1  206  58 I29
stroke1  205  57 I29
stroke1  205  56 I29
stroke1  204  55 I29
stroke1  204  54 I29
stroke1  204  53 I29
stroke1  204  51 I29
stroke1  203  50 I29
stroke1  203  48 I29
stroke1  203  46 I29
stroke1  203  43 I29
stroke1  203  41 I29
stroke1  203  38 I29
stroke1  203  35 I29
stroke1  203  32 I29
stroke1  202  29 I29
stroke1  202  26 I29
stroke1  202  23 I29
stroke1  202  20 I29
stroke1  202  18 I29
stroke1  202  16 I29
stroke1  202  14 I29
stroke1  202  13 I29
stroke1  203  12 I29
stroke1  203  10 I29
stroke1  203  9 I29
stroke1  203  8 I29
stroke1  203  7 I29
stroke1  204  8 I29
stroke1  205  9 I29
stroke1  205  11 I29
stroke1  206  12 I29
stroke1  207  14 I29
stroke1  208  16 I29
stroke1  209  18 I29
stroke1  210  21 I29
stroke1  212  23 I29
stroke1  213  25 I29
stroke1  214  27 I29
stroke1  215  29 I29
stroke1  216  30 I29
stroke1  216  31 I29
stroke1  217  32 I29
stroke1  217  33 I29
stroke1  218  33 I29
stroke1  218  34 I29
stroke1  218  33 I29
stroke1  219  33 I29
stroke1  219  32 I29
stroke1  220  31 I29
stroke1  221  31 I29
stroke1  223  29 I29
stroke1  224  28 I29
stroke1  225  27 I29
stroke1  227  26 I29
stroke1  228  24 I29
stroke1  229  23 I29
stroke1  231  21 I29
stroke1  232  19 I29
stroke1  233  18 I29
stroke1  234  16 I29
stroke1  236  14 I29
stroke1  237  13 I29
stroke1  238  12 I29
stroke1  239  10 I29
stroke1  240  10 I29
stroke1  240  9 I29
stroke1  241  8 I29
stroke1  242  8 I29
stroke1  242  9 I29
stroke1  242  10 I29
stroke1  242  11 I29
stroke1  242  13 I29
stroke1  242  16 I29
stroke1  242  18 I29
stroke1  242  22 I29
stroke1  243  25 I29
stroke1  243  29 I29
stroke1  243  34 I29
stroke1  242  39 I29
stroke1  242  44 I29
stroke1  242  49 I29
stroke1  241  55 I29
stroke1  241  60 I29
stroke1  241  65 I29
stroke1  241  70 I29
stroke1  241  75 I29
stroke1  241  79 I29
stroke1  241  83 I29
stroke1  241  86 I29
stroke1  241  89 I29
stroke1  241  92 I29
stroke1  242  94 I29
stroke1  242  96 I29
stroke1  242  97 I29
stroke1  242  98 I29
stroke1  242  99 I29
stroke1  242  100 I29
stroke1  242  101 I29
stroke1  242  100 I29
stroke2  222  84 B65
stroke2  222  83 I65
stroke2  222  84 I65
stroke2  222  85 I65
stroke2  222  86 I65
stroke2  222  87 I65
stroke2  222  89 I65
stroke2  222  90 I65
stroke2  223  92 I65
stroke2  223  94 I65
stroke2  223  96 I65
stroke2  223  97 I65
stroke2  223  99 I65
stroke2  224  99 I65
stroke2  224  100 I65
stroke2  224  101 I65
stroke2  225  101 I65
stroke2  225  100 I65
stroke3  250  52 B47
stroke3  250  53 I47
stroke3  249  53 I47
stroke3  249  54 I47
stroke3  249  55 I47
stroke3  249  56 I47
stroke3  249  57 I47
stroke3  249  58 I47
stroke3  250  59 I47
stroke3  251  60 I47
stroke3  252  61 I47
stroke3  253  62 I47
stroke3  254  63 I47
stroke3  255  64 I47
stroke3  257  64 I47
stroke3  258  64 I47
stroke3  259  64 I47
stroke3  260  63 I47
stroke3  261  63 I47
stroke3  262  63 I47
stroke3  262  62 I47
stroke3  263  61 I47
stroke3  264  60 I47
stroke3  265  59 I47
stroke3  266  58 I47
stroke3  266  56 I47
stroke3  267  54 I47
stroke3  267  52 I47
stroke3  267  50 I47
stroke3  268  48 I47
stroke3  268  45 I47
stroke3  268  42 I47
stroke3  268  40 I47
stroke3  268  37 I47
stroke3  268  34 I47
stroke3  268  31 I47
stroke3  268  29 I47
stroke3  268  26 I47
stroke3  268  24 I47
stroke3  268  21 I47
stroke3  268  19 I47
stroke3  268  16 I47
stroke3  269  14 I47
stroke3  269  12 I47
stroke3  269  10 I47
stroke3  269  8 I47
stroke3  269  7 I47
stroke3  270  5 I47
stroke3  270  4 I47
stroke3  270  3 I47
stroke3  269  3 I47
stroke3  269  4 I47
stroke3  268  5 I47
stroke3  268  6 I47
stroke4  291  48 B29
stroke4  290  47 I29
stroke4  289  46 I29
stroke4  290  46 I29
stroke4  290  47 I29
stroke4  291  47 I29
stroke4  292  47 I29
stroke4  293  48 I29
stroke4  294  49 I29
stroke4  295  50 I29
stroke4  297  51 I29
stroke4  298  52 I29
stroke4  299  54 I29
stroke4  300  55 I29
stroke4  301  56 I29
stroke4  302  57 I29
stroke4  302  59 I29
stroke4  301  60 I29
stroke4  301  61 I29
stroke4  300  62 I29
stroke4  299  62 I29
stroke4  298  63 I29
stroke4  297  63 I29
stroke4  296  64 I29
stroke4  295  64 I29
stroke4  294  65 I29
stroke4  293  64 I29
stroke4  292  64 I29
stroke4  291  63 I29
stroke4  291  62 I29
stroke4  290  61 I29
stroke4  289  59 I29
stroke4  288  58 I29
stroke4  288  56 I29
stroke4  287  54 I29
stroke4  287  52 I29
stroke4  287  50 I29
stroke4  287  47 I29
stroke4  287  45 I29
stroke4  287  42 I29
stroke4  287  39 I29
stroke4  288  36 I29
stroke4  288  32 I29
stroke4  288  29 I29
stroke4  288  26 I29
stroke4  288  22 I29
stroke4  289  19 I29
stroke4  289  16 I29
stroke4  289  13 I29
stroke4  289  10 I29
stroke4  289  7 I29
stroke4  289  5 I29
stroke4  289  3 I29
stroke4  289  2 I29
stroke4  289  1 I29
stroke4  289  0 I29
stroke4  290  0 I29
stroke4  290  1 I29
stroke4  290  2 I29
stroke4  291  3 I29
stroke4  291  4 I29
stroke4  292  6 I29
stroke4  293  8 I29
stroke4  294  10 I29
stroke4  295  13 I29
stroke4  296  16 I29
stroke4  297  18 I29
stroke4  298  21 I29
stroke4  299  23 I29
stroke4  300  25 I29
stroke4  301  26 I29
stroke4  301  27 I29
stroke4  302  28 I29
stroke4  302  29 I29
stroke4  303  29 I29
stroke4  304  29 I29
stroke4  305  28 I29
stroke4  306  27 I29
stroke4  307  26 I29
stroke4  308  25 I29
stroke4  310  23 I29
stroke4  311  21 I29
stroke4  312  19 I29
stroke4  313  18 I29
stroke4  314  16 I29
stroke4  315  15 I29
stroke4  316  14 I29
stroke4  317  13 I29
stroke4  318  12 I29
stroke4  318  11 I29
stroke4  319  10 I29
stroke4  319  9 I29
stroke4  320  8 I29
stroke4  321  7 I29
stroke4  322  7 I29
stroke4  322  8 I29
stroke4  322  9 I29
stroke4  322  10 I29
stroke4  322  12 I29
stroke4  322  14 I29
stroke4  321  16 I29
stroke4  321  19 I29
stroke4  321  22 I29
stroke4  321  25 I29
stroke4  321  29 I29
stroke4  321  32 I29
stroke4  322  37 I29
stroke4  322  41 I29
stroke4  322  46 I29
stroke4  322  50 I29
stroke4  321  55 I29
stroke4  321  59 I29
stroke4  321  63 I29
stroke4  321  67 I29
stroke4  320  71 I29
stroke4  320  74 I29
stroke4  319  78 I29
stroke4  319  81 I29
stroke4  318  85 I29
stroke4  318  88 I29
stroke4  318  91 I29
stroke4  318  94 I29
stroke4  318  97 I29
stroke4  318  100 I29
stroke4  318  102 I29
stroke4  318  103 I29
stroke4  318  104 I29
stroke4  318  105 I29
stroke4  318  106 I29
stroke4  317  106 I29
stroke4  316  106 I29
stroke4  316  105 I29
stroke5  305  93 B51
stroke5  304  92 I51
stroke5  303  92 I51
stroke5  302  92 I51
stroke5  300  92 I51
stroke5  299  93 I51
stroke5  297  93 I51
stroke5  295  93 I51
stroke5  293  93 I51
stroke5  290  94 I51
stroke5  288  94 I51
stroke5  285  95 I51
stroke5  282  95 I51
stroke5  279  96 I51
stroke5  276  96 I51
stroke5  274  96 I51
stroke5  272  97 I51
stroke5  270  97 I51
stroke5  269  97 I51
stroke5  268  97 I51
stroke5  267  98 I51
stroke5  268  98 I51
stroke5  269  99 I51
stroke5  270  99 I51
stroke5  271  100 I51
stroke5  272  101 I51
stroke5  274  101 I51
stroke5  275  102 I51
stroke5  277  102 I51
stroke5  279  103 I51
stroke5  280  103 I51
stroke5  282  103 I51
stroke5  283  102 I51
stroke5  285  101 I51
stroke5  286  101 I51
stroke5  288  100 I51
stroke5  289  99 I51
stroke5  290  98 I51
stroke5  292  97 I51
stroke5  293  97 I51
stroke5  294  96 I51
stroke5  295  95 I51
stroke5  296  94 I51
stroke5  297  94 I51
stroke5  298  93 I51
stroke5  299  93 I51
stroke5  300  93 I51
stroke5  300  92 I51
stroke5  301  92 I51
stroke5  302  92 I51
stroke5  302  93 I51
stroke5  302  94 I51
stroke5  303  95 I51
stroke5  303  96 I51
stroke5  303  97 I51
stroke5  303  99 I51
stroke5  303  101 I51
stroke5  303  102 I51
stroke5  303  104 I51
stroke5  303  105 I51
stroke5  303  107 I51
stroke5  304  108 I51
stroke5  303  109 I51
stroke5  303  110 I51
stroke5  303  111 I51
stroke5  303  112 I51
stroke5  302  111 I51
stroke5  296  101 I51
stroke5  295  100 I51
stroke5  295  101 I51
stroke5  295  102 I51
stroke5  295  103 I51
stroke5  295  104 I51
stroke5  296  106 I51
stroke5  296  107 I51
stroke5  296  108 I51
stroke5  297  109 I51
stroke5  297  110 I51
stroke5  297  111 I51
stroke5  297  112 I51
stroke6  352  58 B25
stroke6  352  57 I25
stroke6  352  56 I25
stroke6  351  55 I25
stroke6  351  54 I25
stroke6  350  53 I25
stroke6  349  52 I25
stroke6  348  51 I25
stroke6  347  51 I25
stroke6  346  50 I25
stroke6  345  49 I25
stroke6  344  49 I25
stroke6  343  48 I25
stroke6  341  48 I25
stroke6  339  48 I25
stroke6  337  48 I25
stroke6  335  48 I25
stroke6  334  49 I25
stroke6  332  50 I25
stroke6  331  50 I25
stroke6  329  51 I25
stroke6  328  52 I25
stroke6  328  53 I25
stroke6  327  54 I25
stroke6  327  56 I25
stroke6  328  57 I25
stroke6  328  58 I25
stroke6  328  60 I25
stroke6  329  61 I25
stroke6  330  63 I25
stroke6  331  64 I25
stroke6  332  65 I25
stroke6  334  65 I25
stroke6  335  66 I25
stroke6  336  66 I25
stroke6  337  66 I25
stroke6  339  66 I25
stroke6  340  66 I25
stroke6  341  65 I25
stroke6  342  65 I25
stroke6  343  64 I25
stroke6  344  63 I25
stroke6  344  62 I25
stroke6  345  60 I25
stroke6  345  59 I25
stroke6  345  57 I25
stroke6  345  54 I25
stroke6  345  52 I25
stroke6  345  50 I25
stroke6  344  47 I25
stroke6  344  45 I25
stroke6  344  42 I25
stroke6  343  40 I25
stroke6  343  37 I25
stroke6  343  35 I25
stroke6  343  32 I25
stroke6  342  29 I25
stroke6  342  27 I25
stroke6  342  24 I25
stroke6  342  21 I25
stroke6  342  19 I25
stroke6  342  16 I25
stroke6  342  14 I25
stroke6  342  12 I25
stroke6  342  11 I25
stroke6  341  9 I25
stroke6  341  8 I25
stroke6  341  7 I25
stroke6  341  6 I25
stroke6  341  7 I25
stroke6  341  8 I25
stroke6  341  9 I25
stroke6  342  10 I25
stroke6  342  11 I25
stroke6  342  12 I25
stroke6  343  14 I25
stroke6  343  15 I25
stroke6  344  17 I25
stroke6  345  19 I25
stroke6  346  21 I25
stroke6  347  23 I25
stroke6  348  24 I25
stroke6  349  25 I25
stroke6  351  26 I25
stroke6  352  27 I25
stroke6  353  27 I25
stroke6  354  28 I25
stroke6  355  28 I25
stroke6  357  28 I25
stroke6  358  28 I25
stroke6  359  28 I25
stroke6  361  27 I25
stroke6  362  27 I25
stroke6  364  27 I25
stroke6  365  26 I25
stroke6  366  25 I25
stroke6  368  24 I25
stroke6  369  23 I25
stroke6  370  22 I25
stroke6  371  21 I25
stroke6  372  19 I25
stroke6  372  18 I25
stroke6  373  17 I25
stroke6  373  16 I25
stroke6  374  15 I25
stroke6  374  13 I25
stroke6  374  12 I25
stroke6  373  11 I25
stroke6  373  10 I25
stroke6  373  9 I25
stroke6  372  8 I25
stroke6  372  7 I25
stroke6  371  6 I25
stroke6  370  6 I25
stroke6  370  5 I25
stroke6  369  5 I25
stroke6  368  5 I25
stroke6  367  5 I25
stroke6  367  4 I25
stroke6  366  4 I25
stroke6  365  4 I25
stroke6  365  5 I25
stroke6  364  6 I25
stroke6  364  7 I25
stroke6  363  8 I25
stroke6  363  9 I25
stroke6  363  10 I25
stroke6  363  11 I25
stroke6  363  13 I25
stroke6  364  15 I25
stroke6  364  17 I25
stroke6  364  19 I25
stroke6  364  22 I25
stroke6  364  24 I25
stroke6  364  27 I25
stroke6  364  30 I25
stroke6  364  33 I25
stroke6  365  36 I25
stroke6  365  38 I25
stroke6  365  41 I25
stroke6  365  43 I25
stroke6  365  45 I25
stroke6  365  48 I25
stroke6  365  50 I25
stroke6  366  52 I25
stroke6  366  55 I25
stroke6  366  57 I25
stroke6  366  59 I25
stroke6  366  61 I25
stroke6  366  62 I25
stroke6  366  63 I25
stroke6  366  64 I25
stroke6  365  64 I25
stroke6  365  63 I25
