stroke1  162  86 B9
stroke1  163  86 I9
stroke1  162  86 I9
stroke1  161  85 I9
stroke1  160  84 I9
stroke1  159  83 I9
stroke1  157  82 I9
stroke1  155  80 I9
stroke1  152  79 I9
stroke1  150  78 I9
stroke1  148  77 I9
stroke1  145  76 I9
stroke1  144  76 I9
stroke1  143  75 I9
stroke1  142  75 I9
stroke1  142  76 I9
stroke1  142  77 I9
stroke1  142  79 I9
stroke1  144  80 I9
stroke1  145  82 I9
stroke1  147  84 I9
stroke1  149  86 I9
stroke1  151  87 I9
stroke1  152  88 I9
stroke1  154  89 I9
stroke1  155  89 I9
stroke1  157  89 I9
stroke1  157  88 I9
stroke1  158  86 I9
stroke1  157  85 I9
stroke1  157  83 I9
stroke1  156  80 I9
stroke1  155  77 I9
stroke1  154  74 I9
stroke1  152  71 I9
stroke1  151  67 I9
stroke1  150  64 I9
stroke1  149  61 I9
stroke1  148  58 I9
stroke1  147  55 I9
stroke1  147  53 I9
stroke1  147  52 I9
stroke1  147  51 I9
stroke1  147  50 I9
stroke1  147  49 I9
stroke1  147  50 I9
stroke1  148  50 I9
stroke1  149  51 I9
stroke1  150  52 I9
stroke1  152  54 I9
stroke1  154  56 I9
stroke1  158  58 I9
stroke1  161  60 I9
stroke1  166  63 I9
stroke1  170  64 I9
stroke1  174  66 I9
stroke1  178  67 I9
stroke1  182  67 I9
stroke1  185  66 I9
stroke1  187  65 I9
stroke1  189  63 I9
stroke1  190  60 I9
stroke1  190  58 I9
stroke1  190  56 I9
stroke1  190  54 I9
stroke1  189  52 I9
stroke1  188  50 I9
stroke1  187  50 I9
stroke1  186  50 I9
stroke1  185  50 I9
stroke1  183  52 I9
stroke1  182  54 I9
stroke1  181  57 I9
stroke1  180  60 I9
stroke1  180  64 I9
stroke1  179  67 I9
stroke1  178  71 I9
stroke1  178  76 I9
stroke1  178  80 I9
stroke1  178  84 I9
stroke1  178  88 I9
stroke1  178  91 I9
stroke1  178  94 I9
stroke1  179  97 I9
stroke1  179  99 I9
stroke1  179  101 I9
stroke1  179  102 I9
stroke1  179  103 I9
stroke1  179  104 I9
stroke1  180  105 I9
stroke1  180  106 I9
stroke1  179  107 I9
stroke1  178  108 I9
stroke1  177  109 I9
stroke1  175  109 I9
stroke1  173  109 I9
stroke1  170  110 I9
stroke1  167  110 I9
stroke1  163  109 I9
stroke1  159  109 I9
stroke1  156  108 I9
stroke1  152  107 I9
stroke1  148  105 I9
stroke1  145  103 I9
stroke1  142  100 I9
stroke1  139  96 I9
stroke1  137  93 I9
stroke1  136  89 I9
stroke1  136  86 I9
stroke1  136  83 I9
stroke2  182  34 B52
stroke2  179  32 I52
stroke2  177  31 I52
stroke2  174  30 I52
stroke2  171  29 I52
stroke2  169  28 I52
stroke2  167  27 I52
stroke2  166  27 I52
stroke2  165  27 I52
stroke2  165  28 I52
stroke2  167  29 I52
stroke2  168  30 I52
stroke2  170  30 I52
stroke2  172  31 I52
stroke2  174  30 I52
stroke2  176  29 I52
stroke2  178  28 I52
stroke2  180  25 I52
stroke2  181  22 I52
stroke2  181  19 I52
stroke2  182  15 I52
stroke2  181  11 I52
stroke2  181  7 I52
stroke2  180  4 I52
stroke2  180  2 I52
stroke2  179  0 I52
stroke3  219  50 B1
stroke3  218  50 I1
stroke3  218  49 I1
stroke3  217  48 I1
stroke3  216  47 I1
stroke3  215  46 I1
stroke3  214  46 I1
stroke3  213  46 I1
stroke3  212  47 I1
stroke3  212  48 I1
stroke3  212  50 I1
stroke3  213  52 I1
stroke3  213  55 I1
stroke3  213  58 I1
stroke3  214  61 I1
stroke3  215  64 I1
stroke3  216  67 I1
stroke3  218  70 I1
stroke3  220  74 I1
stroke3  222  77 I1
stroke3  224  80 I1
stroke3  226  83 I1
stroke3  229  85 I1
stroke3  231  87 I1
stroke3  232  88 I1
stroke3  233  89 I1
stroke3  234  90 I1
stroke3  235  90 I1
stroke3  235  91 I1
stroke3  234  91 I1
stroke3  233  91 I1
stroke3  233  90 I1
stroke3  232  90 I1
stroke3  230  90 I1
stroke3  229  90 I1
stroke3  227  89 I1
stroke3  225  89 I1
stroke3  223  88 I1
stroke3  221  88 I1
stroke3  219  88 I1
stroke3  217  87 I1
stroke3  215  87 I1
stroke3  214  86 I1
stroke3  213  86 I1
stroke3  212  86 I1
stroke3  211  86 I1
stroke3  211  87 I1
stroke3  212  88 I1
stroke3  212  89 I1
stroke3  213  90 I1
stroke3  215  92 I1
stroke3  216  95 I1
stroke3  218  97 I1
stroke3  220  99 I1
stroke3  222  101 I1
stroke3  225  103 I1
stroke3  227  105 I1
stroke3  229  106 I1
stroke3  232  107 I1
stroke3  234  108 I1
stroke3  237  108 I1
stroke3  240  108 I1
stroke3  242  107 I1
stroke3  245  107 I1
stroke3  248  107 I1
stroke3  250  106 I1
stroke3  253  105 I1
stroke3  255  105 I1
stroke3  257  104 I1
stroke3  258  104 I1
stroke3  259  103 I1
stroke3  260  103 I1
stroke3  260  102 I1
stroke3  261  101 I1
stroke3  261  99 I1
stroke3  261  98 I1
stroke3  261  96 I1
stroke3  261  93 I1
stroke3  261  90 I1
stroke3  261  87 I1
stroke3  261  83 I1
stroke3  261  79 I1
stroke3  260  74 I1
stroke3  260  70 I1
stroke3  260  66 I1
stroke3  260  63 I1
stroke3  260  60 I1
stroke3  259  57 I1
stroke3  259  56 I1
stroke3  259  55 I1
stroke4  286  90 B54
stroke4  286  92 I54
stroke4  286  93 I54
stroke4  285  94 I54
stroke4  285  96 I54
stroke4  285  97 I54
stroke4  285  99 I54
stroke4  285  100 I54
stroke4  286  101 I54
stroke4  286  102 I54
stroke4  286  101 I54
stroke4  286  99 I54
stroke4  286  96 I54
stroke4  285  92 I54
stroke4  285  88 I54
stroke4  284  83 I54
stroke4  283  78 I54
stroke4  282  73 I54
stroke4  282  69 I54
stroke4  281  64 I54
stroke4  282  60 I54
stroke4  282  57 I54
stroke4  283  54 I54
stroke4  284  53 I54
stroke4  286  52 I54
stroke4  288  52 I54
stroke4  291  53 I54
stroke4  293  55 I54
stroke4  296  57 I54
stroke4  298  59 I54
stroke4  300  62 I54
stroke4  301  64 I54
stroke4  301  66 I54
stroke4  300  67 I54
stroke4  299  67 I54
stroke4  297  67 I54
stroke4  294  66 I54
stroke4  291  64 I54
stroke4  288  62 I54
stroke4  285  61 I54
stroke4  283  59 I54
stroke4  282  57 I54
stroke4  282  56 I54
stroke4  282  55 I54
stroke4  283  54 I54
stroke4  285  54 I54
stroke4  287  54 I54
stroke5  350  81 B9
stroke5  347  80 I9
stroke5  344  79 I9
stroke5  342  78 I9
stroke5  339  78 I9
stroke5  337  78 I9
stroke5  335  78 I9
stroke5  333  78 I9
stroke5  332  79 I9
stroke5  331  79 I9
stroke5  330  80 I9
stroke5  329  81 I9
stroke5  329  82 I9
stroke5  329  83 I9
stroke5  330  84 I9
stroke5  331  86 I9
stroke5  333  87 I9
stroke5  335  88 I9
stroke5  336  89 I9
stroke5  338  89 I9
stroke5  340  90 I9
stroke5  342  90 I9
stroke5  344  91 I9
stroke5  345  91 I9
stroke5  346  91 I9
stroke5  346  90 I9
stroke5  346  89 I9
stroke5  345  88 I9
stroke5  344  87 I9
stroke5  343  85 I9
stroke5  342  83 I9
stroke5  341  81 I9
stroke5  339  78 I9
stroke5  338  76 I9
stroke5  338  73 I9
stroke5  337  70 I9
stroke5  336  67 I9
stroke5  335  64 I9
stroke5  335  61 I9
stroke5  334  58 I9
stroke5  334  55 I9
stroke5  334  53 I9
stroke5  333  51 I9
stroke5  333  50 I9
stroke5  333  49 I9
stroke5  332  48 I9
stroke5  333  48 I9
stroke5  333  49 I9
stroke5  334  50 I9
stroke5  335  52 I9
stroke5  337  54 I9
stroke5  339  56 I9
stroke5  342  58 I9
stroke5  346  59 I9
stroke5  349  61 I9
stroke5  353  62 I9
stroke5  357  63 I9
stroke5  360  64 I9
stroke5  363  64 I9
stroke5  366  63 I9
stroke5  368  63 I9
stroke5  370  61 I9
stroke5  371  60 I9
stroke5  371  58 I9
stroke5  371  57 I9
stroke5  371  55 I9
stroke5  370  54 I9
stroke5  369  53 I9
stroke5  368  52 I9
stroke5  367  52 I9
stroke5  366  53 I9
stroke5  365  54 I9
stroke5  364  55 I9
stroke5  364  57 I9
stroke5  363  60 I9
stroke5  363  63 I9
stroke5  363  66 I9
stroke5  363  70 I9
stroke5  363  73 I9
stroke5  363  77 I9
stroke5  364  80 I9
stroke5  365  83 I9
stroke5  365  86 I9
stroke5  366  89 I9
stroke5  367  91 I9
stroke5  367  93 I9
stroke5  368  94 I9
stroke5  368  96 I9
stroke5  369  97 I9
stroke5  369  98 I9
stroke5  369  99 I9
stroke5  368  100 I9
stroke5  366  101 I9
stroke5  365  102 I9
stroke5  363  103 I9
stroke5  361  104 I9
stroke5  358  105 I9
stroke5  354  105 I9
stroke5  349  104 I9
stroke5  344  103 I9
stroke5  338  102 I9
stroke5  333  100 I9
stroke5  328  99 I9
stroke5  323  97 I9
stroke5  320  96 I9
stroke5  317  94 I9
stroke5  316  93 I9
stroke5  315  92 I9
stroke5  316  91 I9
stroke5  317  90 I9
stroke5  320  90 I9
stroke5  323  90 I9
stroke6  361  112 B48
stroke6  358  114 I48
stroke6  355  116 I48
stroke6  352  119 I48
stroke6  348  121 I48
stroke6  345  124 I48
stroke6  342  126 I48
stroke6  339  128 I48
stroke6  336  129 I48
stroke6  333  130 I48
stroke6  331  131 I48
stroke6  329  131 I48
stroke6  327  132 I48
stroke6  327  133 I48
stroke6  328  134 I48
stroke6  330  135 I48
stroke6  333  136 I48
stroke6  337  136 I48
stroke6  341  136 I48
stroke6  346  136 I48
stroke6  350  134 I48
stroke6  355  132 I48
stroke6  359  128 I48
stroke6  363  125 I48
stroke6  366  122 I48
stroke6  368  118 I48
stroke6  370  115 I48
stroke6  371  112 I48
stroke6  372  110 I48
stroke6  372  109 I48
stroke6  372  107 I48
stroke7  412  102 B25
stroke7  411  100 I25
stroke7  408  98 I25
stroke7  405  97 I25
stroke7  402  95 I25
stroke7  399  94 I25
stroke7  396  93 I25
stroke7  393  93 I25
stroke7  391  93 I25
stroke7  389  93 I25
stroke7  388  93 I25
stroke7  388  94 I25
stroke7  388  95 I25
stroke7  389  97 I25
stroke7  390  98 I25
stroke7  392  100 I25
stroke7  395  101 I25
stroke7  397  102 I25
stroke7  400  102 I25
stroke7  402  103 I25
stroke7  405  103 I25
stroke7  407  103 I25
stroke7  409  104 I25
stroke7  410  104 I25
stroke7  411  104 I25
stroke7  412  104 I25
stroke7  413  104 I25
stroke7  412  104 I25
stroke7  411  103 I25
stroke7  410  103 I25
stroke7  410  102 I25
stroke7  409  101 I25
stroke7  408  100 I25
stroke7  407  98 I25
stroke7  407  96 I25
stroke7  406  93 I25
stroke7  406  90 I25
stroke7  405  87 I25
stroke7  405  83 I25
stroke7  404  79 I25
stroke7  404  75 I25
stroke7  403  71 I25
stroke7  403  67 I25
stroke7  402  64 I25
stroke7  402  61 I25
stroke7  402  59 I25
stroke7  401  57 I25
stroke7  401  55 I25
stroke7  401  54 I25
stroke7  401  53 I25
stroke7  401  54 I25
stroke7  402  55 I25
stroke7  403  56 I25
stroke7  404  57 I25
stroke7  405  59 I25
stroke7  408  61 I25
stroke7  410  63 I25
stroke7  413  65 I25
stroke7  417  68 I25
stroke7  421  70 I25
stroke7  425  72 I25
stroke7  430  74 I25
stroke7  433  75 I25
stroke7  437  75 I25
stroke7  440  76 I25
stroke7  442  75 I25
stroke7  443  74 I25
stroke7  444  73 I25
stroke7  444  72 I25
stroke7  444  70 I25
stroke7  443  68 I25
stroke7  442  66 I25
stroke7  441  65 I25
stroke7  440  63 I25
stroke7  439  62 I25
stroke7  438  61 I25
stroke7  437  61 I25
stroke7  436  60 I25
stroke7  435  60 I25
stroke7  434  60 I25
stroke7  433  61 I25
stroke7  432  62 I25
stroke7  431  63 I25
stroke7  430  64 I25
stroke7  429  65 I25
stroke7  428  66 I25
stroke7  428  68 I25
stroke7  428  71 I25
stroke7  428  73 I25
stroke7  428  76 I25
stroke7  429  80 I25
stroke7  430  84 I25
stroke7  432  88 I25
stroke7  433  91 I25
stroke7  435  94 I25
stroke7  436  97 I25
stroke7  437  99 I25
stroke7  438  101 I25
stroke7  439  102 I25
stroke7  439  103 I25
stroke7  440  104 I25
stroke7  440  105 I25
stroke7  441  105 I25
stroke7  440  104 I25
stroke7  439  103 I25
stroke7  439  102 I25
stroke7  438  102 I25
