stroke1  53  51 B30
stroke1  52  50 I30
stroke1  51  49 I30
stroke1  50  48 I30
stroke1  48  46 I30
stroke1  46  43 I30
stroke1  44  41 I30
stroke1  41  39 I30
stroke1  39  38 I30
stroke1  36  37 I30
stroke1  35  36 I30
stroke1  33  36 I30
stroke1  32  36 I30
stroke1  32  37 I30
stroke1  32  38 I30
stroke1  32  39 I30
stroke1  33  41 I30
stroke1  34  44 I30
stroke1  36  46 I30
stroke1  38  49 I30
stroke1  40  51 I30
stroke1  43  53 I30
stroke1  45  55 I30
stroke1  46  57 I30
stroke1  48  58 I30
stroke1  49  59 I30
stroke1  50  59 I30
stroke1  51  59 I30
stroke1  52  59 I30
stroke1  52  58 I30
stroke1  52  57 I30
stroke1  52  56 I30
stroke1  52  54 I30
stroke1  51  51 I30
stroke1  50  48 I30
stroke1  50  44 I30
stroke1  48  40 I30
stroke1  47  35 I30
stroke1  46  31 I30
stroke1  45  26 I30
stroke1  44  22 I30
stroke1  43  19 I30
stroke1  43  16 I30
stroke1  42  13 I30
stroke1  42  12 I30
stroke1  42  11 I30
stroke1  42  10 I30
stroke1  42  9 I30
stroke1  42  10 I30
stroke1  43  11 I30
stroke1  43  12 I30
stroke1  44  13 I30
stroke1  45  15 I30
stroke1  45  16 I30
stroke1  46  18 I30
stroke1  47  20 I30
stroke1  48  23 I30
stroke1  50  26 I30
stroke1  52  29 I30
stroke1  53  32 I30
stroke1  55  36 I30
stroke1  57  39 I30
stroke1  58  42 I30
stroke1  59  45 I30
stroke1  60  46 I30
stroke1  61  48 I30
stroke1  62  49 I30
stroke1  62  50 I30
stroke1  63  50 I30
stroke1  64  49 I30
stroke1  65  47 I30
stroke1  66  45 I30
stroke1  67  42 I30
stroke1  69  39 I30
stroke1  71  35 I30
stroke1  73  32 I30
stroke1  75  28 I30
stroke1  77  24 I30
stroke1  78  21 I30
stroke1  80  17 I30
stroke1  81  15 I30
stroke1  82  12 I30
stroke1  83  11 I30
stroke1  84  10 I30
stroke1  84  9 I30
stroke1  85  10 I30
stroke1  85  11 I30
stroke1  85  13 I30
stroke1  85  16 I30
stroke1  85  19 I30
stroke1  86  23 I30
stroke1  86  27 I30
stroke1  86  32 I30
stroke1  86  36 I30
stroke1  87  41 I30
stroke1  87  44 I30
stroke1  87  47 I30
stroke1  87  50 I30
stroke1  87  51 I30
stroke1  87  53 I30
stroke1  87  54 I30
stroke1  86  55 I30
stroke1  85  54 I30
stroke1  84  53 I30
stroke2  126  15 B35
stroke2  126  16 I35
stroke2  126  17 I35
stroke2  125  18 I35
stroke2  125  19 I35
stroke2  124  19 I35
stroke2  122  20 I35
stroke2  121  20 I35
stroke2  120  21 I35
stroke2  119  21 I35
stroke2  118  21 I35
stroke2  117  21 I35
stroke2  116  20 I35
stroke2  116  19 I35
stroke2  116  18 I35
stroke2  116  16 I35
stroke2  117  15 I35
stroke2  119  13 I35
stroke2  120  11 I35
stroke2  121  10 I35
stroke2  123  8 I35
stroke2  124  7 I35
stroke2  125  6 I35
stroke2  126  6 I35
stroke2  127  6 I35
stroke2  128  5 I35
stroke2  129  5 I35
stroke2  129  6 I35
stroke2  129  7 I35
stroke2  130  9 I35
stroke2  130  10 I35
stroke2  130  13 I35
stroke2  130  15 I35
stroke2  130  17 I35
stroke2  130  20 I35
stroke2  130  22 I35
stroke2  130  24 I35
stroke2  130  27 I35
stroke2  131  29 I35
stroke2  131  30 I35
stroke2  131  32 I35
stroke2  131  33 I35
stroke2  131  34 I35
stroke2  131  35 I35
stroke2  131  36 I35
stroke2  131  37 I35
stroke2  131  38 I35
stroke2  130  39 I35
stroke2  130  40 I35
stroke2  129  40 I35
stroke2  129  41 I35
stroke2  128  41 I35
stroke2  128  42 I35
stroke2  127  42 I35
stroke2  127  43 I35
stroke2  126  44 I35
stroke2  125  44 I35
stroke2  124  44 I35
stroke2  122  45 I35
stroke2  120  45 I35
stroke2  117  46 I35
stroke2  115  46 I35
stroke2  112  46 I35
stroke2  109  46 I35
stroke2  106  46 I35
stroke2  103  46 I35
stroke2  101  46 I35
stroke2  99  46 I35
stroke2  97  46 I35
stroke2  96  46 I35
stroke2  96  47 I35
stroke2  97  47 I35
stroke2  98  48 I35
stroke2  100  50 I35
stroke2  102  51 I35
stroke2  104  52 I35
stroke2  107  53 I35
stroke2  110  54 I35
stroke2  113  55 I35
stroke2  115  55 I35
stroke2  118  55 I35
stroke2  120  54 I35
stroke2  122  54 I35
stroke2  123  53 I35
stroke2  124  53 I35
stroke2  126  53 I35
stroke2  127  53 I35
stroke2  128  53 I35
stroke2  129  53 I35
stroke2  130  54 I35
stroke2  131  55 I35
stroke2  132  56 I35
stroke2  133  57 I35
stroke2  134  57 I35
stroke2  135  57 I35
stroke2  136  57 I35
stroke2  137  56 I35
stroke3  155  52 B46
stroke3  154  53 I46
stroke3  153  53 I46
stroke3  152  54 I46
stroke3  151  54 I46
stroke3  150  54 I46
stroke3  149  53 I46
stroke3  148  53 I46
stroke3  148  52 I46
stroke3  147  51 I46
stroke3  147  50 I46
stroke3  148  49 I46
stroke3  149  49 I46
stroke3  151  48 I46
stroke3  152  48 I46
stroke3  154  48 I46
stroke3  156  49 I46
stroke3  158  49 I46
stroke3  160  50 I46
stroke3  161  50 I46
stroke3  162  51 I46
stroke3  155  35 I46
stroke3  153  32 I46
stroke3  151  30 I46
stroke3  150  28 I46
stroke3  149  27 I46
stroke3  148  26 I46
stroke3  147  25 I46
stroke3  147  24 I46
stroke3  146  24 I46
stroke3  146  23 I46
stroke3  147  23 I46
stroke3  147  22 I46
stroke3  148  22 I46
stroke3  149  22 I46
stroke3  150  22 I46
stroke3  151  22 I46
stroke3  152  23 I46
stroke3  154  24 I46
stroke3  156  26 I46
stroke3  158  27 I46
stroke3  160  29 I46
stroke3  162  30 I46
stroke3  164  31 I46
stroke4  211  11 B35
stroke4  212  12 I35
stroke4  212  13 I35
stroke4  211  14 I35
stroke4  211  15 I35
stroke4  210  15 I35
stroke4  209  16 I35
stroke4  207  17 I35
stroke4  206  17 I35
stroke4  204  17 I35
stroke4  203  17 I35
stroke4  201  16 I35
stroke4  200  15 I35
stroke4  199  14 I35
stroke4  198  13 I35
stroke4  198  11 I35
stroke4  198  9 I35
stroke4  198  8 I35
stroke4  199  6 I35
stroke4  200  5 I35
stroke4  202  4 I35
stroke4  204  3 I35
stroke4  206  3 I35
stroke4  208  3 I35
stroke4  210  3 I35
stroke4  212  3 I35
stroke4  213  4 I35
stroke4  214  5 I35
stroke4  215  6 I35
stroke4  216  8 I35
stroke4  217  10 I35
stroke4  218  13 I35
stroke4  218  15 I35
stroke4  219  18 I35
stroke4  219  20 I35
stroke4  220  23 I35
stroke4  221  25 I35
stroke4  222  28 I35
stroke4  222  29 I35
stroke4  223  31 I35
stroke4  223  32 I35
stroke4  223  33 I35
stroke4  223  34 I35
stroke4  223  35 I35
stroke4  223  36 I35
stroke4  223  37 I35
stroke4  222  38 I35
stroke4  222  39 I35
stroke4  221  39 I35
stroke4  220  40 I35
stroke4  219  41 I35
stroke4  218  41 I35
stroke4  216  42 I35
stroke4  214  43 I35
stroke4  212  43 I35
stroke4  210  44 I35
stroke4  208  44 I35
stroke4  205  44 I35
stroke4  203  44 I35
stroke4  200  44 I35
stroke4  197  44 I35
stroke4  194  44 I35
stroke4  192  43 I35
stroke4  190  43 I35
stroke4  189  43 I35
stroke4  187  42 I35
stroke4  186  42 I35
stroke4  186  43 I35
stroke4  186  44 I35
stroke4  187  45 I35
stroke4  189  46 I35
stroke4  190  48 I35
stroke4  192  49 I35
stroke4  194  51 I35
stroke4  197  52 I35
stroke4  200  54 I35
stroke4  203  55 I35
stroke4  205  56 I35
stroke4  208  56 I35
stroke4  210  57 I35
stroke4  212  57 I35
stroke4  214  57 I35
stroke4  216  57 I35
stroke4  217  56 I35
stroke4  219  56 I35
stroke4  220  56 I35
stroke4  222  57 I35
stroke4  223  57 I35
stroke4  225  57 I35
stroke4  226  58 I35
stroke4  227  58 I35
stroke4  228  58 I35
stroke4  229  59 I35
stroke4  230  59 I35
stroke4  231  59 I35
stroke5  237  49 B47
stroke5  236  48 I47
stroke5  235  47 I47
stroke5  234  47 I47
stroke5  234  48 I47
stroke5  234  49 I47
stroke5  235  50 I47
stroke5  236  52 I47
stroke5  238  53 I47
stroke5  240  54 I47
stroke5  242  55 I47
stroke5  244  56 I47
stroke5  246  56 I47
stroke5  249  56 I47
stroke5  251  56 I47
stroke5  254  56 I47
stroke5  257  56 I47
stroke5  259  56 I47
stroke5  261  56 I47
stroke5  263  56 I47
stroke5  264  56 I47
stroke5  265  56 I47
stroke5  266  56 I47
stroke5  267  56 I47
stroke5  267  55 I47
stroke5  268  55 I47
stroke5  268  54 I47
stroke5  268  52 I47
stroke5  268  50 I47
stroke5  267  48 I47
stroke5  267  45 I47
stroke5  267  41 I47
stroke5  267  37 I47
stroke5  266  33 I47
stroke5  266  28 I47
stroke5  265  24 I47
stroke5  264  20 I47
stroke5  264  15 I47
stroke5  263  12 I47
stroke5  262  9 I47
stroke5  262  6 I47
stroke5  262  4 I47
stroke5  262  3 I47
stroke5  262  2 I47
stroke5  262  1 I47
stroke5  263  2 I47
stroke5  264  4 I47
stroke6  308  42 B10
stroke6  306  41 I10
stroke6  304  40 I10
stroke6  301  40 I10
stroke6  299  39 I10
stroke6  296  39 I10
stroke6  294  39 I10
stroke6  291  40 I10
stroke6  289  40 I10
stroke6  288  41 I10
stroke6  287  42 I10
stroke6  286  43 I10
stroke6  286  45 I10
stroke6  287  46 I10
stroke6  288  48 I10
stroke6  290  49 I10
stroke6  292  51 I10
stroke6  295  52 I10
stroke6  297  53 I10
stroke6  300  54 I10
stroke6  302  55 I10
stroke6  303  55 I10
stroke6  305  55 I10
stroke6  305  56 I10
stroke6  306  55 I10
stroke6  306  54 I10
stroke6  306  53 I10
stroke6  305  52 I10
stroke6  305  50 I10
stroke6  304  48 I10
stroke6  303  46 I10
stroke6  302  43 I10
stroke6  301  40 I10
stroke6  300  36 I10
stroke6  298  32 I10
stroke6  296  28 I10
stroke6  294  24 I10
stroke6  292  20 I10
stroke6  290  17 I10
stroke6  289  14 I10
stroke6  287  11 I10
stroke6  286  10 I10
stroke6  285  9 I10
stroke6  285  8 I10
stroke6  284  7 I10
stroke6  285  8 I10
stroke6  285  9 I10
stroke6  286  10 I10
stroke6  287  11 I10
stroke6  289  12 I10
stroke6  291  13 I10
stroke6  294  13 I10
stroke6  296  13 I10
stroke6  299  13 I10
stroke6  302  13 I10
stroke6  304  12 I10
stroke6  307  10 I10
stroke6  309  9 I10
stroke6  311  8 I10
stroke6  313  6 I10
stroke6  315  5 I10
stroke6  316  5 I10
stroke6  317  4 I10
stroke6  318  4 I10
stroke6  319  5 I10
stroke6  320  7 I10
stroke6  321  8 I10
stroke6  321  10 I10
stroke6  322  13 I10
stroke6  322  15 I10
stroke6  322  18 I10
stroke6  322  21 I10
stroke6  322  24 I10
stroke6  321  26 I10
stroke6  321  29 I10
stroke6  320  31 I10
stroke6  320  34 I10
stroke6  319  36 I10
stroke6  317  38 I10
stroke6  316  39 I10
stroke6  314  41 I10
stroke6  313  42 I10
stroke6  311  43 I10
stroke6  310  44 I10
stroke6  309  45 I10
stroke6  308  45 I10
stroke6  308  46 I10
stroke6  308  47 I10
stroke6  310  48 I10
stroke6  312  49 I10
stroke6  316  51 I10
stroke6  319  53 I10
stroke6  323  55 I10
stroke6  327  57 I10
stroke6  331  59 I10
stroke6  334  60 I10
stroke6  338  62 I10
stroke6  341  63 I10
stroke6  343  64 I10
stroke6  346  65 I10
stroke6  348  66 I10
stroke6  349  66 I10
stroke6  351  67 I10
stroke6  351  66 I10
stroke7  331  6 B1
stroke7  330  5 I1
stroke7  330  4 I1
stroke7  329  3 I1
stroke7  329  2 I1
stroke7  328  2 I1
stroke7  328  1 I1
stroke7  327  1 I1
stroke7  327  2 I1
stroke7  327  3 I1
stroke7  327  5 I1
stroke7  328  6 I1
stroke7  328  9 I1
stroke7  329  11 I1
stroke7  330  14 I1
stroke7  332  17 I1
stroke7  333  20 I1
stroke7  335  23 I1
stroke7  337  25 I1
stroke7  338  28 I1
stroke7  340  30 I1
stroke7  341  32 I1
stroke7  342  34 I1
stroke7  343  35 I1
stroke7  344  35 I1
stroke7  344  36 I1
stroke7  343  36 I1
stroke7  342  36 I1
stroke7  340  35 I1
stroke7  338  35 I1
stroke7  336  35 I1
stroke7  333  35 I1
stroke7  331  35 I1
stroke7  329  35 I1
stroke7  327  36 I1
stroke7  325  36 I1
stroke7  324  36 I1
stroke7  323  36 I1
stroke7  323  37 I1
stroke7  323  38 I1
stroke7  324  39 I1
stroke7  325  41 I1
stroke7  327  43 I1
stroke7  330  45 I1
stroke7  333  47 I1
stroke7  336  49 I1
stroke7  340  51 I1
stroke7  344  53 I1
stroke7  347  54 I1
stroke7  350  55 I1
stroke7  353  55 I1
stroke7  356  56 I1
stroke7  358  56 I1
stroke7  360  56 I1
stroke7  362  56 I1
stroke7  363  56 I1
stroke7  364  56 I1
stroke7  365  55 I1
stroke7  366  55 I1
stroke7  366  54 I1
stroke7  367  53 I1
stroke7  367  52 I1
stroke7  368  50 I1
stroke7  368  47 I1
stroke7  369  44 I1
stroke7  369  40 I1
stroke7  369  36 I1
stroke7  369  32 I1
stroke7  369  28 I1
stroke7  368  23 I1
stroke7  368  19 I1
stroke7  368  16 I1
stroke7  367  12 I1
stroke7  368  10 I1
stroke7  368  8 I1
stroke7  368  6 I1
stroke7  369  5 I1
stroke7  370  5 I1
stroke7  371  5 I1
stroke8  417  16 B35
stroke8  416  17 I35
stroke8  415  18 I35
stroke8  414  18 I35
stroke8  413  19 I35
stroke8  411  20 I35
stroke8  410  21 I35
stroke8  408  21 I35
stroke8  407  21 I35
stroke8  405  22 I35
stroke8  404  21 I35
stroke8  403  21 I35
stroke8  402  20 I35
stroke8  402  19 I35
stroke8  402  18 I35
stroke8  402  17 I35
stroke8  403  15 I35
stroke8  404  13 I35
stroke8  405  12 I35
stroke8  406  10 I35
stroke8  407  8 I35
stroke8  408  7 I35
stroke8  409  6 I35
stroke8  410  6 I35
stroke8  410  5 I35
stroke8  411  5 I35
stroke8  411  6 I35
stroke8  411  7 I35
stroke8  412  9 I35
stroke8  412  11 I35
stroke8  412  13 I35
stroke8  413  16 I35
stroke8  414  19 I35
stroke8  414  22 I35
stroke8  415  25 I35
stroke8  415  28 I35
stroke8  415  30 I35
stroke8  415  33 I35
stroke8  415  35 I35
stroke8  414  37 I35
stroke8  413  39 I35
stroke8  411  41 I35
stroke8  409  43 I35
stroke8  406  45 I35
stroke8  403  46 I35
stroke8  400  46 I35
stroke8  397  46 I35
stroke8  394  47 I35
stroke8  391  47 I35
stroke8  389  47 I35
stroke8  387  47 I35
stroke8  386  48 I35
stroke8  387  48 I35
stroke8  388  49 I35
stroke8  390  50 I35
stroke8  392  51 I35
stroke8  394  53 I35
stroke8  397  54 I35
stroke8  400  55 I35
stroke8  403  56 I35
stroke8  406  56 I35
stroke8  409  57 I35
stroke8  412  58 I35
stroke8  415  58 I35
stroke8  417  58 I35
stroke8  419  58 I35
stroke9  437  21 B19
stroke9  438  21 I19
stroke9  439  21 I19
stroke9  440  21 I19
stroke9  442  21 I19
stroke9  443  20 I19
stroke9  444  20 I19
stroke9  446  19 I19
stroke9  447  19 I19
stroke9  448  18 I19
stroke9  449  16 I19
stroke9  450  15 I19
stroke9  450  13 I19
stroke9  449  11 I19
stroke9  448  9 I19
stroke9  447  7 I19
stroke9  446  6 I19
stroke9  444  5 I19
stroke9  442  4 I19
stroke9  441  4 I19
stroke9  439  4 I19
stroke9  438  5 I19
stroke9  437  6 I19
stroke9  436  7 I19
stroke9  435  8 I19
stroke9  435  10 I19
stroke9  435  12 I19
stroke9  436  14 I19
stroke9  436  17 I19
stroke9  437  19 I19
stroke9  438  22 I19
stroke9  440  24 I19
stroke9  441  27 I19
stroke9  443  29 I19
stroke9  444  32 I19
stroke9  446  34 I19
stroke9  447  35 I19
stroke9  449  36 I19
stroke9  450  37 I19
stroke9  451  38 I19
stroke9  452  38 I19
stroke9  453  38 I19
stroke9  453  37 I19
stroke9  454  37 I19
stroke9  454  36 I19
stroke9  453  36 I19
stroke9  453  35 I19
stroke9  451  35 I19
stroke9  450  35 I19
stroke9  448  35 I19
stroke9  446  35 I19
stroke9  443  35 I19
stroke9  441  36 I19
stroke9  438  36 I19
stroke9  436  37 I19
stroke9  435  38 I19
stroke9  434  40 I19
stroke9  434  42 I19
stroke9  434  44 I19
stroke9  435  46 I19
stroke9  437  48 I19
stroke9  440  51 I19
stroke9  442  53 I19
stroke9  445  54 I19
stroke9  448  55 I19
stroke9  451  56 I19
stroke9  454  57 I19
stroke9  457  57 I19
stroke9  460  57 I19
stroke9  463  57 I19
stroke9  465  57 I19
stroke9  468  56 I19
stroke9  469  56 I19
stroke9  471  55 I19
stroke9  472  54 I19
stroke9  473  53 I19
stroke9  474  51 I19
stroke9  474  49 I19
stroke9  474  46 I19
stroke9  474  44 I19
stroke9  474  41 I19
stroke9  474  37 I19
stroke9  473  34 I19
stroke9  472  30 I19
stroke9  470  26 I19
stroke9  469  22 I19
stroke9  467  18 I19
stroke9  466  15 I19
stroke9  465  12 I19
stroke9  464  9 I19
stroke9  463  8 I19
stroke9  462  7 I19
stroke9  462  6 I19
stroke9  463  6 I19
stroke9  464  7 I19
stroke9  466  8 I19
stroke9  468  9 I19
stroke9  471  10 I19
stroke9  474  12 I19
stroke9  478  13 I19
stroke9  482  13 I19
stroke9  486  14 I19
stroke9  489  14 I19
stroke9  492  13 I19
stroke9  495  12 I19
stroke9  497  11 I19
stroke9  498  9 I19
stroke9  498  8 I19
stroke9  498  6 I19
stroke9  497  5 I19
stroke9  496  4 I19
stroke9  495  4 I19
stroke9  493  4 I19
stroke9  492  5 I19
stroke9  490  7 I19
stroke9  489  9 I19
stroke9  488  12 I19
stroke9  487  15 I19
stroke9  486  18 I19
stroke9  486  22 I19
stroke9  486  26 I19
stroke9  487  30 I19
stroke9  488  34 I19
stroke9  488  37 I19
stroke9  489  40 I19
stroke9  490  42 I19
stroke9  491  44 I19
stroke9  492  46 I19
stroke9  493  47 I19
stroke9  494  48 I19
stroke9  495  49 I19
stroke10  494  66 B49
stroke10  491  69 I49
stroke10  487  73 I49
stroke10  482  76 I49
stroke10  477  80 I49
stroke10  473  83 I49
stroke10  469  86 I49
stroke10  465  89 I49
stroke10  462  92 I49
stroke10  460  93 I49
stroke10  458  95 I49
stroke10  458  96 I49
stroke10  458  97 I49
stroke10  459  97 I49
stroke10  461  96 I49
stroke10  464  94 I49
stroke10  467  92 I49
stroke10  470  89 I49
stroke10  473  86 I49
stroke10  477  83 I49
stroke10  480  79 I49
stroke10  482  76 I49
stroke10  484  72 I49
stroke10  486  69 I49
stroke10  487  67 I49
stroke10  488  65 I49
stroke10  489  64 I49
stroke10  490  63 I49
stroke10  491  63 I49
stroke10  491  65 I49
stroke10  492  67 I49
stroke10  492  70 I49
stroke10  493  73 I49
stroke10  493  78 I49
stroke10  494  82 I49
stroke10  494  87 I49
stroke10  495  91 I49
stroke10  496  96 I49
stroke10  497  100 I49
stroke10  497  103 I49
stroke10  498  105 I49
stroke10  499  107 I49
stroke10  499  108 I49
stroke10  500  107 I49
stroke10  500  105 I49
stroke10  500  102 I49
stroke10  499  99 I49
stroke10  499  96 I49
stroke10  499  92 I49
stroke10  499  89 I49
stroke10  499  85 I49
stroke10  498  82 I49
stroke11  520  48 B34
stroke11  519  47 I34
stroke11  517  46 I34
stroke11  516  45 I34
stroke11  515  45 I34
stroke11  515  44 I34
stroke11  515  43 I34
stroke11  516  44 I34
stroke11  518  44 I34
stroke11  520  45 I34
stroke11  522  47 I34
stroke11  524  48 I34
stroke11  526  50 I34
stroke11  528  51 I34
stroke11  529  52 I34
stroke11  529  53 I34
stroke11  529  54 I34
stroke11  527  54 I34
stroke11  526  53 I34
stroke11  524  52 I34
stroke11  522  51 I34
stroke11  520  49 I34
stroke11  518  47 I34
stroke11  516  45 I34
stroke11  515  43 I34
stroke11  515  41 I34
stroke11  515  40 I34
stroke11  516  39 I34
stroke11  517  38 I34
stroke11  518  37 I34
stroke11  520  37 I34
stroke11  522  37 I34
stroke11  524  37 I34
stroke11  526  37 I34
stroke11  528  37 I34
stroke11  529  37 I34
stroke11  530  37 I34
stroke11  530  38 I34
stroke11  529  37 I34
stroke11  527  37 I34
stroke11  526  37 I34
stroke11  524  36 I34
stroke11  521  35 I34
stroke11  518  33 I34
stroke11  516  31 I34
stroke11  513  29 I34
stroke11  510  27 I34
stroke11  508  24 I34
stroke11  506  22 I34
stroke11  505  20 I34
stroke11  505  18 I34
stroke11  506  16 I34
stroke11  507  14 I34
stroke11  510  12 I34
stroke11  513  10 I34
stroke11  516  9 I34
stroke11  520  7 I34
stroke11  524  6 I34
stroke11  528  6 I34
stroke11  532  5 I34
stroke11  535  5 I34
stroke11  538  6 I34
stroke11  541  8 I34
stroke11  544  11 I34
stroke11  546  14 I34
stroke11  548  17 I34
stroke11  549  22 I34
stroke11  550  26 I34
stroke11  551  31 I34
stroke11  551  36 I34
stroke11  552  40 I34
stroke11  552  44 I34
stroke11  553  47 I34
stroke11  553  49 I34
stroke11  554  51 I34
stroke11  554  52 I34
stroke11  554  53 I34
stroke11  555  53 I34
stroke11  556  52 I34
stroke11  556  51 I34
stroke11  557  50 I34
stroke12  569  9 B1
stroke12  568  6 I1
stroke12  566  4 I1
stroke12  565  3 I1
stroke12  565  2 I1
stroke12  564  1 I1
stroke12  564  0 I1
stroke12  563  0 I1
stroke12  563  1 I1
stroke12  563  2 I1
stroke12  562  3 I1
stroke12  563  4 I1
stroke12  563  5 I1
stroke12  563  7 I1
stroke12  564  9 I1
stroke12  565  11 I1
stroke12  565  13 I1
stroke12  566  15 I1
stroke12  568  17 I1
stroke12  569  19 I1
stroke12  570  21 I1
stroke12  571  23 I1
stroke12  573  26 I1
stroke12  574  28 I1
stroke12  576  31 I1
stroke12  578  33 I1
stroke12  580  35 I1
stroke12  582  37 I1
stroke12  584  39 I1
stroke12  585  41 I1
stroke12  587  42 I1
stroke12  588  43 I1
stroke12  589  44 I1
stroke12  590  44 I1
stroke12  591  44 I1
stroke12  591  45 I1
stroke12  592  45 I1
stroke12  591  45 I1
stroke12  590  45 I1
stroke12  588  45 I1
stroke12  586  45 I1
stroke12  584  45 I1
stroke12  582  45 I1
stroke12  579  46 I1
stroke12  577  46 I1
stroke12  576  46 I1
stroke12  575  47 I1
stroke12  574  47 I1
stroke12  573  47 I1
stroke12  573  48 I1
stroke12  574  49 I1
stroke12  576  50 I1
stroke12  578  52 I1
stroke12  580  53 I1
stroke12  583  55 I1
stroke12  586  56 I1
stroke12  589  58 I1
stroke12  592  59 I1
stroke12  594  59 I1
stroke12  597  60 I1
stroke12  599  60 I1
stroke12  602  60 I1
stroke12  603  60 I1
stroke12  605  60 I1
stroke12  607  59 I1
stroke12  608  59 I1
stroke12  609  59 I1
stroke12  610  58 I1
stroke12  611  58 I1
stroke12  612  58 I1
stroke12  612  57 I1
stroke12  613  57 I1
stroke12  613  56 I1
stroke12  614  54 I1
stroke12  614  53 I1
stroke12  614  51 I1
stroke12  615  48 I1
stroke12  615  45 I1
stroke12  614  41 I1
stroke12  614  37 I1
stroke12  614  32 I1
stroke12  613  27 I1
stroke12  611  22 I1
stroke12  610  17 I1
stroke12  608  12 I1
stroke12  607  9 I1
stroke12  606  6 I1
stroke12  605  3 I1
stroke12  605  2 I1
stroke12  606  2 I1
stroke12  606  3 I1
stroke12  607  4 I1
stroke12  607  6 I1
stroke13  621  66 B48
stroke13  619  69 I48
stroke13  616  73 I48
stroke13  613  76 I48
stroke13  610  80 I48
stroke13  606  83 I48
stroke13  601  86 I48
stroke13  596  89 I48
stroke13  591  91 I48
stroke13  587  93 I48
stroke13  583  95 I48
stroke13  580  97 I48
stroke13  577  98 I48
stroke13  575  99 I48
stroke13  573  100 I48
stroke13  573  101 I48
stroke13  573  102 I48
stroke13  575  103 I48
stroke13  577  103 I48
stroke13  580  103 I48
stroke13  583  102 I48
stroke13  587  100 I48
stroke13  592  98 I48
stroke13  596  96 I48
stroke13  599  93 I48
stroke13  602  91 I48
stroke13  605  88 I48
stroke13  607  85 I48
stroke13  608  82 I48
stroke13  610  80 I48
stroke13  610  77 I48
stroke13  611  75 I48
stroke13  612  73 I48
stroke13  612  71 I48
stroke13  612  70 I48
stroke14  661  41 B8
stroke14  660  38 I8
stroke14  659  36 I8
stroke14  657  34 I8
stroke14  656  33 I8
stroke14  654  32 I8
stroke14  652  31 I8
stroke14  650  32 I8
stroke14  648  32 I8
stroke14  647  33 I8
stroke14  646  35 I8
stroke14  645  37 I8
stroke14  644  38 I8
stroke14  645  40 I8
stroke14  645  41 I8
stroke14  645  42 I8
stroke14  646  42 I8
stroke14  647  43 I8
stroke14  649  42 I8
stroke14  650  42 I8
stroke14  652  41 I8
stroke14  653  40 I8
stroke14  654  38 I8
stroke14  655  36 I8
stroke14  655  34 I8
stroke14  656  31 I8
stroke14  656  29 I8
stroke14  656  25 I8
stroke14  655  22 I8
stroke14  655  19 I8
stroke14  655  16 I8
stroke14  655  13 I8
stroke14  655  10 I8
stroke14  655  7 I8
stroke14  655  5 I8
stroke14  655  4 I8
stroke14  655  3 I8
stroke14  655  2 I8
stroke14  656  2 I8
stroke14  656  3 I8
stroke14  657  4 I8
stroke14  657  6 I8
stroke14  658  8 I8
stroke14  658  11 I8
stroke14  659  14 I8
stroke14  659  18 I8
stroke14  660  22 I8
stroke14  660  26 I8
stroke14  661  30 I8
stroke14  662  34 I8
stroke14  663  38 I8
stroke14  664  42 I8
stroke14  664  45 I8
stroke14  665  48 I8
stroke14  664  51 I8
stroke14  664  54 I8
stroke14  663  56 I8
stroke14  662  58 I8
stroke14  661  60 I8
stroke14  659  62 I8
stroke14  657  64 I8
stroke14  654  65 I8
stroke14  652  66 I8
stroke14  648  66 I8
stroke14  645  65 I8
stroke14  641  64 I8
stroke14  637  63 I8
stroke14  633  60 I8
stroke14  629  57 I8
stroke14  626  54 I8
stroke14  624  50 I8
stroke14  622  45 I8
stroke14  621  39 I8
stroke14  620  34 I8
stroke14  620  28 I8
stroke14  621  23 I8
stroke14  622  18 I8
stroke14  623  14 I8
stroke14  624  10 I8
