stroke1  223  4 B1
stroke1  223  5 I1
stroke1  223  6 I1
stroke1  223  7 I1
stroke1  223  8 I1
stroke1  224  9 I1
stroke1  224  11 I1
stroke1  224  13 I1
stroke1  224  15 I1
stroke1  225  18 I1
stroke1  226  21 I1
stroke1  226  24 I1
stroke1  228  28 I1
stroke1  229  31 I1
stroke1  230  34 I1
stroke1  231  38 I1
stroke1  232  41 I1
stroke1  233  43 I1
stroke1  234  45 I1
stroke1  234  45 I1
stroke1  234  47 I1
stroke1  234  48 I1
stroke1  234  49 I1
stroke1  233  50 I1
stroke1  233  51 I1
stroke1  231  51 I1
stroke1  230  51 I1
stroke1  228  51 I1
stroke1  226  51 I1
stroke1  224  51 I1
stroke1  222  51 I1
stroke1  219  51 I1
stroke1  217  51 I1
stroke1  215  50 I1
stroke1  213  51 I1
stroke1  212  51 I1
stroke1  211  51 I1
stroke1  210  51 I1
stroke1  209  51 I1
stroke1  210  51 I1
stroke1  210  52 I1
stroke1  211  53 I1
stroke1  212  54 I1
stroke1  214  55 I1
stroke1  216  56 I1
stroke1  218  57 I1
stroke1  221  58 I1
stroke1  223  58 I1
stroke1  226  59 I1
stroke1  229  59 I1
stroke1  233  60 I1
stroke1  236  60 I1
stroke1  240  60 I1
stroke1  245  60 I1
stroke1  249  60 I1
stroke1  253  60 I1
stroke1  256  60 I1
stroke1  259  59 I1
stroke1  262  59 I1
stroke1  264  58 I1
stroke1  265  56 I1
stroke1  266  55 I1
stroke1  267  53 I1
stroke1  268  51 I1
stroke1  268  49 I1
stroke1  268  47 I1
stroke1  268  44 I1
stroke1  267  41 I1
stroke1  267  38 I1
stroke1  267  35 I1
stroke1  266  32 I1
stroke1  266  28 I1
stroke1  266  25 I1
stroke1  266  21 I1
stroke1  266  18 I1
stroke1  266  15 I1
stroke1  266  13 I1
stroke1  266  11 I1
stroke1  266  9 I1
stroke1  266  7 I1
stroke1  266  5 I1
stroke1  266  4 I1
stroke1  266  3 I1
stroke1  266  2 I1
stroke1  266  1 I1
stroke1  266  0 I1
stroke1  267  0 I1
stroke1  267  1 I1
stroke1  267  2 I1
stroke1  267  3 I1
stroke1  267  4 I1
stroke2  308  12 B35
stroke2  307  13 I35
stroke2  306  13 I35
stroke2  305  14 I35
stroke2  304  14 I35
stroke2  302  14 I35
stroke2  301  14 I35
stroke2  299  14 I35
stroke2  298  13 I35
stroke2  296  13 I35
stroke2  295  12 I35
stroke2  295  11 I35
stroke2  295  10 I35
stroke2  295  9 I35
stroke2  295  8 I35
stroke2  296  8 I35
stroke2  297  7 I35
stroke2  298  7 I35
stroke2  300  6 I35
stroke2  302  7 I35
stroke2  304  7 I35
stroke2  306  7 I35
stroke2  308  8 I35
stroke2  310  9 I35
stroke2  312  10 I35
stroke2  313  11 I35
stroke2  315  13 I35
stroke2  316  15 I35
stroke2  316  17 I35
stroke2  317  19 I35
stroke2  317  22 I35
stroke2  317  25 I35
stroke2  316  27 I35
stroke2  315  30 I35
stroke2  313  32 I35
stroke2  311  34 I35
stroke2  308  36 I35
stroke2  305  38 I35
stroke2  301  39 I35
stroke2  297  41 I35
stroke2  293  42 I35
stroke2  290  43 I35
stroke2  287  44 I35
stroke2  284  45 I35
stroke2  282  45 I35
stroke2  281  46 I35
stroke2  280  47 I35
stroke2  279  47 I35
stroke2  279  48 I35
stroke2  279  49 I35
stroke2  280  50 I35
stroke2  280  51 I35
stroke2  281  52 I35
stroke2  282  53 I35
stroke2  284  54 I35
stroke2  285  55 I35
stroke2  288  56 I35
stroke2  290  56 I35
stroke2  292  57 I35
stroke2  295  58 I35
stroke2  297  58 I35
stroke2  300  58 I35
stroke2  302  58 I35
stroke2  304  57 I35
stroke2  306  56 I35
stroke2  308  55 I35
stroke2  310  54 I35
stroke2  312  53 I35
stroke2  314  51 I35
stroke2  316  50 I35
stroke2  318  49 I35
stroke2  320  48 I35
stroke2  321  48 I35
stroke2  323  47 I35
stroke2  325  47 I35
stroke2  326  47 I35
stroke2  328  48 I35
stroke2  329  48 I35
stroke2  330  49 I35
stroke2  331  51 I35
stroke2  332  52 I35
stroke2  334  54 I35
stroke2  335  56 I35
stroke2  336  59 I35
stroke2  338  61 I35
stroke2  340  64 I35
stroke2  342  66 I35
stroke2  343  68 I35
stroke2  344  69 I35
stroke2  346  70 I35
stroke2  346  71 I35
stroke2  347  72 I35
stroke2  347  73 I35
stroke2  348  73 I35
stroke2  349  74 I35
stroke2  350  75 I35
stroke2  349  75 I35
stroke3  340  89 B49
stroke3  341  89 I49
stroke3  340  89 I49
stroke3  339  90 I49
stroke3  337  90 I49
stroke3  335  91 I49
stroke3  332  92 I49
stroke3  329  93 I49
stroke3  326  94 I49
stroke3  321  94 I49
stroke3  316  95 I49
stroke3  310  95 I49
stroke3  303  96 I49
stroke3  296  96 I49
stroke3  289  96 I49
stroke3  283  96 I49
stroke3  277  97 I49
stroke3  272  97 I49
stroke3  268  97 I49
stroke3  265  98 I49
stroke3  262  98 I49
stroke3  261  99 I49
stroke3  260  99 I49
stroke3  261  100 I49
stroke3  261  101 I49
stroke3  263  103 I49
stroke3  265  104 I49
stroke3  269  106 I49
stroke3  273  108 I49
stroke3  277  109 I49
stroke3  283  111 I49
stroke3  289  112 I49
stroke3  295  113 I49
stroke3  301  113 I49
stroke3  306  113 I49
stroke3  312  113 I49
stroke3  316  112 I49
stroke3  321  111 I49
stroke3  325  109 I49
stroke3  329  107 I49
stroke3  333  105 I49
stroke3  336  103 I49
stroke3  338  101 I49
stroke3  340  98 I49
stroke3  342  96 I49
stroke3  344  95 I49
stroke3  345  94 I49
stroke3  346  93 I49
stroke3  347  92 I49
stroke3  347  91 I49
stroke3  348  91 I49
stroke3  348  92 I49
stroke3  349  94 I49
stroke3  349  95 I49
stroke3  350  97 I49
stroke3  351  99 I49
stroke3  352  101 I49
stroke3  353  103 I49
stroke3  354  105 I49
stroke3  355  106 I49
stroke3  356  108 I49
stroke3  357  109 I49
stroke3  357  110 I49
stroke3  358  111 I49
stroke3  358  112 I49
stroke4  352  136 B67
stroke4  352  137 I67
stroke4  352  138 I67
stroke4  353  139 I67
stroke4  353  140 I67
stroke4  353  142 I67
stroke4  354  144 I67
stroke4  355  145 I67
stroke4  356  147 I67
stroke4  358  149 I67
stroke4  360  150 I67
stroke4  361  152 I67
stroke4  363  153 I67
stroke4  365  153 I67
stroke4  367  154 I67
stroke4  368  154 I67
stroke4  369  153 I67
stroke4  370  152 I67
stroke4  371  150 I67
stroke4  372  149 I67
stroke4  373  147 I67
stroke4  373  145 I67
stroke4  374  144 I67
stroke4  374  142 I67
stroke4  375  141 I67
stroke4  376  140 I67
stroke4  377  140 I67
stroke4  378  141 I67
stroke4  380  142 I67
stroke4  382  143 I67
stroke4  384  145 I67
stroke4  386  146 I67
stroke4  389  148 I67
stroke4  391  149 I67
stroke4  393  150 I67
stroke4  394  151 I67
stroke4  395  151 I67
stroke4  396  151 I67
stroke4  395  150 I67
stroke4  395  149 I67
stroke4  394  147 I67
stroke4  393  146 I67
stroke4  392  144 I67
stroke4  392  143 I67
stroke4  392  142 I67
stroke4  392  141 I67
stroke4  394  141 I67
stroke4  396  142 I67
stroke4  398  143 I67
stroke4  401  145 I67
stroke4  405  147 I67
stroke4  409  149 I67
stroke4  413  151 I67
stroke4  417  153 I67
stroke4  421  155 I67
stroke4  424  157 I67
stroke4  427  158 I67
stroke4  429  159 I67
stroke4  431  160 I67
stroke4  432  160 I67
stroke4  433  161 I67
stroke4  434  160 I67
stroke4  433  159 I67
stroke5  385  39 B20
stroke5  385  38 I20
stroke5  384  38 I20
stroke5  383  37 I20
stroke5  382  37 I20
stroke5  380  37 I20
stroke5  379  36 I20
stroke5  377  36 I20
stroke5  374  36 I20
stroke5  372  37 I20
stroke5  370  37 I20
stroke5  367  37 I20
stroke5  365  37 I20
stroke5  363  38 I20
stroke5  362  39 I20
stroke5  360  39 I20
stroke5  359  40 I20
stroke5  359  41 I20
stroke5  358  41 I20
stroke5  359  42 I20
stroke5  359  43 I20
stroke5  360  44 I20
stroke5  361  44 I20
stroke5  362  45 I20
stroke5  363  45 I20
stroke5  365  45 I20
stroke5  367  45 I20
stroke5  369  45 I20
stroke5  371  44 I20
stroke5  373  44 I20
stroke5  375  42 I20
stroke5  377  41 I20
stroke5  378  40 I20
stroke5  380  39 I20
stroke5  381  37 I20
stroke5  381  35 I20
stroke5  382  33 I20
stroke5  381  30 I20
stroke5  381  28 I20
stroke5  380  25 I20
stroke5  379  22 I20
stroke5  378  20 I20
stroke5  376  18 I20
stroke5  374  16 I20
stroke5  372  14 I20
stroke5  370  13 I20
stroke5  368  11 I20
stroke5  366  11 I20
stroke5  364  10 I20
stroke5  362  10 I20
stroke5  360  11 I20
stroke5  358  11 I20
stroke5  355  12 I20
stroke5  353  14 I20
stroke5  350  15 I20
stroke5  348  17 I20
stroke5  347  20 I20
stroke5  346  23 I20
stroke5  345  26 I20
stroke5  345  29 I20
stroke5  345  32 I20
stroke5  346  35 I20
stroke5  348  38 I20
stroke5  350  40 I20
stroke5  353  43 I20
stroke5  356  46 I20
stroke5  360  48 I20
stroke5  364  50 I20
stroke5  369  51 I20
stroke5  374  52 I20
stroke5  379  52 I20
stroke5  383  52 I20
stroke5  387  52 I20
stroke5  391  50 I20
stroke5  395  49 I20
stroke5  399  47 I20
stroke5  402  45 I20
stroke5  404  42 I20
stroke5  406  39 I20
stroke5  408  36 I20
stroke5  409  33 I20
stroke5  409  30 I20
stroke5  410  26 I20
stroke5  410  23 I20
stroke5  410  20 I20
stroke5  409  17 I20
stroke5  409  14 I20
stroke5  409  12 I20
stroke5  409  10 I20
stroke5  408  8 I20
stroke5  408  7 I20
stroke5  408  5 I20
stroke5  408  4 I20
stroke5  409  5 I20
