stroke1  232  0 B40
stroke1  231  0 I40
stroke1  230  1 I40
stroke1  229  2 I40
stroke1  228  2 I40
stroke1  227  3 I40
stroke1  226  5 I40
stroke1  225  6 I40
stroke1  224  7 I40
stroke1  224  9 I40
stroke1  223  10 I40
stroke1  224  11 I40
stroke1  224  12 I40
stroke1  225  13 I40
stroke1  226  14 I40
stroke1  227  14 I40
stroke1  229  14 I40
stroke1  231  14 I40
stroke1  234  13 I40
stroke1  234  13 I40
stroke1  236  13 I40
stroke1  239  12 I40
stroke1  241  10 I40
stroke1  242  9 I40
stroke1  244  7 I40
stroke1  245  6 I40
stroke1  245  5 I40
stroke1  245  4 I40
stroke1  246  4 I40
stroke1  246  3 I40
stroke1  246  4 I40
stroke1  246  5 I40
stroke1  247  7 I40
stroke1  247  10 I40
stroke1  248  14 I40
stroke1  249  18 I40
stroke1  251  22 I40
stroke1  252  26 I40
stroke1  253  30 I40
stroke1  254  35 I40
stroke1  254  38 I40
stroke1  253  42 I40
stroke1  252  44 I40
stroke1  250  47 I40
stroke1  247  48 I40
stroke1  243  49 I40
stroke1  240  49 I40
stroke1  236  48 I40
stroke1  232  47 I40
stroke1  229  45 I40
stroke1  226  43 I40
stroke1  224  41 I40
stroke1  222  39 I40
stroke1  221  38 I40
stroke1  221  37 I40
stroke1  221  36 I40
stroke1  222  36 I40
stroke1  244  42 I40
stroke1  246  44 I40
stroke1  248  47 I40
stroke1  250  49 I40
stroke1  252  53 I40
stroke1  255  56 I40
stroke1  257  60 I40
stroke1  260  64 I40
stroke1  263  68 I40
stroke1  266  71 I40
stroke1  268  74 I40
stroke1  270  77 I40
stroke1  272  79 I40
stroke1  272  81 I40
stroke1  273  82 I40
stroke1  272  82 I40
stroke2  256  81 B56
stroke2  255  80 I56
stroke2  255  79 I56
stroke2  254  77 I56
stroke2  254  76 I56
stroke2  254  75 I56
stroke2  254  74 I56
stroke2  255  74 I56
stroke2  256  74 I56
stroke2  258  75 I56
stroke2  260  76 I56
stroke2  262  78 I56
stroke2  264  80 I56
stroke2  266  82 I56
stroke2  268  84 I56
stroke2  269  87 I56
stroke2  269  89 I56
stroke2  269  91 I56
stroke2  268  92 I56
stroke2  267  93 I56
stroke2  266  93 I56
stroke2  264  93 I56
stroke2  262  91 I56
stroke2  260  90 I56
stroke2  259  88 I56
stroke2  257  85 I56
stroke2  256  83 I56
stroke2  255  81 I56
stroke3  293  36 B47
stroke3  291  36 I47
stroke3  289  36 I47
stroke3  288  37 I47
stroke3  286  37 I47
stroke3  285  39 I47
stroke3  285  40 I47
stroke3  286  41 I47
stroke3  287  43 I47
stroke3  288  44 I47
stroke3  290  45 I47
stroke3  293  46 I47
stroke3  295  46 I47
stroke3  298  45 I47
stroke3  300  44 I47
stroke3  302  41 I47
stroke3  304  38 I47
stroke3  305  34 I47
stroke3  305  30 I47
stroke3  305  25 I47
stroke3  304  21 I47
stroke3  303  16 I47
stroke3  303  12 I47
stroke3  302  9 I47
stroke3  302  7 I47
stroke3  302  5 I47
stroke3  302  4 I47
stroke3  303  5 I47
stroke3  303  7 I47
stroke4  348  31 B41
stroke4  346  32 I41
stroke4  344  32 I41
stroke4  342  32 I41
stroke4  340  33 I41
stroke4  338  34 I41
stroke4  336  35 I41
stroke4  335  37 I41
stroke4  335  38 I41
stroke4  335  40 I41
stroke4  335  42 I41
stroke4  336  44 I41
stroke4  337  45 I41
stroke4  338  46 I41
stroke4  339  47 I41
stroke4  341  47 I41
stroke4  342  47 I41
stroke4  344  45 I41
stroke4  345  43 I41
stroke4  345  40 I41
stroke4  346  36 I41
stroke4  345  32 I41
stroke4  345  27 I41
stroke4  345  23 I41
stroke4  345  20 I41
stroke4  345  16 I41
stroke4  346  14 I41
stroke4  347  12 I41
stroke4  349  12 I41
stroke4  351  12 I41
stroke4  354  13 I41
stroke4  357  15 I41
stroke4  360  17 I41
stroke4  363  20 I41
stroke4  366  23 I41
stroke4  369  27 I41
stroke4  372  31 I41
stroke4  374  35 I41
stroke4  375  39 I41
stroke4  376  42 I41
stroke4  376  45 I41
stroke4  376  47 I41
stroke4  375  48 I41
stroke4  374  48 I41
stroke4  372  47 I41
stroke4  370  45 I41
stroke4  368  42 I41
stroke4  367  38 I41
stroke4  366  35 I41
stroke4  366  32 I41
stroke4  366  28 I41
stroke4  367  24 I41
stroke4  368  21 I41
stroke4  370  17 I41
stroke4  372  13 I41
stroke4  374  10 I41
stroke4  377  6 I41
stroke4  378  4 I41
stroke4  380  2 I41
stroke5  415  18 B35
stroke5  413  18 I35
stroke5  412  17 I35
stroke5  410  17 I35
stroke5  409  16 I35
stroke5  408  15 I35
stroke5  407  14 I35
stroke5  407  13 I35
stroke5  407  12 I35
stroke5  408  12 I35
stroke5  409  13 I35
stroke5  411  13 I35
stroke5  413  14 I35
stroke5  415  16 I35
stroke5  416  18 I35
stroke5  418  20 I35
stroke5  420  22 I35
stroke5  421  26 I35
stroke5  422  30 I35
stroke5  422  34 I35
stroke5  422  39 I35
stroke5  421  44 I35
stroke5  420  48 I35
stroke5  419  51 I35
stroke5  417  54 I35
stroke5  416  56 I35
stroke5  414  57 I35
stroke5  413  58 I35
stroke5  412  59 I35
stroke5  411  60 I35
stroke5  412  60 I35
stroke5  413  60 I35
stroke5  415  61 I35
stroke5  417  61 I35
stroke5  420  62 I35
stroke5  423  63 I35
stroke5  426  64 I35
stroke5  429  65 I35
stroke5  432  66 I35
stroke5  434  67 I35
stroke5  436  68 I35
stroke5  437  69 I35
stroke5  438  71 I35
stroke6  437  82 B45
stroke6  435  84 I45
stroke6  433  86 I45
stroke6  431  87 I45
stroke6  429  88 I45
stroke6  426  89 I45
stroke6  424  89 I45
stroke6  422  88 I45
stroke6  420  87 I45
stroke6  419  86 I45
stroke6  419  85 I45
stroke6  419  84 I45
stroke6  420  83 I45
stroke6  422  82 I45
stroke6  424  82 I45
stroke6  427  83 I45
stroke6  430  84 I45
stroke6  433  86 I45
stroke6  436  88 I45
stroke6  439  90 I45
stroke6  442  93 I45
stroke6  445  96 I45
stroke6  447  100 I45
stroke6  450  104 I45
stroke6  451  107 I45
stroke6  453  110 I45
stroke6  454  111 I45
stroke6  454  113 I45
stroke7  471  50 B26
stroke7  470  49 I26
stroke7  468  49 I26
stroke7  466  49 I26
stroke7  464  49 I26
stroke7  462  50 I26
stroke7  461  50 I26
stroke7  460  51 I26
stroke7  460  52 I26
stroke7  460  53 I26
stroke7  460  54 I26
stroke7  460  55 I26
stroke7  461  55 I26
stroke7  463  56 I26
stroke7  464  55 I26
stroke7  465  55 I26
stroke7  466  53 I26
stroke7  467  50 I26
stroke7  468  47 I26
stroke7  468  43 I26
stroke7  468  38 I26
stroke7  467  33 I26
stroke7  466  28 I26
stroke7  466  23 I26
stroke7  466  18 I26
stroke7  466  14 I26
stroke7  467  11 I26
stroke7  468  8 I26
stroke7  469  5 I26
stroke7  472  4 I26
stroke7  474  3 I26
stroke7  478  3 I26
stroke7  481  3 I26
stroke7  485  4 I26
stroke7  489  6 I26
stroke7  493  8 I26
stroke7  497  11 I26
stroke7  500  14 I26
stroke7  503  18 I26
stroke7  506  23 I26
stroke7  508  28 I26
stroke7  510  34 I26
stroke7  512  40 I26
stroke7  513  45 I26
stroke7  515  50 I26
stroke7  516  55 I26
stroke7  517  59 I26
stroke7  518  63 I26
stroke7  519  66 I26
stroke7  519  69 I26
stroke7  520  71 I26
stroke7  520  73 I26
