stroke1  80  55 B35
stroke1  79  56 I35
stroke1  78  56 I35
stroke1  77  57 I35
stroke1  76  57 I35
stroke1  74  57 I35
stroke1  73  56 I35
stroke1  71  56 I35
stroke1  70  55 I35
stroke1  69  54 I35
stroke1  68  53 I35
stroke1  68  52 I35
stroke1  68  51 I35
stroke1  69  50 I35
stroke1  71  51 I35
stroke1  73  52 I35
stroke1  76  54 I35
stroke1  79  56 I35
stroke1  82  60 I35
stroke1  82  60 I35
stroke1  85  63 I35
stroke1  88  67 I35
stroke1  90  70 I35
stroke1  91  74 I35
stroke1  91  77 I35
stroke1  90  81 I35
stroke1  89  84 I35
stroke1  87  86 I35
stroke1  85  88 I35
stroke1  83  89 I35
stroke1  81  89 I35
stroke1  80  90 I35
stroke1  79  90 I35
stroke1  78  90 I35
stroke1  78  91 I35
stroke1  79  91 I35
stroke1  81  91 I35
stroke1  83  92 I35
stroke1  86  94 I35
stroke1  88  95 I35
stroke1  91  97 I35
stroke1  94  99 I35
stroke1  96  102 I35
stroke1  99  104 I35
stroke1  100  107 I35
stroke1  101  110 I35
stroke1  102  113 I35
stroke1  101  116 I35
stroke2  100  119 B45
stroke2  98  121 I45
stroke2  96  122 I45
stroke2  93  123 I45
stroke2  91  123 I45
stroke2  89  123 I45
stroke2  88  123 I45
stroke2  87  122 I45
stroke2  87  121 I45
stroke2  88  120 I45
stroke2  89  120 I45
stroke2  91  120 I45
stroke2  94  120 I45
stroke2  96  121 I45
stroke2  99  122 I45
stroke2  102  125 I45
stroke2  104  127 I45
stroke2  107  130 I45
stroke2  110  134 I45
stroke2  112  138 I45
stroke2  115  142 I45
stroke2  117  147 I45
stroke2  120  151 I45
stroke2  122  156 I45
stroke2  124  160 I45
stroke2  125  163 I45
stroke2  127  165 I45
stroke2  127  167 I45
stroke2  128  168 I45
stroke3  151  64 B16
stroke3  150  65 I16
stroke3  150  66 I16
stroke3  149  66 I16
stroke3  149  67 I16
stroke3  150  68 I16
stroke3  150  67 I16
stroke3  151  66 I16
stroke3  152  65 I16
stroke3  152  63 I16
stroke3  152  60 I16
stroke3  152  58 I16
stroke3  151  56 I16
stroke3  151  54 I16
stroke3  150  53 I16
stroke3  149  52 I16
stroke3  149  51 I16
stroke3  148  51 I16
stroke3  148  52 I16
stroke3  148  53 I16
stroke3  148  55 I16
stroke3  149  58 I16
stroke3  151  61 I16
stroke3  152  65 I16
stroke3  154  68 I16
stroke3  156  72 I16
stroke3  157  76 I16
stroke3  158  79 I16
stroke3  158  82 I16
stroke3  157  85 I16
stroke3  155  87 I16
stroke3  153  89 I16
stroke3  150  90 I16
stroke3  148  91 I16
stroke3  145  92 I16
stroke3  143  93 I16
stroke3  141  94 I16
stroke3  139  94 I16
stroke3  138  95 I16
stroke3  138  96 I16
stroke3  138  97 I16
stroke3  139  97 I16
stroke3  140  98 I16
stroke3  142  99 I16
stroke3  145  100 I16
stroke3  148  102 I16
stroke3  152  104 I16
stroke3  157  106 I16
stroke3  162  108 I16
stroke3  167  111 I16
stroke3  172  112 I16
stroke3  176  113 I16
stroke3  179  113 I16
stroke4  169  38 B72
stroke4  168  35 I72
stroke4  166  32 I72
stroke4  165  30 I72
stroke4  163  27 I72
stroke4  161  24 I72
stroke4  159  21 I72
stroke4  156  18 I72
stroke4  153  15 I72
stroke4  149  12 I72
stroke4  144  9 I72
stroke4  139  7 I72
stroke4  134  6 I72
stroke4  130  6 I72
stroke4  126  6 I72
stroke4  124  6 I72
stroke4  122  7 I72
stroke4  121  7 I72
stroke4  120  8 I72
stroke4  120  9 I72
stroke4  121  9 I72
stroke4  122  10 I72
stroke4  124  10 I72
stroke4  126  10 I72
stroke4  129  11 I72
stroke4  132  11 I72
stroke4  136  11 I72
stroke4  140  12 I72
stroke4  145  14 I72
stroke4  150  16 I72
stroke4  156  19 I72
stroke4  161  23 I72
stroke4  167  26 I72
stroke5  231  72 B24
stroke5  227  70 I24
stroke5  223  67 I24
stroke5  220  63 I24
stroke5  218  60 I24
stroke5  216  57 I24
stroke5  215  54 I24
stroke5  215  52 I24
stroke5  215  51 I24
stroke5  217  50 I24
stroke5  219  50 I24
stroke5  222  51 I24
stroke5  225  53 I24
stroke5  229  55 I24
stroke5  232  57 I24
stroke5  235  60 I24
stroke5  237  63 I24
stroke5  239  66 I24
stroke5  239  69 I24
stroke5  239  73 I24
stroke5  237  76 I24
stroke5  235  79 I24
stroke5  232  82 I24
stroke5  229  85 I24
stroke5  226  87 I24
stroke5  223  89 I24
stroke5  220  91 I24
stroke5  218  92 I24
stroke5  216  93 I24
stroke5  215  93 I24
stroke5  215  94 I24
stroke5  215  95 I24
stroke5  217  96 I24
stroke5  220  97 I24
stroke5  223  99 I24
stroke5  228  100 I24
stroke5  232  102 I24
stroke5  237  103 I24
stroke5  242  104 I24
stroke5  247  104 I24
stroke5  251  103 I24
stroke5  254  102 I24
stroke5  256  100 I24
stroke5  258  96 I24
stroke6  258  72 B35
stroke6  257  68 I35
stroke6  257  64 I35
stroke6  258  60 I35
stroke6  258  58 I35
stroke6  260  56 I35
stroke6  261  55 I35
stroke6  263  55 I35
stroke6  265  55 I35
stroke6  267  56 I35
stroke6  269  58 I35
stroke6  271  59 I35
stroke6  273  61 I35
stroke6  274  64 I35
stroke6  275  66 I35
stroke6  275  69 I35
stroke6  275  73 I35
stroke6  275  76 I35
stroke6  276  79 I35
stroke6  276  82 I35
stroke6  277  85 I35
stroke6  277  88 I35
stroke6  278  90 I35
stroke6  278  91 I35
stroke6  279  93 I35
stroke6  280  93 I35
stroke6  280  94 I35
stroke6  281  93 I35
stroke6  282  92 I35
stroke6  283  91 I35
stroke6  284  89 I35
stroke6  284  86 I35
stroke7  284  83 B35
stroke7  285  79 I35
stroke7  285  75 I35
stroke7  285  71 I35
stroke7  286  67 I35
stroke7  286  64 I35
stroke7  287  61 I35
stroke7  289  59 I35
stroke7  290  57 I35
stroke7  292  57 I35
stroke7  294  57 I35
stroke7  296  58 I35
stroke7  297  59 I35
stroke7  298  61 I35
stroke7  299  63 I35
stroke7  300  66 I35
stroke7  300  69 I35
stroke7  300  73 I35
stroke7  301  76 I35
stroke7  301  79 I35
stroke7  301  83 I35
stroke7  302  85 I35
stroke7  303  88 I35
stroke7  304  90 I35
stroke7  305  92 I35
stroke7  307  94 I35
stroke7  309  96 I35
stroke7  311  98 I35
stroke7  313  99 I35
stroke7  315  100 I35
stroke7  317  101 I35
stroke7  319  102 I35
stroke8  349  83 B33
stroke8  348  84 I33
stroke8  346  86 I33
stroke8  345  87 I33
stroke8  345  88 I33
stroke8  344  89 I33
stroke8  345  89 I33
stroke8  345  90 I33
stroke8  346  89 I33
stroke8  347  89 I33
stroke8  349  87 I33
stroke8  351  85 I33
stroke8  352  82 I33
stroke8  354  78 I33
stroke8  354  75 I33
stroke8  355  71 I33
stroke8  354  66 I33
stroke8  353  62 I33
stroke8  352  58 I33
stroke8  350  55 I33
stroke8  349  52 I33
stroke8  347  51 I33
stroke8  345  50 I33
stroke8  343  49 I33
stroke8  341  50 I33
stroke8  339  51 I33
stroke8  338  53 I33
stroke8  338  55 I33
stroke8  338  57 I33
stroke8  339  58 I33
stroke8  340  60 I33
stroke8  342  60 I33
stroke8  344  61 I33
stroke8  347  61 I33
stroke8  350  60 I33
stroke8  353  60 I33
stroke8  356  59 I33
stroke8  359  57 I33
stroke8  362  56 I33
stroke8  364  54 I33
stroke8  366  52 I33
stroke8  367  51 I33
stroke8  368  50 I33
stroke8  369  49 I33
stroke8  369  48 I33
stroke8  369  49 I33
stroke8  370  51 I33
stroke8  371  54 I33
stroke8  373  57 I33
stroke8  376  61 I33
stroke8  378  66 I33
stroke8  381  71 I33
stroke8  384  76 I33
stroke8  387  81 I33
stroke8  390  85 I33
stroke8  392  89 I33
stroke8  393  92 I33
stroke8  395  95 I33
stroke8  395  97 I33
stroke8  395  98 I33
stroke9  426  70 B25
stroke9  426  71 I25
stroke9  425  73 I25
stroke9  424  75 I25
stroke9  423  77 I25
stroke9  423  79 I25
stroke9  422  81 I25
stroke9  423  84 I25
stroke9  424  86 I25
stroke9  425  87 I25
stroke9  427  89 I25
stroke9  429  89 I25
stroke9  431  88 I25
stroke9  433  86 I25
stroke9  435  84 I25
stroke9  436  81 I25
stroke9  436  77 I25
stroke9  436  73 I25
stroke9  436  70 I25
stroke9  436  67 I25
stroke9  436  64 I25
stroke9  436  63 I25
stroke9  437  61 I25
stroke9  437  60 I25
stroke9  438  59 I25
stroke9  440  59 I25
stroke9  442  59 I25
stroke9  444  59 I25
stroke9  446  59 I25
stroke9  449  59 I25
stroke9  452  59 I25
stroke9  455  59 I25
stroke9  458  59 I25
stroke9  460  58 I25
stroke9  461  58 I25
stroke9  462  56 I25
stroke9  462  55 I25
stroke9  461  54 I25
stroke9  460  53 I25
stroke9  458  52 I25
stroke9  456  52 I25
stroke9  454  53 I25
stroke9  452  54 I25
stroke9  451  57 I25
stroke9  451  60 I25
stroke9  452  64 I25
stroke9  453  69 I25
stroke9  455  74 I25
stroke9  458  80 I25
stroke9  461  85 I25
stroke9  464  90 I25
stroke9  468  94 I25
stroke9  470  98 I25
stroke9  472  100 I25
stroke9  474  102 I25
stroke9  475  103 I25
stroke9  475  102 I25
stroke9  475  100 I25
stroke10  434  31 B53
stroke10  431  27 I53
stroke10  428  23 I53
stroke10  426  20 I53
stroke10  425  16 I53
stroke10  424  13 I53
stroke10  424  10 I53
stroke10  425  7 I53
stroke10  425  5 I53
stroke10  427  3 I53
stroke10  428  1 I53
stroke10  430  0 I53
stroke10  431  0 I53
stroke10  433  0 I53
stroke10  435  2 I53
stroke10  438  4 I53
stroke10  440  7 I53
stroke10  443  11 I53
stroke10  445  16 I53
stroke10  448  21 I53
stroke10  450  26 I53
stroke11  513  54 B13
stroke11  512  53 I13
stroke11  510  53 I13
stroke11  507  53 I13
stroke11  505  54 I13
stroke11  502  55 I13
stroke11  500  57 I13
stroke11  498  60 I13
stroke11  497  63 I13
stroke11  496  67 I13
stroke11  496  71 I13
stroke11  498  76 I13
stroke11  500  81 I13
stroke11  503  85 I13
stroke11  507  89 I13
stroke11  510  92 I13
stroke11  514  94 I13
stroke11  518  95 I13
stroke11  521  95 I13
stroke11  524  95 I13
stroke11  526  92 I13
stroke11  528  89 I13
stroke11  529  85 I13
stroke11  529  81 I13
stroke11  529  76 I13
stroke11  530  72 I13
stroke11  530  69 I13
stroke11  530  66 I13
stroke11  531  64 I13
stroke11  532  62 I13
stroke11  533  61 I13
stroke11  535  61 I13
stroke11  537  62 I13
stroke11  540  63 I13
stroke11  543  65 I13
stroke11  547  67 I13
stroke11  550  70 I13
stroke11  553  73 I13
stroke11  557  76 I13
stroke11  559  78 I13
stroke11  561  80 I13
stroke11  563  82 I13
stroke11  564  83 I13
stroke11  563  81 I13
stroke11  560  79 I13
stroke12  526  32 B71
stroke12  523  26 I71
stroke12  520  20 I71
stroke12  518  16 I71
stroke12  517  13 I71
stroke12  517  11 I71
stroke12  518  10 I71
stroke12  520  9 I71
stroke12  523  10 I71
stroke12  527  11 I71
stroke12  532  12 I71
stroke12  537  14 I71
stroke12  543  17 I71
stroke12  548  19 I71
stroke12  553  21 I71
stroke12  558  24 I71
stroke12  561  25 I71
stroke12  564  27 I71
stroke12  566  28 I71
stroke12  568  29 I71
stroke12  569  29 I71
stroke12  569  30 I71
