stroke1  151  88 B27
stroke1  150  89 I27
stroke1  149  89 I27
stroke1  147  90 I27
stroke1  146  90 I27
stroke1  145  91 I27
stroke1  144  92 I27
stroke1  144  93 I27
stroke1  144  94 I27
stroke1  144  96 I27
stroke1  144  97 I27
stroke1  145  98 I27
stroke1  147  98 I27
stroke1  148  98 I27
stroke1  150  97 I27
stroke1  151  96 I27
stroke1  153  95 I27
stroke1  154  92 I27
stroke1  155  90 I27
stroke1  155  90 I27
stroke1  156  86 I27
stroke1  156  82 I27
stroke1  157  78 I27
stroke1  158  74 I27
stroke1  159  70 I27
stroke1  160  66 I27
stroke1  161  63 I27
stroke1  162  61 I27
stroke1  164  59 I27
stroke1  167  58 I27
stroke1  169  58 I27
stroke1  172  58 I27
stroke1  174  59 I27
stroke1  176  60 I27
stroke1  179  61 I27
stroke1  180  63 I27
stroke1  182  66 I27
stroke1  183  69 I27
stroke1  185  73 I27
stroke1  186  78 I27
stroke1  187  84 I27
stroke1  189  92 I27
stroke1  190  100 I27
stroke1  192  109 I27
stroke1  194  117 I27
stroke1  196  125 I27
stroke1  197  132 I27
stroke1  198  138 I27
stroke1  199  142 I27
stroke1  199  146 I27
stroke1  200  149 I27
stroke1  199  151 I27
stroke1  199  152 I27
stroke1  198  152 I27
stroke2  184  126 B45
stroke2  182  127 I45
stroke2  179  128 I45
stroke2  176  129 I45
stroke2  173  130 I45
stroke2  171  130 I45
stroke2  169  131 I45
stroke2  167  131 I45
stroke2  166  130 I45
stroke2  165  129 I45
stroke2  165  128 I45
stroke2  165  126 I45
stroke2  166  125 I45
stroke2  167  123 I45
stroke2  169  122 I45
stroke2  171  122 I45
stroke2  175  123 I45
stroke2  179  125 I45
stroke2  183  128 I45
stroke2  188  132 I45
stroke2  193  136 I45
stroke2  198  140 I45
stroke2  202  144 I45
stroke2  207  147 I45
stroke2  210  150 I45
stroke2  212  152 I45
stroke2  214  154 I45
stroke2  214  153 I45
stroke3  237  76 B8
stroke3  235  76 I8
stroke3  233  76 I8
stroke3  231  77 I8
stroke3  230  78 I8
stroke3  230  79 I8
stroke3  231  79 I8
stroke3  232  78 I8
stroke3  233  76 I8
stroke3  235  75 I8
stroke3  236  72 I8
stroke3  237  70 I8
stroke3  238  67 I8
stroke3  239  65 I8
stroke3  240  63 I8
stroke3  240  60 I8
stroke3  241  59 I8
stroke3  241  58 I8
stroke3  242  57 I8
stroke3  243  57 I8
stroke3  245  59 I8
stroke3  246  61 I8
stroke3  248  65 I8
stroke3  250  69 I8
stroke3  252  73 I8
stroke3  254  78 I8
stroke3  255  83 I8
stroke3  256  87 I8
stroke3  255  91 I8
stroke3  254  95 I8
stroke3  252  98 I8
stroke3  250  99 I8
stroke3  247  100 I8
stroke3  243  100 I8
stroke3  240  100 I8
stroke3  236  98 I8
stroke3  234  96 I8
stroke3  231  94 I8
stroke3  230  93 I8
stroke3  230  91 I8
stroke3  231  89 I8
stroke3  232  88 I8
stroke3  235  88 I8
stroke3  238  87 I8
stroke4  289  74 B8
stroke4  288  74 I8
stroke4  287  74 I8
stroke4  286  75 I8
stroke4  285  75 I8
stroke4  285  76 I8
stroke4  285  75 I8
stroke4  285  74 I8
stroke4  286  73 I8
stroke4  286  71 I8
stroke4  287  69 I8
stroke4  287  66 I8
stroke4  287  63 I8
stroke4  287  61 I8
stroke4  287  58 I8
stroke4  288  57 I8
stroke4  288  56 I8
stroke4  289  56 I8
stroke4  290  56 I8
stroke4  292  58 I8
stroke4  294  60 I8
stroke4  297  64 I8
stroke4  299  68 I8
stroke4  301  72 I8
stroke4  303  77 I8
stroke4  304  81 I8
stroke4  305  86 I8
stroke4  305  90 I8
stroke4  305  94 I8
stroke4  303  98 I8
stroke4  301  100 I8
stroke4  298  102 I8
stroke4  295  103 I8
stroke4  292  103 I8
stroke4  288  102 I8
stroke4  285  100 I8
stroke4  282  98 I8
stroke4  279  95 I8
stroke4  277  91 I8
stroke4  276  87 I8
stroke4  276  82 I8
stroke4  276  78 I8
stroke5  284  32 B52
stroke5  282  31 I52
stroke5  281  30 I52
stroke5  279  30 I52
stroke5  278  29 I52
stroke5  278  30 I52
stroke5  277  30 I52
stroke5  278  30 I52
stroke5  278  31 I52
stroke5  279  31 I52
stroke5  280  31 I52
stroke5  281  30 I52
stroke5  281  28 I52
stroke5  281  26 I52
stroke5  281  23 I52
stroke5  281  20 I52
stroke5  280  17 I52
stroke5  279  13 I52
stroke5  278  10 I52
stroke5  277  6 I52
stroke5  277  4 I52
stroke5  276  2 I52
stroke5  276  1 I52
stroke5  276  0 I52
stroke5  275  0 I52
stroke5  275  1 I52
stroke5  275  3 I52
stroke5  275  5 I52
stroke6  338  86 B26
stroke6  336  87 I26
stroke6  334  88 I26
stroke6  333  89 I26
stroke6  332  91 I26
stroke6  332  92 I26
stroke6  332  93 I26
stroke6  333  94 I26
stroke6  335  95 I26
stroke6  337  96 I26
stroke6  339  96 I26
stroke6  342  96 I26
stroke6  344  95 I26
stroke6  346  94 I26
stroke6  347  92 I26
stroke6  348  89 I26
stroke6  348  85 I26
stroke6  347  81 I26
stroke6  347  77 I26
stroke6  347  73 I26
stroke6  346  69 I26
stroke6  346  65 I26
stroke6  346  62 I26
stroke6  347  59 I26
stroke6  348  57 I26
stroke6  350  55 I26
stroke6  352  54 I26
stroke6  354  53 I26
stroke6  357  53 I26
stroke6  359  53 I26
stroke6  361  53 I26
stroke6  363  53 I26
stroke6  365  53 I26
stroke6  366  54 I26
stroke6  368  54 I26
stroke6  369  56 I26
stroke6  369  58 I26
stroke6  370  60 I26
stroke6  370  63 I26
stroke6  371  66 I26
stroke6  372  71 I26
stroke6  373  75 I26
stroke6  375  80 I26
stroke6  376  86 I26
stroke6  378  90 I26
stroke6  379  95 I26
stroke6  380  98 I26
stroke6  381  102 I26
stroke6  382  105 I26
stroke6  382  107 I26
stroke6  382  108 I26
stroke6  382  109 I26
stroke6  381  110 I26
stroke7  379  126 B45
stroke7  378  129 I45
stroke7  376  130 I45
stroke7  374  132 I45
stroke7  372  133 I45
stroke7  369  133 I45
stroke7  367  132 I45
stroke7  365  131 I45
stroke7  364  130 I45
stroke7  363  128 I45
stroke7  363  126 I45
stroke7  363  124 I45
stroke7  364  123 I45
stroke7  367  123 I45
stroke7  369  123 I45
stroke7  373  124 I45
stroke7  377  126 I45
stroke7  381  128 I45
stroke7  385  130 I45
stroke7  388  133 I45
stroke7  392  136 I45
stroke7  395  140 I45
stroke7  398  143 I45
stroke7  401  146 I45
stroke7  404  149 I45
stroke7  405  151 I45
stroke7  407  152 I45
stroke7  408  153 I45
stroke7  408  152 I45
stroke7  407  150 I45
stroke8  426  97 B25
stroke8  425  95 I25
stroke8  424  94 I25
stroke8  421  93 I25
stroke8  419  93 I25
stroke8  417  93 I25
stroke8  415  94 I25
stroke8  413  94 I25
stroke8  412  95 I25
stroke8  412  96 I25
stroke8  412  97 I25
stroke8  412  98 I25
stroke8  413  99 I25
stroke8  414  99 I25
stroke8  415  99 I25
stroke8  417  99 I25
stroke8  418  97 I25
stroke8  419  95 I25
stroke8  420  92 I25
stroke8  421  88 I25
stroke8  421  84 I25
stroke8  420  80 I25
stroke8  419  76 I25
stroke8  418  71 I25
stroke8  417  67 I25
stroke8  416  64 I25
stroke8  416  61 I25
stroke8  415  59 I25
stroke8  415  58 I25
stroke8  416  57 I25
stroke8  418  58 I25
stroke8  421  59 I25
stroke8  423  61 I25
stroke8  427  63 I25
stroke8  430  65 I25
stroke8  434  67 I25
stroke8  437  68 I25
stroke8  441  70 I25
stroke8  444  70 I25
stroke8  446  70 I25
stroke8  448  70 I25
stroke8  450  69 I25
stroke8  450  68 I25
stroke8  450  66 I25
stroke8  450  63 I25
stroke8  449  61 I25
stroke8  447  59 I25
stroke8  446  57 I25
stroke8  445  56 I25
stroke8  444  56 I25
stroke8  442  56 I25
stroke8  442  58 I25
stroke8  441  60 I25
stroke8  442  63 I25
stroke8  442  67 I25
stroke8  444  71 I25
stroke8  445  76 I25
stroke8  448  80 I25
stroke8  450  85 I25
stroke8  453  90 I25
stroke8  456  95 I25
stroke8  458  100 I25
stroke8  460  103 I25
stroke8  462  106 I25
stroke8  464  109 I25
stroke8  465  111 I25
stroke8  465  112 I25
stroke8  465  113 I25
