stroke1  366  0 B1
stroke1  365  0 I1
stroke1  365  1 I1
stroke1  364  3 I1
stroke1  364  5 I1
stroke1  364  7 I1
stroke1  364  11 I1
stroke1  364  14 I1
stroke1  365  18 I1
stroke1  365  22 I1
stroke1  366  27 I1
stroke1  367  32 I1
stroke1  368  37 I1
stroke1  368  41 I1
stroke1  369  46 I1
stroke1  369  49 I1
stroke1  369  52 I1
stroke1  368  54 I1
stroke1  367  55 I1
stroke1  365  56 I1
stroke1  363  55 I1
stroke1  361  55 I1
stroke1  358  54 I1
stroke1  355  54 I1
stroke1  353  53 I1
stroke1  351  53 I1
stroke1  350  53 I1
stroke1  349  53 I1
stroke1  349  54 I1
stroke1  351  56 I1
stroke1  353  57 I1
stroke1  356  59 I1
stroke1  360  60 I1
stroke1  364  62 I1
stroke1  369  64 I1
stroke1  374  65 I1
stroke1  379  66 I1
stroke1  384  65 I1
stroke1  388  64 I1
stroke1  392  62 I1
stroke1  395  59 I1
stroke1  398  56 I1
stroke1  400  51 I1
stroke1  401  47 I1
stroke1  402  42 I1
stroke1  403  37 I1
stroke1  403  32 I1
stroke1  403  27 I1
stroke1  403  23 I1
stroke1  403  20 I1
stroke1  403  17 I1
stroke1  403  15 I1
stroke1  403  13 I1
stroke1  403  12 I1
stroke1  403  11 I1
stroke1  404  11 I1
stroke1  405  11 I1
stroke1  406  12 I1
stroke1  407  13 I1
stroke2  439  21 B35
stroke2  437  19 I35
stroke2  435  17 I35
stroke2  433  16 I35
stroke2  432  15 I35
stroke2  431  14 I35
stroke2  432  15 I35
stroke2  433  16 I35
stroke2  435  18 I35
stroke2  437  20 I35
stroke2  438  23 I35
stroke2  440  26 I35
stroke2  441  29 I35
stroke2  442  31 I35
stroke2  442  34 I35
stroke2  441  37 I35
stroke2  439  39 I35
stroke2  437  42 I35
stroke2  434  43 I35
stroke2  430  45 I35
stroke2  425  46 I35
stroke2  421  46 I35
stroke2  417  47 I35
stroke2  413  48 I35
stroke2  410  49 I35
stroke2  408  50 I35
stroke2  406  52 I35
stroke2  406  53 I35
stroke2  407  55 I35
stroke2  409  57 I35
stroke2  411  59 I35
stroke2  414  61 I35
stroke2  418  63 I35
stroke2  422  65 I35
stroke2  427  66 I35
stroke2  431  68 I35
stroke2  435  69 I35
stroke2  439  70 I35
stroke2  443  72 I35
stroke2  447  73 I35
stroke2  450  74 I35
stroke2  452  75 I35
stroke2  454  76 I35
stroke2  455  76 I35
stroke3  430  85 B49
stroke3  425  86 I49
stroke3  420  88 I49
stroke3  414  89 I49
stroke3  409  90 I49
stroke3  404  92 I49
stroke3  400  94 I49
stroke3  396  95 I49
stroke3  393  97 I49
stroke3  391  99 I49
stroke3  391  100 I49
stroke3  391  102 I49
stroke3  393  104 I49
stroke3  395  105 I49
stroke3  398  106 I49
stroke3  402  105 I49
stroke3  407  105 I49
stroke3  411  103 I49
stroke3  416  101 I49
stroke3  421  99 I49
stroke3  426  96 I49
stroke3  430  94 I49
stroke3  434  92 I49
stroke3  437  91 I49
stroke3  440  90 I49
stroke3  441  89 I49
stroke3  443  89 I49
stroke3  443  90 I49
stroke3  443  91 I49
stroke3  443  92 I49
stroke3  443  94 I49
stroke3  443  96 I49
stroke3  444  99 I49
stroke3  444  102 I49
stroke3  445  105 I49
stroke3  446  109 I49
stroke3  447  112 I49
stroke3  448  115 I49
stroke3  449  117 I49
stroke3  450  119 I49
stroke3  451  120 I49
stroke3  451  121 I49
stroke3  452  121 I49
stroke3  453  121 I49
stroke3  453  120 I49
stroke3  454  119 I49
stroke3  454  118 I49
stroke4  449  139 B67
stroke4  448  141 I67
stroke4  447  143 I67
stroke4  446  145 I67
stroke4  446  147 I67
stroke4  447  148 I67
stroke4  448  150 I67
stroke4  449  150 I67
stroke4  450  151 I67
stroke4  452  151 I67
stroke4  453  150 I67
stroke4  454  149 I67
stroke4  454  148 I67
stroke4  454  146 I67
stroke4  454  145 I67
stroke4  453  144 I67
stroke4  451  143 I67
stroke4  449  142 I67
stroke4  447  141 I67
stroke4  446  141 I67
stroke4  444  141 I67
stroke4  442  142 I67
stroke4  441  143 I67
stroke4  441  144 I67
stroke4  441  146 I67
stroke4  442  148 I67
stroke4  443  150 I67
stroke4  445  153 I67
stroke4  447  155 I67
stroke4  450  157 I67
stroke4  452  158 I67
stroke4  455  159 I67
stroke4  457  160 I67
stroke4  459  160 I67
stroke4  461  159 I67
stroke4  463  158 I67
stroke4  464  157 I67
stroke4  465  156 I67
stroke4  466  155 I67
stroke4  467  155 I67
stroke4  468  155 I67
stroke4  469  155 I67
stroke4  471  156 I67
stroke4  473  157 I67
stroke4  474  158 I67
stroke4  476  159 I67
stroke4  478  160 I67
stroke4  479  160 I67
stroke4  480  161 I67
stroke4  481  160 I67
stroke4  481  158 I67
stroke4  481  157 I67
stroke4  481  155 I67
stroke4  481  154 I67
stroke4  482  153 I67
stroke4  482  152 I67
stroke4  483  152 I67
stroke4  484  152 I67
stroke4  485  152 I67
stroke4  487  153 I67
stroke4  489  154 I67
stroke4  491  156 I67
stroke4  493  157 I67
stroke4  495  159 I67
stroke4  498  161 I67
stroke4  500  162 I67
stroke4  502  164 I67
stroke4  504  165 I67
stroke4  506  166 I67
stroke4  508  166 I67
stroke5  497  43 B20
stroke5  494  44 I20
stroke5  490  45 I20
stroke5  487  46 I20
stroke5  485  47 I20
stroke5  483  49 I20
stroke5  482  51 I20
stroke5  481  53 I20
stroke5  482  55 I20
stroke5  483  56 I20
stroke5  484  58 I20
stroke5  486  58 I20
stroke5  489  58 I20
stroke5  495  55 I20
stroke5  497  52 I20
stroke5  499  49 I20
stroke5  501  46 I20
stroke5  502  42 I20
stroke5  502  38 I20
stroke5  501  33 I20
stroke5  500  29 I20
stroke5  498  25 I20
stroke5  495  22 I20
stroke5  492  19 I20
stroke5  489  17 I20
stroke5  485  15 I20
stroke5  482  15 I20
stroke5  479  16 I20
stroke5  476  18 I20
stroke5  473  20 I20
stroke5  471  24 I20
stroke5  469  28 I20
stroke5  467  33 I20
stroke5  466  37 I20
stroke5  466  42 I20
stroke5  467  47 I20
stroke5  469  52 I20
stroke5  471  56 I20
stroke5  474  61 I20
stroke5  478  65 I20
stroke5  483  68 I20
stroke5  487  71 I20
stroke5  492  73 I20
stroke5  498  73 I20
stroke5  503  73 I20
stroke5  508  72 I20
stroke5  512  69 I20
stroke5  515  65 I20
stroke5  518  61 I20
stroke5  521  56 I20
stroke5  522  51 I20
stroke5  523  45 I20
stroke5  523  39 I20
stroke5  523  34 I20
stroke5  522  29 I20
stroke5  520  24 I20
stroke5  519  20 I20
stroke5  517  17 I20
stroke5  516  14 I20
stroke5  515  13 I20
stroke5  515  12 I20
stroke5  515  13 I20
stroke5  516  15 I20
stroke5  517  17 I20
