stroke1  96  5 B40
stroke1  97  5 I40
stroke1  96  5 I40
stroke1  95  5 I40
stroke1  95  6 I40
stroke1  94  6 I40
stroke1  94  7 I40
stroke1  94  8 I40
stroke1  94  9 I40
stroke1  94  10 I40
stroke1  94  11 I40
stroke1  94  12 I40
stroke1  94  13 I40
stroke1  95  13 I40
stroke1  95  14 I40
stroke1  96  15 I40
stroke1  97  16 I40
stroke1  98  16 I40
stroke1  99  16 I40
stroke1  100  16 I40
stroke1  101  16 I40
stroke1  101  15 I40
stroke1  102  15 I40
stroke1  103  15 I40
stroke1  103  14 I40
stroke1  104  14 I40
stroke1  104  13 I40
stroke1  104  12 I40
stroke1  104  11 I40
stroke1  105  11 I40
stroke1  104  10 I40
stroke1  104  9 I40
stroke1  104  8 I40
stroke1  103  7 I40
stroke1  102  6 I40
stroke1  101  6 I40
stroke1  100  5 I40
stroke1  99  6 I40
stroke1  98  6 I40
stroke1  97  6 I40
stroke1  97  7 I40
stroke1  96  7 I40
stroke1  95  8 I40
stroke1  94  9 I40
stroke1  93  10 I40
stroke1  93  12 I40
stroke1  92  13 I40
stroke1  92  15 I40
stroke1  92  17 I40
stroke1  92  19 I40
stroke1  91  21 I40
stroke1  91  23 I40
stroke1  91  24 I40
stroke1  92  26 I40
stroke1  92  28 I40
stroke1  92  29 I40
stroke1  92  31 I40
stroke1  93  32 I40
stroke1  93  33 I40
stroke1  93  35 I40
stroke1  94  36 I40
stroke1  94  37 I40
stroke1  95  38 I40
stroke1  95  39 I40
stroke1  96  39 I40
stroke1  96  40 I40
stroke1  97  40 I40
stroke1  98  40 I40
stroke1  99  41 I40
stroke1  100  41 I40
stroke1  100  40 I40
stroke1  101  40 I40
stroke1  102  40 I40
stroke1  103  40 I40
stroke1  104  39 I40
stroke1  105  38 I40
stroke1  106  37 I40
stroke1  108  36 I40
stroke1  109  35 I40
stroke1  110  34 I40
stroke1  112  33 I40
stroke1  113  31 I40
stroke1  114  30 I40
stroke1  115  28 I40
stroke1  117  26 I40
stroke1  118  25 I40
stroke1  119  23 I40
stroke1  120  21 I40
stroke1  121  20 I40
stroke1  122  18 I40
stroke1  123  16 I40
stroke1  124  15 I40
stroke1  125  13 I40
stroke1  126  12 I40
stroke1  127  11 I40
stroke1  127  10 I40
stroke1  128  9 I40
stroke1  128  8 I40
stroke1  129  8 I40
stroke1  129  7 I40
stroke1  129  6 I40
stroke1  129  7 I40
stroke1  129  8 I40
stroke1  129  9 I40
stroke1  129  10 I40
stroke1  129  11 I40
stroke1  129  13 I40
stroke1  129  15 I40
stroke1  129  17 I40
stroke1  129  19 I40
stroke1  129  21 I40
stroke1  129  23 I40
stroke1  130  25 I40
stroke1  130  27 I40
stroke1  129  29 I40
stroke1  129  30 I40
stroke1  129  32 I40
stroke1  129  34 I40
stroke1  129  36 I40
stroke1  129  37 I40
stroke1  129  39 I40
stroke1  128  40 I40
stroke1  128  42 I40
stroke1  128  43 I40
stroke1  128  45 I40
stroke1  127  46 I40
stroke1  127  47 I40
stroke1  127  49 I40
stroke1  126  50 I40
stroke1  126  51 I40
stroke1  126  52 I40
stroke1  125  53 I40
stroke1  125  54 I40
stroke1  124  55 I40
stroke1  124  56 I40
stroke1  123  57 I40
stroke1  123  58 I40
stroke1  122  58 I40
stroke1  122  59 I40
stroke1  121  60 I40
stroke1  120  60 I40
stroke1  120  61 I40
stroke1  119  62 I40
stroke1  118  62 I40
stroke1  117  63 I40
stroke1  116  63 I40
stroke1  115  64 I40
stroke1  114  64 I40
stroke1  113  65 I40
stroke1  111  65 I40
stroke1  110  65 I40
stroke1  109  65 I40
stroke1  107  65 I40
stroke1  106  65 I40
stroke1  104  65 I40
stroke1  103  64 I40
stroke1  101  64 I40
stroke1  99  63 I40
stroke1  97  62 I40
stroke1  96  61 I40
stroke1  94  59 I40
stroke1  92  58 I40
stroke1  91  57 I40
stroke1  89  55 I40
stroke1  88  54 I40
stroke1  87  52 I40
stroke1  86  50 I40
stroke1  86  49 I40
stroke1  85  48 I40
stroke1  85  47 I40
stroke1  106  41 I40
stroke1  105  41 I40
stroke1  105  40 I40
stroke1  105  39 I40
stroke1  104  39 I40
stroke1  105  39 I40
stroke1  105  40 I40
stroke1  106  41 I40
stroke1  107  42 I40
stroke1  108  44 I40
stroke1  109  45 I40
stroke1  110  47 I40
stroke1  111  49 I40
stroke1  113  52 I40
stroke1  114  54 I40
stroke1  116  57 I40
stroke1  117  59 I40
stroke1  119  62 I40
stroke1  120  64 I40
stroke1  121  67 I40
stroke1  123  69 I40
stroke1  124  72 I40
stroke1  125  74 I40
stroke1  125  76 I40
stroke1  126  79 I40
stroke1  126  81 I40
stroke1  127  83 I40
stroke1  127  85 I40
stroke1  128  86 I40
stroke1  128  88 I40
stroke1  128  89 I40
stroke1  128  90 I40
stroke1  127  90 I40
stroke1  126  89 I40
stroke2  164  6 B22
stroke2  163  6 I22
stroke2  163  7 I22
stroke2  163  8 I22
stroke2  164  9 I22
stroke2  165  9 I22
stroke2  165  10 I22
stroke2  166  10 I22
stroke2  167  10 I22
stroke2  168  10 I22
stroke2  169  10 I22
stroke2  170  10 I22
stroke2  171  10 I22
stroke2  172  9 I22
stroke2  173  8 I22
stroke2  173  7 I22
stroke2  173  6 I22
stroke2  173  5 I22
stroke2  172  4 I22
stroke2  171  4 I22
stroke2  171  3 I22
stroke2  170  3 I22
stroke2  169  3 I22
stroke2  168  3 I22
stroke2  167  3 I22
stroke2  166  4 I22
stroke2  165  4 I22
stroke2  165  5 I22
stroke2  164  5 I22
stroke2  164  6 I22
stroke2  163  7 I22
stroke2  163  8 I22
stroke2  163  10 I22
stroke2  162  11 I22
stroke2  162  13 I22
stroke2  162  15 I22
stroke2  163  17 I22
stroke2  163  19 I22
stroke2  163  21 I22
stroke2  163  24 I22
stroke2  163  26 I22
stroke2  164  28 I22
stroke2  164  31 I22
stroke2  164  33 I22
stroke2  164  35 I22
stroke2  164  37 I22
stroke2  164  39 I22
stroke2  165  41 I22
stroke2  165  43 I22
stroke2  165  45 I22
stroke2  165  46 I22
stroke2  165  48 I22
stroke2  165  49 I22
stroke2  165  51 I22
stroke2  165  52 I22
stroke2  165  53 I22
stroke2  165  54 I22
stroke2  165  55 I22
stroke2  164  55 I22
stroke2  163  54 I22
stroke2  162  54 I22
stroke2  161  53 I22
stroke2  160  53 I22
stroke2  159  52 I22
stroke2  158  52 I22
stroke2  158  51 I22
stroke2  157  51 I22
stroke2  156  51 I22
stroke2  156  50 I22
stroke2  155  50 I22
stroke2  155  51 I22
stroke2  154  52 I22
stroke2  154  53 I22
stroke2  155  55 I22
stroke2  155  56 I22
stroke2  155  57 I22
stroke2  155  58 I22
stroke2  156  59 I22
stroke2  157  60 I22
stroke2  157  61 I22
stroke2  158  62 I22
stroke2  159  63 I22
stroke2  160  64 I22
stroke2  161  64 I22
stroke2  162  65 I22
stroke2  164  65 I22
stroke2  165  66 I22
stroke2  166  66 I22
stroke2  167  66 I22
stroke2  168  67 I22
stroke2  170  67 I22
stroke2  171  67 I22
stroke2  172  67 I22
stroke2  174  67 I22
stroke2  175  67 I22
stroke2  177  67 I22
stroke2  178  67 I22
stroke2  179  67 I22
stroke2  181  66 I22
stroke2  182  66 I22
stroke2  183  66 I22
stroke2  184  65 I22
stroke2  185  65 I22
stroke2  187  64 I22
stroke2  188  63 I22
stroke2  189  62 I22
stroke2  189  61 I22
stroke2  190  60 I22
stroke2  191  59 I22
stroke2  192  58 I22
stroke2  193  57 I22
stroke2  193  55 I22
stroke2  194  53 I22
stroke2  194  52 I22
stroke2  195  50 I22
stroke2  195  48 I22
stroke2  196  46 I22
stroke2  196  44 I22
stroke2  196  42 I22
stroke2  196  40 I22
stroke2  196  37 I22
stroke2  197  35 I22
stroke2  197  33 I22
stroke2  197  31 I22
stroke2  197  29 I22
stroke2  197  27 I22
stroke2  197  25 I22
stroke2  197  23 I22
stroke2  197  21 I22
stroke2  197  19 I22
stroke2  197  17 I22
stroke2  197  15 I22
stroke2  197  14 I22
stroke2  197  12 I22
stroke2  197  11 I22
stroke2  197  10 I22
stroke2  197  8 I22
stroke2  197  7 I22
stroke2  197  6 I22
stroke2  197  5 I22
stroke2  197  4 I22
stroke2  197  5 I22
stroke2  197  6 I22
stroke2  197  8 I22
stroke2  197  9 I22
stroke3  205  59 B47
stroke3  204  59 I47
stroke3  203  59 I47
stroke3  203  60 I47
stroke3  204  61 I47
stroke3  204  62 I47
stroke3  205  63 I47
stroke3  206  64 I47
stroke3  207  64 I47
stroke3  208  64 I47
stroke3  208  65 I47
stroke3  209  65 I47
stroke3  210  65 I47
stroke3  211  65 I47
stroke3  212  65 I47
stroke3  213  65 I47
stroke3  214  65 I47
stroke3  215  65 I47
stroke3  216  65 I47
stroke3  217  65 I47
stroke3  218  65 I47
stroke3  219  64 I47
stroke3  220  64 I47
stroke3  221  64 I47
stroke3  222  63 I47
stroke3  223  62 I47
stroke3  224  62 I47
stroke3  225  61 I47
stroke3  226  60 I47
stroke3  226  59 I47
stroke3  227  58 I47
stroke3  228  56 I47
stroke3  228  55 I47
stroke3  228  53 I47
stroke3  229  51 I47
stroke3  229  49 I47
stroke3  229  48 I47
stroke3  230  46 I47
stroke3  229  44 I47
stroke3  230  42 I47
stroke3  230  40 I47
stroke3  230  38 I47
stroke3  230  36 I47
stroke3  230  34 I47
stroke3  230  32 I47
stroke3  230  31 I47
stroke3  230  29 I47
stroke3  230  27 I47
stroke3  230  25 I47
stroke3  230  23 I47
stroke3  230  21 I47
stroke3  230  19 I47
stroke3  230  18 I47
stroke3  230  16 I47
stroke3  230  14 I47
stroke3  230  13 I47
stroke3  230  12 I47
stroke3  230  10 I47
stroke3  230  9 I47
stroke3  230  8 I47
stroke3  230  7 I47
stroke3  229  6 I47
stroke3  229  5 I47
stroke3  229  4 I47
stroke3  229  3 I47
stroke3  229  4 I47
stroke3  229  5 I47
stroke3  229  7 I47
stroke3  229  8 I47
stroke3  228  10 I47
stroke4  238  63 B25
stroke4  239  63 I25
stroke4  239  64 I25
stroke4  240  65 I25
stroke4  241  65 I25
stroke4  242  65 I25
stroke4  243  65 I25
stroke4  244  65 I25
stroke4  244  64 I25
stroke4  245  64 I25
stroke4  245  63 I25
stroke4  246  63 I25
stroke4  246  62 I25
stroke4  246  61 I25
stroke4  245  60 I25
stroke4  244  59 I25
stroke4  243  59 I25
stroke4  243  58 I25
stroke4  242  58 I25
stroke4  241  58 I25
stroke4  240  58 I25
stroke4  239  58 I25
stroke4  238  58 I25
stroke4  238  59 I25
stroke4  237  59 I25
stroke4  237  60 I25
stroke4  236  61 I25
stroke4  236  62 I25
stroke4  236  63 I25
stroke4  236  64 I25
stroke4  237  65 I25
stroke4  237  66 I25
stroke4  238  66 I25
stroke4  239  66 I25
stroke4  239  67 I25
stroke4  240  67 I25
stroke4  241  66 I25
stroke4  242  66 I25
stroke4  243  65 I25
stroke4  244  65 I25
stroke4  245  64 I25
stroke4  245  63 I25
stroke4  246  62 I25
stroke4  247  61 I25
stroke4  247  60 I25
stroke4  248  58 I25
stroke4  248  57 I25
stroke4  249  55 I25
stroke4  249  53 I25
stroke4  249  52 I25
stroke4  249  50 I25
stroke4  250  48 I25
stroke4  250  46 I25
stroke4  250  44 I25
stroke4  250  42 I25
stroke4  250  39 I25
stroke4  250  37 I25
stroke4  250  35 I25
stroke4  250  33 I25
stroke4  250  32 I25
stroke4  250  30 I25
stroke4  250  28 I25
stroke4  250  26 I25
stroke4  250  24 I25
stroke4  250  22 I25
stroke4  250  21 I25
stroke4  250  19 I25
stroke4  250  17 I25
stroke4  250  16 I25
stroke4  250  15 I25
stroke4  250  13 I25
stroke4  250  12 I25
stroke4  250  11 I25
stroke4  250  10 I25
stroke4  250  9 I25
stroke4  251  8 I25
stroke4  250  7 I25
stroke4  251  7 I25
stroke4  251  6 I25
stroke4  251  5 I25
stroke4  250  5 I25
stroke4  251  5 I25
stroke4  251  6 I25
stroke4  251  7 I25
stroke4  251  8 I25
stroke4  251  9 I25
stroke4  252  9 I25
stroke4  252  10 I25
stroke4  253  11 I25
stroke4  253  12 I25
stroke4  254  13 I25
stroke4  255  14 I25
stroke4  256  15 I25
stroke4  257  16 I25
stroke4  258  16 I25
stroke4  259  17 I25
stroke4  261  18 I25
stroke4  262  19 I25
stroke4  263  19 I25
stroke4  264  20 I25
stroke4  265  20 I25
stroke4  267  21 I25
stroke4  268  21 I25
stroke4  269  21 I25
stroke4  270  21 I25
stroke4  271  22 I25
stroke4  272  22 I25
stroke4  273  22 I25
stroke4  275  22 I25
stroke4  276  22 I25
stroke4  277  21 I25
stroke4  278  21 I25
stroke4  279  21 I25
stroke4  280  21 I25
stroke4  281  20 I25
stroke4  282  20 I25
stroke4  283  20 I25
stroke4  284  20 I25
stroke4  285  19 I25
stroke4  286  19 I25
stroke4  287  18 I25
stroke4  288  17 I25
stroke4  289  17 I25
stroke4  290  16 I25
stroke4  291  15 I25
stroke4  291  14 I25
stroke4  292  14 I25
stroke4  292  13 I25
stroke4  293  13 I25
stroke4  293  12 I25
stroke4  294  11 I25
stroke4  294  10 I25
stroke4  294  9 I25
stroke4  294  8 I25
stroke4  294  7 I25
stroke4  294  6 I25
stroke4  293  5 I25
stroke4  293  4 I25
stroke4  292  4 I25
stroke4  291  3 I25
stroke4  290  3 I25
stroke4  289  3 I25
stroke4  289  2 I25
stroke4  288  2 I25
stroke4  287  2 I25
stroke4  286  3 I25
stroke4  285  3 I25
stroke4  285  4 I25
stroke4  284  5 I25
stroke4  284  6 I25
stroke4  284  8 I25
stroke4  284  10 I25
stroke4  284  11 I25
stroke4  284  14 I25
stroke4  284  16 I25
stroke4  284  18 I25
stroke4  284  20 I25
stroke4  284  23 I25
stroke4  283  25 I25
stroke4  283  27 I25
stroke4  283  29 I25
stroke4  283  31 I25
stroke4  283  33 I25
stroke4  283  35 I25
stroke4  283  37 I25
stroke4  282  39 I25
stroke4  283  41 I25
stroke4  283  43 I25
stroke4  283  44 I25
stroke4  283  46 I25
stroke4  283  48 I25
stroke4  283  49 I25
stroke4  283  51 I25
stroke4  283  52 I25
stroke4  284  53 I25
stroke4  284  54 I25
stroke4  284  56 I25
stroke4  284  57 I25
stroke4  284  58 I25
stroke4  284  59 I25
stroke4  284  60 I25
stroke4  284  61 I25
stroke4  284  62 I25
stroke4  284  63 I25
stroke4  284  64 I25
stroke4  283  64 I25
stroke5  316  4 B1
stroke5  316  3 I1
stroke5  315  3 I1
stroke5  315  4 I1
stroke5  315  5 I1
stroke5  314  6 I1
stroke5  314  7 I1
stroke5  314  8 I1
stroke5  314  10 I1
stroke5  313  12 I1
stroke5  314  15 I1
stroke5  314  17 I1
stroke5  314  20 I1
stroke5  314  22 I1
stroke5  314  25 I1
stroke5  314  27 I1
stroke5  314  30 I1
stroke5  315  33 I1
stroke5  315  35 I1
stroke5  315  38 I1
stroke5  315  40 I1
stroke5  315  43 I1
stroke5  315  45 I1
stroke5  315  47 I1
stroke5  315  48 I1
stroke5  315  49 I1
stroke5  315  51 I1
stroke5  315  52 I1
stroke5  315  53 I1
stroke5  315  54 I1
stroke5  314  54 I1
stroke5  313  54 I1
stroke5  312  53 I1
stroke5  311  53 I1
stroke5  310  52 I1
stroke5  309  52 I1
stroke5  308  51 I1
stroke5  307  50 I1
stroke5  306  49 I1
stroke5  305  49 I1
stroke5  304  48 I1
stroke5  303  49 I1
stroke5  303  50 I1
stroke5  302  51 I1
stroke5  303  53 I1
stroke5  303  54 I1
stroke5  303  55 I1
stroke5  304  57 I1
stroke5  305  58 I1
stroke5  305  60 I1
stroke5  306  61 I1
stroke5  307  62 I1
stroke5  308  63 I1
stroke5  308  64 I1
stroke5  309  64 I1
stroke5  310  65 I1
stroke5  311  66 I1
stroke5  312  67 I1
stroke5  313  67 I1
stroke5  314  68 I1
stroke5  315  69 I1
stroke5  316  69 I1
stroke5  317  70 I1
stroke5  319  70 I1
stroke5  320  70 I1
stroke5  321  70 I1
stroke5  322  70 I1
stroke5  324  70 I1
stroke5  325  70 I1
stroke5  326  69 I1
stroke5  328  69 I1
stroke5  329  68 I1
stroke5  330  67 I1
stroke5  332  67 I1
stroke5  333  66 I1
stroke5  334  65 I1
stroke5  335  63 I1
stroke5  336  62 I1
stroke5  338  61 I1
stroke5  338  59 I1
stroke5  339  58 I1
stroke5  340  57 I1
stroke5  340  55 I1
stroke5  341  54 I1
stroke5  342  52 I1
stroke5  342  50 I1
stroke5  342  49 I1
stroke5  343  47 I1
stroke5  343  45 I1
stroke5  343  43 I1
stroke5  343  41 I1
stroke5  344  40 I1
stroke5  344  38 I1
stroke5  344  36 I1
stroke5  344  34 I1
stroke5  344  32 I1
stroke5  344  30 I1
stroke5  344  29 I1
stroke5  344  27 I1
stroke5  344  25 I1
stroke5  344  23 I1
stroke5  343  21 I1
stroke5  343  19 I1
stroke5  343  18 I1
stroke5  343  16 I1
stroke5  344  15 I1
stroke5  343  13 I1
stroke5  343  12 I1
stroke5  343  11 I1
stroke5  343  9 I1
stroke5  343  8 I1
stroke5  343  7 I1
stroke5  343  6 I1
stroke5  343  5 I1
stroke5  343  4 I1
stroke5  343  3 I1
stroke5  343  2 I1
stroke5  343  1 I1
stroke5  343  0 I1
stroke5  343  1 I1
stroke5  343  2 I1
stroke5  343  3 I1
stroke5  342  4 I1
stroke6  355  57 B47
stroke6  355  58 I47
stroke6  354  58 I47
stroke6  354  59 I47
stroke6  354  60 I47
stroke6  354  61 I47
stroke6  354  62 I47
stroke6  354  63 I47
stroke6  355  63 I47
stroke6  355  64 I47
stroke6  355  65 I47
stroke6  356  65 I47
stroke6  357  65 I47
stroke6  357  66 I47
stroke6  358  66 I47
stroke6  359  66 I47
stroke6  360  67 I47
stroke6  361  67 I47
stroke6  362  67 I47
stroke6  363  66 I47
stroke6  364  66 I47
stroke6  365  66 I47
stroke6  366  66 I47
stroke6  368  65 I47
stroke6  369  65 I47
stroke6  370  64 I47
stroke6  371  64 I47
stroke6  372  63 I47
stroke6  373  62 I47
stroke6  373  61 I47
stroke6  374  59 I47
stroke6  375  58 I47
stroke6  375  57 I47
stroke6  376  56 I47
stroke6  377  54 I47
stroke6  377  52 I47
stroke6  377  51 I47
stroke6  378  49 I47
stroke6  378  47 I47
stroke6  378  45 I47
stroke6  378  44 I47
stroke6  378  42 I47
stroke6  378  40 I47
stroke6  378  38 I47
stroke6  378  36 I47
stroke6  378  35 I47
stroke6  378  33 I47
stroke6  378  31 I47
stroke6  378  30 I47
stroke6  378  28 I47
stroke6  378  26 I47
stroke6  378  24 I47
stroke6  378  22 I47
stroke6  378  20 I47
stroke6  378  18 I47
stroke6  378  17 I47
stroke6  377  15 I47
stroke6  377  13 I47
stroke6  377  12 I47
stroke6  377  10 I47
stroke6  377  9 I47
stroke6  377  8 I47
stroke6  377  6 I47
stroke6  376  5 I47
stroke6  376  4 I47
stroke6  376  3 I47
stroke6  376  2 I47
stroke6  376  1 I47
stroke6  376  0 I47
stroke6  376  1 I47
stroke6  376  2 I47
stroke6  376  3 I47
stroke6  376  4 I47
stroke6  376  5 I47
stroke7  404  4 B35
stroke7  404  3 I35
stroke7  405  3 I35
stroke7  406  4 I35
stroke7  406  5 I35
stroke7  406  6 I35
stroke7  406  7 I35
stroke7  406  8 I35
stroke7  406  9 I35
stroke7  405  9 I35
stroke7  405  10 I35
stroke7  404  10 I35
stroke7  403  11 I35
stroke7  402  11 I35
stroke7  401  11 I35
stroke7  400  11 I35
stroke7  399  11 I35
stroke7  398  10 I35
stroke7  397  9 I35
stroke7  396  8 I35
stroke7  396  7 I35
stroke7  397  6 I35
stroke7  397  5 I35
stroke7  398  4 I35
stroke7  399  4 I35
stroke7  400  4 I35
stroke7  401  4 I35
stroke7  402  4 I35
stroke7  402  5 I35
stroke7  403  5 I35
stroke7  404  6 I35
stroke7  405  7 I35
stroke7  405  8 I35
stroke7  406  10 I35
stroke7  406  11 I35
stroke7  407  13 I35
stroke7  407  15 I35
stroke7  408  16 I35
stroke7  408  18 I35
stroke7  409  20 I35
stroke7  409  22 I35
stroke7  409  24 I35
stroke7  410  26 I35
stroke7  410  28 I35
stroke7  410  30 I35
stroke7  410  31 I35
stroke7  410  33 I35
stroke7  410  35 I35
stroke7  410  36 I35
stroke7  410  38 I35
stroke7  410  39 I35
stroke7  410  41 I35
stroke7  410  42 I35
stroke7  410  44 I35
stroke7  409  45 I35
stroke7  409  46 I35
stroke7  409  48 I35
stroke7  409  49 I35
stroke7  408  50 I35
stroke7  408  51 I35
stroke7  408  52 I35
stroke7  407  53 I35
stroke7  407  54 I35
stroke7  407  55 I35
stroke7  406  56 I35
stroke7  405  57 I35
stroke7  404  57 I35
stroke7  404  58 I35
stroke7  403  58 I35
stroke7  402  59 I35
stroke7  401  59 I35
stroke7  399  59 I35
stroke7  398  59 I35
stroke7  397  59 I35
stroke7  395  58 I35
stroke7  394  58 I35
stroke7  393  57 I35
stroke7  391  57 I35
stroke7  390  57 I35
stroke7  389  56 I35
stroke7  388  56 I35
stroke7  386  56 I35
stroke7  386  55 I35
stroke7  385  55 I35
stroke7  384  55 I35
stroke7  383  55 I35
stroke7  382  55 I35
stroke7  381  55 I35
stroke7  381  56 I35
stroke7  380  56 I35
stroke7  380  57 I35
stroke7  379  57 I35
stroke7  379  58 I35
stroke7  380  59 I35
stroke7  380  60 I35
stroke7  380  61 I35
stroke7  381  62 I35
stroke7  381  63 I35
stroke7  382  64 I35
stroke7  383  64 I35
stroke7  384  65 I35
stroke7  385  65 I35
stroke7  386  66 I35
stroke7  387  66 I35
stroke7  388  66 I35
stroke7  389  66 I35
stroke7  390  66 I35
stroke7  392  66 I35
stroke7  393  66 I35
stroke7  395  66 I35
stroke7  396  65 I35
stroke7  398  65 I35
stroke7  400  65 I35
stroke7  402  64 I35
stroke7  403  64 I35
stroke7  405  64 I35
stroke7  406  64 I35
stroke7  408  64 I35
stroke7  409  64 I35
stroke7  410  64 I35
stroke7  411  64 I35
stroke7  413  65 I35
stroke7  414  65 I35
stroke7  415  65 I35
stroke7  416  66 I35
stroke7  417  66 I35
stroke7  418  67 I35
stroke7  419  68 I35
stroke7  420  68 I35
stroke7  421  69 I35
stroke8  435  4 B19
stroke8  434  5 I19
stroke8  433  6 I19
stroke8  433  7 I19
stroke8  433  8 I19
stroke8  433  9 I19
stroke8  434  10 I19
stroke8  434  11 I19
stroke8  435  12 I19
stroke8  436  13 I19
stroke8  437  13 I19
stroke8  438  13 I19
stroke8  438  14 I19
stroke8  439  14 I19
stroke8  440  14 I19
stroke8  441  13 I19
stroke8  442  13 I19
stroke8  443  13 I19
stroke8  443  12 I19
stroke8  444  12 I19
stroke8  444  11 I19
stroke8  444  10 I19
stroke8  444  9 I19
stroke8  444  8 I19
stroke8  444  7 I19
stroke8  443  6 I19
stroke8  442  5 I19
stroke8  441  5 I19
stroke8  440  5 I19
stroke8  440  6 I19
stroke8  439  6 I19
stroke8  438  7 I19
stroke8  437  8 I19
stroke8  437  9 I19
stroke8  437  10 I19
stroke8  436  12 I19
stroke8  436  13 I19
stroke8  436  15 I19
stroke8  436  17 I19
stroke8  436  19 I19
stroke8  436  21 I19
stroke8  437  23 I19
stroke8  437  25 I19
stroke8  437  26 I19
stroke8  437  28 I19
stroke8  437  30 I19
stroke8  437  32 I19
stroke8  438  34 I19
stroke8  438  36 I19
stroke8  438  38 I19
stroke8  439  39 I19
stroke8  439  41 I19
stroke8  439  43 I19
stroke8  439  44 I19
stroke8  439  45 I19
stroke8  439  47 I19
stroke8  440  48 I19
stroke8  440  49 I19
stroke8  440  50 I19
stroke8  440  51 I19
stroke8  440  52 I19
stroke8  440  53 I19
stroke8  440  54 I19
stroke8  440  55 I19
stroke8  440  56 I19
stroke8  439  56 I19
stroke8  438  56 I19
stroke8  437  56 I19
stroke8  437  55 I19
stroke8  436  54 I19
stroke8  435  53 I19
stroke8  434  52 I19
stroke8  434  51 I19
stroke8  433  51 I19
stroke8  432  50 I19
stroke8  431  50 I19
stroke8  431  49 I19
stroke8  430  49 I19
stroke8  430  50 I19
stroke8  429  51 I19
stroke8  429  52 I19
stroke8  429  54 I19
stroke8  430  55 I19
stroke8  430  56 I19
stroke8  430  57 I19
stroke8  431  58 I19
stroke8  431  59 I19
stroke8  432  60 I19
stroke8  433  61 I19
stroke8  434  62 I19
stroke8  435  62 I19
stroke8  435  63 I19
stroke8  436  63 I19
stroke8  437  64 I19
stroke8  438  64 I19
stroke8  439  64 I19
stroke8  440  64 I19
stroke8  441  65 I19
stroke8  442  65 I19
stroke8  443  65 I19
stroke8  444  65 I19
stroke8  445  65 I19
stroke8  446  66 I19
stroke8  447  66 I19
stroke8  448  65 I19
stroke8  449  65 I19
stroke8  450  65 I19
stroke8  451  65 I19
stroke8  452  65 I19
stroke8  453  65 I19
stroke8  454  64 I19
stroke8  455  64 I19
stroke8  456  63 I19
stroke8  457  63 I19
stroke8  458  62 I19
stroke8  459  61 I19
stroke8  459  60 I19
stroke8  460  59 I19
stroke8  461  58 I19
stroke8  462  57 I19
stroke8  462  56 I19
stroke8  463  54 I19
stroke8  463  53 I19
stroke8  464  51 I19
stroke8  464  50 I19
stroke8  464  49 I19
stroke8  464  47 I19
stroke8  465  46 I19
stroke8  465  44 I19
stroke8  465  43 I19
stroke8  465  41 I19
stroke8  466  40 I19
stroke8  466  38 I19
stroke8  466  37 I19
stroke8  466  35 I19
stroke8  466  33 I19
stroke8  466  32 I19
stroke8  466  30 I19
stroke8  466  28 I19
stroke8  466  27 I19
stroke8  466  25 I19
stroke8  467  24 I19
stroke8  467  22 I19
stroke8  467  21 I19
stroke8  466  19 I19
stroke8  466  18 I19
stroke8  466  16 I19
stroke8  466  15 I19
stroke8  466  13 I19
stroke8  466  12 I19
stroke8  466  11 I19
stroke8  466  10 I19
stroke8  466  9 I19
stroke8  466  8 I19
stroke8  466  7 I19
stroke8  466  8 I19
stroke8  467  8 I19
stroke8  467  9 I19
stroke8  467  10 I19
stroke8  468  10 I19
stroke8  468  11 I19
stroke8  468  12 I19
stroke8  469  12 I19
stroke8  469  13 I19
stroke8  469  14 I19
stroke8  470  14 I19
stroke8  470  15 I19
stroke8  470  16 I19
stroke8  471  16 I19
stroke8  471  17 I19
stroke8  472  18 I19
stroke8  472  19 I19
stroke8  473  19 I19
stroke8  474  20 I19
stroke8  474  21 I19
stroke8  475  22 I19
stroke8  476  22 I19
stroke8  477  23 I19
stroke8  478  24 I19
stroke8  479  24 I19
stroke8  480  25 I19
stroke8  481  25 I19
stroke8  482  25 I19
stroke8  483  25 I19
stroke8  484  26 I19
stroke8  485  26 I19
stroke8  486  26 I19
stroke8  487  26 I19
stroke8  488  26 I19
stroke8  490  26 I19
stroke8  491  26 I19
stroke8  492  26 I19
stroke8  493  26 I19
stroke8  494  25 I19
stroke8  495  25 I19
stroke8  496  25 I19
stroke8  497  25 I19
stroke8  498  24 I19
stroke8  499  23 I19
stroke8  500  22 I19
stroke8  501  21 I19
stroke8  502  20 I19
stroke8  503  19 I19
stroke8  504  18 I19
stroke8  504  17 I19
stroke8  505  16 I19
stroke8  506  15 I19
stroke8  506  14 I19
stroke8  507  13 I19
stroke8  508  12 I19
stroke8  509  11 I19
stroke8  509  10 I19
stroke8  510  9 I19
stroke8  510  8 I19
stroke8  511  7 I19
stroke8  511  6 I19
stroke8  511  5 I19
stroke8  510  5 I19
stroke8  510  4 I19
stroke8  510  3 I19
stroke8  509  3 I19
stroke8  509  2 I19
stroke8  508  1 I19
stroke8  507  1 I19
stroke8  507  0 I19
stroke8  506  0 I19
stroke8  505  0 I19
stroke8  504  0 I19
stroke8  503  0 I19
stroke8  502  0 I19
stroke8  502  1 I19
stroke8  501  1 I19
stroke8  501  2 I19
stroke8  500  3 I19
stroke8  500  4 I19
stroke8  499  5 I19
stroke8  499  6 I19
stroke8  498  7 I19
stroke8  498  9 I19
stroke8  498  11 I19
stroke8  498  12 I19
stroke8  498  14 I19
stroke8  498  16 I19
stroke8  498  18 I19
stroke8  498  20 I19
stroke8  497  21 I19
stroke8  497  23 I19
stroke8  497  25 I19
stroke8  497  27 I19
stroke8  497  29 I19
stroke8  497  31 I19
stroke8  496  32 I19
stroke8  496  34 I19
stroke8  496  36 I19
stroke8  496  38 I19
stroke8  496  39 I19
stroke8  496  41 I19
stroke8  496  43 I19
stroke8  496  45 I19
stroke8  497  47 I19
stroke8  497  48 I19
stroke8  497  50 I19
stroke8  497  52 I19
stroke8  497  53 I19
stroke8  497  55 I19
stroke8  497  56 I19
stroke8  497  57 I19
stroke8  497  59 I19
stroke8  497  60 I19
stroke8  497  61 I19
stroke8  497  62 I19
stroke8  497  63 I19
stroke8  497  64 I19
stroke8  497  65 I19
stroke8  497  66 I19
stroke8  496  65 I19
stroke9  478  89 B64
stroke9  477  89 I64
stroke9  476  89 I64
stroke9  475  89 I64
stroke9  474  89 I64
stroke9  474  90 I64
stroke9  474  91 I64
stroke9  474  92 I64
stroke9  475  92 I64
stroke9  475  93 I64
stroke9  476  94 I64
stroke9  477  94 I64
stroke9  478  95 I64
stroke9  479  95 I64
stroke9  480  95 I64
stroke9  481  95 I64
stroke9  482  95 I64
stroke9  483  95 I64
stroke9  484  94 I64
stroke9  484  93 I64
stroke9  485  92 I64
stroke9  485  91 I64
stroke9  484  91 I64
stroke9  484  90 I64
stroke9  484  89 I64
stroke9  483  88 I64
stroke9  482  88 I64
stroke9  481  87 I64
stroke9  480  87 I64
stroke9  479  87 I64
stroke9  478  87 I64
stroke9  477  87 I64
stroke9  476  87 I64
stroke9  476  88 I64
stroke9  475  88 I64
stroke9  475  89 I64
stroke9  475  90 I64
stroke9  474  91 I64
stroke9  474  92 I64
stroke9  475  94 I64
stroke9  475  95 I64
stroke9  475  96 I64
stroke9  476  97 I64
stroke9  476  99 I64
stroke9  477  100 I64
stroke9  477  101 I64
stroke9  478  102 I64
stroke9  478  103 I64
stroke9  479  104 I64
stroke9  479  106 I64
stroke9  480  107 I64
stroke9  480  108 I64
stroke9  481  109 I64
stroke9  482  110 I64
stroke9  483  111 I64
stroke9  484  112 I64
stroke9  484  113 I64
stroke9  485  114 I64
stroke9  486  114 I64
stroke9  487  115 I64
stroke9  487  116 I64
stroke9  488  116 I64
stroke9  489  117 I64
stroke9  490  118 I64
stroke9  491  119 I64
stroke9  492  120 I64
stroke9  493  121 I64
stroke9  494  122 I64
stroke9  494  123 I64
stroke9  495  123 I64
stroke9  496  124 I64
stroke9  496  125 I64
stroke9  497  126 I64
stroke9  497  127 I64
stroke9  498  128 I64
stroke9  498  129 I64
stroke9  497  130 I64
stroke9  496  131 I64
stroke9  494  132 I64
stroke9  493  132 I64
