stroke1  146  5 B58
stroke1  145  6 I58
stroke1  145  7 I58
stroke1  145  8 I58
stroke1  145  9 I58
stroke1  145  10 I58
stroke1  145  11 I58
stroke1  146  12 I58
stroke1  146  13 I58
stroke1  147  14 I58
stroke1  148  15 I58
stroke1  149  16 I58
stroke1  150  16 I58
stroke1  151  16 I58
stroke1  152  16 I58
stroke1  153  16 I58
stroke1  154  16 I58
stroke1  155  16 I58
stroke1  156  15 I58
stroke1  156  15 I58
stroke1  157  14 I58
stroke1  157  13 I58
stroke1  157  12 I58
stroke1  158  11 I58
stroke1  158  10 I58
stroke1  157  9 I58
stroke1  157  8 I58
stroke1  156  7 I58
stroke1  155  6 I58
stroke1  154  5 I58
stroke1  153  5 I58
stroke1  152  5 I58
stroke1  151  6 I58
stroke1  151  7 I58
stroke1  150  8 I58
stroke1  150  9 I58
stroke1  149  10 I58
stroke1  149  11 I58
stroke1  148  13 I58
stroke1  147  15 I58
stroke1  147  16 I58
stroke1  147  18 I58
stroke1  146  19 I58
stroke1  146  21 I58
stroke1  145  22 I58
stroke1  145  24 I58
stroke1  145  26 I58
stroke1  144  28 I58
stroke1  144  31 I58
stroke1  144  34 I58
stroke1  144  37 I58
stroke1  145  40 I58
stroke1  145  43 I58
stroke1  145  46 I58
stroke1  145  50 I58
stroke1  145  53 I58
stroke1  145  56 I58
stroke1  145  59 I58
stroke1  145  62 I58
stroke1  145  65 I58
stroke1  146  68 I58
stroke1  146  71 I58
stroke1  146  74 I58
stroke1  146  76 I58
stroke1  146  79 I58
stroke1  146  82 I58
stroke1  146  84 I58
stroke1  147  87 I58
stroke1  147  89 I58
stroke1  147  91 I58
stroke1  147  93 I58
stroke1  147  95 I58
stroke1  147  97 I58
stroke1  147  99 I58
stroke1  147  100 I58
stroke1  147  102 I58
stroke1  147  104 I58
stroke1  147  105 I58
stroke1  148  107 I58
stroke1  148  108 I58
stroke1  148  109 I58
stroke1  148  110 I58
stroke1  148  111 I58
stroke1  148  112 I58
stroke1  148  113 I58
stroke1  148  114 I58
stroke1  148  115 I58
stroke1  148  116 I58
stroke1  147  116 I58
stroke1  147  117 I58
stroke1  147  118 I58
stroke1  147  119 I58
stroke1  146  120 I58
stroke1  146  121 I58
stroke1  145  122 I58
stroke1  144  123 I58
stroke1  143  123 I58
stroke1  142  124 I58
stroke1  141  124 I58
stroke1  140  124 I58
stroke1  139  124 I58
stroke1  137  124 I58
stroke1  136  124 I58
stroke1  134  124 I58
stroke1  133  124 I58
stroke1  130  124 I58
stroke1  128  123 I58
stroke1  126  123 I58
stroke1  123  122 I58
stroke1  121  122 I58
stroke1  119  121 I58
stroke1  117  121 I58
stroke1  115  120 I58
stroke1  114  120 I58
stroke1  113  120 I58
stroke1  112  120 I58
stroke1  111  120 I58
stroke1  110  120 I58
stroke1  109  121 I58
stroke1  108  121 I58
stroke1  108  122 I58
stroke1  108  123 I58
stroke1  108  124 I58
stroke1  108  125 I58
stroke1  109  126 I58
stroke1  110  127 I58
stroke1  110  128 I58
stroke1  111  129 I58
stroke1  112  130 I58
stroke1  113  130 I58
stroke1  114  131 I58
stroke1  115  131 I58
stroke1  116  132 I58
stroke1  118  132 I58
stroke1  119  132 I58
stroke1  121  132 I58
stroke1  123  131 I58
stroke1  125  131 I58
stroke1  127  131 I58
stroke1  129  130 I58
stroke1  131  130 I58
stroke1  133  129 I58
stroke1  135  128 I58
stroke1  137  128 I58
stroke1  139  127 I58
stroke1  141  127 I58
stroke1  143  126 I58
stroke1  145  126 I58
stroke1  146  125 I58
stroke1  148  125 I58
stroke1  150  125 I58
stroke1  151  125 I58
stroke1  153  126 I58
stroke1  155  126 I58
stroke1  156  127 I58
stroke1  158  127 I58
stroke1  159  128 I58
stroke1  160  128 I58
stroke1  162  129 I58
stroke1  162  130 I58
stroke1  163  130 I58
stroke1  164  131 I58
stroke2  191  37 B4
stroke2  190  37 I4
stroke2  190  36 I4
stroke2  189  36 I4
stroke2  189  35 I4
stroke2  188  35 I4
stroke2  188  34 I4
stroke2  187  34 I4
stroke2  188  33 I4
stroke2  189  33 I4
stroke2  190  33 I4
stroke2  191  34 I4
stroke2  192  34 I4
stroke2  193  34 I4
stroke2  194  34 I4
stroke2  194  35 I4
stroke2  195  35 I4
stroke2  196  36 I4
stroke2  197  37 I4
stroke2  198  38 I4
stroke2  198  39 I4
stroke2  199  40 I4
stroke2  198  41 I4
stroke2  198  42 I4
stroke2  197  42 I4
stroke2  197  43 I4
stroke2  196  43 I4
stroke2  195  43 I4
stroke2  194  43 I4
stroke2  193  43 I4
stroke2  193  42 I4
stroke2  192  42 I4
stroke2  191  41 I4
stroke2  191  40 I4
stroke2  190  39 I4
stroke2  190  38 I4
stroke2  190  37 I4
stroke2  190  36 I4
stroke2  189  35 I4
stroke2  189  33 I4
stroke2  189  32 I4
stroke2  189  30 I4
stroke2  188  28 I4
stroke2  188  26 I4
stroke2  188  24 I4
stroke2  188  23 I4
stroke2  187  21 I4
stroke2  187  19 I4
stroke2  187  17 I4
stroke2  187  15 I4
stroke2  187  13 I4
stroke2  187  12 I4
stroke2  186  10 I4
stroke2  186  9 I4
stroke2  186  8 I4
stroke2  186  7 I4
stroke2  186  6 I4
stroke2  186  5 I4
stroke2  186  4 I4
stroke2  185  4 I4
stroke2  184  5 I4
stroke2  184  6 I4
stroke2  183  6 I4
stroke2  182  7 I4
stroke2  182  8 I4
stroke2  181  10 I4
stroke2  180  11 I4
stroke2  179  13 I4
stroke2  179  14 I4
stroke2  178  15 I4
stroke2  177  17 I4
stroke2  176  18 I4
stroke2  175  20 I4
stroke2  175  21 I4
stroke2  174  23 I4
stroke2  174  25 I4
stroke2  174  27 I4
stroke2  173  28 I4
stroke2  173  30 I4
stroke2  173  32 I4
stroke2  173  33 I4
stroke2  173  35 I4
stroke2  173  37 I4
stroke2  173  39 I4
stroke2  173  41 I4
stroke2  173  42 I4
stroke2  173  44 I4
stroke2  173  46 I4
stroke2  173  47 I4
stroke2  173  49 I4
stroke2  174  50 I4
stroke2  174  51 I4
stroke2  174  52 I4
stroke2  174  53 I4
stroke2  175  55 I4
stroke2  175  56 I4
stroke2  176  57 I4
stroke2  176  58 I4
stroke2  177  59 I4
stroke2  178  60 I4
stroke2  178  61 I4
stroke2  179  62 I4
stroke2  180  63 I4
stroke2  182  63 I4
stroke2  183  64 I4
stroke2  184  65 I4
stroke2  185  65 I4
stroke2  187  66 I4
stroke2  188  66 I4
stroke2  189  67 I4
stroke2  190  67 I4
stroke2  191  67 I4
stroke2  193  67 I4
stroke2  194  67 I4
stroke2  195  66 I4
stroke2  196  66 I4
stroke2  198  66 I4
stroke2  199  65 I4
stroke2  200  64 I4
stroke2  201  63 I4
stroke2  202  63 I4
stroke2  203  61 I4
stroke2  204  60 I4
stroke2  205  59 I4
stroke2  206  58 I4
stroke2  207  57 I4
stroke2  208  55 I4
stroke2  209  54 I4
stroke2  209  52 I4
stroke2  210  51 I4
stroke2  210  49 I4
stroke2  211  47 I4
stroke2  211  46 I4
stroke2  212  44 I4
stroke2  212  42 I4
stroke2  212  40 I4
stroke2  212  38 I4
stroke2  213  36 I4
stroke2  213  34 I4
stroke2  213  32 I4
stroke2  213  30 I4
stroke2  213  28 I4
stroke2  213  26 I4
stroke2  213  24 I4
stroke2  213  22 I4
stroke2  213  20 I4
stroke2  213  18 I4
stroke2  213  16 I4
stroke2  213  14 I4
stroke2  213  12 I4
stroke2  213  11 I4
stroke2  213  9 I4
stroke2  213  8 I4
stroke2  213  7 I4
stroke2  213  5 I4
stroke2  213  4 I4
stroke2  213  3 I4
stroke2  213  2 I4
stroke2  214  1 I4
stroke2  213  1 I4
stroke2  214  0 I4
stroke2  214  1 I4
stroke2  213  2 I4
stroke3  247  3 B35
stroke3  247  2 I35
stroke3  248  2 I35
stroke3  248  3 I35
stroke3  249  3 I35
stroke3  249  4 I35
stroke3  249  5 I35
stroke3  249  6 I35
stroke3  248  6 I35
stroke3  248  7 I35
stroke3  247  7 I35
stroke3  246  8 I35
stroke3  245  8 I35
stroke3  244  8 I35
stroke3  243  8 I35
stroke3  242  8 I35
stroke3  241  7 I35
stroke3  240  7 I35
stroke3  240  6 I35
stroke3  239  6 I35
stroke3  239  5 I35
stroke3  239  4 I35
stroke3  240  4 I35
stroke3  240  3 I35
stroke3  240  2 I35
stroke3  241  2 I35
stroke3  241  1 I35
stroke3  242  1 I35
stroke3  243  1 I35
stroke3  244  1 I35
stroke3  245  2 I35
stroke3  246  3 I35
stroke3  246  4 I35
stroke3  247  5 I35
stroke3  248  6 I35
stroke3  248  7 I35
stroke3  249  9 I35
stroke3  250  11 I35
stroke3  250  13 I35
stroke3  251  15 I35
stroke3  251  17 I35
stroke3  252  19 I35
stroke3  252  21 I35
stroke3  253  23 I35
stroke3  253  25 I35
stroke3  253  27 I35
stroke3  254  29 I35
stroke3  254  30 I35
stroke3  254  32 I35
stroke3  254  34 I35
stroke3  254  36 I35
stroke3  254  37 I35
stroke3  254  39 I35
stroke3  254  40 I35
stroke3  254  42 I35
stroke3  254  43 I35
stroke3  254  44 I35
stroke3  254  46 I35
stroke3  253  47 I35
stroke3  253  48 I35
stroke3  253  49 I35
stroke3  253  50 I35
stroke3  252  51 I35
stroke3  252  52 I35
stroke3  252  53 I35
stroke3  251  54 I35
stroke3  251  55 I35
stroke3  250  55 I35
stroke3  250  56 I35
stroke3  249  56 I35
stroke3  248  57 I35
stroke3  247  57 I35
stroke3  246  58 I35
stroke3  245  58 I35
stroke3  244  58 I35
stroke3  242  58 I35
stroke3  241  58 I35
stroke3  239  57 I35
stroke3  238  57 I35
stroke3  236  57 I35
stroke3  235  57 I35
stroke3  233  56 I35
stroke3  232  56 I35
stroke3  230  55 I35
stroke3  229  55 I35
stroke3  227  55 I35
stroke3  226  55 I35
stroke3  225  55 I35
stroke3  224  55 I35
stroke3  223  55 I35
stroke3  222  55 I35
stroke3  221  56 I35
stroke3  220  57 I35
stroke3  220  58 I35
stroke3  220  59 I35
stroke3  220  60 I35
stroke3  220  61 I35
stroke3  221  62 I35
stroke3  222  63 I35
stroke3  223  64 I35
stroke3  224  64 I35
stroke3  225  65 I35
stroke3  226  65 I35
stroke3  227  65 I35
stroke3  228  65 I35
stroke3  229  65 I35
stroke3  230  65 I35
stroke3  231  65 I35
stroke3  232  65 I35
stroke3  234  64 I35
stroke3  235  64 I35
stroke3  236  64 I35
stroke3  238  64 I35
stroke3  239  63 I35
stroke3  241  63 I35
stroke3  242  63 I35
stroke3  244  62 I35
stroke3  245  62 I35
stroke3  247  61 I35
stroke3  248  61 I35
stroke3  249  61 I35
stroke3  250  61 I35
stroke3  251  61 I35
stroke3  253  61 I35
stroke3  254  61 I35
stroke3  255  62 I35
stroke3  256  62 I35
stroke3  257  63 I35
stroke3  258  64 I35
stroke3  259  64 I35
stroke3  260  65 I35
stroke3  261  66 I35
stroke3  261  67 I35
stroke3  262  67 I35
stroke3  262  68 I35
stroke3  262  69 I35
stroke4  280  59 B7
stroke4  279  60 I7
stroke4  279  61 I7
stroke4  279  62 I7
stroke4  279  63 I7
stroke4  280  64 I7
stroke4  281  64 I7
stroke4  282  64 I7
stroke4  283  65 I7
stroke4  284  64 I7
stroke4  285  64 I7
stroke4  286  64 I7
stroke4  287  64 I7
stroke4  288  64 I7
stroke4  289  64 I7
stroke4  290  63 I7
stroke4  291  63 I7
stroke4  291  62 I7
stroke4  291  61 I7
stroke4  291  60 I7
stroke4  290  60 I7
stroke4  290  59 I7
stroke4  289  59 I7
stroke4  288  58 I7
stroke4  287  58 I7
stroke4  286  57 I7
stroke4  285  57 I7
stroke4  284  57 I7
stroke4  283  57 I7
stroke4  282  58 I7
stroke4  281  58 I7
stroke4  280  58 I7
stroke4  280  59 I7
stroke4  279  59 I7
stroke4  279  60 I7
stroke4  279  61 I7
stroke4  279  62 I7
stroke4  280  62 I7
stroke4  280  63 I7
stroke4  281  63 I7
stroke4  282  64 I7
stroke4  283  64 I7
stroke4  284  64 I7
stroke4  285  65 I7
stroke4  286  65 I7
stroke4  287  64 I7
stroke4  288  64 I7
stroke4  289  63 I7
stroke4  290  63 I7
stroke4  291  62 I7
stroke4  291  61 I7
stroke4  292  59 I7
stroke4  292  58 I7
stroke4  293  56 I7
stroke4  293  54 I7
stroke4  293  52 I7
stroke4  293  50 I7
stroke4  294  47 I7
stroke4  294  45 I7
stroke4  294  43 I7
stroke4  294  41 I7
stroke4  294  39 I7
stroke4  294  36 I7
stroke4  294  34 I7
stroke4  294  32 I7
stroke4  294  30 I7
stroke4  294  28 I7
stroke4  294  26 I7
stroke4  294  24 I7
stroke4  294  22 I7
stroke4  294  20 I7
stroke4  295  18 I7
stroke4  295  17 I7
stroke4  295  15 I7
stroke4  295  14 I7
stroke4  295  13 I7
stroke4  294  11 I7
stroke4  294  10 I7
stroke4  294  9 I7
stroke4  294  8 I7
stroke4  294  7 I7
stroke4  294  6 I7
stroke4  293  5 I7
stroke4  293  4 I7
stroke4  292  5 I7
stroke4  291  5 I7
stroke4  291  6 I7
stroke4  290  6 I7
stroke4  290  7 I7
stroke4  289  8 I7
stroke4  288  9 I7
stroke4  287  10 I7
stroke4  286  11 I7
stroke4  284  13 I7
stroke4  282  14 I7
stroke4  281  16 I7
stroke4  279  18 I7
stroke4  277  19 I7
stroke4  276  20 I7
stroke4  274  22 I7
stroke4  273  23 I7
stroke4  272  24 I7
stroke4  271  24 I7
stroke4  270  25 I7
stroke4  270  26 I7
stroke4  269  27 I7
stroke4  268  28 I7
stroke4  267  29 I7
stroke4  267  30 I7
stroke4  268  30 I7
stroke4  268  29 I7
stroke4  269  29 I7
stroke5  327  4 B40
stroke5  327  3 I40
stroke5  326  3 I40
stroke5  326  4 I40
stroke5  325  4 I40
stroke5  324  4 I40
stroke5  323  4 I40
stroke5  323  5 I40
stroke5  322  5 I40
stroke5  321  5 I40
stroke5  321  6 I40
stroke5  320  6 I40
stroke5  320  7 I40
stroke5  320  8 I40
stroke5  319  9 I40
stroke5  320  9 I40
stroke5  320  10 I40
stroke5  320  11 I40
stroke5  320  12 I40
stroke5  320  13 I40
stroke5  321  13 I40
stroke5  322  14 I40
stroke5  323  14 I40
stroke5  324  14 I40
stroke5  325  14 I40
stroke5  326  14 I40
stroke5  327  14 I40
stroke5  327  13 I40
stroke5  328  13 I40
stroke5  329  12 I40
stroke5  330  12 I40
stroke5  330  11 I40
stroke5  331  10 I40
stroke5  331  9 I40
stroke5  331  8 I40
stroke5  331  7 I40
stroke5  331  6 I40
stroke5  330  5 I40
stroke5  329  5 I40
stroke5  328  4 I40
stroke5  327  5 I40
stroke5  326  5 I40
stroke5  325  5 I40
stroke5  324  6 I40
stroke5  323  7 I40
stroke5  322  9 I40
stroke5  321  10 I40
stroke5  321  12 I40
stroke5  320  14 I40
stroke5  320  16 I40
stroke5  319  18 I40
stroke5  319  21 I40
stroke5  319  24 I40
stroke5  319  26 I40
stroke5  319  29 I40
stroke5  319  31 I40
stroke5  319  33 I40
stroke5  320  36 I40
stroke5  320  38 I40
stroke5  320  40 I40
stroke5  321  41 I40
stroke5  321  42 I40
stroke5  322  43 I40
stroke5  322  44 I40
stroke5  322  45 I40
stroke5  323  45 I40
stroke5  324  46 I40
stroke5  325  45 I40
stroke5  326  45 I40
stroke5  327  45 I40
stroke5  328  44 I40
stroke5  329  44 I40
stroke5  330  43 I40
stroke5  332  42 I40
stroke5  333  41 I40
stroke5  335  40 I40
stroke5  336  38 I40
stroke5  338  36 I40
stroke5  339  34 I40
stroke5  341  32 I40
stroke5  342  30 I40
stroke5  344  28 I40
stroke5  345  26 I40
stroke5  346  24 I40
stroke5  347  22 I40
stroke5  348  20 I40
stroke5  349  19 I40
stroke5  350  17 I40
stroke5  350  15 I40
stroke5  351  14 I40
stroke5  351  13 I40
stroke5  352  12 I40
stroke5  352  11 I40
stroke5  353  10 I40
stroke5  353  9 I40
stroke5  353  8 I40
stroke5  354  7 I40
stroke5  354  6 I40
stroke5  354  7 I40
stroke5  354  8 I40
stroke5  354  9 I40
stroke5  354  11 I40
stroke5  354  13 I40
stroke5  354  14 I40
stroke5  354  16 I40
stroke5  354  18 I40
stroke5  354  20 I40
stroke5  355  23 I40
stroke5  355  25 I40
stroke5  355  27 I40
stroke5  355  29 I40
stroke5  355  31 I40
stroke5  355  33 I40
stroke5  355  35 I40
stroke5  354  37 I40
stroke5  354  39 I40
stroke5  354  41 I40
stroke5  354  43 I40
stroke5  354  45 I40
stroke5  353  46 I40
stroke5  353  48 I40
stroke5  353  50 I40
stroke5  353  51 I40
stroke5  353  52 I40
stroke5  352  53 I40
stroke5  352  54 I40
stroke5  351  55 I40
stroke5  351  56 I40
stroke5  350  57 I40
stroke5  350  58 I40
stroke5  349  59 I40
stroke5  348  60 I40
stroke5  347  60 I40
stroke5  346  61 I40
stroke5  345  62 I40
stroke5  344  62 I40
stroke5  343  63 I40
stroke5  342  63 I40
stroke5  340  64 I40
stroke5  339  64 I40
stroke5  337  64 I40
stroke5  336  65 I40
stroke5  334  65 I40
stroke5  332  65 I40
stroke5  330  65 I40
stroke5  329  65 I40
stroke5  327  64 I40
stroke5  325  64 I40
stroke5  323  63 I40
stroke5  320  62 I40
stroke5  318  61 I40
stroke5  316  60 I40
stroke5  314  58 I40
stroke5  312  57 I40
stroke5  310  56 I40
stroke5  309  54 I40
stroke5  308  53 I40
stroke5  306  51 I40
stroke5  306  50 I40
stroke5  305  49 I40
stroke5  305  48 I40
stroke5  325  50 I40
stroke5  325  49 I40
stroke5  325  48 I40
stroke5  325  47 I40
stroke5  326  48 I40
stroke5  327  49 I40
stroke5  327  50 I40
stroke5  328  51 I40
stroke5  330  52 I40
stroke5  331  54 I40
stroke5  333  56 I40
stroke5  335  58 I40
stroke5  337  60 I40
stroke5  339  62 I40
stroke5  340  64 I40
stroke5  342  66 I40
stroke5  343  68 I40
stroke5  345  71 I40
stroke5  346  73 I40
stroke5  347  75 I40
stroke5  348  78 I40
stroke5  348  80 I40
stroke5  349  82 I40
stroke5  349  84 I40
stroke5  349  85 I40
stroke5  349  87 I40
stroke5  350  88 I40
stroke5  350  89 I40
stroke5  350  90 I40
stroke5  349  90 I40
stroke5  349  89 I40
stroke6  390  5 B35
stroke6  391  5 I35
stroke6  391  4 I35
stroke6  392  4 I35
stroke6  393  4 I35
stroke6  393  5 I35
stroke6  394  5 I35
stroke6  394  6 I35
stroke6  395  6 I35
stroke6  395  7 I35
stroke6  394  8 I35
stroke6  394  9 I35
stroke6  394  10 I35
stroke6  393  10 I35
stroke6  392  11 I35
stroke6  391  11 I35
stroke6  390  11 I35
stroke6  389  11 I35
stroke6  387  11 I35
stroke6  386  11 I35
stroke6  385  10 I35
stroke6  384  10 I35
stroke6  384  9 I35
stroke6  383  8 I35
stroke6  383  7 I35
stroke6  382  7 I35
stroke6  383  6 I35
stroke6  383  5 I35
stroke6  383  4 I35
stroke6  384  4 I35
stroke6  385  4 I35
stroke6  385  3 I35
stroke6  386  3 I35
stroke6  387  4 I35
stroke6  388  4 I35
stroke6  389  5 I35
stroke6  390  6 I35
stroke6  391  7 I35
stroke6  392  8 I35
stroke6  392  9 I35
stroke6  393  10 I35
stroke6  394  12 I35
stroke6  395  14 I35
stroke6  396  16 I35
stroke6  396  18 I35
stroke6  397  20 I35
stroke6  398  22 I35
stroke6  398  23 I35
stroke6  398  25 I35
stroke6  399  27 I35
stroke6  399  28 I35
stroke6  399  30 I35
stroke6  400  31 I35
stroke6  400  33 I35
stroke6  400  35 I35
stroke6  400  36 I35
stroke6  400  38 I35
stroke6  399  39 I35
stroke6  399  41 I35
stroke6  399  42 I35
stroke6  399  44 I35
stroke6  398  45 I35
stroke6  398  46 I35
stroke6  397  48 I35
stroke6  397  49 I35
stroke6  396  50 I35
stroke6  395  51 I35
stroke6  395  52 I35
stroke6  394  52 I35
stroke6  393  53 I35
stroke6  392  53 I35
stroke6  391  54 I35
stroke6  389  55 I35
stroke6  388  55 I35
stroke6  387  55 I35
stroke6  386  56 I35
stroke6  384  56 I35
stroke6  383  56 I35
stroke6  381  56 I35
stroke6  380  56 I35
stroke6  378  56 I35
stroke6  377  57 I35
stroke6  375  57 I35
stroke6  374  57 I35
stroke6  372  57 I35
stroke6  371  57 I35
stroke6  370  57 I35
stroke6  369  57 I35
stroke6  368  57 I35
stroke6  367  57 I35
stroke6  366  57 I35
stroke6  365  57 I35
stroke6  364  57 I35
stroke6  364  58 I35
stroke6  365  59 I35
stroke6  365  60 I35
stroke6  366  61 I35
stroke6  366  62 I35
stroke6  367  63 I35
stroke6  368  64 I35
stroke6  368  65 I35
stroke6  369  65 I35
stroke6  370  66 I35
stroke6  371  66 I35
stroke6  373  66 I35
stroke6  374  66 I35
stroke6  375  66 I35
stroke6  376  65 I35
stroke6  378  65 I35
stroke6  379  64 I35
stroke6  381  64 I35
stroke6  383  63 I35
stroke6  384  63 I35
stroke6  386  63 I35
stroke6  388  63 I35
stroke6  389  62 I35
stroke6  391  62 I35
stroke6  392  63 I35
stroke6  394  63 I35
stroke6  395  63 I35
stroke6  396  64 I35
stroke6  398  64 I35
stroke6  399  65 I35
stroke6  400  65 I35
stroke6  401  66 I35
stroke6  402  67 I35
stroke6  403  67 I35
stroke6  404  68 I35
stroke6  404  69 I35
stroke6  405  70 I35
stroke6  405  71 I35
stroke6  404  72 I35
stroke7  391  86 B66
stroke7  390  87 I66
stroke7  389  87 I66
stroke7  389  88 I66
stroke7  389  89 I66
stroke7  388  89 I66
stroke7  388  90 I66
stroke7  388  91 I66
stroke7  388  92 I66
stroke7  389  93 I66
stroke7  389  94 I66
stroke7  389  95 I66
stroke7  390  95 I66
stroke7  391  95 I66
stroke7  392  95 I66
stroke7  392  94 I66
stroke7  393  94 I66
stroke7  394  93 I66
stroke7  394  92 I66
stroke7  393  92 I66
stroke7  392  91 I66
stroke7  391  91 I66
stroke7  390  91 I66
stroke7  389  91 I66
stroke7  388  92 I66
stroke7  387  92 I66
stroke7  387  93 I66
stroke7  388  93 I66
stroke7  388  94 I66
stroke7  389  94 I66
stroke7  390  94 I66
stroke7  391  94 I66
stroke7  392  93 I66
stroke7  393  93 I66
stroke7  393  92 I66
stroke7  394  91 I66
stroke7  394  90 I66
stroke7  394  89 I66
stroke7  394  88 I66
stroke7  394  87 I66
stroke7  393  86 I66
stroke7  393  85 I66
stroke7  392  84 I66
stroke7  391  84 I66
stroke7  391  83 I66
stroke7  390  82 I66
stroke7  389  82 I66
stroke7  389  81 I66
stroke7  388  81 I66
stroke7  388  80 I66
stroke7  388  81 I66
stroke7  389  81 I66
stroke7  389  82 I66
stroke7  390  82 I66
stroke7  391  83 I66
stroke7  392  84 I66
stroke7  394  85 I66
stroke7  395  86 I66
stroke7  397  87 I66
stroke7  398  88 I66
stroke7  400  90 I66
stroke7  401  91 I66
stroke7  403  92 I66
stroke7  405  94 I66
stroke7  406  95 I66
stroke7  407  97 I66
stroke7  409  98 I66
stroke7  410  99 I66
stroke7  411  101 I66
stroke7  411  102 I66
stroke7  412  103 I66
stroke7  413  104 I66
stroke7  413  105 I66
stroke7  414  106 I66
stroke7  414  107 I66
stroke7  414  106 I66
stroke8  412  56 B47
stroke8  411  56 I47
stroke8  410  56 I47
stroke8  410  57 I47
stroke8  410  58 I47
stroke8  411  59 I47
stroke8  412  60 I47
stroke8  413  61 I47
stroke8  414  62 I47
stroke8  415  62 I47
stroke8  416  62 I47
stroke8  416  63 I47
stroke8  417  63 I47
stroke8  418  63 I47
stroke8  419  63 I47
stroke8  420  63 I47
stroke8  421  63 I47
stroke8  422  62 I47
stroke8  423  62 I47
stroke8  424  62 I47
stroke8  425  62 I47
stroke8  426  61 I47
stroke8  427  60 I47
stroke8  428  60 I47
stroke8  428  59 I47
stroke8  429  58 I47
stroke8  430  56 I47
stroke8  430  55 I47
stroke8  431  54 I47
stroke8  431  52 I47
stroke8  431  51 I47
stroke8  432  49 I47
stroke8  432  47 I47
stroke8  432  46 I47
stroke8  433  44 I47
stroke8  433  42 I47
stroke8  433  41 I47
stroke8  433  39 I47
stroke8  434  37 I47
stroke8  434  36 I47
stroke8  434  34 I47
stroke8  434  32 I47
stroke8  434  31 I47
stroke8  434  29 I47
stroke8  434  27 I47
stroke8  434  26 I47
stroke8  434  24 I47
stroke8  433  22 I47
stroke8  433  20 I47
stroke8  433  18 I47
stroke8  433  16 I47
stroke8  433  15 I47
stroke8  433  13 I47
stroke8  433  11 I47
stroke8  432  10 I47
stroke8  432  9 I47
stroke8  432  7 I47
stroke8  432  6 I47
stroke8  432  5 I47
stroke8  432  4 I47
stroke8  432  5 I47
stroke8  433  6 I47
stroke8  433  8 I47
stroke9  460  64 B7
stroke9  460  65 I7
stroke9  461  65 I7
stroke9  462  65 I7
stroke9  463  65 I7
stroke9  464  64 I7
stroke9  465  64 I7
stroke9  466  64 I7
stroke9  467  64 I7
stroke9  468  63 I7
stroke9  469  62 I7
stroke9  468  62 I7
stroke9  468  61 I7
stroke9  468  60 I7
stroke9  467  60 I7
stroke9  466  59 I7
stroke9  466  58 I7
stroke9  465  58 I7
stroke9  464  58 I7
stroke9  463  57 I7
stroke9  462  57 I7
stroke9  461  57 I7
stroke9  460  57 I7
stroke9  459  57 I7
stroke9  458  58 I7
stroke9  457  58 I7
stroke9  456  59 I7
stroke9  456  60 I7
stroke9  456  61 I7
stroke9  456  62 I7
stroke9  456  63 I7
stroke9  456  64 I7
stroke9  457  64 I7
stroke9  457  65 I7
stroke9  458  65 I7
stroke9  459  65 I7
stroke9  460  66 I7
stroke9  461  66 I7
stroke9  462  65 I7
stroke9  463  65 I7
stroke9  464  65 I7
stroke9  465  65 I7
stroke9  466  64 I7
stroke9  467  64 I7
stroke9  468  63 I7
stroke9  468  62 I7
stroke9  469  61 I7
stroke9  470  60 I7
stroke9  470  58 I7
stroke9  471  57 I7
stroke9  471  55 I7
stroke9  472  53 I7
stroke9  472  51 I7
stroke9  472  49 I7
stroke9  472  47 I7
stroke9  473  45 I7
stroke9  473  43 I7
stroke9  473  41 I7
stroke9  473  39 I7
stroke9  473  37 I7
stroke9  473  35 I7
stroke9  473  34 I7
stroke9  473  32 I7
stroke9  473  30 I7
stroke9  473  28 I7
stroke9  473  26 I7
stroke9  473  24 I7
stroke9  473  22 I7
stroke9  473  20 I7
stroke9  473  18 I7
stroke9  473  16 I7
stroke9  473  15 I7
stroke9  473  13 I7
stroke9  473  11 I7
stroke9  473  10 I7
stroke9  473  9 I7
stroke9  473  7 I7
stroke9  473  6 I7
stroke9  473  5 I7
stroke9  473  4 I7
stroke9  473  3 I7
stroke9  473  2 I7
stroke9  473  1 I7
stroke9  472  1 I7
stroke9  471  1 I7
stroke9  471  2 I7
stroke9  470  2 I7
stroke9  469  2 I7
stroke9  469  3 I7
stroke9  468  4 I7
stroke9  466  5 I7
stroke9  464  6 I7
stroke9  462  8 I7
stroke9  460  10 I7
stroke9  457  12 I7
stroke9  455  14 I7
stroke9  453  16 I7
stroke9  451  17 I7
stroke9  449  19 I7
stroke9  448  20 I7
stroke9  447  21 I7
stroke9  446  22 I7
stroke9  445  23 I7
stroke9  444  24 I7
stroke9  443  25 I7
stroke9  442  26 I7
stroke9  441  27 I7
stroke9  440  27 I7
stroke9  440  28 I7
stroke9  440  27 I7
stroke9  441  27 I7
stroke9  442  27 I7
