stroke1  24  107 B30
stroke1  25  107 I30
stroke1  26  108 I30
stroke1  27  108 I30
stroke1  28  107 I30
stroke1  29  107 I30
stroke1  29  106 I30
stroke1  30  106 I30
stroke1  30  105 I30
stroke1  30  104 I30
stroke1  30  103 I30
stroke1  30  102 I30
stroke1  29  101 I30
stroke1  28  100 I30
stroke1  28  99 I30
stroke1  27  98 I30
stroke1  26  97 I30
stroke1  25  96 I30
stroke1  24  96 I30
stroke1  24  96 I30
stroke1  23  95 I30
stroke1  22  95 I30
stroke1  21  95 I30
stroke1  20  94 I30
stroke1  19  95 I30
stroke1  18  95 I30
stroke1  17  95 I30
stroke1  17  96 I30
stroke1  16  96 I30
stroke1  16  97 I30
stroke1  15  98 I30
stroke1  15  99 I30
stroke1  15  100 I30
stroke1  15  101 I30
stroke1  15  102 I30
stroke1  16  103 I30
stroke1  16  104 I30
stroke1  17  105 I30
stroke1  18  106 I30
stroke1  19  107 I30
stroke1  20  107 I30
stroke1  21  108 I30
stroke1  22  108 I30
stroke1  23  108 I30
stroke1  24  108 I30
stroke1  25  107 I30
stroke1  26  107 I30
stroke1  27  106 I30
stroke1  28  105 I30
stroke1  29  104 I30
stroke1  29  102 I30
stroke1  30  101 I30
stroke1  31  99 I30
stroke1  31  97 I30
stroke1  32  94 I30
stroke1  32  92 I30
stroke1  32  89 I30
stroke1  33  87 I30
stroke1  33  84 I30
stroke1  33  82 I30
stroke1  33  79 I30
stroke1  33  77 I30
stroke1  33  75 I30
stroke1  33  72 I30
stroke1  34  70 I30
stroke1  34  68 I30
stroke1  34  66 I30
stroke1  34  65 I30
stroke1  34  63 I30
stroke1  34  61 I30
stroke1  34  59 I30
stroke1  35  58 I30
stroke1  35  56 I30
stroke1  35  55 I30
stroke1  35  54 I30
stroke1  35  53 I30
stroke1  35  52 I30
stroke1  35  51 I30
stroke1  35  50 I30
stroke1  35  49 I30
stroke1  35  48 I30
stroke1  35  47 I30
stroke1  36  47 I30
stroke1  36  46 I30
stroke1  36  45 I30
stroke1  36  44 I30
stroke1  36  45 I30
stroke1  36  47 I30
stroke1  36  48 I30
stroke1  37  50 I30
stroke1  37  52 I30
stroke1  38  54 I30
stroke1  38  57 I30
stroke1  39  59 I30
stroke1  39  62 I30
stroke1  40  64 I30
stroke1  40  67 I30
stroke1  41  70 I30
stroke1  42  72 I30
stroke1  42  75 I30
stroke1  43  77 I30
stroke1  44  80 I30
stroke1  44  82 I30
stroke1  45  84 I30
stroke1  45  86 I30
stroke1  45  87 I30
stroke1  46  88 I30
stroke1  46  90 I30
stroke1  46  91 I30
stroke1  46  92 I30
stroke1  46  93 I30
stroke1  47  93 I30
stroke1  47  92 I30
stroke1  47  91 I30
stroke1  48  89 I30
stroke1  48  88 I30
stroke1  49  86 I30
stroke1  49  84 I30
stroke1  50  82 I30
stroke1  51  80 I30
stroke1  53  77 I30
stroke1  54  75 I30
stroke1  55  73 I30
stroke1  56  71 I30
stroke1  58  68 I30
stroke1  59  66 I30
stroke1  60  64 I30
stroke1  61  62 I30
stroke1  62  60 I30
stroke1  63  58 I30
stroke1  64  56 I30
stroke1  65  54 I30
stroke1  66  53 I30
stroke1  67  51 I30
stroke1  68  50 I30
stroke1  68  49 I30
stroke1  69  47 I30
stroke1  70  46 I30
stroke1  70  45 I30
stroke1  71  44 I30
stroke1  71  43 I30
stroke1  72  43 I30
stroke1  72  42 I30
stroke1  72  43 I30
stroke1  72  44 I30
stroke1  72  45 I30
stroke1  72  46 I30
stroke1  72  48 I30
stroke1  72  50 I30
stroke1  72  53 I30
stroke1  72  55 I30
stroke1  72  58 I30
stroke1  72  60 I30
stroke1  72  63 I30
stroke1  72  66 I30
stroke1  72  69 I30
stroke1  72  72 I30
stroke1  72  74 I30
stroke1  72  77 I30
stroke1  72  80 I30
stroke1  72  82 I30
stroke1  72  85 I30
stroke1  71  87 I30
stroke1  71  89 I30
stroke1  71  91 I30
stroke1  71  93 I30
stroke1  71  95 I30
stroke1  71  96 I30
stroke1  70  98 I30
stroke1  70  100 I30
stroke1  70  101 I30
stroke1  70  103 I30
stroke1  70  104 I30
stroke1  70  105 I30
stroke1  70  106 I30
stroke1  70  107 I30
stroke1  70  108 I30
stroke1  70  107 I30
stroke1  70  106 I30
stroke2  107  51 B35
stroke2  107  50 I35
stroke2  108  50 I35
stroke2  109  49 I35
stroke2  110  50 I35
stroke2  109  50 I35
stroke2  109  51 I35
stroke2  108  52 I35
stroke2  107  53 I35
stroke2  106  54 I35
stroke2  105  54 I35
stroke2  104  54 I35
stroke2  103  54 I35
stroke2  102  53 I35
stroke2  101  53 I35
stroke2  100  52 I35
stroke2  99  52 I35
stroke2  99  51 I35
stroke2  98  50 I35
stroke2  98  49 I35
stroke2  98  48 I35
stroke2  98  47 I35
stroke2  98  46 I35
stroke2  98  45 I35
stroke2  98  44 I35
stroke2  99  43 I35
stroke2  100  42 I35
stroke2  100  41 I35
stroke2  101  41 I35
stroke2  102  41 I35
stroke2  103  41 I35
stroke2  104  42 I35
stroke2  105  43 I35
stroke2  106  44 I35
stroke2  106  45 I35
stroke2  107  47 I35
stroke2  107  48 I35
stroke2  108  50 I35
stroke2  108  51 I35
stroke2  108  53 I35
stroke2  109  55 I35
stroke2  109  57 I35
stroke2  109  59 I35
stroke2  109  61 I35
stroke2  110  63 I35
stroke2  110  65 I35
stroke2  110  67 I35
stroke2  110  69 I35
stroke2  110  71 I35
stroke2  110  73 I35
stroke2  110  75 I35
stroke2  110  77 I35
stroke2  110  80 I35
stroke2  110  81 I35
stroke2  110  83 I35
stroke2  110  85 I35
stroke2  110  86 I35
stroke2  109  87 I35
stroke2  109  88 I35
stroke2  109  89 I35
stroke2  109  90 I35
stroke2  109  91 I35
stroke2  108  92 I35
stroke2  108  93 I35
stroke2  107  94 I35
stroke2  106  95 I35
stroke2  105  95 I35
stroke2  105  96 I35
stroke2  104  96 I35
stroke2  103  96 I35
stroke2  103  97 I35
stroke2  102  97 I35
stroke2  101  97 I35
stroke2  99  97 I35
stroke2  98  97 I35
stroke2  96  96 I35
stroke2  94  96 I35
stroke2  92  96 I35
stroke2  90  95 I35
stroke2  88  95 I35
stroke2  86  95 I35
stroke2  84  94 I35
stroke2  83  94 I35
stroke2  81  94 I35
stroke2  80  94 I35
stroke2  79  95 I35
stroke2  78  95 I35
stroke2  78  96 I35
stroke2  78  97 I35
stroke2  78  98 I35
stroke2  78  99 I35
stroke2  79  99 I35
stroke2  79  100 I35
stroke2  80  101 I35
stroke2  81  102 I35
stroke2  82  102 I35
stroke2  83  103 I35
stroke2  84  104 I35
stroke2  85  104 I35
stroke2  86  104 I35
stroke2  88  104 I35
stroke2  89  104 I35
stroke2  91  104 I35
stroke2  92  104 I35
stroke2  94  104 I35
stroke2  96  104 I35
stroke2  97  103 I35
stroke2  99  103 I35
stroke2  101  102 I35
stroke2  103  102 I35
stroke2  105  101 I35
stroke2  107  101 I35
stroke2  109  100 I35
stroke2  111  100 I35
stroke2  112  99 I35
stroke2  114  99 I35
stroke2  116  100 I35
stroke2  118  100 I35
stroke2  119  100 I35
stroke2  121  101 I35
stroke2  122  102 I35
stroke2  123  103 I35
stroke2  125  104 I35
stroke2  126  105 I35
stroke2  127  106 I35
stroke2  128  107 I35
stroke3  137  79 B46
stroke3  136  79 I46
stroke3  136  78 I46
stroke3  136  77 I46
stroke3  136  78 I46
stroke3  137  78 I46
stroke3  138  79 I46
stroke3  138  80 I46
stroke3  137  80 I46
stroke3  137  81 I46
stroke3  137  82 I46
stroke3  136  83 I46
stroke3  135  84 I46
stroke3  134  84 I46
stroke3  133  84 I46
stroke3  132  84 I46
stroke3  131  83 I46
stroke3  130  82 I46
stroke3  129  81 I46
stroke3  129  80 I46
stroke3  128  79 I46
stroke3  128  78 I46
stroke3  128  77 I46
stroke3  128  76 I46
stroke3  129  75 I46
stroke3  130  75 I46
stroke3  131  75 I46
stroke3  133  76 I46
stroke3  134  76 I46
stroke3  136  77 I46
stroke3  138  79 I46
stroke3  140  81 I46
stroke3  142  82 I46
stroke3  144  84 I46
stroke3  146  86 I46
stroke3  148  88 I46
stroke3  150  90 I46
stroke3  151  92 I46
stroke3  152  93 I46
stroke3  153  94 I46
stroke3  154  94 I46
stroke3  154  95 I46
stroke3  153  94 I46
stroke3  152  93 I46
stroke3  151  91 I46
stroke3  138  56 I46
stroke3  138  55 I46
stroke3  139  55 I46
stroke3  140  55 I46
stroke3  140  56 I46
stroke3  141  57 I46
stroke3  142  58 I46
stroke3  142  59 I46
stroke3  142  60 I46
stroke3  141  60 I46
stroke3  141  61 I46
stroke3  140  61 I46
stroke3  139  62 I46
stroke3  138  62 I46
stroke3  137  62 I46
stroke3  136  61 I46
stroke3  135  61 I46
stroke3  134  61 I46
stroke3  133  60 I46
stroke3  133  59 I46
stroke3  132  59 I46
stroke3  132  58 I46
stroke3  132  57 I46
stroke3  132  56 I46
stroke3  133  56 I46
stroke3  134  55 I46
stroke3  135  55 I46
stroke3  136  55 I46
stroke3  138  56 I46
stroke3  139  57 I46
stroke3  141  58 I46
stroke3  143  60 I46
stroke3  145  62 I46
stroke3  147  64 I46
stroke3  148  67 I46
stroke3  150  69 I46
stroke3  152  71 I46
stroke3  154  73 I46
stroke3  156  75 I46
stroke3  157  76 I46
stroke3  157  77 I46
stroke4  189  42 B35
stroke4  189  41 I35
stroke4  189  42 I35
stroke4  190  42 I35
stroke4  190  43 I35
stroke4  191  43 I35
stroke4  191  44 I35
stroke4  191  45 I35
stroke4  191  46 I35
stroke4  190  46 I35
stroke4  190  47 I35
stroke4  189  48 I35
stroke4  188  48 I35
stroke4  187  48 I35
stroke4  186  48 I35
stroke4  185  48 I35
stroke4  184  48 I35
stroke4  183  48 I35
stroke4  182  47 I35
stroke4  181  46 I35
stroke4  180  45 I35
stroke4  180  44 I35
stroke4  179  43 I35
stroke4  180  42 I35
stroke4  180  41 I35
stroke4  180  40 I35
stroke4  181  40 I35
stroke4  182  40 I35
stroke4  183  40 I35
stroke4  184  39 I35
stroke4  185  40 I35
stroke4  186  40 I35
stroke4  187  40 I35
stroke4  188  41 I35
stroke4  189  42 I35
stroke4  190  43 I35
stroke4  190  44 I35
stroke4  191  45 I35
stroke4  192  46 I35
stroke4  192  47 I35
stroke4  192  49 I35
stroke4  193  51 I35
stroke4  193  52 I35
stroke4  193  54 I35
stroke4  194  56 I35
stroke4  194  58 I35
stroke4  194  61 I35
stroke4  195  63 I35
stroke4  195  65 I35
stroke4  196  68 I35
stroke4  196  70 I35
stroke4  196  72 I35
stroke4  197  75 I35
stroke4  197  77 I35
stroke4  197  79 I35
stroke4  198  81 I35
stroke4  198  83 I35
stroke4  198  85 I35
stroke4  198  86 I35
stroke4  198  88 I35
stroke4  198  89 I35
stroke4  197  90 I35
stroke4  197  91 I35
stroke4  197  92 I35
stroke4  197  93 I35
stroke4  197  94 I35
stroke4  196  94 I35
stroke4  196  95 I35
stroke4  195  96 I35
stroke4  194  96 I35
stroke4  193  97 I35
stroke4  192  97 I35
stroke4  191  97 I35
stroke4  190  97 I35
stroke4  189  97 I35
stroke4  187  97 I35
stroke4  186  97 I35
stroke4  184  97 I35
stroke4  182  96 I35
stroke4  180  96 I35
stroke4  178  96 I35
stroke4  176  95 I35
stroke4  174  95 I35
stroke4  173  95 I35
stroke4  172  95 I35
stroke4  170  94 I35
stroke4  170  95 I35
stroke4  169  95 I35
stroke4  168  95 I35
stroke4  167  96 I35
stroke4  167  97 I35
stroke4  168  98 I35
stroke4  168  99 I35
stroke4  168  100 I35
stroke4  169  101 I35
stroke4  169  102 I35
stroke4  170  102 I35
stroke4  171  103 I35
stroke4  171  104 I35
stroke4  172  104 I35
stroke4  173  105 I35
stroke4  174  105 I35
stroke4  175  105 I35
stroke4  177  105 I35
stroke4  178  105 I35
stroke4  180  105 I35
stroke4  181  105 I35
stroke4  183  105 I35
stroke4  185  104 I35
stroke4  186  104 I35
stroke4  188  104 I35
stroke4  190  103 I35
stroke4  191  103 I35
stroke4  192  103 I35
stroke4  194  102 I35
stroke4  195  102 I35
stroke4  196  102 I35
stroke4  198  102 I35
stroke4  199  103 I35
stroke4  201  103 I35
stroke4  202  104 I35
stroke4  204  104 I35
stroke4  205  105 I35
stroke4  206  105 I35
stroke4  207  106 I35
stroke4  208  106 I35
stroke4  208  107 I35
stroke4  209  107 I35
stroke5  214  97 B47
stroke5  213  97 I47
stroke5  213  98 I47
stroke5  212  98 I47
stroke5  213  99 I47
stroke5  213  100 I47
stroke5  213  101 I47
stroke5  214  101 I47
stroke5  215  102 I47
stroke5  215  103 I47
stroke5  216  103 I47
stroke5  217  104 I47
stroke5  218  104 I47
stroke5  219  104 I47
stroke5  220  104 I47
stroke5  222  105 I47
stroke5  223  105 I47
stroke5  224  104 I47
stroke5  226  104 I47
stroke5  227  104 I47
stroke5  229  103 I47
stroke5  230  103 I47
stroke5  231  102 I47
stroke5  233  101 I47
stroke5  234  100 I47
stroke5  235  99 I47
stroke5  236  98 I47
stroke5  237  96 I47
stroke5  238  94 I47
stroke5  239  92 I47
stroke5  239  89 I47
stroke5  240  87 I47
stroke5  240  84 I47
stroke5  241  82 I47
stroke5  241  79 I47
stroke5  241  76 I47
stroke5  241  74 I47
stroke5  241  71 I47
stroke5  241  68 I47
stroke5  241  65 I47
stroke5  241  63 I47
stroke5  241  60 I47
stroke5  241  58 I47
stroke5  241  55 I47
stroke5  241  53 I47
stroke5  241  51 I47
stroke5  241  49 I47
stroke5  241  47 I47
stroke5  241  46 I47
stroke5  241  44 I47
stroke5  241  43 I47
stroke5  241  42 I47
stroke5  241  41 I47
stroke5  241  42 I47
stroke5  241  43 I47
stroke5  241  45 I47
stroke6  252  99 B10
stroke6  251  99 I10
stroke6  251  100 I10
stroke6  252  100 I10
stroke6  252  101 I10
stroke6  252  102 I10
stroke6  253  102 I10
stroke6  254  102 I10
stroke6  254  103 I10
stroke6  255  103 I10
stroke6  256  103 I10
stroke6  257  103 I10
stroke6  258  102 I10
stroke6  259  102 I10
stroke6  260  102 I10
stroke6  261  101 I10
stroke6  262  100 I10
stroke6  262  99 I10
stroke6  262  98 I10
stroke6  262  97 I10
stroke6  261  97 I10
stroke6  261  96 I10
stroke6  260  95 I10
stroke6  259  95 I10
stroke6  258  94 I10
stroke6  257  93 I10
stroke6  256  93 I10
stroke6  255  92 I10
stroke6  254  92 I10
stroke6  253  92 I10
stroke6  252  92 I10
stroke6  251  92 I10
stroke6  250  92 I10
stroke6  249  92 I10
stroke6  248  93 I10
stroke6  247  93 I10
stroke6  247  94 I10
stroke6  247  95 I10
stroke6  246  96 I10
stroke6  247  97 I10
stroke6  247  98 I10
stroke6  247  99 I10
stroke6  248  100 I10
stroke6  248  101 I10
stroke6  249  101 I10
stroke6  249  102 I10
stroke6  250  102 I10
stroke6  251  102 I10
stroke6  252  102 I10
stroke6  253  102 I10
stroke6  254  102 I10
stroke6  255  102 I10
stroke6  256  101 I10
stroke6  257  101 I10
stroke6  258  100 I10
stroke6  259  99 I10
stroke6  260  98 I10
stroke6  261  96 I10
stroke6  262  95 I10
stroke6  262  93 I10
stroke6  263  91 I10
stroke6  263  89 I10
stroke6  264  86 I10
stroke6  264  84 I10
stroke6  264  82 I10
stroke6  264  79 I10
stroke6  264  77 I10
stroke6  264  75 I10
stroke6  264  72 I10
stroke6  264  70 I10
stroke6  264  67 I10
stroke6  264  65 I10
stroke6  264  63 I10
stroke6  264  61 I10
stroke6  264  59 I10
stroke6  264  56 I10
stroke6  264  55 I10
stroke6  264  53 I10
stroke6  264  52 I10
stroke6  264  51 I10
stroke6  264  50 I10
stroke6  264  49 I10
stroke6  264  48 I10
stroke6  264  47 I10
stroke6  265  47 I10
stroke6  265  46 I10
stroke6  266  45 I10
stroke6  267  45 I10
stroke6  268  45 I10
stroke6  269  45 I10
stroke6  269  46 I10
stroke6  270  46 I10
stroke6  270  47 I10
stroke6  271  48 I10
stroke6  271  49 I10
stroke6  271  50 I10
stroke6  271  52 I10
stroke6  272  54 I10
stroke6  272  56 I10
stroke6  272  58 I10
stroke6  272  60 I10
stroke6  273  62 I10
stroke6  273  65 I10
stroke6  274  67 I10
stroke6  274  70 I10
stroke6  274  72 I10
stroke6  275  75 I10
stroke6  275  77 I10
stroke6  275  79 I10
stroke6  275  81 I10
stroke6  275  83 I10
stroke6  275  85 I10
stroke6  274  87 I10
stroke6  274  89 I10
stroke6  274  91 I10
stroke6  274  92 I10
stroke6  274  94 I10
stroke6  273  95 I10
stroke6  273  96 I10
stroke6  273  97 I10
stroke6  272  98 I10
stroke6  271  99 I10
stroke6  270  99 I10
stroke6  270  100 I10
stroke6  269  100 I10
stroke6  268  100 I10
stroke6  267  100 I10
stroke6  266  100 I10
stroke6  265  100 I10
stroke6  265  101 I10
stroke6  265  102 I10
stroke6  266  103 I10
stroke6  267  104 I10
stroke6  267  106 I10
stroke6  268  107 I10
stroke6  269  109 I10
stroke6  271  110 I10
stroke6  272  112 I10
stroke6  274  114 I10
stroke6  275  116 I10
stroke6  277  118 I10
stroke6  278  120 I10
stroke6  279  122 I10
stroke6  280  124 I10
stroke6  281  126 I10
stroke6  281  128 I10
stroke6  282  129 I10
stroke6  282  130 I10
stroke6  282  132 I10
stroke6  283  133 I10
stroke6  282  133 I10
stroke6  282  134 I10
stroke6  282  135 I10
stroke6  281  135 I10
stroke7  299  43 B1
stroke7  300  43 I1
stroke7  300  42 I1
stroke7  301  42 I1
stroke7  301  41 I1
stroke7  300  42 I1
stroke7  300  43 I1
stroke7  300  44 I1
stroke7  299  45 I1
stroke7  299  47 I1
stroke7  299  49 I1
stroke7  299  51 I1
stroke7  299  54 I1
stroke7  300  57 I1
stroke7  300  59 I1
stroke7  300  62 I1
stroke7  300  65 I1
stroke7  301  68 I1
stroke7  301  71 I1
stroke7  301  74 I1
stroke7  301  77 I1
stroke7  301  80 I1
stroke7  301  82 I1
stroke7  301  85 I1
stroke7  301  87 I1
stroke7  301  88 I1
stroke7  301  90 I1
stroke7  300  91 I1
stroke7  300  92 I1
stroke7  300  93 I1
stroke7  299  94 I1
stroke7  298  94 I1
stroke7  297  94 I1
stroke7  296  93 I1
stroke7  295  93 I1
stroke7  294  92 I1
stroke7  293  91 I1
stroke7  292  90 I1
stroke7  291  90 I1
stroke7  290  89 I1
stroke7  289  89 I1
stroke7  289  90 I1
stroke7  289  91 I1
stroke7  289  92 I1
stroke7  290  93 I1
stroke7  290  94 I1
stroke7  291  95 I1
stroke7  292  96 I1
stroke7  293  97 I1
stroke7  294  98 I1
stroke7  296  99 I1
stroke7  297  100 I1
stroke7  299  101 I1
stroke7  300  102 I1
stroke7  302  102 I1
stroke7  303  103 I1
stroke7  305  104 I1
stroke7  306  104 I1
stroke7  308  104 I1
stroke7  310  104 I1
stroke7  311  105 I1
stroke7  313  104 I1
stroke7  315  104 I1
stroke7  317  104 I1
stroke7  318  103 I1
stroke7  320  103 I1
stroke7  322  102 I1
stroke7  323  101 I1
stroke7  325  100 I1
stroke7  326  100 I1
stroke7  328  99 I1
stroke7  329  97 I1
stroke7  330  96 I1
stroke7  331  95 I1
stroke7  332  94 I1
stroke7  333  92 I1
stroke7  333  91 I1
stroke7  334  89 I1
stroke7  335  87 I1
stroke7  335  85 I1
stroke7  335  83 I1
stroke7  335  80 I1
stroke7  336  78 I1
stroke7  336  76 I1
stroke7  336  74 I1
stroke7  336  72 I1
stroke7  336  69 I1
stroke7  336  67 I1
stroke7  336  65 I1
stroke7  336  62 I1
stroke7  336  60 I1
stroke7  335  58 I1
stroke7  335  56 I1
stroke7  335  54 I1
stroke7  335  52 I1
stroke7  335  50 I1
stroke7  335  49 I1
stroke7  335  47 I1
stroke7  335  46 I1
stroke7  335  45 I1
stroke7  335  44 I1
stroke7  335  43 I1
stroke7  335  42 I1
stroke7  335  41 I1
stroke7  335  42 I1
stroke7  335  43 I1
stroke7  335  44 I1
stroke7  334  46 I1
stroke8  361  44 B61
stroke8  361  43 I61
stroke8  360  43 I61
stroke8  359  44 I61
stroke8  359  45 I61
stroke8  359  46 I61
stroke8  360  46 I61
stroke8  360  47 I61
stroke8  360  48 I61
stroke8  361  48 I61
stroke8  362  49 I61
stroke8  363  49 I61
stroke8  364  49 I61
stroke8  365  49 I61
stroke8  366  49 I61
stroke8  367  48 I61
stroke8  368  48 I61
stroke8  368  47 I61
stroke8  368  46 I61
stroke8  368  45 I61
stroke8  368  44 I61
stroke8  367  43 I61
stroke8  367  42 I61
stroke8  366  41 I61
stroke8  365  40 I61
stroke8  364  40 I61
stroke8  363  40 I61
stroke8  362  40 I61
stroke8  361  41 I61
stroke8  360  41 I61
stroke8  360  42 I61
stroke8  359  43 I61
stroke8  358  45 I61
stroke8  358  46 I61
stroke8  358  48 I61
stroke8  358  51 I61
stroke8  358  53 I61
stroke8  358  56 I61
stroke8  359  58 I61
stroke8  359  61 I61
stroke8  359  64 I61
stroke8  360  67 I61
stroke8  360  70 I61
stroke8  360  72 I61
stroke8  361  75 I61
stroke8  361  77 I61
stroke8  361  80 I61
stroke8  361  82 I61
stroke8  361  84 I61
stroke8  362  86 I61
stroke8  362  88 I61
stroke8  362  89 I61
stroke8  362  91 I61
stroke8  362  92 I61
stroke8  362  93 I61
stroke8  361  93 I61
stroke8  361  94 I61
stroke8  360  94 I61
stroke8  359  94 I61
stroke8  358  93 I61
stroke8  357  92 I61
stroke8  356  91 I61
stroke8  355  90 I61
stroke8  354  89 I61
stroke8  353  88 I61
stroke8  352  88 I61
stroke8  351  87 I61
stroke8  350  87 I61
stroke8  350  88 I61
stroke8  350  89 I61
stroke8  351  90 I61
stroke8  351  91 I61
stroke8  352  92 I61
stroke8  353  94 I61
stroke8  354  95 I61
stroke8  355  96 I61
stroke8  356  97 I61
stroke8  358  98 I61
stroke8  359  99 I61
stroke8  361  100 I61
stroke8  362  101 I61
stroke8  364  101 I61
stroke8  366  101 I61
stroke8  367  102 I61
stroke8  369  102 I61
stroke8  371  102 I61
stroke8  372  101 I61
stroke8  374  101 I61
stroke8  376  100 I61
stroke8  377  100 I61
stroke8  379  99 I61
stroke8  380  98 I61
stroke8  381  97 I61
stroke8  383  96 I61
stroke8  384  95 I61
stroke8  384  94 I61
stroke8  385  92 I61
stroke8  386  90 I61
stroke8  387  89 I61
stroke8  387  87 I61
stroke8  388  85 I61
stroke8  388  83 I61
stroke8  388  81 I61
stroke8  389  78 I61
stroke8  389  76 I61
stroke8  389  73 I61
stroke8  389  71 I61
stroke8  389  68 I61
stroke8  388  65 I61
stroke8  388  62 I61
stroke8  388  59 I61
stroke8  388  57 I61
stroke8  388  54 I61
stroke8  388  51 I61
stroke8  388  48 I61
stroke8  388  46 I61
stroke8  387  43 I61
stroke8  387  41 I61
stroke8  387  38 I61
stroke8  387  36 I61
stroke8  387  33 I61
stroke8  387  30 I61
stroke8  387  28 I61
stroke8  387  25 I61
stroke8  386  23 I61
stroke8  386  21 I61
stroke8  386  19 I61
stroke8  386  16 I61
stroke8  386  14 I61
stroke8  386  13 I61
stroke8  386  11 I61
stroke8  386  9 I61
stroke8  386  8 I61
stroke8  386  6 I61
stroke8  386  5 I61
stroke8  386  4 I61
stroke8  386  3 I61
stroke8  386  2 I61
stroke8  386  1 I61
stroke8  386  0 I61
stroke8  385  0 I61
stroke8  385  1 I61
stroke8  385  2 I61
stroke8  384  3 I61
stroke8  384  5 I61
stroke8  384  6 I61
stroke8  383  8 I61
stroke9  404  98 B39
stroke9  403  98 I39
stroke9  403  99 I39
stroke9  402  99 I39
stroke9  403  100 I39
stroke9  403  101 I39
stroke9  404  101 I39
stroke9  405  101 I39
stroke9  406  102 I39
stroke9  407  102 I39
stroke9  408  102 I39
stroke9  409  101 I39
stroke9  410  101 I39
stroke9  411  101 I39
stroke9  412  100 I39
stroke9  412  99 I39
stroke9  413  99 I39
stroke9  413  98 I39
stroke9  413  97 I39
stroke9  413  96 I39
stroke9  412  95 I39
stroke9  412  94 I39
stroke9  411  94 I39
stroke9  411  93 I39
stroke9  410  92 I39
stroke9  409  91 I39
stroke9  408  91 I39
stroke9  406  91 I39
stroke9  405  91 I39
stroke9  404  91 I39
stroke9  403  91 I39
stroke9  402  91 I39
stroke9  401  92 I39
stroke9  400  92 I39
stroke9  399  93 I39
stroke9  398  93 I39
stroke9  398  94 I39
stroke9  398  95 I39
stroke9  398  96 I39
stroke9  398  97 I39
stroke9  398  98 I39
stroke9  399  99 I39
stroke9  400  99 I39
stroke9  401  100 I39
stroke9  402  101 I39
stroke9  403  101 I39
stroke9  404  102 I39
stroke9  405  102 I39
stroke9  406  102 I39
stroke9  407  102 I39
stroke9  408  102 I39
stroke9  409  101 I39
stroke9  410  101 I39
stroke9  411  100 I39
stroke9  412  99 I39
stroke9  413  98 I39
stroke9  414  96 I39
stroke9  414  95 I39
stroke9  415  93 I39
stroke9  415  91 I39
stroke9  416  88 I39
stroke9  416  86 I39
stroke9  416  83 I39
stroke9  416  80 I39
stroke9  416  78 I39
stroke9  416  75 I39
stroke9  415  72 I39
stroke9  415  69 I39
stroke9  415  67 I39
stroke9  415  64 I39
stroke9  415  62 I39
stroke9  414  59 I39
stroke9  414  57 I39
stroke9  414  55 I39
stroke9  414  53 I39
stroke9  414  52 I39
stroke9  414  50 I39
stroke9  414  49 I39
stroke9  414  48 I39
stroke9  414  47 I39
stroke9  413  46 I39
stroke9  413  45 I39
stroke9  414  44 I39
stroke9  413  43 I39
stroke9  414  43 I39
stroke9  414  42 I39
stroke9  415  42 I39
stroke9  416  42 I39
stroke9  417  42 I39
stroke9  419  43 I39
stroke9  421  43 I39
stroke9  422  43 I39
stroke9  424  43 I39
stroke9  426  43 I39
stroke9  428  43 I39
stroke9  430  43 I39
stroke9  432  43 I39
stroke9  434  43 I39
stroke9  436  43 I39
stroke9  438  42 I39
stroke9  439  42 I39
stroke9  440  42 I39
stroke9  442  42 I39
stroke9  443  42 I39
stroke9  444  42 I39
stroke9  445  42 I39
stroke9  446  43 I39
stroke9  447  43 I39
stroke9  448  44 I39
stroke9  448  45 I39
stroke9  449  45 I39
stroke9  449  46 I39
stroke9  449  47 I39
stroke9  449  48 I39
stroke9  449  50 I39
stroke9  449  51 I39
stroke9  449  53 I39
stroke9  449  56 I39
stroke9  449  58 I39
stroke9  449  60 I39
stroke9  449  63 I39
stroke9  449  65 I39
stroke9  449  68 I39
stroke9  449  71 I39
stroke9  449  73 I39
stroke9  448  76 I39
stroke9  448  78 I39
stroke9  448  81 I39
stroke9  448  83 I39
stroke9  448  85 I39
stroke9  448  87 I39
stroke9  448  89 I39
stroke9  448  91 I39
stroke9  448  93 I39
stroke9  448  95 I39
stroke9  448  96 I39
stroke9  448  98 I39
stroke9  448  99 I39
stroke9  448  101 I39
stroke9  448  102 I39
stroke9  448  103 I39
stroke9  448  104 I39
stroke9  448  105 I39
stroke9  448  104 I39
stroke9  447  104 I39
stroke9  447  103 I39
stroke9  447  102 I39
stroke9  446  101 I39
stroke9  446  99 I39
stroke9  435  73 I39
stroke9  435  72 I39
stroke9  435  71 I39
stroke9  436  71 I39
stroke9  437  71 I39
stroke9  438  71 I39
stroke9  438  72 I39
stroke9  439  72 I39
stroke9  439  73 I39
stroke9  440  74 I39
stroke9  440  75 I39
stroke9  440  76 I39
stroke9  439  76 I39
stroke9  439  77 I39
stroke9  439  78 I39
stroke9  438  78 I39
stroke9  437  78 I39
stroke9  436  78 I39
stroke9  435  78 I39
stroke9  434  78 I39
stroke9  433  77 I39
stroke9  432  76 I39
stroke9  432  75 I39
stroke9  431  75 I39
stroke9  431  74 I39
stroke9  431  73 I39
stroke9  432  73 I39
stroke9  433  72 I39
stroke9  435  72 I39
stroke9  436  72 I39
stroke9  438  72 I39
stroke9  440  73 I39
stroke9  442  74 I39
stroke9  444  75 I39
stroke9  446  77 I39
stroke9  447  79 I39
stroke9  449  81 I39
stroke9  451  83 I39
stroke9  453  85 I39
stroke9  455  87 I39
stroke9  456  89 I39
stroke9  458  90 I39
stroke9  459  91 I39
stroke9  460  92 I39
stroke10  478  48 B14
stroke10  478  47 I14
stroke10  477  47 I14
stroke10  478  46 I14
stroke10  479  45 I14
stroke10  480  45 I14
stroke10  481  45 I14
stroke10  482  45 I14
stroke10  482  46 I14
stroke10  482  47 I14
stroke10  483  48 I14
stroke10  482  49 I14
stroke10  482  50 I14
stroke10  482  51 I14
stroke10  481  51 I14
stroke10  481  52 I14
stroke10  480  52 I14
stroke10  479  53 I14
stroke10  478  53 I14
stroke10  477  52 I14
stroke10  476  51 I14
stroke10  475  51 I14
stroke10  475  50 I14
stroke10  474  49 I14
stroke10  474  48 I14
stroke10  474  47 I14
stroke10  473  47 I14
stroke10  474  46 I14
stroke10  474  45 I14
stroke10  475  45 I14
stroke10  476  44 I14
stroke10  477  44 I14
stroke10  478  44 I14
stroke10  479  44 I14
stroke10  480  44 I14
stroke10  480  45 I14
stroke10  481  45 I14
stroke10  482  46 I14
stroke10  482  47 I14
stroke10  483  48 I14
stroke10  484  50 I14
stroke10  484  52 I14
stroke10  485  53 I14
stroke10  486  55 I14
stroke10  486  57 I14
stroke10  487  59 I14
stroke10  488  61 I14
stroke10  488  63 I14
stroke10  488  65 I14
stroke10  489  67 I14
stroke10  489  69 I14
stroke10  490  71 I14
stroke10  490  73 I14
stroke10  490  75 I14
stroke10  491  77 I14
stroke10  491  79 I14
stroke10  490  81 I14
stroke10  490  83 I14
stroke10  490  84 I14
stroke10  490  85 I14
stroke10  489  86 I14
stroke10  489  87 I14
stroke10  488  88 I14
stroke10  487  89 I14
stroke10  486  89 I14
stroke10  485  89 I14
stroke10  484  90 I14
stroke10  483  90 I14
stroke10  482  90 I14
stroke10  480  89 I14
stroke10  479  89 I14
stroke10  477  88 I14
stroke10  476  88 I14
stroke10  475  87 I14
stroke10  474  87 I14
stroke10  473  87 I14
stroke10  473  86 I14
stroke10  472  86 I14
stroke10  472  87 I14
stroke10  473  88 I14
stroke10  473  89 I14
stroke10  473  90 I14
stroke10  474  91 I14
stroke10  475  92 I14
stroke10  475  94 I14
stroke10  477  95 I14
stroke10  478  96 I14
stroke10  479  98 I14
stroke10  481  99 I14
stroke10  482  100 I14
stroke10  484  101 I14
stroke10  485  101 I14
stroke10  486  102 I14
stroke10  488  102 I14
stroke10  489  102 I14
stroke10  490  102 I14
stroke10  492  102 I14
stroke10  493  102 I14
stroke10  495  102 I14
stroke10  497  102 I14
stroke10  499  102 I14
stroke10  501  101 I14
stroke10  503  101 I14
stroke10  505  100 I14
stroke10  507  99 I14
stroke10  508  99 I14
stroke10  510  98 I14
stroke10  511  97 I14
stroke10  512  96 I14
stroke10  513  95 I14
stroke10  514  94 I14
stroke10  515  93 I14
stroke10  515  91 I14
stroke10  516  89 I14
stroke10  516  87 I14
stroke10  517  85 I14
stroke10  517  83 I14
stroke10  517  81 I14
stroke10  518  78 I14
stroke10  518  76 I14
stroke10  518  74 I14
stroke10  518  71 I14
stroke10  518  69 I14
stroke10  518  66 I14
stroke10  518  64 I14
stroke10  517  61 I14
stroke10  517  58 I14
stroke10  517  56 I14
stroke10  517  53 I14
stroke10  517  51 I14
stroke10  517  48 I14
stroke10  517  46 I14
stroke10  517  44 I14
stroke10  517  42 I14
stroke10  517  40 I14
stroke10  517  38 I14
stroke10  516  36 I14
stroke10  516  34 I14
stroke10  516  32 I14
stroke10  515  30 I14
stroke10  515  28 I14
stroke10  515  26 I14
stroke10  515  25 I14
stroke10  514  23 I14
stroke10  514  22 I14
stroke10  514  20 I14
stroke10  514  19 I14
stroke10  514  18 I14
stroke10  514  16 I14
stroke10  514  15 I14
stroke10  514  14 I14
stroke10  514  13 I14
stroke10  514  12 I14
stroke10  513  12 I14
stroke10  513  11 I14
stroke10  513  10 I14
stroke10  513  9 I14
stroke10  513  8 I14
stroke10  512  8 I14
stroke10  511  9 I14
stroke10  510  9 I14
stroke10  510  10 I14
stroke10  509  11 I14
stroke10  508  12 I14
stroke10  507  13 I14
stroke10  505  13 I14
stroke10  504  14 I14
stroke10  502  15 I14
stroke10  501  16 I14
stroke10  499  17 I14
stroke10  497  18 I14
stroke10  496  18 I14
stroke10  494  18 I14
stroke10  492  19 I14
stroke10  491  19 I14
stroke10  489  19 I14
stroke10  488  19 I14
stroke10  486  19 I14
stroke10  484  19 I14
stroke10  483  19 I14
stroke10  481  19 I14
stroke10  479  18 I14
stroke10  478  18 I14
stroke10  476  18 I14
stroke10  474  17 I14
stroke10  473  17 I14
stroke10  471  16 I14
stroke10  470  15 I14
stroke10  469  15 I14
stroke10  468  14 I14
stroke10  466  13 I14
stroke10  466  12 I14
stroke10  465  12 I14
stroke10  464  11 I14
stroke10  464  10 I14
stroke10  463  9 I14
stroke10  463  8 I14
stroke10  464  8 I14
stroke10  464  7 I14
stroke10  465  6 I14
stroke10  466  6 I14
stroke10  467  6 I14
stroke10  469  6 I14
stroke10  470  7 I14
stroke10  472  7 I14
stroke10  474  8 I14
stroke10  476  9 I14
stroke10  477  10 I14
stroke10  480  12 I14
stroke10  482  14 I14
stroke10  483  16 I14
stroke10  485  17 I14
stroke10  487  19 I14
stroke10  488  21 I14
stroke10  489  22 I14
stroke10  490  23 I14
stroke10  491  24 I14
stroke10  492  25 I14
stroke10  492  26 I14
stroke10  493  27 I14
stroke10  494  28 I14
stroke10  494  29 I14
stroke10  495  31 I14
stroke10  495  32 I14
stroke10  495  34 I14
stroke11  518  110 B49
stroke11  518  111 I49
stroke11  518  112 I49
stroke11  517  113 I49
stroke11  517  114 I49
stroke11  517  115 I49
stroke11  516  115 I49
stroke11  515  116 I49
stroke11  514  117 I49
stroke11  514  118 I49
stroke11  512  119 I49
stroke11  511  120 I49
stroke11  510  122 I49
stroke11  508  122 I49
stroke11  506  123 I49
stroke11  503  124 I49
stroke11  501  124 I49
stroke11  498  125 I49
stroke11  495  125 I49
stroke11  492  125 I49
stroke11  488  124 I49
stroke11  485  124 I49
stroke11  482  123 I49
stroke11  479  123 I49
stroke11  476  122 I49
stroke11  473  122 I49
stroke11  471  121 I49
stroke11  469  121 I49
stroke11  467  121 I49
stroke11  466  121 I49
stroke11  465  121 I49
stroke11  464  121 I49
stroke11  463  122 I49
stroke11  463  123 I49
stroke11  463  124 I49
stroke11  464  125 I49
stroke11  465  126 I49
stroke11  466  128 I49
stroke11  467  130 I49
stroke11  469  131 I49
stroke11  471  133 I49
stroke11  474  134 I49
stroke11  476  135 I49
stroke11  478  135 I49
stroke11  480  136 I49
stroke11  482  136 I49
stroke11  484  135 I49
stroke11  486  134 I49
stroke11  488  133 I49
stroke11  490  132 I49
stroke11  492  130 I49
stroke11  494  129 I49
stroke11  496  128 I49
stroke11  498  126 I49
stroke11  500  125 I49
stroke11  501  124 I49
stroke11  503  123 I49
stroke11  504  122 I49
stroke11  506  121 I49
stroke11  507  121 I49
stroke11  508  121 I49
stroke11  509  121 I49
stroke11  509  122 I49
stroke11  510  122 I49
stroke11  510  123 I49
stroke11  511  125 I49
stroke11  512  127 I49
stroke11  512  129 I49
stroke11  513  131 I49
stroke11  513  134 I49
stroke11  513  136 I49
stroke11  513  139 I49
stroke11  513  141 I49
stroke11  513  142 I49
stroke11  513  144 I49
stroke11  513  145 I49
stroke11  513  146 I49
stroke11  513  147 I49
stroke11  513  148 I49
stroke11  514  149 I49
stroke11  514  150 I49
stroke11  515  149 I49
stroke11  516  149 I49
stroke12  544  40 B1
stroke12  543  40 I1
stroke12  543  39 I1
stroke12  543  38 I1
stroke12  543  37 I1
stroke12  543  36 I1
stroke12  542  36 I1
stroke12  542  37 I1
stroke12  542  38 I1
stroke12  542  39 I1
stroke12  541  41 I1
stroke12  541  43 I1
stroke12  541  45 I1
stroke12  541  48 I1
stroke12  542  51 I1
stroke12  542  54 I1
stroke12  542  57 I1
stroke12  542  60 I1
stroke12  542  62 I1
stroke12  542  65 I1
stroke12  542  68 I1
stroke12  542  70 I1
stroke12  543  73 I1
stroke12  543  76 I1
stroke12  543  78 I1
stroke12  543  80 I1
stroke12  543  82 I1
stroke12  543  84 I1
stroke12  544  85 I1
stroke12  544  86 I1
stroke12  544  88 I1
stroke12  544  89 I1
stroke12  543  89 I1
stroke12  543  90 I1
stroke12  543  91 I1
stroke12  543  92 I1
stroke12  542  91 I1
stroke12  541  91 I1
stroke12  540  90 I1
stroke12  539  90 I1
stroke12  538  89 I1
stroke12  537  89 I1
stroke12  537  88 I1
stroke12  536  88 I1
stroke12  535  88 I1
stroke12  535  89 I1
stroke12  535  90 I1
stroke12  536  91 I1
stroke12  537  92 I1
stroke12  538  93 I1
stroke12  539  94 I1
stroke12  541  95 I1
stroke12  542  97 I1
stroke12  544  98 I1
stroke12  545  98 I1
stroke12  547  99 I1
stroke12  548  100 I1
stroke12  550  101 I1
stroke12  552  101 I1
stroke12  553  101 I1
stroke12  555  102 I1
stroke12  557  102 I1
stroke12  558  102 I1
stroke12  560  102 I1
stroke12  561  101 I1
stroke12  563  101 I1
stroke12  564  101 I1
stroke12  566  101 I1
stroke12  567  100 I1
stroke12  569  100 I1
stroke12  570  99 I1
stroke12  572  98 I1
stroke12  573  97 I1
stroke12  575  96 I1
stroke12  576  94 I1
stroke12  577  93 I1
stroke12  579  91 I1
stroke12  580  89 I1
stroke12  580  87 I1
stroke12  581  85 I1
stroke12  582  82 I1
stroke12  582  80 I1
stroke12  582  78 I1
stroke12  583  75 I1
stroke12  583  72 I1
stroke12  583  70 I1
stroke12  583  67 I1
stroke12  583  64 I1
stroke12  582  61 I1
stroke12  582  58 I1
stroke12  582  55 I1
stroke12  582  52 I1
stroke12  582  50 I1
stroke12  582  47 I1
stroke12  581  45 I1
stroke12  581  43 I1
stroke12  581  41 I1
stroke12  581  40 I1
stroke12  581  38 I1
stroke12  581  37 I1
stroke12  581  36 I1
stroke12  581  35 I1
stroke12  581  34 I1
stroke12  580  35 I1
stroke12  580  36 I1
stroke12  580  37 I1
stroke12  580  39 I1
stroke12  580  41 I1
stroke13  589  87 B47
stroke13  588  87 I47
stroke13  587  87 I47
stroke13  587  88 I47
stroke13  587  89 I47
stroke13  587  90 I47
stroke13  588  91 I47
stroke13  588  92 I47
stroke13  589  93 I47
stroke13  589  94 I47
stroke13  590  95 I47
stroke13  591  95 I47
stroke13  591  96 I47
stroke13  592  97 I47
stroke13  593  97 I47
stroke13  594  98 I47
stroke13  595  98 I47
stroke13  597  99 I47
stroke13  598  99 I47
stroke13  599  100 I47
stroke13  600  100 I47
stroke13  601  100 I47
stroke13  602  100 I47
stroke13  603  100 I47
stroke13  605  100 I47
stroke13  606  100 I47
stroke13  607  100 I47
stroke13  608  99 I47
stroke13  609  99 I47
stroke13  610  98 I47
stroke13  611  98 I47
stroke13  612  97 I47
stroke13  613  96 I47
stroke13  614  95 I47
stroke13  615  94 I47
stroke13  616  93 I47
stroke13  617  92 I47
stroke13  617  90 I47
stroke13  618  89 I47
stroke13  618  87 I47
stroke13  619  85 I47
stroke13  619  83 I47
stroke13  619  81 I47
stroke13  620  79 I47
stroke13  620  77 I47
stroke13  620  75 I47
stroke13  620  72 I47
stroke13  619  70 I47
stroke13  619  67 I47
stroke13  619  65 I47
stroke13  619  62 I47
stroke13  619  59 I47
stroke13  619  57 I47
stroke13  618  54 I47
stroke13  618  52 I47
stroke13  618  50 I47
stroke13  618  48 I47
stroke13  618  46 I47
stroke13  618  44 I47
stroke13  618  42 I47
stroke13  618  41 I47
stroke13  618  39 I47
stroke13  618  38 I47
stroke13  618  37 I47
stroke13  618  36 I47
stroke13  618  35 I47
stroke13  617  35 I47
stroke13  618  35 I47
stroke13  617  35 I47
stroke13  617  36 I47
stroke13  618  37 I47
stroke13  617  38 I47
stroke13  617  39 I47
