stroke1  113  69 B9
stroke1  114  69 I9
stroke1  113  69 I9
stroke1  113  70 I9
stroke1  113  71 I9
stroke1  114  71 I9
stroke1  114  72 I9
stroke1  115  73 I9
stroke1  116  73 I9
stroke1  117  74 I9
stroke1  118  74 I9
stroke1  119  74 I9
stroke1  120  73 I9
stroke1  121  73 I9
stroke1  122  73 I9
stroke1  122  72 I9
stroke1  123  71 I9
stroke1  122  71 I9
stroke1  122  70 I9
stroke1  122  70 I9
stroke1  122  69 I9
stroke1  121  68 I9
stroke1  121  67 I9
stroke1  120  67 I9
stroke1  120  66 I9
stroke1  119  66 I9
stroke1  118  65 I9
stroke1  117  65 I9
stroke1  116  64 I9
stroke1  115  64 I9
stroke1  114  64 I9
stroke1  113  64 I9
stroke1  112  64 I9
stroke1  111  65 I9
stroke1  110  65 I9
stroke1  109  66 I9
stroke1  109  67 I9
stroke1  108  68 I9
stroke1  108  69 I9
stroke1  108  70 I9
stroke1  109  70 I9
stroke1  109  71 I9
stroke1  110  72 I9
stroke1  111  73 I9
stroke1  112  73 I9
stroke1  113  74 I9
stroke1  114  74 I9
stroke1  115  73 I9
stroke1  116  73 I9
stroke1  117  73 I9
stroke1  118  72 I9
stroke1  119  71 I9
stroke1  120  70 I9
stroke1  121  69 I9
stroke1  122  68 I9
stroke1  122  66 I9
stroke1  123  64 I9
stroke1  123  62 I9
stroke1  123  60 I9
stroke1  124  58 I9
stroke1  124  55 I9
stroke1  124  53 I9
stroke1  124  51 I9
stroke1  125  49 I9
stroke1  125  47 I9
stroke1  125  45 I9
stroke1  125  44 I9
stroke1  125  42 I9
stroke1  125  41 I9
stroke1  125  40 I9
stroke1  125  39 I9
stroke1  125  38 I9
stroke1  125  37 I9
stroke1  124  37 I9
stroke1  124  36 I9
stroke1  125  36 I9
stroke1  125  37 I9
stroke1  125  38 I9
stroke1  125  39 I9
stroke1  125  40 I9
stroke1  126  40 I9
stroke1  126  41 I9
stroke1  126  42 I9
stroke1  127  43 I9
stroke1  127  44 I9
stroke1  128  44 I9
stroke1  128  45 I9
stroke1  129  46 I9
stroke1  130  47 I9
stroke1  131  47 I9
stroke1  132  48 I9
stroke1  133  49 I9
stroke1  134  49 I9
stroke1  135  50 I9
stroke1  136  51 I9
stroke1  138  51 I9
stroke1  139  52 I9
stroke1  140  52 I9
stroke1  141  52 I9
stroke1  142  52 I9
stroke1  144  52 I9
stroke1  145  52 I9
stroke1  146  52 I9
stroke1  147  51 I9
stroke1  148  51 I9
stroke1  149  51 I9
stroke1  150  51 I9
stroke1  151  50 I9
stroke1  152  50 I9
stroke1  152  49 I9
stroke1  153  49 I9
stroke1  154  48 I9
stroke1  154  47 I9
stroke1  155  47 I9
stroke1  156  46 I9
stroke1  156  45 I9
stroke1  157  44 I9
stroke1  157  43 I9
stroke1  157  42 I9
stroke1  157  41 I9
stroke1  156  40 I9
stroke1  156  39 I9
stroke1  156  38 I9
stroke1  155  38 I9
stroke1  155  37 I9
stroke1  154  37 I9
stroke1  153  37 I9
stroke1  153  36 I9
stroke1  152  36 I9
stroke1  151  36 I9
stroke1  150  37 I9
stroke1  149  38 I9
stroke1  148  39 I9
stroke1  148  41 I9
stroke1  148  42 I9
stroke1  148  43 I9
stroke1  148  45 I9
stroke1  148  46 I9
stroke1  148  48 I9
stroke1  148  50 I9
stroke1  148  52 I9
stroke1  148  54 I9
stroke1  148  55 I9
stroke1  148  57 I9
stroke1  148  59 I9
stroke1  149  61 I9
stroke1  149  63 I9
stroke1  149  65 I9
stroke1  149  66 I9
stroke1  148  68 I9
stroke1  149  70 I9
stroke1  148  71 I9
stroke1  148  72 I9
stroke1  148  74 I9
stroke1  148  75 I9
stroke1  148  76 I9
stroke1  148  78 I9
stroke1  148  79 I9
stroke1  148  80 I9
stroke1  148  81 I9
stroke1  148  83 I9
stroke1  148  84 I9
stroke1  147  85 I9
stroke1  147  86 I9
stroke1  147  87 I9
stroke1  147  88 I9
stroke1  147  89 I9
stroke1  146  89 I9
stroke1  146  90 I9
stroke1  146  91 I9
stroke1  145  91 I9
stroke1  145  92 I9
stroke1  144  93 I9
stroke1  143  94 I9
stroke1  142  94 I9
stroke1  142  95 I9
stroke1  141  95 I9
stroke1  141  96 I9
stroke1  140  96 I9
stroke1  139  96 I9
stroke1  138  96 I9
stroke1  137  96 I9
stroke1  136  97 I9
stroke1  135  97 I9
stroke1  134  97 I9
stroke1  133  97 I9
stroke1  131  97 I9
stroke1  130  97 I9
stroke1  128  97 I9
stroke1  126  97 I9
stroke1  124  96 I9
stroke1  122  95 I9
stroke1  121  94 I9
stroke1  119  93 I9
stroke1  117  92 I9
stroke1  115  90 I9
stroke1  113  88 I9
stroke1  112  86 I9
stroke1  110  84 I9
stroke1  109  82 I9
stroke1  108  80 I9
stroke1  107  77 I9
stroke1  106  75 I9
stroke2  139  23 B52
stroke2  139  24 I52
stroke2  140  24 I52
stroke2  140  25 I52
stroke2  141  25 I52
stroke2  142  25 I52
stroke2  143  26 I52
stroke2  144  25 I52
stroke2  145  25 I52
stroke2  146  25 I52
stroke2  146  24 I52
stroke2  147  24 I52
stroke2  147  23 I52
stroke2  147  22 I52
stroke2  146  21 I52
stroke2  146  20 I52
stroke2  145  20 I52
stroke2  145  19 I52
stroke2  144  19 I52
stroke2  143  19 I52
stroke2  142  18 I52
stroke2  142  19 I52
stroke2  141  19 I52
stroke2  140  19 I52
stroke2  139  19 I52
stroke2  138  19 I52
stroke2  137  20 I52
stroke2  136  21 I52
stroke2  136  22 I52
stroke2  136  23 I52
stroke2  137  24 I52
stroke2  137  25 I52
stroke2  138  25 I52
stroke2  139  25 I52
stroke2  140  25 I52
stroke2  141  25 I52
stroke2  142  25 I52
stroke2  143  24 I52
stroke2  144  24 I52
stroke2  145  23 I52
stroke2  146  22 I52
stroke2  146  21 I52
stroke2  147  20 I52
stroke2  148  18 I52
stroke2  148  16 I52
stroke2  149  14 I52
stroke2  149  12 I52
stroke2  149  10 I52
stroke2  149  8 I52
stroke2  149  6 I52
stroke2  149  5 I52
stroke2  149  3 I52
stroke2  150  2 I52
stroke2  150  1 I52
stroke2  150  0 I52
stroke2  150  1 I52
stroke2  150  2 I52
stroke2  150  3 I52
stroke2  150  4 I52
stroke2  150  6 I52
stroke3  178  35 B1
stroke3  177  35 I1
stroke3  177  34 I1
stroke3  176  35 I1
stroke3  176  36 I1
stroke3  176  37 I1
stroke3  175  38 I1
stroke3  175  39 I1
stroke3  175  40 I1
stroke3  175  42 I1
stroke3  174  44 I1
stroke3  174  46 I1
stroke3  174  48 I1
stroke3  174  50 I1
stroke3  174  52 I1
stroke3  174  55 I1
stroke3  174  57 I1
stroke3  174  59 I1
stroke3  174  62 I1
stroke3  174  64 I1
stroke3  174  66 I1
stroke3  174  67 I1
stroke3  174  69 I1
stroke3  174  70 I1
stroke3  174  72 I1
stroke3  174  73 I1
stroke3  174  74 I1
stroke3  174  75 I1
stroke3  174  76 I1
stroke3  174  77 I1
stroke3  174  78 I1
stroke3  174  79 I1
stroke3  174  80 I1
stroke3  173  80 I1
stroke3  172  80 I1
stroke3  172  79 I1
stroke3  171  79 I1
stroke3  170  78 I1
stroke3  169  77 I1
stroke3  168  77 I1
stroke3  167  76 I1
stroke3  166  75 I1
stroke3  165  75 I1
stroke3  164  75 I1
stroke3  164  74 I1
stroke3  163  74 I1
stroke3  162  74 I1
stroke3  162  75 I1
stroke3  162  76 I1
stroke3  162  78 I1
stroke3  162  79 I1
stroke3  162  80 I1
stroke3  162  82 I1
stroke3  163  83 I1
stroke3  163  85 I1
stroke3  164  86 I1
stroke3  165  87 I1
stroke3  165  89 I1
stroke3  166  89 I1
stroke3  166  90 I1
stroke3  167  91 I1
stroke3  167  92 I1
stroke3  168  92 I1
stroke3  169  93 I1
stroke3  170  93 I1
stroke3  171  94 I1
stroke3  172  94 I1
stroke3  173  95 I1
stroke3  174  95 I1
stroke3  175  95 I1
stroke3  176  96 I1
stroke3  178  96 I1
stroke3  179  96 I1
stroke3  180  96 I1
stroke3  182  96 I1
stroke3  183  96 I1
stroke3  185  96 I1
stroke3  186  95 I1
stroke3  187  95 I1
stroke3  188  95 I1
stroke3  189  94 I1
stroke3  190  94 I1
stroke3  191  93 I1
stroke3  193  93 I1
stroke3  193  92 I1
stroke3  194  91 I1
stroke3  195  90 I1
stroke3  196  88 I1
stroke3  197  87 I1
stroke3  198  86 I1
stroke3  198  84 I1
stroke3  199  83 I1
stroke3  199  81 I1
stroke3  200  80 I1
stroke3  200  78 I1
stroke3  201  76 I1
stroke3  201  74 I1
stroke3  201  72 I1
stroke3  201  70 I1
stroke3  202  68 I1
stroke3  202  66 I1
stroke3  202  64 I1
stroke3  202  62 I1
stroke3  202  60 I1
stroke3  202  58 I1
stroke3  202  56 I1
stroke3  202  54 I1
stroke3  202  52 I1
stroke3  202  50 I1
stroke3  202  48 I1
stroke3  202  46 I1
stroke3  202  44 I1
stroke3  202  42 I1
stroke3  202  41 I1
stroke3  202  40 I1
stroke3  202  38 I1
stroke3  202  37 I1
stroke3  202  36 I1
stroke3  202  35 I1
stroke3  202  34 I1
stroke3  202  33 I1
stroke3  202  32 I1
stroke3  202  31 I1
stroke3  202  32 I1
stroke3  202  34 I1
stroke3  202  35 I1
stroke4  225  99 B54
stroke4  225  100 I54
stroke4  226  99 I54
stroke4  226  98 I54
stroke4  226  97 I54
stroke4  226  96 I54
stroke4  226  95 I54
stroke4  226  94 I54
stroke4  226  92 I54
stroke4  226  91 I54
stroke4  226  89 I54
stroke4  225  87 I54
stroke4  225  86 I54
stroke4  225  84 I54
stroke4  225  82 I54
stroke4  225  80 I54
stroke4  225  78 I54
stroke4  225  76 I54
stroke4  225  75 I54
stroke4  225  73 I54
stroke4  224  71 I54
stroke4  224  69 I54
stroke4  224  67 I54
stroke4  224  65 I54
stroke4  224  64 I54
stroke4  224  62 I54
stroke4  224  60 I54
stroke4  224  59 I54
stroke4  224  57 I54
stroke4  224  56 I54
stroke4  224  54 I54
stroke4  224  52 I54
stroke4  224  51 I54
stroke4  224  49 I54
stroke4  224  48 I54
stroke4  224  47 I54
stroke4  224  46 I54
stroke4  224  45 I54
stroke4  224  44 I54
stroke4  224  43 I54
stroke4  225  42 I54
stroke4  225  41 I54
stroke4  225  40 I54
stroke4  226  40 I54
stroke4  226  39 I54
stroke4  227  38 I54
stroke4  228  38 I54
stroke4  229  38 I54
stroke4  230  38 I54
stroke4  231  38 I54
stroke4  232  38 I54
stroke4  233  39 I54
stroke4  234  40 I54
stroke4  234  41 I54
stroke4  235  42 I54
stroke4  235  43 I54
stroke4  236  43 I54
stroke4  236  44 I54
stroke4  236  45 I54
stroke4  236  46 I54
stroke4  236  47 I54
stroke4  236  48 I54
stroke4  236  49 I54
stroke4  236  50 I54
stroke4  235  50 I54
stroke4  234  50 I54
stroke4  233  50 I54
stroke4  232  50 I54
stroke4  231  49 I54
stroke4  230  49 I54
stroke4  229  48 I54
stroke4  228  47 I54
stroke4  228  46 I54
stroke4  227  46 I54
stroke4  227  45 I54
stroke4  226  45 I54
stroke4  226  44 I54
stroke4  226  45 I54
stroke5  258  70 B9
stroke5  258  71 I9
stroke5  258  72 I9
stroke5  259  72 I9
stroke5  259  73 I9
stroke5  260  73 I9
stroke5  261  73 I9
stroke5  262  73 I9
stroke5  263  73 I9
stroke5  264  73 I9
stroke5  265  73 I9
stroke5  265  72 I9
stroke5  266  72 I9
stroke5  266  71 I9
stroke5  266  70 I9
stroke5  267  69 I9
stroke5  267  68 I9
stroke5  266  67 I9
stroke5  266  66 I9
stroke5  265  66 I9
stroke5  265  65 I9
stroke5  264  64 I9
stroke5  263  64 I9
stroke5  262  63 I9
stroke5  261  63 I9
stroke5  260  63 I9
stroke5  259  63 I9
stroke5  258  63 I9
stroke5  257  63 I9
stroke5  256  63 I9
stroke5  255  64 I9
stroke5  254  64 I9
stroke5  253  65 I9
stroke5  253  66 I9
stroke5  253  67 I9
stroke5  253  68 I9
stroke5  253  69 I9
stroke5  254  69 I9
stroke5  254  70 I9
stroke5  255  71 I9
stroke5  256  71 I9
stroke5  257  72 I9
stroke5  258  72 I9
stroke5  259  72 I9
stroke5  260  72 I9
stroke5  261  72 I9
stroke5  262  71 I9
stroke5  263  71 I9
stroke5  264  70 I9
stroke5  265  69 I9
stroke5  265  68 I9
stroke5  266  67 I9
stroke5  266  65 I9
stroke5  267  64 I9
stroke5  267  62 I9
stroke5  267  61 I9
stroke5  267  59 I9
stroke5  267  57 I9
stroke5  267  55 I9
stroke5  267  54 I9
stroke5  268  52 I9
stroke5  267  50 I9
stroke5  268  49 I9
stroke5  268  47 I9
stroke5  267  45 I9
stroke5  267  44 I9
stroke5  267  42 I9
stroke5  267  41 I9
stroke5  267  40 I9
stroke5  267  39 I9
stroke5  267  38 I9
stroke5  267  37 I9
stroke5  267  36 I9
stroke5  267  35 I9
stroke5  266  34 I9
stroke5  266  33 I9
stroke5  267  33 I9
stroke5  266  34 I9
stroke5  267  34 I9
stroke5  267  35 I9
stroke5  267  36 I9
stroke5  268  37 I9
stroke5  268  38 I9
stroke5  268  39 I9
stroke5  269  40 I9
stroke5  269  41 I9
stroke5  270  42 I9
stroke5  270  43 I9
stroke5  271  44 I9
stroke5  272  45 I9
stroke5  273  46 I9
stroke5  274  47 I9
stroke5  275  48 I9
stroke5  276  48 I9
stroke5  278  49 I9
stroke5  279  50 I9
stroke5  280  50 I9
stroke5  281  50 I9
stroke5  282  51 I9
stroke5  283  51 I9
stroke5  284  51 I9
stroke5  285  51 I9
stroke5  286  51 I9
stroke5  287  51 I9
stroke5  288  51 I9
stroke5  289  51 I9
stroke5  290  51 I9
stroke5  291  50 I9
stroke5  292  50 I9
stroke5  293  50 I9
stroke5  293  49 I9
stroke5  294  49 I9
stroke5  295  49 I9
stroke5  296  48 I9
stroke5  297  47 I9
stroke5  298  47 I9
stroke5  298  46 I9
stroke5  299  45 I9
stroke5  300  44 I9
stroke5  300  43 I9
stroke5  300  42 I9
stroke5  301  42 I9
stroke5  301  41 I9
stroke5  301  40 I9
stroke5  300  39 I9
stroke5  300  38 I9
stroke5  300  37 I9
stroke5  299  37 I9
stroke5  298  36 I9
stroke5  297  35 I9
stroke5  296  35 I9
stroke5  295  35 I9
stroke5  294  34 I9
stroke5  293  34 I9
stroke5  292  34 I9
stroke5  292  35 I9
stroke5  291  35 I9
stroke5  291  36 I9
stroke5  291  37 I9
stroke5  291  38 I9
stroke5  291  39 I9
stroke5  291  41 I9
stroke5  290  43 I9
stroke5  290  45 I9
stroke5  290  47 I9
stroke5  290  49 I9
stroke5  290  50 I9
stroke5  290  52 I9
stroke5  290  54 I9
stroke5  290  56 I9
stroke5  289  57 I9
stroke5  289  59 I9
stroke5  289  61 I9
stroke5  289  62 I9
stroke5  289  64 I9
stroke5  289  65 I9
stroke5  289  66 I9
stroke5  289  68 I9
stroke5  289  69 I9
stroke5  289  70 I9
stroke5  289  71 I9
stroke5  289  73 I9
stroke5  289  74 I9
stroke5  289  75 I9
stroke5  289  76 I9
stroke5  288  77 I9
stroke5  288  78 I9
stroke5  288  79 I9
stroke5  288  80 I9
stroke5  288  81 I9
stroke5  288  82 I9
stroke5  288  83 I9
stroke5  288  84 I9
stroke5  288  85 I9
stroke5  287  86 I9
stroke5  287  87 I9
stroke5  287  88 I9
stroke5  287  89 I9
stroke5  286  90 I9
stroke5  286  91 I9
stroke5  286  92 I9
stroke5  285  92 I9
stroke5  284  93 I9
stroke5  283  94 I9
stroke5  282  94 I9
stroke5  281  95 I9
stroke5  280  95 I9
stroke5  279  95 I9
stroke5  278  96 I9
stroke5  277  96 I9
stroke5  276  96 I9
stroke5  274  96 I9
stroke5  273  97 I9
stroke5  271  97 I9
stroke5  270  97 I9
stroke5  268  96 I9
stroke5  267  96 I9
stroke5  265  96 I9
stroke5  263  95 I9
stroke5  261  95 I9
stroke5  258  94 I9
stroke5  256  93 I9
stroke5  254  92 I9
stroke5  251  91 I9
stroke5  250  90 I9
stroke5  248  88 I9
stroke5  246  87 I9
stroke5  245  86 I9
stroke5  244  84 I9
stroke5  243  82 I9
stroke5  242  81 I9
stroke5  242  79 I9
stroke5  241  78 I9
stroke6  283  111 B48
stroke6  282  112 I48
stroke6  282  113 I48
stroke6  281  113 I48
stroke6  280  114 I48
stroke6  279  114 I48
stroke6  278  115 I48
stroke6  277  115 I48
stroke6  276  115 I48
stroke6  274  115 I48
stroke6  272  115 I48
stroke6  271  115 I48
stroke6  269  116 I48
stroke6  267  115 I48
stroke6  265  115 I48
stroke6  262  115 I48
stroke6  260  115 I48
stroke6  258  115 I48
stroke6  255  115 I48
stroke6  253  114 I48
stroke6  251  114 I48
stroke6  250  114 I48
stroke6  248  114 I48
stroke6  247  114 I48
stroke6  246  114 I48
stroke6  246  115 I48
stroke6  245  115 I48
stroke6  244  116 I48
stroke6  244  117 I48
stroke6  245  118 I48
stroke6  245  119 I48
stroke6  246  119 I48
stroke6  246  120 I48
stroke6  247  121 I48
stroke6  249  122 I48
stroke6  250  123 I48
stroke6  252  123 I48
stroke6  254  124 I48
stroke6  255  124 I48
stroke6  257  124 I48
stroke6  259  124 I48
stroke6  262  124 I48
stroke6  264  124 I48
stroke6  265  123 I48
stroke6  267  122 I48
stroke6  269  121 I48
stroke6  271  119 I48
stroke6  272  118 I48
stroke6  274  116 I48
stroke6  275  115 I48
stroke6  277  114 I48
stroke6  278  113 I48
stroke6  279  112 I48
stroke6  280  111 I48
stroke6  281  111 I48
stroke6  281  110 I48
stroke7  313  92 B25
stroke7  313  93 I25
stroke7  313  94 I25
stroke7  313  95 I25
stroke7  314  95 I25
stroke7  315  96 I25
stroke7  316  95 I25
stroke7  317  95 I25
stroke7  318  95 I25
stroke7  319  94 I25
stroke7  320  94 I25
stroke7  320  93 I25
stroke7  320  92 I25
stroke7  320  91 I25
stroke7  319  91 I25
stroke7  319  90 I25
stroke7  318  89 I25
stroke7  317  88 I25
stroke7  316  88 I25
stroke7  315  88 I25
stroke7  313  88 I25
stroke7  312  88 I25
stroke7  311  88 I25
stroke7  310  89 I25
stroke7  309  89 I25
stroke7  309  90 I25
stroke7  308  90 I25
stroke7  308  91 I25
stroke7  308  92 I25
stroke7  308  93 I25
stroke7  309  94 I25
stroke7  309  95 I25
stroke7  310  96 I25
stroke7  311  96 I25
stroke7  312  97 I25
stroke7  313  97 I25
stroke7  314  97 I25
stroke7  315  97 I25
stroke7  316  97 I25
stroke7  317  96 I25
stroke7  318  96 I25
stroke7  319  95 I25
stroke7  320  94 I25
stroke7  320  93 I25
stroke7  321  92 I25
stroke7  321  90 I25
stroke7  322  88 I25
stroke7  322  86 I25
stroke7  322  84 I25
stroke7  323  81 I25
stroke7  323  79 I25
stroke7  323  76 I25
stroke7  323  74 I25
stroke7  323  72 I25
stroke7  323  70 I25
stroke7  323  68 I25
stroke7  323  66 I25
stroke7  323  64 I25
stroke7  323  63 I25
stroke7  323  61 I25
stroke7  322  60 I25
stroke7  322  58 I25
stroke7  322  56 I25
stroke7  322  55 I25
stroke7  322  53 I25
stroke7  322  52 I25
stroke7  321  51 I25
stroke7  321  49 I25
stroke7  321  48 I25
stroke7  321  47 I25
stroke7  321  46 I25
stroke7  321  45 I25
stroke7  321  44 I25
stroke7  321  43 I25
stroke7  321  42 I25
stroke7  321  41 I25
stroke7  321  40 I25
stroke7  320  40 I25
stroke7  320  39 I25
stroke7  320  38 I25
stroke7  320  37 I25
stroke7  320  38 I25
stroke7  321  38 I25
stroke7  321  39 I25
stroke7  321  40 I25
stroke7  321  41 I25
stroke7  322  42 I25
stroke7  322  43 I25
stroke7  323  44 I25
stroke7  324  45 I25
stroke7  325  46 I25
stroke7  326  47 I25
stroke7  327  48 I25
stroke7  328  49 I25
stroke7  329  50 I25
stroke7  331  50 I25
stroke7  332  51 I25
stroke7  334  52 I25
stroke7  336  52 I25
stroke7  338  53 I25
stroke7  339  53 I25
stroke7  341  53 I25
stroke7  343  53 I25
stroke7  345  53 I25
stroke7  346  53 I25
stroke7  348  53 I25
stroke7  350  53 I25
stroke7  351  52 I25
stroke7  352  52 I25
stroke7  354  52 I25
stroke7  355  51 I25
stroke7  356  51 I25
stroke7  357  50 I25
stroke7  358  50 I25
stroke7  359  49 I25
stroke7  360  49 I25
stroke7  360  48 I25
stroke7  361  47 I25
stroke7  361  46 I25
stroke7  362  45 I25
stroke7  362  44 I25
stroke7  362  43 I25
stroke7  362  42 I25
stroke7  361  41 I25
stroke7  361  40 I25
stroke7  360  39 I25
stroke7  360  38 I25
stroke7  359  38 I25
stroke7  358  37 I25
stroke7  357  37 I25
stroke7  356  37 I25
stroke7  355  38 I25
stroke7  354  38 I25
stroke7  353  39 I25
stroke7  352  40 I25
stroke7  351  41 I25
stroke7  351  42 I25
stroke7  351  43 I25
stroke7  350  44 I25
stroke7  350  46 I25
stroke7  350  47 I25
stroke7  351  49 I25
stroke7  351  51 I25
stroke7  351  54 I25
stroke7  351  56 I25
stroke7  351  58 I25
stroke7  352  60 I25
stroke7  352  62 I25
stroke7  352  65 I25
stroke7  352  67 I25
stroke7  352  69 I25
stroke7  352  71 I25
stroke7  352  72 I25
stroke7  352  74 I25
stroke7  352  76 I25
stroke7  351  78 I25
stroke7  351  79 I25
stroke7  351  81 I25
stroke7  351  82 I25
stroke7  351  84 I25
stroke7  351  85 I25
stroke7  352  86 I25
stroke7  352  88 I25
stroke7  352  89 I25
stroke7  352  90 I25
stroke7  352  91 I25
stroke7  352  92 I25
stroke7  353  93 I25
stroke7  353  94 I25
stroke7  353  95 I25
stroke7  353  96 I25
stroke7  353  97 I25
stroke7  353  98 I25
stroke7  353  97 I25
stroke7  352  97 I25
