stroke1  191  8 B12
stroke1  190  9 I12
stroke1  189  9 I12
stroke1  189  10 I12
stroke1  188  10 I12
stroke1  189  10 I12
stroke1  190  10 I12
stroke1  191  10 I12
stroke1  192  10 I12
stroke1  193  9 I12
stroke1  194  9 I12
stroke1  194  8 I12
stroke1  194  7 I12
stroke1  193  7 I12
stroke1  192  6 I12
stroke1  191  5 I12
stroke1  189  5 I12
stroke1  188  5 I12
stroke1  187  5 I12
stroke1  187  5 I12
stroke1  186  5 I12
stroke1  185  6 I12
stroke1  184  7 I12
stroke1  184  9 I12
stroke1  185  11 I12
stroke1  185  13 I12
stroke1  186  16 I12
stroke1  187  18 I12
stroke1  188  20 I12
stroke1  189  23 I12
stroke1  189  25 I12
stroke1  189  27 I12
stroke1  189  28 I12
stroke1  188  29 I12
stroke1  187  30 I12
stroke1  186  30 I12
stroke1  185  30 I12
stroke1  184  31 I12
stroke1  183  31 I12
stroke1  183  32 I12
stroke1  184  32 I12
stroke1  186  33 I12
stroke1  188  34 I12
stroke1  191  34 I12
stroke1  194  35 I12
stroke1  197  34 I12
stroke1  200  34 I12
stroke1  203  33 I12
stroke1  206  31 I12
stroke1  208  29 I12
stroke1  210  27 I12
stroke1  211  24 I12
stroke1  212  22 I12
stroke1  213  20 I12
stroke1  214  18 I12
stroke1  214  16 I12
stroke1  214  14 I12
stroke1  213  13 I12
stroke1  213  11 I12
stroke1  212  10 I12
stroke1  210  9 I12
stroke1  209  8 I12
stroke1  207  8 I12
stroke1  206  8 I12
stroke1  205  8 I12
stroke1  204  9 I12
stroke1  203  10 I12
stroke1  203  11 I12
stroke1  203  13 I12
stroke1  203  14 I12
stroke1  204  16 I12
stroke1  205  17 I12
stroke1  206  18 I12
stroke1  208  19 I12
stroke1  209  19 I12
stroke1  212  19 I12
stroke1  214  18 I12
stroke1  216  17 I12
stroke1  218  16 I12
stroke1  220  14 I12
stroke1  222  12 I12
stroke1  224  11 I12
stroke1  225  10 I12
stroke1  226  9 I12
stroke1  226  8 I12
stroke1  226  9 I12
stroke1  226  10 I12
stroke1  225  12 I12
stroke1  225  14 I12
stroke1  225  17 I12
stroke1  226  20 I12
stroke1  226  24 I12
stroke1  226  27 I12
stroke1  227  30 I12
stroke1  227  33 I12
stroke1  228  35 I12
stroke1  228  36 I12
stroke1  228  37 I12
stroke1  228  38 I12
stroke1  228  37 I12
stroke1  229  37 I12
stroke1  229  36 I12
stroke2  238  27 B47
stroke2  237  27 I47
stroke2  236  27 I47
stroke2  235  26 I47
stroke2  236  27 I47
stroke2  236  28 I47
stroke2  237  28 I47
stroke2  237  29 I47
stroke2  237  30 I47
stroke2  238  31 I47
stroke2  239  33 I47
stroke2  240  34 I47
stroke2  242  35 I47
stroke2  244  36 I47
stroke2  245  37 I47
stroke2  247  37 I47
stroke2  249  37 I47
stroke2  250  36 I47
stroke2  252  35 I47
stroke2  253  33 I47
stroke2  253  31 I47
stroke2  254  28 I47
stroke2  254  24 I47
stroke2  253  20 I47
stroke2  253  16 I47
stroke2  252  12 I47
stroke2  252  8 I47
stroke2  251  5 I47
stroke2  251  3 I47
stroke2  250  1 I47
stroke2  250  0 I47
stroke2  251  0 I47
stroke2  251  1 I47
stroke3  285  25 B27
stroke3  285  26 I27
stroke3  284  26 I27
stroke3  283  26 I27
stroke3  282  26 I27
stroke3  281  25 I27
stroke3  280  25 I27
stroke3  279  25 I27
stroke3  277  25 I27
stroke3  276  25 I27
stroke3  275  26 I27
stroke3  274  26 I27
stroke3  274  27 I27
stroke3  273  27 I27
stroke3  273  28 I27
stroke3  273  29 I27
stroke3  273  30 I27
stroke3  274  31 I27
stroke3  275  32 I27
stroke3  276  32 I27
stroke3  277  33 I27
stroke3  278  33 I27
stroke3  280  33 I27
stroke3  282  33 I27
stroke3  283  32 I27
stroke3  285  30 I27
stroke3  286  28 I27
stroke3  287  26 I27
stroke3  287  23 I27
stroke3  287  20 I27
stroke3  286  17 I27
stroke3  285  14 I27
stroke3  284  11 I27
stroke3  282  9 I27
stroke3  281  7 I27
stroke3  280  5 I27
stroke3  279  4 I27
stroke3  278  4 I27
stroke3  277  3 I27
stroke3  277  4 I27
stroke3  277  5 I27
stroke3  277  6 I27
stroke3  278  7 I27
stroke3  279  7 I27
stroke3  279  8 I27
stroke3  281  8 I27
stroke3  282  9 I27
stroke3  284  9 I27
stroke3  286  8 I27
stroke3  287  8 I27
stroke3  289  8 I27
stroke3  291  7 I27
stroke3  293  7 I27
stroke3  294  7 I27
stroke3  295  6 I27
stroke3  296  6 I27
stroke3  297  6 I27
stroke3  297  7 I27
stroke3  297  8 I27
stroke3  297  9 I27
stroke3  297  11 I27
stroke3  298  14 I27
stroke3  298  17 I27
stroke3  298  21 I27
stroke3  299  26 I27
stroke3  300  31 I27
stroke3  301  35 I27
stroke3  302  40 I27
stroke3  302  43 I27
stroke3  302  47 I27
stroke3  302  49 I27
stroke3  303  51 I27
stroke3  303  52 I27
stroke3  303  53 I27
stroke3  304  52 I27
stroke3  305  50 I27
stroke4  329  22 B25
stroke4  328  22 I25
stroke4  327  22 I25
stroke4  326  22 I25
stroke4  325  23 I25
stroke4  324  23 I25
stroke4  323  23 I25
stroke4  321  23 I25
stroke4  320  24 I25
stroke4  319  24 I25
stroke4  318  25 I25
stroke4  317  25 I25
stroke4  316  26 I25
stroke4  316  27 I25
stroke4  316  28 I25
stroke4  317  29 I25
stroke4  318  30 I25
stroke4  319  31 I25
stroke4  321  31 I25
stroke4  322  32 I25
stroke4  324  32 I25
stroke4  326  31 I25
stroke4  328  30 I25
stroke4  329  29 I25
stroke4  330  28 I25
stroke4  331  25 I25
stroke4  331  23 I25
stroke4  330  20 I25
stroke4  330  17 I25
stroke4  329  14 I25
stroke4  328  11 I25
stroke4  327  9 I25
stroke4  326  6 I25
stroke4  325  5 I25
stroke4  325  4 I25
stroke4  325  3 I25
stroke4  324  2 I25
stroke4  325  3 I25
stroke4  325  4 I25
stroke4  326  5 I25
stroke4  327  7 I25
stroke4  329  8 I25
stroke4  331  10 I25
stroke4  334  13 I25
stroke4  336  14 I25
stroke4  339  16 I25
stroke4  342  17 I25
stroke4  345  17 I25
stroke4  347  17 I25
stroke4  349  17 I25
stroke4  351  16 I25
stroke4  352  14 I25
stroke4  353  13 I25
stroke4  354  12 I25
stroke4  354  10 I25
stroke4  354  9 I25
stroke4  354  7 I25
stroke4  353  6 I25
stroke4  352  5 I25
stroke4  351  4 I25
stroke4  349  3 I25
stroke4  347  3 I25
stroke4  346  3 I25
stroke4  344  3 I25
stroke4  343  4 I25
stroke4  343  6 I25
stroke4  342  8 I25
stroke4  343  11 I25
stroke4  344  14 I25
stroke4  345  17 I25
stroke4  346  21 I25
stroke4  348  24 I25
stroke4  349  26 I25
stroke4  350  28 I25
stroke4  351  29 I25
stroke4  351  30 I25
stroke4  352  30 I25
stroke5  370  1 B1
stroke5  369  1 I1
stroke5  368  0 I1
stroke5  367  1 I1
stroke5  367  2 I1
stroke5  367  3 I1
stroke5  368  4 I1
stroke5  368  6 I1
stroke5  368  7 I1
stroke5  368  10 I1
stroke5  369  12 I1
stroke5  369  15 I1
stroke5  370  18 I1
stroke5  371  21 I1
stroke5  373  23 I1
stroke5  375  26 I1
stroke5  377  28 I1
stroke5  380  30 I1
stroke5  383  32 I1
stroke5  386  33 I1
stroke5  389  33 I1
stroke5  392  33 I1
stroke5  395  32 I1
stroke5  398  31 I1
stroke5  400  29 I1
stroke5  401  27 I1
stroke5  401  24 I1
stroke5  402  21 I1
stroke5  402  18 I1
stroke5  401  15 I1
stroke5  401  13 I1
stroke5  400  11 I1
stroke5  400  9 I1
stroke5  400  8 I1
stroke5  400  7 I1
stroke5  401  8 I1
stroke6  407  50 B48
stroke6  406  50 I48
stroke6  404  49 I48
stroke6  402  49 I48
stroke6  400  48 I48
stroke6  397  48 I48
stroke6  393  48 I48
stroke6  389  47 I48
stroke6  385  48 I48
stroke6  381  48 I48
stroke6  378  48 I48
stroke6  375  49 I48
stroke6  372  50 I48
stroke6  371  51 I48
stroke6  370  52 I48
stroke6  369  54 I48
stroke6  369  55 I48
stroke6  370  56 I48
stroke6  372  56 I48
stroke6  375  57 I48
stroke6  378  57 I48
stroke6  382  57 I48
stroke6  386  56 I48
stroke6  391  55 I48
stroke6  395  54 I48
stroke6  399  52 I48
stroke6  402  50 I48
stroke7  427  14 B8
stroke7  426  13 I8
stroke7  425  13 I8
stroke7  424  13 I8
stroke7  423  13 I8
stroke7  423  14 I8
stroke7  422  14 I8
stroke7  421  15 I8
stroke7  420  16 I8
stroke7  419  17 I8
stroke7  418  18 I8
stroke7  418  19 I8
stroke7  417  20 I8
stroke7  417  21 I8
stroke7  417  22 I8
stroke7  418  22 I8
stroke7  419  23 I8
stroke7  420  23 I8
stroke7  421  23 I8
stroke7  423  23 I8
stroke7  424  22 I8
stroke7  426  21 I8
stroke7  427  19 I8
stroke7  427  17 I8
stroke7  427  15 I8
stroke7  427  12 I8
stroke7  426  9 I8
stroke7  425  7 I8
stroke7  424  5 I8
stroke7  423  4 I8
stroke7  422  3 I8
stroke7  422  2 I8
stroke7  421  2 I8
stroke7  422  2 I8
stroke7  423  3 I8
stroke7  424  5 I8
stroke7  426  8 I8
stroke7  428  10 I8
stroke7  430  13 I8
stroke7  432  17 I8
stroke7  434  21 I8
stroke7  436  25 I8
stroke7  437  29 I8
stroke7  438  32 I8
stroke7  439  34 I8
stroke7  438  36 I8
stroke7  436  37 I8
stroke7  433  36 I8
stroke7  428  35 I8
stroke7  423  34 I8
stroke7  419  32 I8
stroke7  415  30 I8
stroke7  413  28 I8
stroke7  411  26 I8
stroke7  410  25 I8
stroke7  411  24 I8
