stroke1  185  26 B30
stroke1  186  26 I30
stroke1  185  25 I30
stroke1  185  24 I30
stroke1  185  23 I30
stroke1  184  23 I30
stroke1  183  23 I30
stroke1  182  23 I30
stroke1  181  22 I30
stroke1  180  22 I30
stroke1  178  23 I30
stroke1  177  23 I30
stroke1  175  23 I30
stroke1  174  24 I30
stroke1  173  25 I30
stroke1  173  26 I30
stroke1  173  27 I30
stroke1  174  28 I30
stroke1  175  29 I30
stroke1  175  29 I30
stroke1  176  30 I30
stroke1  178  30 I30
stroke1  180  30 I30
stroke1  182  29 I30
stroke1  183  28 I30
stroke1  184  26 I30
stroke1  185  24 I30
stroke1  186  21 I30
stroke1  186  18 I30
stroke1  186  15 I30
stroke1  186  12 I30
stroke1  185  9 I30
stroke1  184  7 I30
stroke1  183  6 I30
stroke1  183  5 I30
stroke1  182  4 I30
stroke1  182  5 I30
stroke1  182  7 I30
stroke1  182  9 I30
stroke1  183  11 I30
stroke1  185  14 I30
stroke1  186  16 I30
stroke1  188  17 I30
stroke1  190  18 I30
stroke1  191  18 I30
stroke1  192  18 I30
stroke1  193  17 I30
stroke1  194  16 I30
stroke1  195  14 I30
stroke1  195  13 I30
stroke1  195  11 I30
stroke1  195  9 I30
stroke1  195  7 I30
stroke1  195  6 I30
stroke1  194  5 I30
stroke1  194  6 I30
stroke1  194  7 I30
stroke1  194  9 I30
stroke1  194  11 I30
stroke1  195  14 I30
stroke1  196  17 I30
stroke1  197  20 I30
stroke1  199  23 I30
stroke1  200  25 I30
stroke1  201  27 I30
stroke1  201  28 I30
stroke1  202  29 I30
stroke1  202  30 I30
stroke1  203  30 I30
stroke2  223  12 B35
stroke2  223  11 I35
stroke2  223  10 I35
stroke2  222  10 I35
stroke2  221  9 I35
stroke2  220  9 I35
stroke2  218  8 I35
stroke2  217  8 I35
stroke2  216  7 I35
stroke2  215  6 I35
stroke2  214  6 I35
stroke2  213  5 I35
stroke2  213  4 I35
stroke2  214  4 I35
stroke2  215  4 I35
stroke2  216  5 I35
stroke2  217  6 I35
stroke2  218  7 I35
stroke2  219  8 I35
stroke2  220  9 I35
stroke2  220  10 I35
stroke2  220  11 I35
stroke2  220  13 I35
stroke2  219  14 I35
stroke2  218  15 I35
stroke2  216  17 I35
stroke2  214  18 I35
stroke2  212  19 I35
stroke2  210  20 I35
stroke2  209  20 I35
stroke2  208  21 I35
stroke2  209  22 I35
stroke2  210  23 I35
stroke2  211  24 I35
stroke2  214  25 I35
stroke2  217  26 I35
stroke2  220  27 I35
stroke2  223  28 I35
stroke2  225  28 I35
stroke2  227  28 I35
stroke2  229  28 I35
stroke3  243  26 B46
stroke3  245  27 I46
stroke3  246  27 I46
stroke3  247  28 I46
stroke3  247  29 I46
stroke3  246  29 I46
stroke3  245  29 I46
stroke3  243  28 I46
stroke3  242  28 I46
stroke3  241  27 I46
stroke3  240  27 I46
stroke3  240  26 I46
stroke3  241  25 I46
stroke3  242  25 I46
stroke3  243  26 I46
stroke3  245  26 I46
stroke3  246  26 I46
stroke3  248  27 I46
stroke3  249  28 I46
stroke3  250  29 I46
stroke3  251  31 I46
stroke3  252  33 I46
stroke3  252  35 I46
stroke3  252  36 I46
stroke3  252  38 I46
stroke3  252  39 I46
stroke3  251  39 I46
stroke3  251  38 I46
stroke3  251  37 I46
stroke3  251  36 I46
stroke3  251  34 I46
stroke3  251  33 I46
stroke3  249  16 I46
stroke3  248  14 I46
stroke3  247  13 I46
stroke3  245  12 I46
stroke3  243  11 I46
stroke3  242  9 I46
stroke3  240  8 I46
stroke3  238  7 I46
stroke3  237  5 I46
stroke3  237  4 I46
stroke3  237  3 I46
stroke3  238  3 I46
stroke3  240  3 I46
stroke3  241  4 I46
stroke3  243  5 I46
stroke3  245  6 I46
stroke3  247  8 I46
stroke3  249  9 I46
stroke3  250  11 I46
stroke3  251  13 I46
stroke3  252  15 I46
stroke3  252  17 I46
stroke3  253  19 I46
stroke3  254  20 I46
stroke3  254  22 I46
stroke3  254  23 I46
stroke4  278  12 B40
stroke4  278  11 I40
stroke4  277  10 I40
stroke4  276  9 I40
stroke4  276  8 I40
stroke4  275  7 I40
stroke4  275  6 I40
stroke4  274  5 I40
stroke4  274  4 I40
stroke4  274  3 I40
stroke4  273  3 I40
stroke4  273  2 I40
stroke4  272  2 I40
stroke4  272  3 I40
stroke4  272  4 I40
stroke4  272  5 I40
stroke4  272  7 I40
stroke4  273  9 I40
stroke4  275  10 I40
stroke4  276  12 I40
stroke4  277  14 I40
stroke4  279  15 I40
stroke4  280  15 I40
stroke4  281  15 I40
stroke4  282  15 I40
stroke4  283  14 I40
stroke4  283  12 I40
stroke4  284  11 I40
stroke4  284  9 I40
stroke4  284  8 I40
stroke4  285  6 I40
stroke4  285  5 I40
stroke4  286  5 I40
stroke4  287  6 I40
stroke4  287  7 I40
stroke4  288  9 I40
stroke4  289  11 I40
stroke4  289  13 I40
stroke4  290  16 I40
stroke4  290  19 I40
stroke4  289  21 I40
stroke4  288  23 I40
stroke4  287  25 I40
stroke4  285  26 I40
stroke4  283  26 I40
stroke4  280  26 I40
stroke4  278  25 I40
stroke4  275  24 I40
stroke4  273  22 I40
stroke4  271  21 I40
stroke4  270  20 I40
stroke4  270  19 I40
stroke4  271  18 I40
stroke4  272  19 I40
stroke4  274  19 I40
stroke4  277  20 I40
stroke4  280  22 I40
stroke4  284  24 I40
stroke4  287  26 I40
stroke4  290  29 I40
stroke4  293  31 I40
stroke4  295  33 I40
stroke4  297  35 I40
stroke4  299  36 I40
stroke4  300  37 I40
stroke4  300  38 I40
stroke5  325  21 B7
stroke5  324  20 I7
stroke5  323  19 I7
stroke5  321  18 I7
stroke5  319  18 I7
stroke5  318  18 I7
stroke5  316  18 I7
stroke5  314  18 I7
stroke5  313  19 I7
stroke5  312  19 I7
stroke5  311  20 I7
stroke5  311  21 I7
stroke5  311  22 I7
stroke5  312  23 I7
stroke5  313  25 I7
stroke5  314  26 I7
stroke5  316  26 I7
stroke5  317  27 I7
stroke5  319  27 I7
stroke5  320  26 I7
stroke5  321  25 I7
stroke5  322  24 I7
stroke5  322  22 I7
stroke5  323  19 I7
stroke5  322  16 I7
stroke5  322  13 I7
stroke5  322  10 I7
stroke5  321  7 I7
stroke5  321  4 I7
stroke5  321  2 I7
stroke5  321  1 I7
stroke5  320  0 I7
stroke5  319  0 I7
stroke5  318  0 I7
stroke5  317  0 I7
stroke5  316  1 I7
stroke5  314  2 I7
stroke5  312  3 I7
stroke5  310  4 I7
stroke5  309  5 I7
stroke5  307  5 I7
stroke5  307  6 I7
stroke5  306  6 I7
stroke5  306  7 I7
stroke5  307  7 I7
stroke5  307  8 I7
stroke5  309  9 I7
stroke5  310  10 I7
stroke6  339  18 B6
stroke6  338  18 I6
stroke6  337  18 I6
stroke6  336  18 I6
stroke6  335  18 I6
stroke6  333  18 I6
stroke6  332  18 I6
stroke6  331  18 I6
stroke6  330  18 I6
stroke6  329  18 I6
stroke6  328  19 I6
stroke6  327  20 I6
stroke6  327  21 I6
stroke6  327  22 I6
stroke6  328  23 I6
stroke6  329  24 I6
stroke6  330  25 I6
stroke6  331  26 I6
stroke6  332  26 I6
stroke6  333  26 I6
stroke6  334  25 I6
stroke6  335  24 I6
stroke6  336  24 I6
stroke6  337  23 I6
stroke6  338  22 I6
stroke6  340  21 I6
stroke6  341  21 I6
stroke6  342  20 I6
stroke6  344  20 I6
stroke6  345  21 I6
stroke6  346  21 I6
stroke6  347  22 I6
stroke6  348  23 I6
stroke6  349  24 I6
stroke6  349  25 I6
stroke6  350  25 I6
stroke6  350  24 I6
stroke6  350  22 I6
stroke6  351  21 I6
stroke6  351  19 I6
stroke6  351  17 I6
stroke6  351  15 I6
stroke6  351  12 I6
stroke6  350  10 I6
stroke6  349  8 I6
stroke6  348  6 I6
stroke6  347  4 I6
stroke6  345  3 I6
stroke6  343  2 I6
stroke6  342  1 I6
stroke6  340  1 I6
stroke6  338  1 I6
stroke6  337  2 I6
stroke6  336  2 I6
stroke6  335  4 I6
stroke6  335  5 I6
stroke6  336  7 I6
stroke6  337  8 I6
stroke6  339  10 I6
stroke6  341  11 I6
stroke6  343  12 I6
stroke6  345  13 I6
stroke6  347  13 I6
stroke6  349  13 I6
stroke6  351  13 I6
stroke6  353  12 I6
stroke6  354  11 I6
stroke6  356  9 I6
stroke6  357  8 I6
stroke6  358  6 I6
stroke6  358  5 I6
stroke6  359  4 I6
stroke6  359  3 I6
stroke6  360  3 I6
stroke6  360  4 I6
stroke6  360  5 I6
stroke6  360  6 I6
stroke6  360  8 I6
stroke6  360  11 I6
stroke6  360  14 I6
stroke6  360  17 I6
stroke6  360  20 I6
stroke6  360  22 I6
stroke6  360  24 I6
stroke6  360  26 I6
stroke6  360  28 I6
stroke6  360  29 I6
stroke6  361  30 I6
stroke6  361  31 I6
stroke6  361  32 I6
stroke6  361  33 I6
stroke6  362  34 I6
stroke7  363  43 B64
stroke7  362  44 I64
stroke7  361  44 I64
stroke7  360  45 I64
stroke7  358  46 I64
stroke7  357  47 I64
stroke7  355  48 I64
stroke7  354  49 I64
stroke7  353  50 I64
stroke7  353  51 I64
stroke7  354  52 I64
stroke7  355  52 I64
stroke7  357  52 I64
stroke7  358  52 I64
stroke7  360  51 I64
stroke7  362  51 I64
stroke7  363  50 I64
stroke7  364  49 I64
stroke7  363  48 I64
stroke7  363  47 I64
stroke7  362  47 I64
stroke7  361  46 I64
stroke7  359  46 I64
stroke7  357  46 I64
stroke7  356  47 I64
stroke7  355  48 I64
stroke7  354  49 I64
stroke7  354  50 I64
stroke7  354  53 I64
stroke7  355  55 I64
stroke7  356  59 I64
stroke7  357  63 I64
stroke7  358  67 I64
stroke7  358  72 I64
stroke7  359  76 I64
stroke7  359  81 I64
stroke7  359  85 I64
stroke7  359  89 I64
stroke7  358  93 I64
stroke7  357  96 I64
